gene	0.0	0.5	1.0	1.5	2.0	2.5	3.0	3.5	4.0	4.5	5.0	5.5	6.0	6.5	7.0	7.5	8.0	8.5	9.0	9.5	10.0	10.5	11.0	11.5	12.0	12.5	13.0	13.5	14.0	14.5	15.0
A	0.4587481320279342	0.3101805369429301	0.2169806164119795	0.15930610761892336	0.12571048777378127	0.13253612475568113	0.5022731709290695	1.1273972714838807	1.5426383894029907	1.7962788664178255	1.9465350121702008	2.0071040520719605	1.8918064859580053	1.5100499254299582	1.057428706431643	0.7052058687526206	0.4679885845935018	0.3160179494543344	0.220619056956818	0.16153162742864327	0.1268443733493902	0.12915981071740448	0.4697677116613758	1.1013228307256322	1.5265245759691577	1.786519446241374	1.941060989385831	2.0069749040004465	1.9040664522598945	1.5328485585439269	1.0780030642551064
B	1.6794284483203263	1.596913136546502	1.3147804076238168	0.9588762657614096	0.682434946672813	0.4992465299952172	0.38373125306860384	0.31976120642178496	0.3317542267220825	0.4742111469211951	0.8274492582802888	1.1691376604058978	1.3924741101090459	1.530592168582916	1.6149719101118385	1.6644936989644017	1.680090738619769	1.605341035824157	1.3323925739037448	0.9751290296854312	0.6937323280964778	0.5064855976478952	0.38822521588310255	0.3214799470982069	0.32874865111178025	0.4622762381475879	0.8078768191463185	1.1551949118148352	1.3837501269784958	1.5252379930315332	1.6117234999246188
C	6.088097455039858	4.1305419400645516	2.8922548951838483	2.1323968318270112	1.6695220171399654	1.388645575928101	1.2545459448293377	1.8638585815372664	2.5975888242048137	3.5656323348108105	5.741448907643488	8.344788823151818	10.273372870205524	11.468033528391429	11.519709784069592	9.000118377282874	6.206924195397796	4.208330038160606	2.940364045737479	2.161762774732224	1.6873830638270857	1.3994250229495446	1.2514654594415726	1.8245935724999318	2.5622731449520018	3.4958855367918886	5.6083395940189895	8.2293292835971	10.195942120149477	11.426412384369767	11.576550780764007
D	4.731620401723079	5.548535770414804	6.051933714304695	6.358345647745455	6.543025768933173	6.627656550861019	6.4619969018325865	5.531814837920822	3.9112860016105366	2.595365043453824	1.7483355515427548	1.3051377344246389	1.106965734471733	1.1783586656580676	1.9437746761289985	3.4079231132509284	4.680660937089537	5.516688262399727	6.032485449828463	6.346539123415012	6.536061857629623	6.627060960079553	6.4811674900772775	5.604799680657441	3.9880398233756624	2.6492041676119693	1.779611613478685	1.320178874884446	1.1120368747924256	1.1635120333759996	1.8831329666329235
E	0.1991447758128256	0.1805142729511826	0.1731044344971733	0.1916161702238047	0.2965820680294608	0.525689596641994	0.7703941296942933	0.9577535620017188	1.1006962599551056	1.1772461527839733	1.0116697979724278	0.7174097924561836	0.5049472417303777	0.36926025284310016	0.2847044701707763	0.23245145740379355	0.20035271909059552	0.1811898968206489	0.1731071118942205	0.1893976465759737	0.2881320544362815	0.5129104470709336	0.7595165582962253	0.9497710609204216	1.0945295722646051	1.177092227021587	1.0263035583313198	0.7303172231429157	0.5134154894133612	0.3745754476879268	0.2879988201086115
F	0.1651346539504983	0.14978434013798944	0.14098642640317427	0.13890949318309742	0.15624781286453632	0.2491993948937942	0.5246488486882566	0.9703982665798748	1.3390106323624895	1.3014302153981103	0.9131975353237252	0.6098983112332931	0.4208841448219758	0.3053316651291024	0.2349496212520155	0.19213461251160988	0.1661132215235999	0.15037033338941708	0.14128770771827132	0.1387595755247534	0.1543603456550366	0.24116187024360186	0.5058946357103838	0.9475303024260364	1.32767219875013	1.315981759119577	0.9317648039166871	0.6218327157754193	0.428209375190053	0.3097981997622119	0.2376679256252499
G	2.0	3.31304195	3.98087549	3.67533757	2.5465647999999996	1.14921857	0.16993312	0.08991411	0.94848164	2.32374896	3.53993106	3.99941497	3.47641741	2.22793127	0.86744325	0.06347602	0.21108659999999999	1.23774143	2.63895829	3.72620097	3.9652152999999997	3.23855336	1.90328554	0.6155417	0.00809916	0.37944576	1.54710754	2.93731364	3.86693838	3.87917859	2.96801964
