# LEMpy local minima file for target WHI5, replicate 0
# Right-hand side of tf_act():  p0 - p1(tar) + p2(reg^p4) / (p3^p4 + reg^p4)
# Right-hand side of tf_rep():  p0 - p1(tar) + p2(p3^p4) / (p3^p4 + reg^p4)
# Run configuration file:  ../pipeline/src/yeast_data/simulations202110_Orlando_2/no_annot/results2/edge_finding_20211012205137/lempy_20211012205137_config.txt
# Time series data file:   ../pipeline/src/yeast_data/time_series/orlando2008_WildType_r1_trunc.tsv
# Computed on:  2021-10-12 20:55:01 
 
model	loss	p0	p1	p2	p3	p4
WHI5=tf_act(SWI4)	15.899365000897188	0.3	0.0658593405945463	10.752276990338725	51.16450119374084	2.32258541510989
WHI5=tf_act(SWI4)	15.907030257704537	0.3	0.066222970642266	10.895115177871377	51.676068322381354	2.2692352391446207
WHI5=tf_act(SWI4)	15.909766909623722	0.3	0.06635816470341002	10.929076445161146	51.757521587070954	2.2583692689312365
WHI5=tf_act(SWI4)	15.916579798942877	0.3	0.06641384615419758	10.970209071175336	51.946700221095305	2.242633730991278
WHI5=tf_act(SWI4)	15.899364954138845	0.3	0.06586165188607923	10.75269387415087	51.16488098042393	2.3224837269540095
WHI5=tf_act(SWI4)	15.925840744371087	0.3	0.06688909583889532	11.064677605727715	52.08970604607779	2.2163754749462576
WHI5=tf_act(SWI4)	15.899364997630665	0.3	0.06585942016102046	10.752286383575273	51.16447263712338	2.3225887876684617
WHI5=tf_act(SWI4)	15.89956119013343	0.3	0.0659204074168378	10.775160689921401	51.243869351899725	2.3138722070690076
WHI5=tf_act(SWI4)	15.904542266750909	0.3	0.06622112975687101	10.877255895200058	51.5757051160411	2.2768660458204533
WHI5=tf_act(SWI4)	15.932337071351938	0.3	0.06700393931301048	11.10201867400427	52.20808720190285	2.2043107690397714
WHI5=tf_rep(SWI4)	246.99343924094595	0.3	0.0027136493028795047	0.40724431215617873	0.001	1.022797752926943
WHI5=tf_rep(SWI4)	246.99302962545826	0.3	0.0027135504556641135	0.0	0.001	1.0319059000358026
WHI5=tf_rep(SWI4)	246.9930296254899	0.3	0.0027135498583362103	0.0	0.31783202202944694	1.014451525525129
WHI5=tf_rep(SWI4)	246.99302962545843	0.3	0.002713550450959345	0.0	0.25122529426347084	1.0599133422107128
WHI5=tf_rep(SWI4)	246.99302962545858	0.3	0.0027135504495665397	0.0	0.010556635056759524	1.0268605776115414
WHI5=tf_rep(SWI4)	246.99303892274335	0.3	0.002713757999236281	0.2299162765922754	0.24179358375118346	2.953324329363259
WHI5=tf_rep(SWI4)	246.993750324303	0.3	0.0027136531051530303	0.6986029623190045	0.6841890329389164	2.9012299649699185
WHI5=tf_rep(SWI4)	246.99393115606014	0.3	0.0027136849393556133	0.22629876846961838	1.049165096661506	2.8666452674652905
WHI5=tf_rep(SWI4)	246.99567968258404	0.3	0.0027139317437957873	0.6495337422161874	1.0817238487043888	2.8867303399453847
WHI5=tf_rep(SWI4)	247.00505931971318	0.3	0.0027152582650414596	0.9522348725759059	1.549526901955805	2.8537135326804033
WHI5=tf_act(HCM1)	38.82135925704292	0.3	0.1503700430218348	31.501139644595202	99.53938282353914	1.009340840241184
WHI5=tf_act(HCM1)	38.79833138058603	0.3	0.15064932755173208	31.628992465331272	99.99702507607171	1.0073877244619476
WHI5=tf_act(HCM1)	38.79779631560778	0.3	0.1504000279728583	31.5820267620659	100.0	1.0078262519908976
WHI5=tf_act(HCM1)	38.79779640231519	0.3	0.1503967399516045	31.581382432812383	100.0	1.0078305761972348
WHI5=tf_act(HCM1)	38.811992526587424	0.3	0.15009747823670705	31.48103664103172	99.73294344663479	1.009225055544496
WHI5=tf_act(HCM1)	38.797796400974015	0.3	0.15039676706484953	31.581382935584532	100.0	1.0078301607460516
WHI5=tf_act(HCM1)	38.79779638304616	0.3	0.15039719722942335	31.58148622641392	100.0	1.0078310255813812
WHI5=tf_act(HCM1)	38.809000783753085	0.3	0.15001051061199738	31.475203336422595	99.79874872693175	1.0091709673866105
WHI5=tf_act(HCM1)	38.79779633032052	0.3	0.15039894859867628	31.581825361844416	100.0	1.0078283180815297
WHI5=tf_act(HCM1)	38.7977964064914	0.3	0.15039665513860007	31.581362236327397	100.0	1.0078304124730517
WHI5=tf_rep(HCM1)	246.99428183734275	0.3	0.002714408523557574	0.47615755431820744	0.0362759747596381	1.276737207573174
WHI5=tf_rep(HCM1)	246.9930422180664	0.3	0.0027135609823302157	0.6879348687642338	0.001	1.3144190297348952
WHI5=tf_rep(HCM1)	246.99302971855087	0.3	0.002713548537131374	0.067392849622699	0.054568710896858025	2.5397252687121297
WHI5=tf_rep(HCM1)	246.9930358688275	0.3	0.0027135535882714676	0.25455572286640027	0.18433928527731347	2.580402148510274
WHI5=tf_rep(HCM1)	246.9930296254628	0.3	0.002713550451208636	0.0878950511029436	0.001	2.547289426903528
WHI5=tf_rep(HCM1)	246.99327311242425	0.3	0.002713672348126769	0.5746513408470633	0.49058659098143603	2.504726985294198
WHI5=tf_rep(HCM1)	246.99302998835068	0.3	0.002713550452950748	0.7822035830666411	0.2097037888959735	3.431111133240241
WHI5=tf_rep(HCM1)	246.9930346726787	0.3	0.0027135586283390683	0.30604133668034916	0.5724243422650259	3.39943286668213
WHI5=tf_rep(HCM1)	246.99304282469626	0.3	0.0027135622344440376	0.7284272212970619	0.6035853330757434	3.4214478254959997
WHI5=tf_rep(HCM1)	246.99317855355616	0.3	0.002713626405867003	1.031276882520684	1.0716405521404224	3.3880187346608457
WHI5=tf_act(NDD1)	246.99302962545855	0.3	0.0027135504500658816	0.0	99.0787640419334	1.0
WHI5=tf_act(NDD1)	249.22433210392	0.3	0.005670474062721979	0.546627307267293	99.484467809202	1.0039673876480668
WHI5=tf_act(NDD1)	246.9930296254886	0.3	0.0027135498798957756	0.0	99.39559606396284	1.0
WHI5=tf_act(NDD1)	246.99302962545855	0.3	0.0027135504511696675	0.0	99.52483852695494	1.0410632587518063
WHI5=tf_act(NDD1)	246.99302962545852	0.3	0.002713550451683082	0.0	99.28491809137388	1.0079364372975645
WHI5=tf_act(NDD1)	246.9930296254584	0.3	0.0027135504530657944	0.0	99.77574750247416	1.0
WHI5=tf_act(NDD1)	246.99302962545852	0.3	0.0027135504504610694	0.0	100.0	1.0
WHI5=tf_act(NDD1)	246.9930296254579	0.3	0.0027135504623929368	0.0	99.99999997459186	1.0
WHI5=tf_act(NDD1)	246.9930296254585	0.3	0.0027135504514700305	0.0	100.0	1.0
WHI5=tf_act(NDD1)	246.99302962545852	0.3	0.0027135504500206374	0.0	100.0	1.0
WHI5=tf_rep(NDD1)	136.68223719742124	0.0	0.004293504284929126	21.92278154577394	23.313164257584724	5.233907889404401
WHI5=tf_rep(NDD1)	136.6763899871341	0.0	0.0042246497663265305	22.223596861385424	23.282822454922808	5.280753475385344
WHI5=tf_rep(NDD1)	136.6805566258411	0.0	0.004201214926519115	21.925160291665453	23.386802606070813	5.306179416947267
WHI5=tf_rep(NDD1)	136.67979625578013	0.0	0.004129456024806733	22.084504765009978	23.39834667332281	5.359979754463973
WHI5=tf_rep(NDD1)	136.67993867850058	0.0	0.0042071128704980355	21.96725695927375	23.369625344161395	5.300346306339331
WHI5=tf_rep(NDD1)	136.67696732393037	0.0	0.004122188217824275	22.3123935690687	23.341437003239825	5.361175522773653
WHI5=tf_rep(NDD1)	136.67379966602599	0.0	0.004091096142569409	22.66189805638125	23.270437129212432	5.378688838536435
WHI5=tf_rep(NDD1)	136.68117426838685	0.0	0.004086765724880981	22.135731374853712	23.41991749676471	5.394696925972251
WHI5=tf_rep(NDD1)	136.6813223118761	0.0	0.004014916513822794	22.54010495350599	23.371344870532106	5.44804530717003
WHI5=tf_rep(NDD1)	136.6868907480826	0.0	0.003954541480443515	22.59179154730079	23.405504007241138	5.498357509443962
WHI5=tf_act(SWI5)	246.9930296254586	0.3	0.002713550450182679	0.0	99.78831123071348	8.2621462559649
WHI5=tf_act(SWI5)	246.9930296337713	0.3	0.0027135143348272126	0.0	100.0	8.375891621119072
WHI5=tf_act(SWI5)	246.9930296254868	0.3	0.002713549911675507	0.0	100.0	8.358437246608398
WHI5=tf_act(SWI5)	250.6906179254685	0.3	0.002783456998471753	0.15220901926763655	99.99968171990494	8.410125898877357
WHI5=tf_act(SWI5)	246.9930296254585	0.3	0.002713550451283807	0.0	99.76007960691571	8.32532452309863
WHI5=tf_act(SWI5)	246.9930296254585	0.3	0.00271355045074679	0.0	100.0	8.618631568296383
WHI5=tf_act(SWI5)	246.99302962545858	0.3	0.002713550450198647	0.0	100.0	8.579168603847142
WHI5=tf_act(SWI5)	246.99302962545855	0.3	0.0027135504507017306	0.0	100.0	8.547588449181745
WHI5=tf_act(SWI5)	246.99302962545852	0.3	0.002713550450759402	0.0	100.0	8.671135329814703
WHI5=tf_act(SWI5)	246.99302962545852	0.3	0.0027135504519100926	0.0	100.0	8.685365917413309
WHI5=tf_rep(SWI5)	43.671776117099434	0.0	0.026678210984068636	4.087545721969807	43.891264148975466	3.912213276012693
WHI5=tf_rep(SWI5)	43.686936320932666	0.0	0.0270136800421278	4.105590640958227	44.25453353259795	3.928070223915394
WHI5=tf_rep(SWI5)	43.725059210867336	0.0	0.027114656072845952	4.105437618147223	44.51650064754395	4.021326502863687
WHI5=tf_rep(SWI5)	43.749497246050375	0.0	0.02714636127809761	4.105433420267194	44.61463235894753	4.068291295155702
WHI5=tf_rep(SWI5)	43.71357719191853	0.0	0.027005451573005792	4.099415974738619	44.41540755552955	4.030081804499969
WHI5=tf_rep(SWI5)	43.69303061031455	0.0	0.026681302540204795	4.079695517361749	44.12420019490914	4.045087400073179
WHI5=tf_rep(SWI5)	43.72687140564602	0.0	0.027056893563659822	4.101974541309447	44.489956826969134	4.049845860557661
WHI5=tf_rep(SWI5)	43.72413385461933	0.0	0.027412765734601295	4.135879778154722	44.397405091324664	3.7691598416424505
WHI5=tf_rep(SWI5)	43.672804251718865	0.0	0.026733045503927525	4.0895609932606325	43.97627425602622	3.928731938442507
WHI5=tf_rep(SWI5)	43.671981341507475	0.0	0.026673439193524048	4.08645937063983	43.91017328376827	3.92559255700501
WHI5=tf_act(NRM1)	246.99302962545613	0.3	0.0027135504968097825	0.0	100.0	1.0
WHI5=tf_act(NRM1)	246.99302962545843	0.3	0.002713550452284668	0.0	100.0	1.003987752032304
WHI5=tf_act(NRM1)	246.9930296254889	0.3	0.0027135498750271415	0.0	100.0	1.0
WHI5=tf_act(NRM1)	252.98934491923288	0.3	0.004536061519866873	0.48675001150137764	99.99952424675489	1.0409836730878992
WHI5=tf_act(NRM1)	246.99302962545855	0.3	0.0027135504502700703	0.0	99.76007958886802	1.0
WHI5=tf_act(NRM1)	248.9852669429956	0.2999947599863022	0.0033695218466925185	0.16970432023496237	100.0	1.0
WHI5=tf_act(NRM1)	246.99302962545852	0.3	0.00271355045155127	0.0	100.0	1.0
WHI5=tf_act(NRM1)	246.9930296254586	0.3	0.002713550450291113	0.0	99.99999999688619	1.0
WHI5=tf_act(NRM1)	246.9930296254585	0.3	0.0027135504508446185	0.0	100.0	1.1327527204772303
WHI5=tf_act(NRM1)	246.9930296254585	0.3	0.002713550451122379	0.0	100.0	1.0
WHI5=tf_rep(NRM1)	132.73839547092066	0.0	0.008502168715396734	2.959808952105232	29.615012354809256	10.0
WHI5=tf_rep(NRM1)	132.73839547183906	0.0	0.008502169623736748	2.959814237991965	29.614992305064142	10.0
WHI5=tf_rep(NRM1)	132.73839547185966	0.0	0.008502144537282805	2.9598053446637693	29.614990639612824	10.0
WHI5=tf_rep(NRM1)	132.74120408532966	0.0	0.008541334292822823	2.959419420388638	29.718898618072824	10.0
WHI5=tf_rep(NRM1)	132.7416203783934	0.0	0.008460612352638345	2.960282893044538	29.503126289349005	10.0
WHI5=tf_rep(NRM1)	132.73839547271194	0.0	0.008502130830353184	2.9598025980931126	29.614979347692334	10.0
WHI5=tf_rep(NRM1)	132.73839547191014	0.0	0.008502144130989231	2.959803973943834	29.614999778572457	10.0
WHI5=tf_rep(NRM1)	132.73839547248292	0.0	0.008502134654896626	2.9598038777982523	29.614974064733765	10.0
WHI5=tf_rep(NRM1)	132.74070869302116	0.0	0.008467958310353175	2.960499381120453	29.520357270546008	10.0
WHI5=tf_rep(NRM1)	132.73839547176885	0.0	0.008502149078255434	2.9598078478939063	29.614986356399175	10.0
WHI5=tf_act(CLN3)	237.64852834711405	0.3	0.009004619481249858	2.297235644736337	100.0	10.0
WHI5=tf_act(CLN3)	237.6485283456164	0.3	0.009004645852483922	2.297245724338851	100.0	10.0
WHI5=tf_act(CLN3)	237.64854081096288	0.3	0.009004978929049778	2.2967720396185793	99.9958058295807	10.0
WHI5=tf_act(CLN3)	237.6485283462369	0.3	0.009004634907503466	2.297240789739508	100.0	10.0
WHI5=tf_act(CLN3)	237.6503451646207	0.3	0.009026116471423115	2.268842160822371	99.74308352371456	10.0
WHI5=tf_act(CLN3)	237.6485283454586	0.3	0.009004653436790059	2.2972487377472204	99.99999993105538	10.0
WHI5=tf_act(CLN3)	237.64870952537981	0.3	0.009013519853833146	2.2936649213579887	99.95197681950842	10.0
WHI5=tf_act(CLN3)	237.64872599917118	0.3	0.009008910326238458	2.291322750661061	99.94728001205189	10.0
WHI5=tf_act(CLN3)	237.64852834562151	0.3	0.009004645750383074	2.2972456947984656	100.0	10.0
WHI5=tf_act(CLN3)	237.64852834506746	0.3	0.009004659384345935	2.297251896314159	100.0	10.0
WHI5=tf_rep(CLN3)	205.78244170808708	0.3	0.0949593003299676	31.88727416367623	30.21104141401219	1.3773589318542552
WHI5=tf_rep(CLN3)	205.78218076266288	0.3	0.09497929192956618	31.895740327737187	30.20998090118474	1.37737368307049
WHI5=tf_rep(CLN3)	205.79693839841306	0.3	0.09480337308013831	31.604500567712737	30.45781467932111	1.379452288212667
WHI5=tf_rep(CLN3)	205.7950650586592	0.3	0.09497605932980478	31.67322855526669	30.46638133957591	1.3802666497290659
WHI5=tf_rep(CLN3)	205.7935360155657	0.3	0.09496355091008403	31.695401554730665	30.43160223843289	1.3797158137070402
WHI5=tf_rep(CLN3)	205.79366163078913	0.3	0.09497964525026426	31.69751750276792	30.4387718085615	1.3799275185026072
WHI5=tf_rep(CLN3)	205.7928033893541	0.3	0.09497397926240138	31.710966252928817	30.420408183995924	1.3797044366260913
WHI5=tf_rep(CLN3)	205.8157462148729	0.3	0.09494795262224778	31.320087795025454	30.87073700102974	1.3847893440643984
WHI5=tf_rep(CLN3)	205.80419544857543	0.3	0.09491745684718854	31.506359215581803	30.63475220037038	1.3820274515343243
WHI5=tf_rep(CLN3)	205.8158593085265	0.29876388812345694	0.09592858046597938	31.66008385545909	30.95700245838351	1.3889901104505153
WHI5=tf_act(WHI5)	245.2371469841152	0.3	0.032375347604481707	5.145115054137592	99.42774287456858	1.0
WHI5=tf_act(WHI5)	245.24414891264664	0.3	0.03241648491570547	5.164931976342443	99.85142244776279	1.0
WHI5=tf_act(WHI5)	245.24973585659387	0.3	0.031133431921164467	4.946077351280164	99.99999991670087	1.0
WHI5=tf_act(WHI5)	240.9827322116184	0.3	0.03553065799858238	2.9328894852485914	16.63835486086774	1.0
WHI5=tf_act(WHI5)	240.84714595872748	0.3	0.03191452063340777	2.6044040812554963	16.42569917929927	1.0
WHI5=tf_act(WHI5)	237.15569029273166	1.5181048390840858e-06	0.032273715687836955	2.4321606803373594	0.001	1.00000019648887
WHI5=tf_act(WHI5)	237.64118794375918	0.0	0.03545947073121897	2.7015458120213793	1.060137769082976	1.008217612506352
WHI5=tf_act(WHI5)	237.15532108612825	0.21393302428697386	0.03227452293400265	2.218264859471538	0.5836673427161674	3.8602929628078324
WHI5=tf_act(WHI5)	237.1553214749886	0.14934065166755825	0.03227365375470956	2.282781695768287	0.6147074829037712	3.8823926438320777
WHI5=tf_act(WHI5)	237.15535837960456	0.10795178319080052	0.03227363725627578	2.3241695464105208	1.0829210523316108	3.848785135635528
WHI5=tf_rep(WHI5)	173.35843645357437	0.0	0.0026873994720955914	17.563641229073955	36.385747039250916	8.898549860386545
WHI5=tf_rep(WHI5)	173.366755691507	0.0	0.0026361438300797346	17.854967267058427	36.36431812225492	8.997566424553035
WHI5=tf_rep(WHI5)	173.33297189644605	0.0	0.002657251422044379	17.57150786843431	36.454939471371965	8.98881266939215
WHI5=tf_rep(WHI5)	173.33590349770807	0.0	0.002606711634329905	17.721487795586903	36.444178943944195	9.065381515924704
WHI5=tf_rep(WHI5)	173.3439431020763	0.0	0.0026586383988851017	17.61213621157324	36.42076571893566	8.96763968693525
WHI5=tf_rep(WHI5)	173.30557887614765	0.0	0.002386592321439699	17.709229402614763	36.69697370764052	9.535495303471967
WHI5=tf_rep(WHI5)	173.3695003782722	0.0	0.002335487652333285	18.054813169606717	36.64585747226461	9.632252081165728
WHI5=tf_rep(WHI5)	173.29183544091637	0.0	0.0023334541756371277	17.535471767480722	36.835574164296624	9.692277550364691
WHI5=tf_rep(WHI5)	173.3797062659974	0.0	0.0022830253789655973	17.938122387843357	36.780461083533915	9.803552092736757
WHI5=tf_rep(WHI5)	173.3001144331343	0.0	0.0025474435538666777	17.614631108823144	36.55830482874294	9.202869738485951
WHI5=tf_act(YOX1)	36.45175791280172	0.3	0.1170574597555649	24.009643541826012	82.1942743082149	1.0
WHI5=tf_act(YOX1)	36.451519754236315	0.3	0.11673565978186011	24.04113844338631	82.73817570902786	1.0
WHI5=tf_act(YOX1)	36.452153422985305	0.3	0.11661826049589206	24.05343661635955	82.94193436652203	1.0
WHI5=tf_act(YOX1)	36.45331842462635	0.3	0.11648868350222225	24.067427845997102	83.16952322860091	1.0
WHI5=tf_act(YOX1)	36.451889936384106	0.3	0.11665672996113653	24.048751598736292	82.8715122323483	1.0
WHI5=tf_act(YOX1)	36.4574151643374	0.3	0.1162144685748211	24.097903459862927	83.65777838627396	1.0
WHI5=tf_act(YOX1)	36.46448263825592	0.3	0.1158644327743622	24.122733131621793	84.20669002385803	1.0
WHI5=tf_act(YOX1)	36.4662394724704	0.3	0.11582639849303222	24.134381777029272	84.31612412926827	1.0
WHI5=tf_act(YOX1)	36.46813455554719	0.3	0.1157262387593008	24.13388467945519	84.43184959075144	1.0
WHI5=tf_act(YOX1)	36.48062135750232	0.3	0.11541770856984371	24.180611752929217	85.0579918551822	1.0
WHI5=tf_rep(YOX1)	246.98481213048632	0.3	0.0027676806274846743	0.4082391917747566	0.42264196191467235	1.0403233926081128
WHI5=tf_rep(YOX1)	193.38240870885008	0.0	0.00014537444880102746	100.0	6.734980751769914	10.0
WHI5=tf_rep(YOX1)	193.3833189966749	0.0004389255567576342	0.00015141998926764238	99.7314435029468	6.73437097428454	9.98418705016919
WHI5=tf_rep(YOX1)	193.38291194155826	0.0007971918340483257	0.00015617461445642885	99.91816990504212	6.735040769639228	9.997288056412478
WHI5=tf_rep(YOX1)	193.3857162655056	0.0013952891674937705	0.00016468552562503682	99.75216248866555	6.727063428288591	9.940608948737415
WHI5=tf_rep(YOX1)	193.38659564443893	0.0	0.00014567128286468076	99.84500999854819	6.720959671941183	9.906755501876274
WHI5=tf_rep(YOX1)	193.398649945768	0.02029426421697621	0.00042416289237702623	99.95802423760307	6.71279954115906	9.870578344355991
WHI5=tf_rep(YOX1)	193.40823977588602	0.035165692214651344	0.0006281930138851058	99.44432786644198	6.7117126221701415	9.847271526629052
WHI5=tf_rep(YOX1)	193.38801325628108	0.0	0.00014568334480312116	99.86649120610052	6.715817019156811	9.876619868335876
WHI5=tf_rep(YOX1)	193.38996127490304	0.0018488620065717234	0.00017118521490861686	99.86520304469613	6.712078865951281	9.85455471972644
WHI5=tf_act(ASH1)	246.9930296254585	0.3	0.002713550451201059	0.0	99.62541263543284	9.999995411432764
WHI5=tf_act(ASH1)	258.7796693221558	0.3	0.0030259083841079775	0.8455820923681884	99.98561214178697	9.990458443830182
WHI5=tf_act(ASH1)	246.99302962548748	0.3	0.002713549901292205	0.0	99.94224465746228	9.98254103692209
WHI5=tf_act(ASH1)	255.47471376434956	0.3	0.002991250791847214	0.6465698939929356	99.99433472023296	9.9963543767734
WHI5=tf_act(ASH1)	251.38704936009634	0.299724116547901	0.0028856753752414845	0.35087849677271166	99.70232398909508	9.949428045593192
WHI5=tf_act(ASH1)	246.99302962545855	0.3	0.002713550448968606	0.0	100.0	9.961621762969251
WHI5=tf_act(ASH1)	246.99302962545843	0.3	0.002713550451054857	0.0	100.0	9.997788153542908
WHI5=tf_act(ASH1)	249.41305249945134	0.3	0.002819605856937025	0.20338827266198606	100.0	9.966207615536593
WHI5=tf_act(ASH1)	246.99302962545843	0.3	0.0027135504513808783	0.0	100.0	10.0
WHI5=tf_act(ASH1)	246.99302962545855	0.3	0.0027135504503387883	0.0	100.0	9.977635287112266
WHI5=tf_rep(ASH1)	131.6310310529657	0.27973052632381623	0.06363271193974128	6.17735193191641	89.63896865673127	1.000000375303553
WHI5=tf_rep(ASH1)	131.62492605964002	0.2798432073188344	0.06349956689668136	6.12202185031943	90.03522094760451	1.029689015695567
WHI5=tf_rep(ASH1)	131.6231080960438	0.2918565211084136	0.06381129647058816	6.1347142611891625	90.37498844203147	1.0262332248972128
WHI5=tf_rep(ASH1)	131.6230892929302	0.2927823234388647	0.0636926600996096	6.097101583747501	90.4976253662461	1.0457926906679917
WHI5=tf_rep(ASH1)	131.62319748570744	0.2925160336874632	0.06373501248218545	6.122384009848715	90.27439004103394	1.0309936525031933
WHI5=tf_rep(ASH1)	131.62540334521614	0.27334739522228513	0.06349635830702394	6.134927109167295	90.06037874318386	1.025679237896824
WHI5=tf_rep(ASH1)	131.6238699972593	0.2600131838511954	0.06346899718157581	6.140912935823107	90.45994502980767	1.028200355140706
WHI5=tf_rep(ASH1)	131.62239275488162	0.2604577997291068	0.0634950826784486	6.118628293591872	90.86668852933803	1.0432908632166917
WHI5=tf_rep(ASH1)	131.62691388817282	0.243864263567447	0.06318811446130089	6.117338787565831	90.5160087074294	1.04295062109887
WHI5=tf_rep(ASH1)	131.6226167955273	0.28498945060659564	0.06373531647694883	6.130418262759366	90.45871051829272	1.0303655464161672
