# LEMpy target file for SWI5, replicate 0 
# Run configuration file:  ../pipeline/src/yeast_data/simulations202110_Orlando_2/no_annot/results2/edge_finding_20211012205137/lempy_20211012205137_config.txt 
# Time series data file:   ../pipeline/src/yeast_data/time_series/orlando2008_WildType_r1_trunc.tsv 
# Computed on:  2021-10-12 20:55:03 
 
model	loss	pld	inv_temp	prior	rhs_param_0	rhs_param_1	rhs_param_2	rhs_param_3	rhs_param_4	hess_eigs	hess_det	bnd_params	pld_time	opt_time
tf_act(NDD1)	76.99931023278938	0.927074	1.0	0.05555555555555555	0.0	0.06236193788042424	8.024055641177256	71.06272421121075	10.0	[1, 3.265627482573072, 13.504995683818738, 67.77652094499264, 4804095.391239281]	14359918876.785097	2.0	4.854899999973128e-05	0.435765038
tf_act(WHI5)	162.54171634276045	0.0602777	1.0	0.05555555555555555	0.0	0.04501404512476141	16.349673665260628	98.30456938131516	6.681810573019008	[1, 2.064295752181974, 7.4356151073302605, 65.07860360011912, 4803992.0110250525]	4798763226.892801	1.0	5.4004999999968106e-05	0.24815619600000005
tf_rep(CLN3)	178.15351643034575	0.0106298	1.0	0.05555555555555555	0.0	0.04215455843483626	7.611388875843549	72.5385154720007	10.0	[1, 2.5954206622546465, 13.297381316746122, 70.33097907446377, 4803952.405090422]	11660555484.510035	2.0	5.52320000002382e-05	0.26524052399999976
tf_act(NRM1)	239.81495287231772	0.00159958	1.0	0.05555555555555555	0.3	0.021771190418292487	18.986853114285086	100.0	10.0	[1, 1, 6.249791677322227, 59.529494910758046, 4803730.038136943]	1787213070.154395	3.0	5.5973000000264506e-05	0.39123324000000004
tf_act(HCM1)	334.1633558747112	0.000204074	1.0	0.05555555555555555	0.0	0.02065200481131656	5.298821633207047	66.9291635036586	6.04274531519043	[1, 1.3597302458049787, 12.440981103942233, 80.8813934431395, 4803856.401647022]	6572733599.484976	1.0	5.093100000053141e-05	0.40251569600000003
tf_rep(ASH1)	223.0435051587478	0.000161056	1.0	0.05555555555555555	0.3	0.019479671685885606	100.0	6.135130793295479	10.0	[1, 1, 52.07693107151516, 2120.6975478475642, 4808172.775984815]	531011812749.1256	3.0	5.456999999964296e-05	0.46480204500000033
tf_act(YOX1)	380.51085611020426	0.0000371994	1.0	0.05555555555555555	0.0	0.005214875433406321	13.473157885109883	100.0	10.0	[1, 1, 3.4991782452227485, 63.27260019803699, 4803716.1135240765]	1063552864.7927634	3.0	5.511200000007932e-05	0.198478685
tf_act(SWI4)	436.21068267574617	0.0000127744	1.0	0.05555555555555555	0.0	0.0035599544207960327	5.835011974974243	90.77388147458636	10.0	[1, 1, 6.6672533674912655, 71.43745933540261, 4803725.507578525]	2287974306.450442	2.0	0.0001381790000003491	0.40415341299999996
tf_act(CLN3)	623.6084369672474	0.00000172033	1.0	0.05555555555555555	0.02545449098924096	0.03181731682382188	1.949154361175089	0.003866709765659627	2.2152169724633968	[1, 1, 1, 118.5223679116169, 4805572.60374118]	569567844.1665989	0.0	5.5641000000328233e-05	0.3317105439999999
tf_rep(SWI5)	501.7849016010496	0.0000015937	1.0	0.05555555555555555	0.0	0.001142319974705854	2.409674983348828	17.618028250985937	10.0	[1, 1, 11.40513810179449, 129.66270754363143, 4803764.801423154]	7103908681.430861	2.0	5.485900000046229e-05	0.4018434120000003
tf_rep(SWI4)	663.0516644366254	0.000000330156	1.0	0.05555555555555555	0.3	0.024017473942675525	16.739097029560106	14.900483341657113	2.7745926376118333	[1, 1, 2.25465338349343, 75.34235262114639, 4805115.463771193]	816249241.6214827	1.0	6.1013000000720297e-05	0.2304955289999997
tf_act(SWI5)	673.1097912007587	0.0000000703864	1.0	0.05555555555555555	0.3	0.008882133339035371	4.989711546690855	100.0	10.0	[1, 1, 2.655721591912467, 59.62130216612756, 4803729.77586344]	760610945.2848046	3.0	5.6650000000324496e-05	0.39753622600000016
tf_rep(WHI5)	658.1224050761722	0.0000000456289	1.0	0.05555555555555555	0.3	0.02296547823714778	2.0931420173676916	100.0	1.0	[1, 1, 7.8015036215373845, 86.32447178074077, 4804402.142373785]	3235575930.0718975	3.0	5.559299999990941e-05	0.35397524299999983
tf_rep(NRM1)	660.0677447287337	0.000000042228	1.0	0.05555555555555555	0.3	0.0010426562243136392	99.47777194565906	2.9769507185547663	3.7488762362516472	[1, 2.1524431200647833, 21.32066837194406, 254.17224719896677, 4803771.571342268]	56032883874.56235	1.0	5.4371000000053016e-05	0.31605748999999994
tf_rep(HCM1)	671.9798519424085	0.0000000346403	1.0	0.05555555555555555	0.3	0.021818232579655407	1.757796981957172	100.0	1.0	[1, 1, 7.990021681420263, 85.44562164860677, 4804646.562245101]	3280191639.38368	3.0	5.580500000057498e-05	0.40738027999999993
tf_rep(NDD1)	671.9070160312975	0.000000027445	1.0	0.05555555555555555	0.3	0.01836334128471905	1.6559311361446831	100.0	1.0	[1, 1, 11.968662160165303, 91.13182626828419, 4804420.013845091]	5240306019.29191	3.0	6.38369999999e-05	0.40613484400000033
tf_rep(YOX1)	673.735115566005	0.0000000271205	1.0	0.05555555555555555	0.3	0.0001780197311264603	77.60410992389248	6.695469153199587	10.0	[1, 1, 25.752345056615876, 161.7131967495321, 4803725.829233753]	20005087599.58018	2.0	5.347699999980193e-05	0.37282341699999977
tf_act(ASH1)	710.0794860704037	0.00000000187384	1.0	0.05555555555555555	0.3	0.0	0.0	100.0	1.0	[1, 1, 55.442722739976816, 61.73590762702079, 4803847.740096351]	16442642757.399136	5.0	5.523100000015546e-05	0.13611750600000017
null_model	710.0794860704037				0.3	0.0								
