# LEMpy target file for HCM1, replicate 0 
# Run configuration file:  ../pipeline/src/yeast_data/simulations202110_Orlando_2/no_annot/results2/edge_finding_20211012205137/lempy_20211012205137_config.txt 
# Time series data file:   ../pipeline/src/yeast_data/time_series/orlando2008_WildType_r1_trunc.tsv 
# Computed on:  2021-10-12 20:55:02 
 
model	loss	pld	inv_temp	prior	rhs_param_0	rhs_param_1	rhs_param_2	rhs_param_3	rhs_param_4	hess_eigs	hess_det	bnd_params	pld_time	opt_time
tf_act(SWI4)	38.71053014469427	0.96505	1.0	0.05555555555555555	0.0	0.23591354915356552	48.97033456610012	100.0	1.3889267992187497	[1, 1, 1.7771354645248747, 3630.24586693192, 5637383.570544386]	36369234393.2118	2.0	0.0001412599999994768	0.47396300899999977
tf_rep(SWI5)	120.51967978467823	0.0275186	1.0	0.05555555555555555	0.0	0.0761810920603801	7.2914723041856915	48.73075558269525	2.5502996975457077	[1, 5.4254087058966, 18.078940600838038, 24.21976011788834, 5565948.836079647]	13222527686.839735	1.0	4.430600000038254e-05	0.45332335700000037
tf_rep(NRM1)	185.44894395527677	0.00347194	1.0	0.05555555555555555	0.0	0.03140126185389474	5.400515235818954	30.529923980095706	3.827917838325567	[1, 1.6908785214058595, 18.8315753299861, 23.87794374219471, 5565556.907290476]	4231600031.7375603	1.0	4.448400000001129e-05	0.4037163859999997
tf_rep(NDD1)	191.2543464426497	0.0031693	1.0	0.05555555555555555	0.0	0.026741588204117664	23.593629600174577	22.672167892663328	2.984257386342247	[1, 1.6193516631023106, 4.844285386256051, 76.17330788542077, 5567153.658734504]	3326648508.274068	1.0	4.65890000000968e-05	0.4350840330000003
tf_rep(WHI5)	262.2934426309017	0.000403124	1.0	0.05555555555555555	0.0	0.02036596768843905	31.30435305884888	30.0762105671193	4.468209360514003	[1, 1, 7.015722986508065, 46.38154220207423, 5566157.395416292]	1811227904.666202	1.0	4.440700000074571e-05	0.3009515650000001
tf_act(YOX1)	206.12827752158253	0.000201844	1.0	0.05555555555555555	0.3	0.41507897060039517	83.65650641621463	100.0	1.2722543487485642	[1, 1, 1, 12285.487970179935, 5809006.231559777]	71366476176.52791	2.0	4.621600000032089e-05	0.45776511499999994
tf_act(CLN3)	345.4263874052348	0.0000400323	1.0	0.05555555555555555	0.0	0.0212599205696536	3.7564277962289485	92.66837600867456	10.0	[1, 1, 2.8735292278397306, 24.0972935989381, 5565517.604132741]	385380245.2357426	2.0	4.4855000000509904e-05	0.325212976
tf_rep(ASH1)	372.3718536643951	0.0000389495	1.0	0.05555555555555555	7.599107962965174e-07	0.04489691728131073	3.2972240139791658	62.72764354471638	2.9520968161147394	[1, 2.344185428183846, 6.581607404983347, 18.285843745001664, 5566352.67913486]	1570397729.279226	0.0	4.587300000036265e-05	0.4329797179999999
tf_rep(HCM1)	401.38749645070004	0.0000218309	1.0	0.05555555555555555	0.0	0.0036332707202127324	9.74698463783913	9.340899246586053	2.720289238241203	[1, 1, 2.3068675917541612, 22.259532488909926, 5565430.846880285]	285783728.09995955	1.0	4.849599999978693e-05	0.4291317669999999
tf_rep(SWI4)	403.51476169595963	0.0000173926	1.0	0.05555555555555555	0.0	0.00042947504478184334	0.0	0.31783202202944694	1.9427228816538793	[1, 1, 1, 18.190643016674507, 5565338.917724894]	101237093.5191392	2.0	6.460300000021846e-05	0.3947266479999998
tf_rep(CLN3)	403.5147616959597	0.0000173925	1.0	0.05555555555555555	0.0	0.00042947504375991563	0.0	0.31783202202944694	1.0441677082610406	[1, 1, 1, 18.190720670967664, 5565338.936496624]	101237526.03307033	2.0	4.5880000000053656e-05	0.21878390800000025
tf_rep(YOX1)	333.0763472770867	0.000013735	1.0	0.05555555555555555	0.0018667596501751025	0.003023636100956863	99.81800119896542	6.828602121358363	10.0	[1, 1, 18.166028586915534, 253.26300476231864, 5565404.498733084]	25605218319.744488	1.0	4.3659000000140225e-05	0.40907968799999983
tf_act(HCM1)	394.1013107872623	0.0000125804	1.0	0.05555555555555555	0.3	0.009806169806507434	1.2582216508822064	76.4233376982984	10.0	[1, 1, 1.8587231327882128, 29.970050392137555, 5565390.574064824]	310025791.7668673	2.0	5.262599999955597e-05	0.4687445210000001
tf_act(SWI5)	403.5147616959595	0.00000796203	1.0	0.05555555555555555	0.0	0.00042947504477320014	0.0	99.90617643095146	9.364649471569294	[1, 1, 4.6752143391645395, 18.566281192381513, 5565357.236141853]	483080488.24657726	2.0	4.7980999999808205e-05	0.3366219730000002
tf_act(NRM1)	403.5147616959595	0.00000476139	1.0	0.05555555555555555	0.0	0.0004294750447575588	0.0	100.0	4.8934041371031105	[1, 1, 3.2093574944268117, 18.90727330143694, 5565356.59725118]	337706947.325039	3.0	4.502500000036491e-05	0.32231043700000006
tf_act(WHI5)	403.5147616959065	0.00000433227	1.0	0.05555555555555555	0.0	0.0004294776137078867	0.0	100.0	2.626682610193221	[1, 1, 3.953654521244237, 18.538462569965855, 5565509.358315866]	407922207.1777382	3.0	4.558100000018328e-05	0.3608264029999999
tf_act(ASH1)	403.5147616959594	0.0000033075	1.0	0.05555555555555555	0.0	0.00042947504748801695	0.0	100.0	10.0	[1, 1, 1.6097244186324948, 19.530052202273733, 5565347.937074979]	174963419.17112008	4.0	4.396100000025882e-05	0.31951557500000005
tf_act(NDD1)	403.5147616958922	0.00000305321	1.0	0.05555555555555555	0.0	0.00042947916700016806	0.0	100.0	1.9325774027387967	[1, 1, 7.883630846556634, 18.718006486084064, 5565540.30261482]	821283703.940757	3.0	4.7620000000137e-05	0.34322695299999983
null_model	403.51476169595935				0.0	0.0004294750572032915								
