# LEMpy target file for NRM1, replicate 0 
# Run configuration file:  ../pipeline/src/yeast_data/simulations202110_Orlando_2/no_annot/results2/edge_finding_20211012205137/lempy_20211012205137_config.txt 
# Time series data file:   ../pipeline/src/yeast_data/time_series/orlando2008_WildType_r1_trunc.tsv 
# Computed on:  2021-10-12 20:55:03 
 
model	loss	pld	inv_temp	prior	rhs_param_0	rhs_param_1	rhs_param_2	rhs_param_3	rhs_param_4	hess_eigs	hess_det	bnd_params	pld_time	opt_time
tf_act(HCM1)	28.142470892771716	0.639344	1.0	0.05555555555555555	0.0	0.10244404634354295	10.709153015467667	52.33859782487772	9.236471116387818	[1, 5.068409793267411, 16.826180677633978, 35.31327790942296, 4657306.432048741]	14025879885.248741	1.0	5.447499999977623e-05	0.44911957499999966
tf_act(YOX1)	34.400411094257294	0.353172	1.0	0.05555555555555555	0.0	0.07796198607455347	9.378643996448318	45.141886220882476	7.499452850415918	[1, 4.657541723046414, 18.48909081190719, 37.37800643034447, 4657169.346204561]	14990305171.545437	1.0	4.7616999999888776e-05	0.32132013299999995
tf_act(SWI4)	104.45698562428579	0.00515308	1.0	0.05555555555555555	0.0	0.05643619433807755	8.96536052333117	54.69341606130616	4.930796612083163	[1, 3.146547701649683, 21.989479034089076, 36.02321607848309, 4657027.939052797]	11607550637.500628	1.0	0.00013301300000012617	0.5594027279999998
tf_act(WHI5)	97.784244380108	0.00227419	1.0	0.05555555555555555	0.3	0.34304503830529803	70.10381425629005	100.0	3.804965826876773	[1, 1, 6.991766575446751, 885.1775395816649, 4674853.076724455]	28932454082.67502	2.0	4.517799999970151e-05	0.43481276400000013
tf_rep(SWI5)	227.88543422327413	0.0000300367	1.0	0.05555555555555555	0.0	0.027795943170116938	4.214681952477186	32.041527359667185	3.97699244822268	[1, 4.155737967698844, 18.07108082061939, 56.89351190211887, 4657015.354683864]	19897691666.187347	1.0	4.5553000000531085e-05	0.436187694
tf_rep(ASH1)	266.6306127449858	0.0000184452	1.0	0.05555555555555555	0.0	0.05210109141191441	4.4077786213587355	47.14536063271049	6.904313322662138	[1, 1, 21.813521938984106, 44.1097852026934, 4657482.055100057]	4481381574.534377	1.0	4.438100000037082e-05	0.47802443399999994
tf_rep(CLN3)	310.9134208032066	0.00000604178	1.0	0.05555555555555555	0.0	0.13431555088411345	17.74052936704854	72.85514521923695	5.771214793179506	[1, 1, 9.109931700983044, 72.5504231132057, 4657279.679913718]	3078133061.8635535	1.0	4.621500000023815e-05	0.2639595789999998
tf_act(NDD1)	263.5795323223528	0.00000205102	1.0	0.05555555555555555	0.3	0.49279467729100945	83.863886270729	100.0	2.5369755697733005	[1, 1, 6.343915949620485, 3666.1533736699016, 4698895.827621376]	109285833060.63866	2.0	4.7920999999284675e-05	0.4497152660000001
tf_rep(NRM1)	455.65509728786964	0.000000106165	1.0	0.05555555555555555	0.0	0.0021148956693093626	4.909696260233469	12.712246792547433	10.0	[1, 1.050361061002705, 8.886825698788888, 34.124047114339525, 4656760.450208692]	1483302423.1447203	2.0	4.567499999996727e-05	0.4031694240000001
tf_rep(NDD1)	427.1383501882306	0.0000000416515	1.0	0.05555555555555555	0.0	0.0031813493002469787	100.0	22.207671416829807	10.0	[1, 1, 21.035829996447244, 95.58258686821398, 4656797.452076835]	9363231931.630362	3.0	4.696800000036916e-05	0.3736278610000001
tf_rep(WHI5)	507.4346006935289	0.0000000293936	1.0	0.05555555555555555	0.0	0.0024733737118092344	35.31175801923042	34.29483072233419	10.0	[1, 1, 10.105424020750753, 38.8069133781665, 4656774.639329345]	1826202207.6874192	2.0	4.378700000007285e-05	0.29821830400000016
tf_act(NRM1)	578.4389157224571	0.00000000954466	1.0	0.05555555555555555	0.3	0.010242996343616294	5.453720705130074	100.0	10.0	[1, 1, 1.4339810306426253, 30.74172803410314, 4656764.5007657]	205284404.91115278	3.0	4.551800000029971e-05	0.262107828
tf_rep(YOX1)	526.6788997984681	0.00000000935314	1.0	0.05555555555555555	0.07838737298614826	0.0012872887478532784	94.592658955394	6.91557644864316	10.0	[1, 1, 22.581872449544154, 294.29656785806696, 4656809.292743346]	30948072120.153774	1.0	4.4239000000168005e-05	0.2902103129999998
tf_rep(HCM1)	604.2165206011317	0.00000000683947	1.0	0.05555555555555555	0.3	0.0031515903203868235	0.0	0.001	2.0728845924003516	[1, 1, 1, 29.740240667594506, 4656755.355890371]	138493025.01428935	3.0	4.938200000026427e-05	0.1841455409999999
tf_rep(SWI4)	604.2165206011317	0.00000000485252	1.0	0.05555555555555555	0.3	0.0031515903112385025	0.0	0.001	1.0003395020569212	[1, 1, 1.9866018934876406, 29.740240681097447, 4656755.355891523]	275130505.8532037	3.0	6.321100000050706e-05	0.2346053509999999
tf_act(CLN3)	604.2165206010746	0.00000000462144	1.0	0.05555555555555555	0.3	0.0031515958776880204	0.0	99.99955560169562	10.0	[1, 1, 1.9545317233197865, 33.3261806182051, 4656828.337738166]	303332187.1070961	3.0	5.1358000000334414e-05	0.32789541899999985
tf_act(ASH1)	604.2165206010743	0.00000000374084	1.0	0.05555555555555555	0.3	0.003151595838014804	0.0	100.0	9.968419844083341	[1, 1, 3.312722846677561, 30.009978583152645, 4656764.739074584]	462951063.6029576	3.0	4.480199999967738e-05	0.22969343799999997
tf_act(SWI5)	604.2165206011316	0.000000000716669	1.0	0.05555555555555555	0.3	0.0031515903154009863	0.0	100.0	1.0	[1, 1, 21.425069873086425, 31.604831319606767, 4656930.343596389]	3153373878.1725173	4.0	4.650099999992108e-05	0.28524661900000003
null_model	604.2165206010744				0.3	0.003151595892829601								
