# LEMpy local minima file for target SWI4, replicate 1
# Right-hand side of tf_act():  p0 - p1(tar) + p2(reg^p4) / (p3^p4 + reg^p4)
# Right-hand side of tf_rep():  p0 - p1(tar) + p2(p3^p4) / (p3^p4 + reg^p4)
# Run configuration file:  ../pipeline/src/yeast_data/simulations202110_Orlando_2/annot/results1/edge_finding_20211012115338/lempy_20211012115338_config.txt
# Time series data file:   ../pipeline/src/yeast_data/time_series/orlando2008_WildType_r2_trunc.tsv
# Computed on:  2021-10-12 11:55:57 
 
model	loss	p0	p1	p2	p3	p4
SWI4=tf_act(SWI4)	356.5201515372358	0.3	0.5398749579261147	99.99999794896773	93.80673282129423	1.5394519711575523
SWI4=tf_act(SWI4)	356.5246656589398	0.3	0.5387302479958852	99.66536520499493	93.66031510031166	1.5405060070207184
SWI4=tf_act(SWI4)	356.5258934785702	0.3	0.5384301745997079	99.57462794932198	93.61828992385448	1.5408065354237777
SWI4=tf_act(SWI4)	356.5214103165743	0.3	0.5396031248231339	99.90673977871853	93.75502243280422	1.539818384733115
SWI4=tf_act(SWI4)	356.52278130300687	0.3	0.5419996571351374	99.99999846387367	93.33675289348541	1.5424345336224181
SWI4=tf_act(SWI4)	356.5318269872185	0.3	0.5375475245119086	99.151144782372	93.30669281366241	1.5429479926110816
SWI4=tf_act(SWI4)	356.54433619940244	0.3	0.5325665958152643	98.35221494574184	93.45427428209425	1.5423283509884766
SWI4=tf_act(SWI4)	356.53829067267964	0.3	0.5349404073097968	98.67354980466187	93.3114652688942	1.5431178460931874
SWI4=tf_act(SWI4)	356.5323622161018	0.3	0.5368024938707984	99.09877523600751	93.4088167552141	1.5423260664675678
SWI4=tf_act(SWI4)	356.538351638086	0.3	0.535340910769703	98.66131996214635	93.20759403230703	1.5437862575850214
SWI4=tf_rep(SWI4)	387.89340424117154	0.0	0.004253607862465189	0.24991946610477267	0.001	1.0000292548614598
SWI4=tf_rep(SWI4)	387.8931501709803	0.0	0.004253476046209516	0.0	0.2963502794577211	1.0232054400265778
SWI4=tf_rep(SWI4)	387.8931501709803	0.0	0.004253476037813242	0.0	0.25501436459001153	1.0244850405310333
SWI4=tf_rep(SWI4)	387.8932894959801	0.0	0.00425354737519205	0.27701965923047994	0.001	1.0689754520450303
SWI4=tf_rep(SWI4)	387.89315265941707	0.0	0.004253470331903034	0.5287660879692374	0.001	1.5244122264867386
SWI4=tf_rep(SWI4)	387.89315102822496	0.0	0.004253481266048095	0.12311116919541544	0.001	1.4863361209888344
SWI4=tf_rep(SWI4)	387.89315034900255	0.0	0.004253358021974294	1.4041297468143545e-05	0.115748078963662	1.4416421645539264
SWI4=tf_rep(SWI4)	387.89315373163237	0.0	0.004253477726628624	0.3215179024983678	0.001	1.441234597211859
SWI4=tf_rep(SWI4)	387.8931512963398	0.0	0.004253477376404658	0.5601143120286938	0.001	1.6070151271005373
SWI4=tf_rep(SWI4)	387.89315034500487	0.0	0.004253476123834007	0.12428995070030377	0.001	1.642038763078682
SWI4=tf_act(HCM1)	387.89315017098016	0.0	0.004253476047472954	0.0	99.86950677039367	8.710443275807316
SWI4=tf_act(HCM1)	387.8931501709803	0.0	0.004253476048789574	0.0	100.0	8.733619460972434
SWI4=tf_act(HCM1)	387.8931501709803	0.0	0.004253476046540431	0.0	99.95866408513228	8.73489906147689
SWI4=tf_act(HCM1)	387.8931501709802	0.0	0.004253476046933401	0.0	99.87112990973293	8.797608810626999
SWI4=tf_act(HCM1)	387.89315017098033	0.0	0.004253476045932025	0.0	99.55600751630918	8.818814540662144
SWI4=tf_act(HCM1)	387.89315017092804	0.0	0.004253480488437872	0.0	99.49604294551297	8.780738318785662
SWI4=tf_act(HCM1)	387.8931501709678	0.0	0.004253476681888523	0.0	99.6107914530722	8.736045138082153
SWI4=tf_act(HCM1)	387.8931501709803	0.0	0.004253476049496796	0.0	99.53230097958031	8.740085695310336
SWI4=tf_act(HCM1)	387.8931501709802	0.0	0.004253476046797494	0.0	99.99591677111377	8.791494564031975
SWI4=tf_act(HCM1)	387.8931501709802	0.0	0.004253476043887654	0.0	99.68607976571195	8.826518199622619
SWI4=tf_act(NDD1)	387.8931501709818	0.0	0.004253475967302312	-2.7755575615628914e-17	99.8688491040056	9.981346483740454
SWI4=tf_act(NDD1)	387.8931501709803	0.0	0.004253476045812614	0.0	100.0	10.0
SWI4=tf_act(NDD1)	387.89315017098033	0.0	0.004253476044133256	0.0	99.95866408513228	10.0
SWI4=tf_act(NDD1)	387.89315017097994	0.0	0.004253476050276705	0.0	99.85474607681854	10.0
SWI4=tf_act(NDD1)	387.8931501709803	0.0	0.004253476047297488	0.0	99.51422165221743	9.994831160953547
SWI4=tf_act(NDD1)	387.8931501709274	0.0	0.004253480961963829	0.0	99.45425708142122	9.956754939077065
SWI4=tf_act(NDD1)	387.8931501709802	0.0	0.004253476044754436	0.0	99.5690056901804	9.912061231957697
SWI4=tf_act(NDD1)	387.8931501709802	0.0	0.004253476045369149	0.0	99.50609471948094	9.920454928013951
SWI4=tf_act(NDD1)	392.8298020616107	0.18141951640016532	0.0077734711896827536	0.0	99.94353118011615	9.754387862278744
SWI4=tf_act(NDD1)	387.89315017098016	0.0	0.004253476049277183	0.0	99.19625771407912	9.955478563604595
SWI4=tf_act(SWI5)	387.89315017094884	0.0	0.004253477858137684	0.0	99.86941892105949	9.907389094331155
SWI4=tf_act(SWI5)	387.89315017098016	0.0	0.004253476048346316	0.0	100.0	9.930565279496273
SWI4=tf_act(SWI5)	387.89315017098033	0.0	0.004253476048014573	0.0	99.95866408513228	9.931844880000728
SWI4=tf_act(SWI5)	387.8931501709803	0.0	0.004253476045144968	0.0	99.88907443920596	9.984091231182216
SWI4=tf_act(SWI5)	387.8931501709802	0.0	0.004253476045355582	0.0	99.55461872566242	9.977245055462788
SWI4=tf_act(SWI5)	387.8931501709312	0.0	0.0042534796960255715	0.0	99.49465415486621	9.939168833586306
SWI4=tf_act(SWI5)	392.3941870144243	0.0056371327223343785	0.004686233008177877	0.3407934217490497	99.60940172287751	9.894474310287041
SWI4=tf_act(SWI5)	387.8931501709802	0.0	0.004253476047141342	0.0	99.35298265667251	9.830799252922406
SWI4=tf_act(SWI5)	387.8931501709802	0.0	0.004253476050507887	0.0	99.86232072821986	9.843605248488334
SWI4=tf_act(SWI5)	387.89315017098016	0.0	0.004253476049282026	0.0	99.55248372281804	9.878628884078978
SWI4=tf_rep(NRM1)	85.10445936821678	0.0	0.048830015775081254	7.059107444126146	30.86970574009524	4.594013210310829
SWI4=tf_rep(NRM1)	85.10445936776567	0.0	0.048830037614477	7.059109573183419	30.86970891401094	4.594012937296635
SWI4=tf_rep(NRM1)	85.10445936783412	0.0	0.04883003262481652	7.059110799467332	30.869700374281074	4.5940103120453175
SWI4=tf_rep(NRM1)	85.11831387347584	0.0	0.04880852636776121	7.088931233940807	30.709223965643385	4.526117288090089
SWI4=tf_rep(NRM1)	85.10462408608589	0.0	0.04882114363165647	7.056608947285587	30.869261865772362	4.590187215694698
SWI4=tf_rep(NRM1)	85.10465884441317	0.0	0.048834409406671116	7.055736651054752	30.88900765339098	4.602054491078369
SWI4=tf_rep(NRM1)	85.1044593676236	0.0	0.048830045622765036	7.059110201217827	30.86970870681324	4.594010786818474
SWI4=tf_rep(NRM1)	85.10445943121535	0.0	0.0488299637881097	7.059025543574913	30.87000643592394	4.594118076723964
SWI4=tf_rep(NRM1)	85.10445936858184	0.0	0.04883001091614362	7.059106419296169	30.869704243524602	4.5940079937416085
SWI4=tf_rep(NRM1)	85.10445936796212	0.0	0.048830030786700875	7.059108121723525	30.8697132627952	4.594015860583022
SWI4=tf_rep(CLN3)	387.8931501709803	0.0	0.0042534760492208504	0.27658524752582037	0.001	9.599753973575792
SWI4=tf_rep(CLN3)	387.8931501709803	0.0	0.004253476046494127	0.0	0.2963502794577211	9.62293015874091
SWI4=tf_rep(CLN3)	387.89315017098016	0.0	0.004253476048887076	0.0	0.25501436459001153	9.624209759245366
SWI4=tf_rep(CLN3)	387.89315017098	0.0	0.004253476051414368	0.3324756215676593	0.14043394331485598	9.664779244490141
SWI4=tf_rep(CLN3)	387.8931501709802	0.0	0.004253476050269926	0.6556598991513001	0.001	9.66868150393627
SWI4=tf_rep(CLN3)	387.89315017093037	0.0	0.004253479852547234	0.25000496244412684	0.001	9.630605282059788
SWI4=tf_rep(CLN3)	387.89315017098016	0.0	0.0042534760485903374	0.0	0.11574811904463378	9.58591131757673
SWI4=tf_rep(CLN3)	387.8931501709802	-6.938893903907228e-18	0.004253476049583294	0.3215062467761186	0.001	9.58549932422456
SWI4=tf_rep(CLN3)	387.8931501709803	0.0	0.0042534760455734105	0.42191985760702944	0.5540375065868957	9.58663847796611
SWI4=tf_rep(CLN3)	387.8931501709802	0.0	0.004253476045227053	0.0	0.24420050118507702	9.621662113556754
SWI4=tf_rep(WHI5)	194.5636025616583	0.0	0.03564522287294591	43.368438662443545	32.84060171156131	3.8713742513818166
SWI4=tf_rep(WHI5)	194.51934699403637	0.0	0.035675125034237545	42.97328444078084	32.941138466642705	3.8725888896039296
SWI4=tf_rep(WHI5)	194.51185650435997	0.0	0.03575318130887289	42.886389234996166	32.93047809827274	3.86484726467034
SWI4=tf_rep(WHI5)	194.54802070344638	0.0	0.03566844061831875	43.22737104539042	32.871218957957424	3.87049738880015
SWI4=tf_rep(WHI5)	194.5906441315845	0.0	0.03572960902098056	43.60258615799227	32.7515528609701	3.861787231993074
SWI4=tf_rep(WHI5)	194.58568480472655	0.0	0.03608044733755287	43.19615450379112	32.688101079911405	3.824773163685733
SWI4=tf_rep(WHI5)	194.51221643754664	0.0	0.035662059179048425	42.91234741562616	32.964944413360044	3.874770879131957
SWI4=tf_rep(WHI5)	194.54977589807748	0.0	0.03566444667025511	43.24378803222537	32.86971041873296	3.8709605652023815
SWI4=tf_rep(WHI5)	160.0132852034533	0.0	0.034832240831464856	7.6876514488451075	68.27503462804412	10.0
SWI4=tf_rep(WHI5)	160.01328520205405	0.0	0.034832319550945304	7.687662843368431	68.27504564026582	10.0
SWI4=tf_act(YOX1)	387.0365392697259	0.0	0.005469473994679004	0.8226348488385162	98.93819283511884	6.304368562608279
SWI4=tf_act(YOX1)	387.0474193736184	0.0	0.0054649563853018	0.8226745941120797	99.1977328707221	6.2462166171551665
SWI4=tf_act(YOX1)	387.0570213616057	0.0	0.005326824093208161	0.7279594256063281	99.15678634729727	6.248803311191371
SWI4=tf_act(YOX1)	387.0409881549056	0.0	0.005464037797686008	0.8237598631757517	99.05235931588346	6.317071820624024
SWI4=tf_act(YOX1)	387.02643765257886	0.0	0.005471597108710784	0.821247492175966	98.69552306239855	6.362092245505391
SWI4=tf_act(YOX1)	387.0239508975192	0.0	0.0054787045288615535	0.8182856428194369	98.620902419131	6.301959431049937
SWI4=tf_act(YOX1)	387.02974015522295	0.0	0.0054798683765190665	0.8172329695305368	98.72924786324602	6.2406544353598
SWI4=tf_act(YOX1)	387.0236508338704	0.0	0.00548034786721973	0.8170431766078219	98.60194344170829	6.280834389428771
SWI4=tf_act(YOX1)	387.0413518479291	0.0	0.005462142314238457	0.8247413393084332	99.0615363182924	6.339284915299878
SWI4=tf_act(YOX1)	387.03066261224586	0.0	0.005476524510998453	0.8070146371062281	98.67195214784924	6.171337584367825
SWI4=tf_rep(YOX1)	262.84635599914753	0.0	0.012576142316379012	12.184796957538314	13.750274677776014	6.95739206318591
SWI4=tf_rep(YOX1)	262.8496030525032	0.0	0.01257738949821941	12.151092543780463	13.857254496690556	7.11650583827998
SWI4=tf_rep(YOX1)	262.85333054981413	0.0	0.01260196313487233	12.080208232416716	13.884750524603588	7.10264182836151
SWI4=tf_rep(YOX1)	262.8471551483431	0.0	0.012576520897338905	12.165465065435244	13.804131695658757	7.03557438283253
SWI4=tf_rep(YOX1)	262.84731921375726	0.0	0.012574609313719625	12.206266597371163	13.689570906857915	6.871942952651932
SWI4=tf_rep(YOX1)	262.846680231943	0.0	0.0125736252140051	12.197416827537232	13.714606052414904	6.908270644759529
SWI4=tf_rep(YOX1)	262.90735959544725	0.0	0.012696926786875139	11.889923324641291	13.849626301731993	6.860220497365974
SWI4=tf_rep(YOX1)	262.8465851968372	0.0	0.01256970897254151	12.205141422565557	13.73116423112137	6.942544067166592
SWI4=tf_rep(YOX1)	262.90531079570053	0.0	0.012470156370525013	12.475957501313442	13.656766714362877	7.049630440476599
SWI4=tf_rep(YOX1)	262.8535879401453	0.0	0.012519449157482874	12.280429565606784	13.71798168645405	7.003046217925451
SWI4=tf_act(ASH1)	387.8931501709803	0.0	0.004253476046247644	0.0	99.87591089219254	10.0
SWI4=tf_act(ASH1)	387.8931501709802	0.0	0.004253476046216574	0.0	100.0	10.0
SWI4=tf_act(ASH1)	387.89315017098033	0.0	0.004253476045899649	0.0	99.95866408513228	10.0
SWI4=tf_act(ASH1)	387.89315017098033	0.0	0.004253476045394371	0.0	99.85195334779317	10.0
SWI4=tf_act(ASH1)	387.8931501709802	0.0	0.004253476045082521	0.0	99.48824433638741	10.0
SWI4=tf_act(ASH1)	387.8931501709297	0.0	0.004253480019414429	0.0	99.4282797655912	9.961923778123518
SWI4=tf_act(ASH1)	387.89315017098033	0.0	0.004253476045866759	0.0	99.54302801360102	9.917230579989624
SWI4=tf_act(ASH1)	387.89315017098045	0.0	0.004253476045787276	0.0	99.40940645311393	9.922411529171114
SWI4=tf_act(ASH1)	387.89315017098033	0.0	0.0042534760473210255	0.0	99.85994900989532	9.932879160341171
SWI4=tf_act(ASH1)	387.89315017098016	0.0	0.004253476049279079	0.0	99.5501120044935	9.967902795931815
SWI4=tf_rep(ASH1)	371.1865872782233	0.3	0.01705157833650723	0.9658335213156362	18.08695203706529	10.0
SWI4=tf_rep(ASH1)	371.26886886776805	0.2976626769853916	0.0170407070032945	0.9534475241209541	18.378782933700705	10.0
SWI4=tf_rep(ASH1)	371.18658727909144	0.3	0.017051558683798616	0.9658335186506333	18.086935716552862	10.0
SWI4=tf_rep(ASH1)	371.20765705941886	0.3	0.01703459258326517	0.9726366258107862	17.94009081745796	10.0
SWI4=tf_rep(ASH1)	371.1865872782991	0.3	0.01705157799188707	0.9658345057482013	18.086953877838265	10.0
SWI4=tf_rep(ASH1)	371.1884262422765	0.3	0.017046269559973112	0.9677891893461409	18.04333579310639	10.0
SWI4=tf_rep(ASH1)	371.18658727824135	0.3	0.017051580444487114	0.9658337397922597	18.086959968467813	10.0
SWI4=tf_rep(ASH1)	371.1867001650486	0.3	0.01705410653899369	0.9655438071521342	18.097745995259675	10.0
SWI4=tf_rep(ASH1)	371.3534852009102	0.29906716058302896	0.017060360126860186	0.9444188573026472	18.512008201080878	10.0
SWI4=tf_rep(ASH1)	371.1865873775314	0.3	0.01705165936076591	0.9658493623064303	18.08718502215533	10.0
