# LEMpy local minima file for target SWI5, replicate 1
# Right-hand side of tf_act():  p0 - p1(tar) + p2(reg^p4) / (p3^p4 + reg^p4)
# Right-hand side of tf_rep():  p0 - p1(tar) + p2(p3^p4) / (p3^p4 + reg^p4)
# Run configuration file:  ../pipeline/src/yeast_data/simulations202110_Orlando_2/annot/results1/edge_finding_20211012115338/lempy_20211012115338_config.txt
# Time series data file:   ../pipeline/src/yeast_data/time_series/orlando2008_WildType_r2_trunc.tsv
# Computed on:  2021-10-12 11:55:57 
 
model	loss	p0	p1	p2	p3	p4
SWI5=tf_act(SWI4)	370.3986868620224	0.0	0.0033272834020688664	13.567823628509815	100.0	10.0
SWI5=tf_act(SWI4)	370.39868686230955	0.0	0.003327288151644555	13.567841763578869	100.0	10.0
SWI5=tf_act(SWI4)	370.39868686197934	0.0	0.003327283687567559	13.567827062601674	100.0	10.0
SWI5=tf_act(SWI4)	370.39868686297416	0.0	0.003327302211849058	13.567819864634282	100.0	10.0
SWI5=tf_act(SWI4)	370.42785812987506	0.0	0.003284724951674922	13.460460018028177	99.92283847576235	10.0
SWI5=tf_act(SWI4)	370.3986868619328	0.0	0.0033272868952530037	13.567831627103853	100.0	10.0
SWI5=tf_act(SWI4)	370.4494947720364	0.0	0.003288248766438591	13.416057939068152	99.85535215531227	10.0
SWI5=tf_act(SWI4)	370.4204634254492	0.0	0.0032056451847754246	13.45929244500582	99.98932908037	10.0
SWI5=tf_act(SWI4)	370.3986868621602	0.0	0.00332727784880501	13.567822067025455	100.0	10.0
SWI5=tf_act(SWI4)	370.3986868620049	0.0	0.003327282723159201	13.567825823378286	100.0	10.0
SWI5=tf_rep(SWI4)	583.274884536351	0.3	0.027854689414261162	7.6691975672404595	9.23892178580627	1.0
SWI5=tf_rep(SWI4)	583.2581523217204	0.3	0.027825567899973258	7.410903142707282	9.635631486893475	1.0
SWI5=tf_rep(SWI4)	583.2560279083633	0.3	0.027823336319925198	7.383189749473143	9.680630798534335	1.0
SWI5=tf_rep(SWI4)	583.2666512067549	0.3	0.027799289408523425	7.525803881671869	9.439087403085326	1.0
SWI5=tf_rep(SWI4)	583.2818506722687	0.3	0.027833698604447763	7.802143255588622	9.033660788799457	1.0
SWI5=tf_rep(SWI4)	583.2769603700243	0.3	0.027820228379368567	7.701838306433324	9.176257198814062	1.0
SWI5=tf_rep(SWI4)	583.2684433956141	0.3	0.027800075899582975	7.553319179304643	9.395996446186462	1.0
SWI5=tf_rep(SWI4)	583.2779430366543	0.3	0.02782323753057233	7.721017709700451	9.148806305802983	1.0
SWI5=tf_rep(SWI4)	583.2740530703848	0.3	0.027815059577782637	7.648371771001436	9.255034183156406	1.0
SWI5=tf_rep(SWI4)	583.2690500723949	0.3	0.027836491583831446	7.5687550151171115	9.386404815007522	1.0
SWI5=tf_act(HCM1)	304.94901935669776	0.0	0.009604241218039605	4.929175498695503	68.34942629902673	10.0
SWI5=tf_act(HCM1)	304.93677156934535	0.0	0.00968742260085744	4.889864481332984	68.04393239264482	10.0
SWI5=tf_act(HCM1)	304.93834628994875	0.0	0.009721458964707353	4.876744809899699	67.93344957607566	10.0
SWI5=tf_act(HCM1)	304.93946355927073	0.0	0.009734713470431729	4.87341204618196	67.89913749275243	10.0
SWI5=tf_act(HCM1)	304.95880089663007	0.0	0.009823287912760078	4.843014939302417	67.63036282375069	10.0
SWI5=tf_act(HCM1)	304.97117493019505	0.0	0.009860789577220128	4.8322790233420525	67.5272064820308	10.0
SWI5=tf_act(HCM1)	304.9367729396843	0.0	0.00968854729151221	4.890184127958323	68.0439846687178	10.0
SWI5=tf_act(HCM1)	304.9370289111727	0.0	0.009701900422064326	4.88473683329369	67.99913735590445	10.0
SWI5=tf_act(HCM1)	304.96660491949143	0.0	0.009533684290846625	4.945790094097137	68.52751874334317	10.0
SWI5=tf_act(HCM1)	304.9367715697839	0.0	0.009687410236080218	4.8898711300219615	68.04397866610034	10.0
SWI5=tf_act(NDD1)	101.99123182217959	0.0	0.06454272229536044	7.572195647778485	56.29350154396033	10.0
SWI5=tf_act(NDD1)	101.99123181771958	0.0	0.06454299516485246	7.572202884136797	56.293442271241595	10.0
SWI5=tf_act(NDD1)	101.99123181876897	0.0	0.06454286141279193	7.572201952842233	56.29347843104572	10.0
SWI5=tf_act(NDD1)	101.99163433040215	0.0	0.06446597806640893	7.570668218556009	56.31335741748299	10.0
SWI5=tf_act(NDD1)	101.99123181971375	0.0	0.06454281457444029	7.572198601453509	56.29348321627454	10.0
SWI5=tf_act(NDD1)	101.99123182308787	0.0	0.06454269209748119	7.572190949298883	56.293496429121234	10.0
SWI5=tf_act(NDD1)	101.99369823370986	0.0	0.06472158965112448	7.574939492162911	56.244852105739334	10.0
SWI5=tf_act(NDD1)	101.99123181706393	0.0	0.06454313414302942	7.57221133265152	56.29341895069712	10.0
SWI5=tf_act(NDD1)	101.99123181797847	0.0	0.06454294409693542	7.572201986943493	56.29345646688737	10.0
SWI5=tf_act(NDD1)	101.9912318197534	0.0	0.06454281517283905	7.572197752364651	56.29348173728049	10.0
SWI5=tf_act(SWI5)	543.8267403616996	0.26560388469641805	0.029795667953393945	1.568492070445266	0.001	1.0002331473134032
SWI5=tf_act(SWI5)	543.8220955862863	0.29891714599303576	0.029794445464149315	1.5350658730514721	0.001	1.2955193101037896
SWI5=tf_act(SWI5)	543.8220915762437	0.29778085526672926	0.02979425157882815	1.536193401131503	0.001	1.296814756534444
SWI5=tf_act(SWI5)	543.8219538307097	0.2074734160021646	0.02979369361998765	1.6264708292248509	0.001	1.3553309282085233
SWI5=tf_act(SWI5)	543.8218996675683	0.11558295401962264	0.029794150306045222	1.7183839422149383	0.001	1.3908950744579298
SWI5=tf_act(SWI5)	543.8219724995504	0.11699712064699623	0.029794217006296645	1.7169744171384989	0.001	1.3528693698676126
SWI5=tf_act(SWI5)	543.8219236268632	0.12075172514899649	0.029794258380936727	1.71322219885931	0.001	1.3766341562111257
SWI5=tf_act(SWI5)	543.8218819780332	0.03697350209636612	0.029793994526998577	1.796987024053869	0.001	1.407451491224767
SWI5=tf_act(SWI5)	543.8217442225891	0.0	0.02979412499417406	1.8339653169086314	0.001	1.6104642398606268
SWI5=tf_act(SWI5)	543.8217367082036	0.002922108805591185	0.02979420311478684	1.8310469621068732	0.001	1.6454902614104998
SWI5=tf_rep(NRM1)	573.5639955250409	0.3	0.0003791954527990225	2.315470198931774	13.148315198638384	10.0
SWI5=tf_rep(NRM1)	573.563995525088	0.3	0.0003792004871200967	2.3154754410111287	13.148417317374482	10.0
SWI5=tf_rep(NRM1)	573.563995525339	0.3	0.000379194905635003	2.315464473291294	13.148440702869788	10.0
SWI5=tf_rep(NRM1)	573.5652324647591	0.3	0.00037602771642846627	2.3197048370843354	13.009012344054046	10.0
SWI5=tf_rep(NRM1)	573.5835945912561	0.3	0.0003677820925617085	2.3339295084171097	12.605208540791079	10.0
SWI5=tf_rep(NRM1)	573.5639955248295	0.3	0.0003791964500442985	2.3154704824748826	13.148393329914468	10.0
SWI5=tf_rep(NRM1)	573.570811515584	0.3	0.0003830081763791295	2.311968095084145	13.276534095725706	9.954751005103176
SWI5=tf_rep(NRM1)	573.5697347105942	0.3	0.00037871624603140176	2.317041060735322	13.103294316153072	9.954178516435174
SWI5=tf_rep(NRM1)	573.5766638950969	0.3	0.0003888120039351148	2.3054543715400055	13.502581553310572	9.964121912233965
SWI5=tf_rep(NRM1)	573.5641807827004	0.3	0.00038048847777946216	2.3138960498654755	13.20268830729424	10.0
SWI5=tf_rep(CLN3)	242.08008004118645	0.3	0.01764215498658668	52.88759539082366	40.368387879751374	10.0
SWI5=tf_rep(CLN3)	242.0854527124471	0.3	0.017643319427961806	52.5092302326409	40.40325820091173	10.0
SWI5=tf_rep(CLN3)	242.08673086855657	0.3	0.017643422777646196	52.42019951007	40.411467545660436	10.0
SWI5=tf_rep(CLN3)	242.08181762147524	0.3	0.01764260629679506	52.76448935487974	40.379710374174316	10.0
SWI5=tf_rep(CLN3)	242.07668027353202	0.3	0.01764163143456174	53.13054928947649	40.34621702752873	10.0
SWI5=tf_rep(CLN3)	242.0822422918159	0.3	0.017642588612025698	52.734506733919545	40.38244326868887	10.0
SWI5=tf_rep(CLN3)	242.08683555960357	0.3	0.017643432440983653	52.41292503769122	40.41214867665751	10.0
SWI5=tf_rep(CLN3)	242.09162253297933	0.3	0.017638753451769615	52.74341769673911	40.36790971991832	9.983949337712795
SWI5=tf_rep(CLN3)	242.07679232867332	0.3	0.017641612708438358	53.12249517019794	40.346928280810516	10.0
SWI5=tf_rep(CLN3)	242.08245646135256	0.3	0.017642629532235936	52.71940295024396	40.383828236507796	10.0
SWI5=tf_rep(WHI5)	589.7162963939671	0.3	0.0	45.64671542361422	34.88715833729729	9.931612683427847
SWI5=tf_rep(WHI5)	589.7133822254593	0.3	0.0	45.290057879027586	34.95596504571573	9.965080125053786
SWI5=tf_rep(WHI5)	589.7137842941041	0.3	0.0	45.19810627218929	34.9383587373505	9.944256983635999
SWI5=tf_rep(WHI5)	589.7174151267475	0.3	0.0	45.53371449275029	34.86235620059247	9.899584236777747
SWI5=tf_rep(WHI5)	589.734482668259	0.3	0.0	45.868648048372556	34.636003850464725	9.720468275897309
SWI5=tf_rep(WHI5)	589.7402385355286	0.3	0.0	45.4653596036425	34.60949583762942	9.66215370970377
SWI5=tf_rep(WHI5)	589.7355985416142	0.3	0.0	45.14540586760025	34.66221659437063	9.6888629477518
SWI5=tf_rep(WHI5)	589.745667627174	0.3	0.0	45.470644888541756	34.56436336362458	9.628734616741694
SWI5=tf_rep(WHI5)	589.7203783388338	0.3	0.0	45.876128474828555	34.80614332409795	9.8747270130013
SWI5=tf_rep(WHI5)	589.7321968757285	0.3	0.0	45.454787887870275	34.67770747089438	9.725230026299036
SWI5=tf_act(YOX1)	371.79754644987753	0.0	0.0033085187443257	10.91431947892869	97.3456547540272	10.0
SWI5=tf_act(YOX1)	370.93041500273574	0.0	0.00334270416823455	12.647790727120741	100.0	10.0
SWI5=tf_act(YOX1)	370.9304150028214	0.0	0.0033426991669010257	12.64778481248595	100.0	10.0
SWI5=tf_act(YOX1)	370.93041500285	0.0	0.00334269855348125	12.647783250897126	100.0	10.0
SWI5=tf_act(YOX1)	370.9581635138116	0.0	0.003306985662116282	12.54746127821293	99.91504043676174	10.0
SWI5=tf_act(YOX1)	370.930415003153	0.0	0.003342704203576272	12.647799824619776	100.0	10.0
SWI5=tf_act(YOX1)	371.04781718509986	0.0	0.003260721132258261	12.450268711684371	99.92079295851742	9.90178991096427
SWI5=tf_act(YOX1)	370.955442697163	0.0	0.0033077564524430347	12.554547674092785	99.92386912513045	10.0
SWI5=tf_act(YOX1)	370.9304150044321	0.0	0.003342685173404122	12.647760312332272	100.0	10.0
SWI5=tf_act(YOX1)	371.0244693554851	0.0	0.003338690917514499	12.421396786899283	99.6841966147644	10.0
SWI5=tf_rep(YOX1)	596.3884144205265	0.3	0.011612315025338216	6.115990478514207	4.452778450860003	1.0
SWI5=tf_rep(YOX1)	575.4036406267206	0.3	0.023786012645673447	1.780430686271396	100.0	1.0
SWI5=tf_rep(YOX1)	575.4099885169505	0.3	0.023783875964572966	1.7804994123619065	99.95883517946888	1.0
SWI5=tf_rep(YOX1)	575.4036406033782	0.3	0.023786164488369836	1.7804477412935649	100.0	1.0
SWI5=tf_rep(YOX1)	575.4709337905545	0.3	0.023784424364417522	1.7825793719383811	99.56449649526633	1.0
SWI5=tf_rep(YOX1)	575.4127999458452	0.3	0.0237834687537301	1.780565993224749	99.94060833663028	1.0
SWI5=tf_rep(YOX1)	575.4036406051415	0.3	0.0237860060497678	1.7804372206590928	100.0	1.0
SWI5=tf_rep(YOX1)	575.437579352662	0.3	0.02379799619502088	1.7824158682803974	99.78026695291184	1.0
SWI5=tf_rep(YOX1)	575.4168558831051	0.3	0.02380141598659375	1.7819505894483556	99.91445523323179	1.0
SWI5=tf_rep(YOX1)	575.4643240615072	0.3	0.023768120372317094	1.7811991674573853	99.60709208523143	1.0
SWI5=tf_act(ASH1)	619.8367364090453	0.3	0.0	0.0	100.0	10.0
SWI5=tf_act(ASH1)	619.8367364090453	0.3	0.0	0.0	100.0	10.0
SWI5=tf_act(ASH1)	619.8367364090453	0.3	0.0	0.0	99.95866408513228	10.0
SWI5=tf_act(ASH1)	619.8367364090453	0.3	0.0	0.0	99.86026172238458	10.0
SWI5=tf_act(ASH1)	619.8367364090453	0.3	0.0	0.0	99.51267460635796	9.83673416785204
SWI5=tf_act(ASH1)	619.8367364090453	0.3	0.0	0.0	99.45271003556175	9.798657945975558
SWI5=tf_act(ASH1)	619.8367364090453	0.3	0.0	0.0	99.56745822209055	9.75396389391306
SWI5=tf_act(ASH1)	619.8367364090453	0.3	0.0	0.0	99.48585733971065	9.623892192999914
SWI5=tf_act(ASH1)	619.8367364090453	0.3	0.0	0.0	99.93929492013105	9.660159008497994
SWI5=tf_act(ASH1)	619.8367364090453	0.3	0.0	0.0	99.62945791472923	9.695182644088638
SWI5=tf_rep(ASH1)	275.13514187848915	0.0	0.009534523505706405	100.0	7.209936339330743	10.0
SWI5=tf_rep(ASH1)	275.1493410005693	0.0	0.009534012872473182	99.07907769338742	7.217161245634562	10.0
SWI5=tf_rep(ASH1)	275.15077856504934	0.0	0.009533350707776812	98.98678660769721	7.217862176529897	10.0
SWI5=tf_rep(ASH1)	275.14559761290195	0.0	0.00953372977395414	99.32014550635857	7.215243485544047	10.0
SWI5=tf_rep(ASH1)	275.2308651499165	0.000581799580219548	0.009440798362873846	99.64475014255537	7.204715716087163	9.970413232427196
SWI5=tf_rep(ASH1)	275.15189088781483	0.0	0.009533246549018727	98.91551678806454	7.218422691471106	10.0
SWI5=tf_rep(ASH1)	275.1568667470102	0.0	0.009532851946693148	98.59798974660751	7.220927571968227	10.0
SWI5=tf_rep(ASH1)	275.15180195478223	0.0	0.00953324651058795	98.92121109766083	7.218377409203444	10.0
SWI5=tf_rep(ASH1)	275.16201627652146	0.0	0.009533154714806424	98.27162307244055	7.223544342455826	10.0
SWI5=tf_rep(ASH1)	275.1688269759955	0.0	0.009531925518294791	97.84329484087512	7.2269211593997005	10.0
