# LEMpy local minima file for target RIF1, replicate 0
# Right-hand side of tf_act():  p0 - p1(tar) + p2(reg^p4) / (p3^p4 + reg^p4)
# Right-hand side of tf_rep():  p0 - p1(tar) + p2(p3^p4) / (p3^p4 + reg^p4)
# Run configuration file:  ../pipeline/src/yeast_data/simulations202110_Orlando_2/extra_nodes_no_annot/results5/edge_finding_20211013134623/lempy_20211013134623_config.txt
# Time series data file:   ../pipeline/src/yeast_data/time_series/orlando2008_WildType_r1_trunc.tsv
# Computed on:  2021-10-13 13:49:08 
 
model	loss	p0	p1	p2	p3	p4
RIF1=tf_act(SWI4)	65.44273451988246	0.3	0.09383533901810792	23.72744489601784	100.0	1.6675269415667684
RIF1=tf_act(SWI4)	65.44273452748517	0.3	0.09383511471146119	23.727400217123915	100.0	1.667528401974878
RIF1=tf_act(SWI4)	65.44273452677608	0.3	0.09383513390724392	23.727404251192706	100.0	1.66752826128488
RIF1=tf_act(SWI4)	65.442734526931	0.3	0.0938351298910961	23.727402430393717	100.0	1.667528187763674
RIF1=tf_act(SWI4)	65.4781219506195	0.3	0.09320327826582761	23.547211036111882	99.84303466652163	1.670828445571664
RIF1=tf_act(SWI4)	65.46142123931905	0.3	0.09385617793764156	23.713696663237478	99.90221334248874	1.6682168641901645
RIF1=tf_act(SWI4)	65.54840816100857	0.3	0.09409634719770409	23.685830317083425	99.45987194207994	1.6708793686527952
RIF1=tf_act(SWI4)	65.6055638182445	0.3	0.09336068383924676	23.45504539237149	99.16403494687961	1.6756463589549373
RIF1=tf_act(SWI4)	65.44273459236227	0.3	0.09383439541090613	23.727154941124233	100.0	1.667523820693677
RIF1=tf_act(SWI4)	65.52585803436797	0.3	0.09382764650063667	23.64271209538701	99.56703495776192	1.6709220034105186
RIF1=tf_rep(SWI4)	252.02734384850626	0.0	0.002372438346407802	0.0	24.21042375769474	3.420846318973347
RIF1=tf_rep(SWI4)	252.02734384850615	0.0	0.0023724383500443886	0.0	24.23869059033323	3.9766874756762585
RIF1=tf_rep(SWI4)	252.02734384850626	0.0	0.0023724383470472192	0.0	23.47866469766974	5.729780820958509
RIF1=tf_rep(SWI4)	252.0273438485062	0.0	0.002372438347869278	0.0	23.247993553750646	5.767837558901336
RIF1=tf_rep(SWI4)	252.0273438485039	0.0	0.002372438411230457	0.0	23.09070833281155	5.754903641155432
RIF1=tf_rep(SWI4)	252.02734384850507	0.0	0.0023724383802921534	0.0	23.129778624860524	5.721388285230317
RIF1=tf_rep(SWI4)	252.02734384846312	6.774990949432803e-21	0.0023724396940320545	0.0	22.6876980875801	5.728486297969301
RIF1=tf_rep(SWI4)	252.02734384850626	0.0	0.0023724383461340157	0.0	22.290784382091694	5.713419759597368
RIF1=tf_rep(SWI4)	252.02734384850623	0.0	0.002372438346748755	0.0	22.519636066751797	5.719307515037599
RIF1=tf_rep(SWI4)	252.02734384850623	0.0	0.002372438346748755	0.0	22.063313253472586	5.7049454993448405
RIF1=tf_act(HCM1)	216.51699790029437	0.3	0.013411415775370396	2.6224709252890865	78.72561762828566	10.0
RIF1=tf_act(HCM1)	216.5280794646595	0.3	0.013346878557154036	2.7079568728244117	79.64051221160057	10.0
RIF1=tf_act(HCM1)	216.60982856294626	0.3	0.013257189780434166	2.8363506498682947	80.9556711254826	10.0
RIF1=tf_act(HCM1)	216.59640487606947	0.3	0.013246745073162522	2.7937459529694375	80.68167002716486	9.976865762862534
RIF1=tf_act(HCM1)	216.55717152247448	0.3	0.013303373237459578	2.7669411795855865	80.2575485154049	10.0
RIF1=tf_act(HCM1)	216.52210367195016	0.3	0.01335776325699077	2.6870038913411878	79.43523072406185	10.0
RIF1=tf_act(HCM1)	216.51611852497973	0.3	0.013388225622127778	2.6455647568435774	78.99462833938945	10.0
RIF1=tf_act(HCM1)	216.51601671332634	0.3	0.013394027052164624	2.6391613895398995	78.92234574091304	10.0
RIF1=tf_act(HCM1)	216.51603490012099	0.3	0.013391571672645073	2.642374887823997	78.95706312419348	10.0
RIF1=tf_act(HCM1)	216.56573001005577	0.3	0.01349383098187336	2.520080825373742	77.5914861952117	9.989861818391288
RIF1=tf_rep(HCM1)	250.90488622925574	0.0	0.0041279170417463	1.8922318254173067	19.930907475497293	4.342586541502196
RIF1=tf_rep(HCM1)	250.91331795902994	0.0	0.004443337951988169	2.1674148773678956	20.14242952003439	4.363899535565785
RIF1=tf_rep(HCM1)	250.79002139747215	0.0	0.004237249446088503	1.7184005863464844	20.689051627753557	4.249745766394193
RIF1=tf_rep(HCM1)	250.81722683163352	0.0	0.004183883633159261	1.693658072969036	20.54721538095391	4.223976245568728
RIF1=tf_rep(HCM1)	250.85144359332207	0.0	0.0040500373751356615	1.5722427906690892	20.434784760690498	4.176271219149211
RIF1=tf_rep(HCM1)	250.98647186418074	0.0	0.0036463655658423963	1.114255021940512	20.569718075217924	4.032450361783317
RIF1=tf_rep(HCM1)	251.02829759178454	0.0	0.0037951806661682616	1.2502002363134979	20.230485096373066	3.8975112832705268
RIF1=tf_rep(HCM1)	238.92757552214206	0.0	0.007201001286369199	1.544959010479257	32.99681950557058	10.0
RIF1=tf_rep(HCM1)	238.96038115392798	0.0	0.007115536648462822	1.4883967281783475	33.28794447814874	10.0
RIF1=tf_rep(HCM1)	238.92757552142896	0.0	0.00720100145343446	1.5449584865981567	32.996850064132005	10.0
RIF1=tf_act(NDD1)	252.0273438485063	0.0	0.002372438347326348	0.0	99.7756643233828	1.0
RIF1=tf_act(NDD1)	252.02734384850626	0.0	0.002372438346090071	0.0	100.0	1.0
RIF1=tf_act(NDD1)	252.02734384841395	0.0	0.002372443188522393	0.0	100.0	1.0
RIF1=tf_act(NDD1)	252.02734384850626	0.0	0.0023724383456326216	0.0	99.7693288697857	1.038054766354642
RIF1=tf_act(NDD1)	252.02734384850388	0.0	0.0023724384117078	0.0	99.6120436488466	1.025120848608738
RIF1=tf_act(NDD1)	252.02734384850507	0.0	0.0023724383804486944	0.0	99.65111394089557	1.0
RIF1=tf_act(NDD1)	252.0273438484641	-6.776263578034403e-21	0.002372439657508928	0.0	99.20903340361514	1.0070980127389846
RIF1=tf_act(NDD1)	252.0273438485062	0.0	0.0023724383479965436	0.0	99.28603190621929	1.0
RIF1=tf_act(NDD1)	252.02734384850623	0.0	0.002372438346748755	0.0	99.51488359087939	1.0058877554402303
RIF1=tf_act(NDD1)	252.02734384850623	0.0	0.002372438346748755	0.0	99.05856077760018	1.0
RIF1=tf_rep(NDD1)	95.30066381301539	0.0	0.017106988828881217	100.0	13.231634947857739	3.3283020041610705
RIF1=tf_rep(NDD1)	95.31272547161586	0.0	0.016849056322924195	99.9127493510928	13.377302855395836	3.373542615046158
RIF1=tf_rep(NDD1)	95.30089393336341	0.0	0.017106349240535307	99.83794595375551	13.239352327651435	3.3285606636690424
RIF1=tf_rep(NDD1)	95.3061669194528	0.0	0.016932114530633882	99.40473147043797	13.345102615861645	3.3573037349140242
RIF1=tf_rep(NDD1)	95.30220208633379	0.0	0.017159574235931212	99.28264592858271	13.235366284631931	3.319841992206481
RIF1=tf_rep(NDD1)	95.3047141849713	0.0	0.017217786482702842	98.76714248484922	13.22701906589834	3.310271470495049
RIF1=tf_rep(NDD1)	95.3024620911733	0.0	0.01710581780506239	98.74821830599797	13.289480653560537	3.329629273983537
RIF1=tf_rep(NDD1)	95.30218333080623	0.0	0.01710588997774394	98.94005247777977	13.280620939428761	3.329445010087455
RIF1=tf_rep(NDD1)	95.30239769854006	0.0	0.017105437098842175	98.7925031941709	13.287668011107643	3.329658718885185
RIF1=tf_rep(NDD1)	95.30298978383021	0.0	0.017105249533780332	98.38730214472551	13.306505804028916	3.3300633725566398
RIF1=tf_act(SWI5)	252.0273438485062	0.0	0.0023724383486194707	0.0	82.87062393850981	1.0
RIF1=tf_act(SWI5)	252.0273438485063	0.0	0.0023724383451162756	0.0	83.12948762526139	1.0
RIF1=tf_act(SWI5)	252.02734384850632	0.0	0.0023724383452995573	0.0	83.63121974292312	1.0
RIF1=tf_act(SWI5)	252.02734384850623	0.0	0.0023724383479244594	0.0	83.40054861973721	1.038057235782745
RIF1=tf_act(SWI5)	252.02734384850388	0.0	0.0023724384116945267	0.0	83.2432633987981	1.0251233180368409
RIF1=tf_act(SWI5)	252.02734384850504	0.0	0.002372438380051079	0.0	83.28233369084708	1.0
RIF1=tf_act(SWI5)	252.02734384846445	0.0	0.002372439645580055	0.0	82.84025315356665	1.0070980127389846
RIF1=tf_act(SWI5)	252.02734384850623	0.0	0.0023724383466732796	0.0	82.47942372769893	1.0
RIF1=tf_act(SWI5)	252.02734384850623	0.0	0.002372438346748755	0.0	82.70827541235903	1.0058877554402303
RIF1=tf_act(SWI5)	252.02734384850623	0.0	0.002372438346748755	0.0	82.25195259907981	1.0
RIF1=tf_rep(SWI5)	36.861186928131524	0.007194598002004934	0.05213420841045633	6.499499135202596	36.38381807121236	1.573060678455106
RIF1=tf_rep(SWI5)	37.0343143843337	0.0029512747174396275	0.054778021031959154	6.799408990818963	36.72443949754018	1.520219844520137
RIF1=tf_rep(SWI5)	36.85702202597521	0.0	0.05212703965202014	6.489587348240279	36.64162572399435	1.58365171724875
RIF1=tf_rep(SWI5)	36.8572034687594	-1.7327306904594032e-18	0.052146876034862455	6.497676880595199	36.57325695354971	1.5784121278239533
RIF1=tf_rep(SWI5)	36.85708136531939	0.0	0.05214392252149508	6.4948220889741295	36.60295394464287	1.5804665275092629
RIF1=tf_rep(SWI5)	36.85765022100831	0.0	0.05209081092112443	6.474820450825217	36.76687933876844	1.59336753125305
RIF1=tf_rep(SWI5)	36.86022851885857	0.0	0.052207508924850855	6.5236588002868885	36.35045850805521	1.56172790587652
RIF1=tf_rep(SWI5)	36.877493007833586	0.0	0.05246803940133585	6.593290498065949	35.895437545041574	1.5240534596633484
RIF1=tf_rep(SWI5)	36.85702202716465	0.0	0.052127000792929534	6.489583022028489	36.641608873315526	1.5836503469135583
RIF1=tf_rep(SWI5)	36.861774839723736	0.0	0.052224778790707645	6.531177561341325	36.28571525357527	1.5569243511904587
RIF1=tf_act(NRM1)	252.0273438485062	0.0	0.002372438346500144	0.0	99.77769454255787	1.0
RIF1=tf_act(NRM1)	252.0273438485062	0.0	0.0023724383467635017	0.0	100.0	1.0005661620858457
RIF1=tf_act(NRM1)	252.0273438484141	0.0	0.0023724436016576535	0.0	100.0	1.0
RIF1=tf_act(NRM1)	252.0273438485063	0.0	0.002372438346847218	0.0	99.76932887280411	1.0380551381693035
RIF1=tf_act(NRM1)	252.0273438485039	0.0	0.002372438411804376	0.0	99.61204365186501	1.0251212204233995
RIF1=tf_act(NRM1)	252.02734384850504	0.0	0.0023724383806576353	0.0	99.65111394391398	1.0
RIF1=tf_act(NRM1)	252.02734384846374	-6.776263578034403e-21	0.0023724396693005022	0.0	99.20903340663355	1.0070980127389846
RIF1=tf_act(NRM1)	252.02734384850623	0.0	0.002372438346859408	0.0	99.29002025999331	1.0
RIF1=tf_act(NRM1)	252.02734384850623	0.0	0.002372438346748755	0.0	99.51887194465341	1.0058877554402303
RIF1=tf_act(NRM1)	252.02734384850623	0.0	0.002372438346748755	0.0	99.0625491313742	1.0
RIF1=tf_rep(NRM1)	97.49522688442208	0.0	0.020577076920542118	5.344589220159932	22.011842630539643	3.028326169591178
RIF1=tf_rep(NRM1)	97.49672869175974	0.0	0.020571750233913604	5.370493784415644	21.86587816639225	3.000344969816715
RIF1=tf_rep(NRM1)	97.50155078547434	0.0	0.020566147321107762	5.398182282822961	21.711468187743193	2.971310491133363
RIF1=tf_rep(NRM1)	97.50407960360728	0.0	0.02051929309578281	5.4023872244063105	21.646716939367952	2.965611719594208
RIF1=tf_rep(NRM1)	97.49522688166628	0.0	0.020577106152768265	5.344603723088147	22.01175615830429	3.0283008137388596
RIF1=tf_rep(NRM1)	97.50871993582287	0.0	0.020592471082284486	5.269242104181067	22.44392727443704	3.1144429368570328
RIF1=tf_rep(NRM1)	97.49534925018213	0.0	0.020584559772642296	5.338043708952845	22.054483680065193	3.0357028505206904
RIF1=tf_rep(NRM1)	97.50495922178018	0.0	0.02055986007268537	5.410836510098988	21.637549612272068	2.9580200505193783
RIF1=tf_rep(NRM1)	97.49667853313191	0.0	0.020572060901044156	5.3701124057755525	21.868405446678143	3.000828791461858
RIF1=tf_rep(NRM1)	97.49522732875349	0.0	0.02057737097650986	5.344174784833149	22.014331390807563	3.0287686957869155
RIF1=tf_act(CLN3)	252.0273438485063	0.0	0.0023724383468747227	0.0	98.60257948315797	1.6609457178634452
RIF1=tf_act(CLN3)	231.39282066648374	0.0	0.013513261481316879	3.319117156188491	99.13682654400696	10.0
RIF1=tf_act(CLN3)	231.4018362874204	0.0	0.013454813041244124	3.411695356394487	99.6750763671084	10.0
RIF1=tf_act(CLN3)	231.3946191293522	0.0	0.01348894605186764	3.3600475082466366	99.37475981534763	10.0
RIF1=tf_act(CLN3)	231.3929234982957	0.0	0.013507812092820731	3.3288567163478398	99.19325616315301	10.0
RIF1=tf_act(CLN3)	231.39284498239599	0.0	0.01351584491392474	3.314350920080473	99.10923914382866	10.0
RIF1=tf_act(CLN3)	231.40174038486592	0.0	0.013664026451889588	3.2704510807063643	98.66882763448174	10.0
RIF1=tf_act(CLN3)	231.41016451341358	0.0	0.0135695145988401	3.195374114899095	98.42053937926059	10.0
RIF1=tf_act(CLN3)	231.43682640358972	0.0	0.013095659618572224	3.1030686675125354	98.65324676918931	10.0
RIF1=tf_act(CLN3)	231.4473164315676	0.0	0.013594049530596118	3.103220773533771	97.8895634324447	10.0
RIF1=tf_rep(CLN3)	252.02734384850575	0.0	0.002372438360353228	0.16298479421586376	0.001	4.551660222668618
RIF1=tf_rep(CLN3)	252.02734384906418	0.0	0.0023724383228611984	0.4647608504189057	0.318096884282389	4.5113190964233985
RIF1=tf_rep(CLN3)	252.02734392062354	0.0	0.002372438416517132	0.9636075977798354	0.8155925089456152	4.537636782209441
RIF1=tf_rep(CLN3)	252.0273438558353	0.0	0.0023724383478818524	0.5280814046601272	0.5849213851867496	4.5756937652976655
RIF1=tf_rep(CLN3)	252.02734384990006	0.0	0.002372438275443943	0.3940971097589717	0.4276361642476501	4.562759847551762
RIF1=tf_rep(CLN3)	252.0273438485051	0.0	0.0023724383790827046	0.0	0.4667064562966255	4.529244491626646
RIF1=tf_rep(CLN3)	252.02734384846508	0.0	0.0023724396221820525	0.0	0.024625919016199094	4.5363425043656305
RIF1=tf_rep(CLN3)	252.0273438484142	0.0	0.002372443651760807	0.16087850841280904	0.001	4.498638388379183
RIF1=tf_rep(CLN3)	252.0273438485274	0.0	0.0023724383752216777	0.07745697734884738	0.22985168466010475	4.5045261438194135
RIF1=tf_rep(CLN3)	252.02734384850623	0.0	0.002372438346748755	0.0	0.001	4.490164128126655
RIF1=tf_act(WHI5)	252.02734384850638	0.0	0.0023724383458278344	0.0	99.77418328481531	1.0
RIF1=tf_act(WHI5)	252.02734384849717	0.0	0.0023724386001697136	0.0	100.0	1.0
RIF1=tf_act(WHI5)	252.02734384844712	0.0	0.0023724403454955787	0.0	100.0	1.0
RIF1=tf_act(WHI5)	252.02734384850626	0.0	0.0023724383455862442	0.0	99.76932886950138	1.0380549421736103
RIF1=tf_act(WHI5)	252.0273438485039	0.0	0.002372438412265185	0.0	99.61204364856228	1.0251210244277063
RIF1=tf_act(WHI5)	252.02734384850507	0.0	0.002372438379780854	0.0	99.65111394061125	1.0
RIF1=tf_act(WHI5)	252.0273438484642	6.764015625100038e-21	0.002372439655184906	0.0	99.20903340333082	1.0070980127389846
RIF1=tf_act(WHI5)	252.02734384850615	0.0	0.0023724383492978603	0.0	98.84689651091519	1.0
RIF1=tf_act(WHI5)	252.02734384850623	0.0	0.002372438346748755	0.0	99.07574819557529	1.0058877554402303
RIF1=tf_act(WHI5)	252.02734384850623	0.0	0.002372438346748755	0.0	98.61942538229607	1.0
RIF1=tf_rep(WHI5)	136.51361074708896	0.0	0.01223916536748926	17.222967428395968	37.16380229251289	6.80833716015252
RIF1=tf_rep(WHI5)	136.5261685437678	0.0	0.012233831161124942	17.34647033358723	37.09967283122237	6.800929352678707
RIF1=tf_rep(WHI5)	136.5576353358828	0.0	0.012052638521702703	17.613657340856594	37.024881301903584	6.875632243728333
RIF1=tf_rep(WHI5)	136.52215726309163	0.0	0.012151960374694695	17.308448729826566	37.149678958871014	6.847736838031211
RIF1=tf_rep(WHI5)	136.5148070561897	0.0	0.012215375782709623	17.23853963071781	37.163529642173216	6.819407844813195
RIF1=tf_rep(WHI5)	136.47790793544215	0.0	0.012366994601378335	16.807095132502344	37.34123498814351	6.773858658989613
RIF1=tf_rep(WHI5)	136.57819032810932	0.0	0.012676309861545072	16.837626529092418	37.09091918742743	6.553265843800248
RIF1=tf_rep(WHI5)	136.50734160487258	0.0	0.012203202248981668	17.16743238155414	37.20385981197727	6.830670732196027
RIF1=tf_rep(WHI5)	136.49179833686733	0.0	0.012187038955829982	17.02012946785666	37.28418980195399	6.849115487493721
RIF1=tf_rep(WHI5)	136.45599681163654	0.0	0.012088091095935035	16.68642645399592	37.49266609774818	6.927004020839416
RIF1=tf_act(YOX1)	174.13810097364555	0.3	0.05859539446803583	15.451106188139562	99.81556238992505	1.7664557543607282
RIF1=tf_act(YOX1)	174.12662985759582	0.3	0.05944796765350948	15.689810072014456	100.0	1.7592073844200136
RIF1=tf_act(YOX1)	174.12085736817204	0.3	0.05866732494252106	15.502953150286697	100.0	1.7656877792235735
RIF1=tf_act(YOX1)	174.1495463405285	0.3	0.058333286438436036	15.382225381426672	99.69369909053597	1.7710772216561301
RIF1=tf_act(YOX1)	174.15836707431365	0.3	0.05884161388993673	15.489596802005805	99.59702975267655	1.7674283936074116
RIF1=tf_act(YOX1)	174.20254745653912	0.3	0.056339002733918495	14.897083415491304	99.63850362612389	1.7890252790685937
RIF1=tf_act(YOX1)	174.23494507154103	0.3	0.05645194550390743	14.865131049517263	99.19600641327622	1.7916178737065314
RIF1=tf_act(YOX1)	174.24569095268288	0.3	0.05706000829833733	14.962572282783983	98.84022802957905	1.7890723158598276
RIF1=tf_act(YOX1)	174.2048895593325	0.3	0.05852233780909016	15.343876561123416	99.08706702308413	1.7742431679454296
RIF1=tf_act(YOX1)	174.24612969322143	0.3	0.05840210096753515	15.255043710795128	98.6452067803679	1.7788892764344588
RIF1=tf_rep(YOX1)	169.3833680175769	0.0	0.004839810747654759	96.897747039477	6.916469813558553	10.0
RIF1=tf_rep(YOX1)	169.3848741693421	0.0	0.004839984064865626	97.08816525630039	6.909361740046768	9.962178148134745
RIF1=tf_rep(YOX1)	169.3837284958234	0.0	0.00483984784660403	97.33290772250021	6.911563499679123	9.990245384627942
RIF1=tf_rep(YOX1)	169.38448287823147	0.0	0.004839850577420989	96.89918597394158	6.9123273996989125	9.972113163111054
RIF1=tf_rep(YOX1)	169.38507931526672	0.0	0.0048400082853790275	96.77016540388216	6.911234177002301	9.957644167006087
RIF1=tf_rep(YOX1)	169.3864818174412	0.0	0.004840194653714115	96.27049406141872	6.910361054386981	9.924595065998048
RIF1=tf_rep(YOX1)	169.38896930829006	0.0	0.00484040173996574	96.23381327615576	6.902002752976269	9.86681486063781
RIF1=tf_rep(YOX1)	169.39347444412235	0.0	0.004840862746927793	96.39724034829484	6.885689875545108	9.76815951037559
RIF1=tf_rep(YOX1)	169.39284629568735	-6.776263578034403e-21	0.0048408945365346605	96.25923871914192	6.888908935939706	9.781636925566513
RIF1=tf_rep(YOX1)	169.39810627436353	0.0	0.004841440295190879	95.90450612906243	6.875418493943667	9.67523469612409
RIF1=tf_act(ASH1)	257.00087944893363	0.0001961667527192329	0.0025315922200637546	0.12539139464293342	69.61113603262993	3.746045222952198
RIF1=tf_act(ASH1)	252.02734384850626	0.0	0.0023724383471372687	0.0	70.31107528465087	3.7927130254394745
RIF1=tf_act(ASH1)	252.02734384850623	0.0	0.0023724383461995306	0.0	71.11735373660512	3.988940879706641
RIF1=tf_act(ASH1)	252.02734384850623	0.0	0.002372438348223876	0.0	70.88668261416889	4.02699783199937
RIF1=tf_act(ASH1)	252.0273438485039	0.0	0.0023724384107102754	0.0	70.72939739322979	4.014063914253466
RIF1=tf_act(ASH1)	252.027343848505	0.0	0.0023724383802431657	0.0	70.76846768527876	3.9805485583283504
RIF1=tf_act(ASH1)	252.0273438484625	6.774125836882852e-21	0.0023724397176422283	0.0	70.32638714799833	3.987646571067335
RIF1=tf_act(ASH1)	252.0273438485063	0.0	0.0023724383459328272	0.0	69.98934284452895	3.9559942270714186
RIF1=tf_act(ASH1)	252.02734384850623	0.0	0.002372438346748755	0.0	70.21819452918905	3.961881982511649
RIF1=tf_act(ASH1)	252.02734384850623	0.0	0.002372438346748755	0.0	69.76187171590983	3.94751996681889
RIF1=tf_rep(ASH1)	181.89080922425725	0.3	0.0697830363929607	6.342472271036539	48.16328187462553	1.2905144542927003
RIF1=tf_rep(ASH1)	181.89895024711606	0.3	0.07046077120842341	6.445181159751084	47.758281735138894	1.2650757554658172
RIF1=tf_rep(ASH1)	181.93742240402366	0.3	0.07149121502905108	6.620920523546257	46.881272405798676	1.2208340627534586
RIF1=tf_rep(ASH1)	181.9346853813278	0.3	0.0703278896313443	6.501999969998613	46.73670241947226	1.2341731662899234
RIF1=tf_rep(ASH1)	181.93321300412995	0.3	0.07073389369278278	6.542707718970658	46.79924476094776	1.229733316406534
RIF1=tf_rep(ASH1)	181.92819024798226	0.3	0.07019678050693007	6.478161843874657	46.86863997389483	1.2404308998298823
RIF1=tf_rep(ASH1)	181.95639459945073	0.3	0.06938292116434003	6.41826747393407	46.421311208090756	1.2409574438397946
RIF1=tf_rep(ASH1)	181.9716675847505	0.3	0.07089059887640299	6.6077156911079395	46.11364623830537	1.2085569120409447
RIF1=tf_rep(ASH1)	181.95356216911958	0.3	0.0706611317543572	6.561925690402071	46.4006954890392	1.2203104612833884
RIF1=tf_rep(ASH1)	181.97845095524482	0.3	0.07054981482834646	6.579892321480485	45.98847695480221	1.2074980872285614
RIF1=tf_act(RIF1)	243.4125000270469	0.3	0.010608570176906721	3.000076104331784	99.81479823981934	10.0
RIF1=tf_act(RIF1)	243.36867015719167	0.3	0.010628417223459335	3.052632289505475	100.0	10.0
RIF1=tf_act(RIF1)	243.36867015741933	0.3	0.010628412962349081	3.0526323850703942	100.0	10.0
RIF1=tf_act(RIF1)	243.36867015719722	0.3	0.01062841706081814	3.0526326211970525	100.0	10.0
RIF1=tf_act(RIF1)	243.40509594699594	0.3	0.010627053933811675	3.022040519355832	99.84495818549173	10.0
RIF1=tf_act(RIF1)	243.36867015708785	0.3	0.010628419930327431	3.0526345116531766	100.0	10.0
RIF1=tf_act(RIF1)	243.46880405367955	0.3	0.010595861909352805	2.945226187110145	99.5773274777504	10.0
RIF1=tf_act(RIF1)	243.3686701598734	0.3	0.010628480709227547	3.052658962615325	100.0	10.0
RIF1=tf_act(RIF1)	243.3686701572062	0.3	0.010628422749551726	3.052642320596281	100.0	10.0
RIF1=tf_act(RIF1)	243.49207159992858	0.3	0.010609298813725822	2.9389605663571357	99.48607450514871	9.993579115090839
RIF1=tf_rep(RIF1)	252.02734384850632	0.0	0.0023724383454903778	0.0	12.153251765914046	4.088189990771347
RIF1=tf_rep(RIF1)	252.02734384850626	0.0	0.0023724383469809316	0.0	12.426335219682782	4.424943524585838
RIF1=tf_rep(RIF1)	252.02764821867066	0.0	0.002385705012936053	0.4979902470869669	12.92368382459757	4.45188070865297
RIF1=tf_rep(RIF1)	252.02731434387024	0.0	0.0023738558965019623	0.06098666819415331	12.692980174459034	4.490058880340243
RIF1=tf_rep(RIF1)	252.0273438484961	0.0	0.002372438411896817	3.891803115703276e-08	12.535694953519934	4.477124962594339
RIF1=tf_rep(RIF1)	252.0273438485051	0.0	0.0023724383790743263	0.0	12.57476524556891	4.443609606669224
RIF1=tf_rep(RIF1)	252.02734384846445	6.7758753338905106e-21	0.002372439645200998	0.0	12.132684708288483	4.450707619408208
RIF1=tf_rep(RIF1)	252.0271266580822	0.0	0.002373517604219441	0.08235819597711476	11.7646635975017	4.656026314045703
RIF1=tf_rep(RIF1)	252.02734384848821	0.0	0.0023724386911455437	1.9865324194449575e-09	11.993515282161805	4.661914069485934
RIF1=tf_rep(RIF1)	252.02734384849032	0.0	0.0023724386911365644	1.5830783974312007e-09	11.537192468882594	4.647552053793175
RIF1=tf_act(EDS1)	153.14345484179165	0.0005960053884024338	0.0521875469099258	8.167123547199953	56.20669187582964	4.2572325938015085
RIF1=tf_act(EDS1)	108.73816932443164	0.3	0.012405088462103253	14.342039822541157	100.0	10.0
RIF1=tf_act(EDS1)	108.7381693245698	0.3	0.012405084412773205	14.342030376965745	100.0	10.0
RIF1=tf_act(EDS1)	108.76644946061519	0.3	0.012399578638128112	14.071965862827483	99.65712138200934	10.0
RIF1=tf_act(EDS1)	108.73816932445604	0.3	0.012405087119042639	14.342034674356123	100.0	10.0
RIF1=tf_act(EDS1)	108.76249434697048	0.3	0.012410654560655814	14.340867626450184	99.99716647271724	9.969777646917226
RIF1=tf_act(EDS1)	108.77087405916275	0.3	0.012406559672008136	14.047889919012727	99.5985332815874	10.0
RIF1=tf_act(EDS1)	108.7381693244361	0.3	0.012405087762332996	14.342036404292037	100.0	10.0
RIF1=tf_act(EDS1)	108.73816932525881	0.3	0.012405078950791674	14.34200783433826	100.0	10.0
RIF1=tf_act(EDS1)	108.73816932469038	0.3	0.012405082170808074	14.34203040296626	100.0	10.0
RIF1=tf_rep(EDS1)	252.0273438485063	0.0	0.002372438345173352	0.0	24.40342008584421	3.4028019526121955
RIF1=tf_rep(EDS1)	252.02734384850632	0.0	0.002372438346351744	0.0	24.212289626884097	5.700443911205028
RIF1=tf_rep(EDS1)	252.02734384850632	0.0	0.0023724383471144714	0.0	24.198226905541638	7.06374750234868
RIF1=tf_rep(EDS1)	252.02734384850626	0.0	0.0023724383480151867	0.0	23.967555600211096	7.101804841987725
RIF1=tf_rep(EDS1)	252.02734384850388	0.0	0.002372438412120712	0.0	23.810270379271998	7.088870924241822
RIF1=tf_rep(EDS1)	252.02734384850507	0.0	0.0023724383794495986	0.0	23.849340671320974	7.055355568316706
RIF1=tf_rep(EDS1)	252.02734384846377	0.0	0.0023724396694910317	0.0	23.40726013404055	7.06245358105569
RIF1=tf_rep(EDS1)	252.02734384850626	0.0	0.0023724383453498353	0.0	23.058851252660155	6.998892177635394
RIF1=tf_rep(EDS1)	252.02734384850623	0.0	0.002372438346748755	0.0	23.287702937320258	7.004779933075625
RIF1=tf_rep(EDS1)	252.02734384850623	0.0	0.002372438346748755	0.0	22.831380124041047	6.990417917382866
