# LEMpy target file for NDD1, replicate 0 
# Run configuration file:  ../pipeline/src/yeast_data/simulations202110_Orlando_2/extra_nodes_no_annot/results5/edge_finding_20211013134623/lempy_20211013134623_config.txt 
# Time series data file:   ../pipeline/src/yeast_data/time_series/orlando2008_WildType_r1_trunc.tsv 
# Computed on:  2021-10-13 13:49:10 
 
model	loss	pld	inv_temp	prior	rhs_param_0	rhs_param_1	rhs_param_2	rhs_param_3	rhs_param_4	hess_eigs	hess_det	bnd_params	pld_time	opt_time
tf_act(HCM1)	14.418609157483752	0.512571	1.0	0.045454545454545456	0.3	0.11332405806776527	17.819107987691197	57.38758124433524	2.4966543555972587	[1, 1, 7.533877833545325, 159.2261155227234, 9263753.193424502]	11112706640.594574	1.0	5.129299999939718e-05	0.5523020819999997
tf_act(YOX1)	18.50023994748858	0.446268	1.0	0.045454545454545456	0.3	0.07930683440713295	11.950983128629566	45.756783362158004	3.300139756742582	[1, 1.3158662784858153, 10.138462021412709, 43.290804036560154, 9263629.227702266]	5350084635.837539	1.0	4.362799999935163e-05	0.47233062299999995
tf_act(SWI4)	45.9190544809228	0.0384236	1.0	0.045454545454545456	0.0	0.053882325082378585	9.799428503206423	50.427837805326774	4.136526782591871	[1, 2.0411544317533843, 12.378374461958295, 21.834096822717655, 9263556.807742955]	5110371609.403198	1.0	0.00015486099999950653	0.5002534920000001
tf_act(RIF1)	77.57910717315379	0.00253599	1.0	0.045454545454545456	0.0	0.13137725660772157	13.22477303236199	50.649430499213025	10.0	[1, 2.0901959178019234, 7.57199642553045, 34.395825736017464, 9264407.683849089]	5043369568.030827	2.0	4.38000000002603e-05	0.4227136170000003
tf_rep(SWI5)	143.54901270247757	0.000175542	1.0	0.045454545454545456	0.0	0.027209436863666114	4.371716095424467	41.0539629871647	4.359500404104162	[1, 2.9891869476219344, 7.557985661907883, 35.26036855136431, 9263592.54486173]	7379474439.791001	1.0	4.5572000000326796e-05	0.4661979399999998
tf_rep(ASH1)	197.41202559341042	0.0000208346	1.0	0.045454545454545456	0.0	0.04815845717709086	4.987198282555014	57.190919300784095	3.905671207415582	[1, 4.210661811198274, 10.05249434540251, 21.30847179134562, 9264103.84399755]	8355643793.465762	1.0	4.315300000001798e-05	0.44280891700000025
tf_act(EDS1)	260.9805086188364	0.00000294933	1.0	0.045454545454545456	0.0	0.050803717479573865	5.655394947511185	45.36443232652808	10.0	[1, 1.0241870037181107, 10.686367193820153, 15.277067665186856, 9264084.02947931]	1549001510.8220756	2.0	4.497800000002883e-05	0.4401139070000002
tf_rep(CLN3)	324.38554975231244	0.000000618453	1.0	0.045454545454545456	0.0	0.11266746804265367	32.69059735062176	49.44041413218109	2.4266714064593713	[1, 1, 1.6472996346164042, 225.34609613786475, 9276470.27096872]	3443542108.498005	1.0	4.62350000001166e-05	0.4364373349999999
tf_rep(NRM1)	343.546707187246	0.00000033006	1.0	0.045454545454545456	0.0	0.0013995965938411107	3.9133431034125845	12.96597308618964	10.0	[1, 1, 6.854546103042265, 16.68124135804364, 9263185.873387754]	1059174329.5793393	2.0	4.3366999999960854e-05	0.40472962599999995
tf_act(WHI5)	321.0299403277592	0.000000294727	1.0	0.045454545454545456	0.3	0.2214900360236654	50.15890776402216	100.0	2.556347208643895	[1, 1, 1, 492.3231963927748, 9280967.60996031]	4569235639.353472	2.0	4.511800000006616e-05	0.45004206800000013
tf_rep(WHI5)	382.90280217884117	0.000000204812	1.0	0.045454545454545456	0.0	0.001929400725155818	9.255348352784713	39.75369641472883	10.0	[1, 1, 3.0332981130783936, 12.405413100746806, 9263188.640319021]	348567453.9078518	2.0	4.4102999999573456e-05	0.41098101200000015
tf_rep(NDD1)	314.34139899508625	0.000000163175	1.0	0.045454545454545456	0.0	0.0021740906878210333	100.0	21.799841152932796	10.0	[1, 1, 8.803816689202531, 66.5059262526086, 9263215.243151473]	5423667951.068938	3.0	4.473100000002006e-05	0.42932853699999995
tf_rep(EDS1)	437.8845159609078	0.0000000988583	1.0	0.045454545454545456	0.3	0.002719203513736143	0.0	17.295798392493992	5.703204559820883	[1, 1, 1, 10.686854877886923, 9263180.318612458]	98994263.77270968	2.0	4.509800000018771e-05	0.3515517319999999
tf_rep(RIF1)	437.88451596080785	0.0000000988499	1.0	0.045454545454545456	0.3	0.0027192066581711873	0.0	22.134427530511044	6.12328463373429	[1, 1, 1, 10.68866625492387, 9263180.342507262]	99011043.1402315	2.0	4.490400000012329e-05	0.31615957100000003
tf_act(CLN3)	437.0188104847089	0.0000000585097	1.0	0.045454545454545456	0.3	0.007407901919781425	0.7237034912142469	98.15247042898798	1.0	[1, 1, 2.241206830025259, 14.18714765941814, 9263571.350922829]	294547592.33679044	2.0	5.032799999948878e-05	0.3659991250000001
tf_rep(YOX1)	437.8845159609076	0.0000000383279	1.0	0.045454545454545456	0.3	0.0027192035159355715	0.0	34.13312418355731	3.296941259254201	[1, 1, 4.1657440968119275, 17.066351463322334, 9263465.053232415]	658577274.1839877	2.0	4.267100000010515e-05	0.35908271
tf_act(ASH1)	437.88451596090766	0.000000019166	1.0	0.045454545454545456	0.3	0.0027192035148049863	0.0	50.07685888850487	2.741167919142138	[1, 1, 8.095472038784413, 35.12033268165753, 9263415.567203322]	2633734214.7529473	2.0	4.273800000031969e-05	0.3525898190000003
tf_act(SWI5)	437.8845159609056	0.000000014574	1.0	0.045454545454545456	0.3	0.002719203558661317	0.0	10.799687402049805	1.0380554260139594	[1, 1, 10.401150071470306, 47.2702667631027, 9264275.957090348]	4554921521.743914	2.0	4.615599999979736e-05	0.35589751299999994
tf_act(NDD1)	437.88451596079886	0.0000000132392	1.0	0.045454545454545456	0.3	0.0027192097183192476	0.0	100.0	1.0	[1, 1, 3.3860496469114696, 10.998260046497741, 9263487.695387129]	344978345.1650772	4.0	4.529300000033487e-05	0.4061343019999999
tf_act(NRM1)	432.9833797888888	0.0000000120767	1.0	0.045454545454545456	0.0898671790703197	0.016480898189491493	1.1678305264437094	0.001	1.0499816665795303	[1, 1, 21.362320232985535, 169.55410336898856, 9265093.52898639]	33558808544.353794	1.0	4.50739999999783e-05	0.38903728800000037
tf_rep(HCM1)	437.88451596079204	0.0000000118245	1.0	0.045454545454545456	0.3	0.0027192083685920847	0.0	87.65821178559315	1.0	[1, 1, 8.091135441251685, 23.078494990377195, 9263944.762066394]	1729867788.4686089	3.0	5.148199999993608e-05	0.32829103700000006
tf_rep(SWI4)	437.88451596082734	0.0000000105367	1.0	0.045454545454545456	0.3	0.002719205745825274	0.0	97.90591417506509	1.0	[1, 1, 9.156311076420577, 25.682824827940657, 9264071.933559427]	2178538539.3333316	3.0	6.324800000001574e-05	0.28594459000000017
null_model	437.8845159609077				0.3	0.0027192035134547318								
