# LEMpy local minima file for target NRM1, replicate 0
# Right-hand side of tf_act():  p0 - p1(tar) + p2(reg^p4) / (p3^p4 + reg^p4)
# Right-hand side of tf_rep():  p0 - p1(tar) + p2(p3^p4) / (p3^p4 + reg^p4)
# Run configuration file:  ../pipeline/src/yeast_data/simulations202110_Orlando_2/extra_nodes_annot/results4/edge_finding_20211012001140/lempy_20211012001140_config.txt
# Time series data file:   ../pipeline/src/yeast_data/time_series/orlando2008_WildType_r1_trunc.tsv
# Computed on:  2021-10-12 00:13:52 
 
model	loss	p0	p1	p2	p3	p4
NRM1=tf_act(SWI4)	104.46904778134719	0.0	0.056288445359404464	8.992771455237799	54.96962322905384	4.859340739387309
NRM1=tf_act(SWI4)	104.45698601757171	0.0	0.05643752993378561	8.965491765759497	54.69306306722202	4.930775840387708
NRM1=tf_act(SWI4)	104.46764739348896	0.0	0.0563984054990635	8.999634598490672	54.93855405502969	4.858831567758592
NRM1=tf_act(SWI4)	104.49686121693789	0.0	0.05620192576936733	9.020091356490184	55.20086853019224	4.799788051635647
NRM1=tf_act(SWI4)	104.45698562261136	0.0	0.05643633438117294	8.965372010154605	54.693398721629734	4.930788954213246
NRM1=tf_act(SWI4)	104.47355726352865	0.0	0.05631687031900849	9.002482642263576	55.01303817068159	4.8436288782777615
NRM1=tf_act(SWI4)	104.45698562486295	0.0	0.05643617029634995	8.96535925956772	54.693427263494215	4.930793904166364
NRM1=tf_act(SWI4)	104.4618667452546	0.0	0.0563423640067784	8.98266368748845	54.867976607475015	4.885302350313791
NRM1=tf_act(SWI4)	104.45698598535655	0.0	0.05643452485675599	8.965244576038353	54.69353641555926	4.930972075368833
NRM1=tf_act(SWI4)	104.49112628009371	0.0	0.05670570553492345	8.924618583492313	54.24864564335009	5.051309358922511
NRM1=tf_rep(SWI4)	604.216520601132	0.3	0.0031515903120483456	0.0	0.24010444492067404	1.026983537615086
NRM1=tf_rep(SWI4)	604.216520601132	0.3	0.003151590314733707	0.0	0.001	1.0011655371989232
NRM1=tf_rep(SWI4)	604.2240315825421	0.3	0.0031534860129756857	0.2411194983963459	0.016887280407438133	1.0113587606638141
NRM1=tf_rep(SWI4)	604.2165206011315	0.3	0.0031515903256404405	0.0	0.4574212681696874	1.0542203774102619
NRM1=tf_rep(SWI4)	604.2165206011322	0.3	0.003151590305118205	0.0	0.014811117225971629	1.037091307308316
NRM1=tf_rep(SWI4)	604.2165206011312	0.3	0.003151590340747325	0.0	0.3851084814392623	1.0079386084266078
NRM1=tf_rep(SWI4)	604.2165206023747	0.3	0.003151618956325628	0.0	0.08145045595461978	2.0418018085172465
NRM1=tf_rep(SWI4)	604.2173650531386	0.3	0.0031517128263389652	0.2594321880247121	0.20369140331971833	2.0512755334827815
NRM1=tf_rep(SWI4)	604.2166015802899	0.3	0.003151608040598955	0.6800066802336612	0.035612907636423906	2.009909666278125
NRM1=tf_rep(SWI4)	604.2165206512788	0.3	0.0031515903181116084	0.42763949884449437	0.001	1.9843297734843388
NRM1=tf_act(HCM1)	28.14348785332837	0.0	0.10244383809880715	10.716101853278172	52.35057619273601	9.17341879485934
NRM1=tf_act(HCM1)	28.14264815876149	0.0	0.1024458422906513	10.712142890660918	52.343379583213306	9.210143091745445
NRM1=tf_act(HCM1)	28.142470894159054	0.0	0.10244396689547669	10.709144514494762	52.33859902929043	9.236484846418671
NRM1=tf_act(HCM1)	28.142561458764174	0.0	0.10244390622017549	10.711202381570976	52.3421373499531	9.217660020164091
NRM1=tf_act(HCM1)	28.142470894355636	0.0	0.10244395878740951	10.709143051050289	52.338597927610216	9.236493228105065
NRM1=tf_act(HCM1)	28.14247187157212	0.0	0.1024441414248226	10.70927252738739	52.338905226778586	9.235910378581476
NRM1=tf_act(HCM1)	28.1470827188932	0.0	0.10246010062245803	10.725041943612927	52.36287345114931	9.102310117522297
NRM1=tf_act(HCM1)	28.142470893899674	0.0	0.1024440074376592	10.709143397159638	52.33858935106175	9.236533783694039
NRM1=tf_act(HCM1)	28.14544676293022	0.0	0.10245240143049537	10.721603969037936	52.35840984990809	9.128615648551751
NRM1=tf_act(HCM1)	28.143293933639423	0.0	0.10244161581405603	10.71515732277799	52.349331714290884	9.179724396206183
NRM1=tf_act(NDD1)	263.5801040868907	0.3	0.4934545591202055	83.97538841791128	100.0	2.536880718444793
NRM1=tf_act(NDD1)	263.5795323860301	0.3	0.4927880423625222	83.86284178603755	100.0	2.5369805891071135
NRM1=tf_act(NDD1)	263.5844657189334	0.3	0.494727783844401	84.19050936356591	100.0	2.5366999241862835
NRM1=tf_act(NDD1)	263.5801762255871	0.3	0.49349768597812055	83.9822851779556	100.0	2.5368510241504745
NRM1=tf_act(NDD1)	263.5795323912087	0.3	0.4927878233427106	83.8628007789312	100.0	2.5369803584907493
NRM1=tf_act(NDD1)	263.5865448405559	0.3	0.49049751927148605	83.4755929564141	100.0	2.5372945827048197
NRM1=tf_act(NDD1)	263.57953239999614	0.3	0.4927874531235554	83.86274239023265	100.0	2.536980679677545
NRM1=tf_act(NDD1)	263.5825643091606	0.3	0.4943176884790518	84.12030023069093	100.0	2.53670166837079
NRM1=tf_act(NDD1)	263.579532384451	0.3	0.49278823295170887	83.86285450866117	100.0	2.53697949318063
NRM1=tf_act(NDD1)	263.57953230354144	0.3	0.49279545699052274	83.86409678227274	100.0	2.5369787657130907
NRM1=tf_act(SWI5)	604.2165206043029	0.3	0.003151632561479186	0.0	100.0	10.0
NRM1=tf_act(SWI5)	604.2165206011321	0.3	0.003151590312337718	0.0	99.75496021062415	9.974181999583838
NRM1=tf_act(SWI5)	604.2165206010795	0.3	0.0031515968512451416	0.0	99.89324301449116	9.99358243318064
NRM1=tf_act(SWI5)	604.2165206011317	0.3	0.00315159031891843	0.0	100.0	10.0
NRM1=tf_act(SWI5)	604.216520601132	0.3	0.0031515903101871135	-4.336808689942018e-19	99.55276169500121	9.981533828393502
NRM1=tf_act(SWI5)	604.216520601132	0.3	0.0031515903141605857	0.0	100.0	9.961561291730733
NRM1=tf_act(SWI5)	604.2165206011322	0.3	0.0031515903104903146	0.0	99.77360161807493	9.92628246607886
NRM1=tf_act(SWI5)	604.2165206025069	0.3	0.003151620128839967	0.0	100.0	9.978582205872506
NRM1=tf_act(SWI5)	604.2165206011317	0.3	0.003151590313327575	0.0	99.99998815912208	9.999994898268694
NRM1=tf_act(SWI5)	604.216520601132	0.3	0.0031515903147886575	0.0	99.54032760792435	9.97441500614091
NRM1=tf_rep(NRM1)	455.6884220424377	0.0	0.0021424485540126703	4.881079409072122	12.96429552234945	10.0
NRM1=tf_rep(NRM1)	455.66871165794936	0.0	0.00212977790151568	4.889050492153443	12.872312892073039	10.0
NRM1=tf_rep(NRM1)	455.6563268044907	0.0	0.0021185991263054952	4.902795578771067	12.759914284130254	10.0
NRM1=tf_rep(NRM1)	455.6550972925083	0.0	0.0021148497696459297	4.909683650692844	12.71220718849346	10.0
NRM1=tf_rep(NRM1)	455.76518850181714	0.0	0.00207905525350464	4.972923446028751	12.286948800028831	9.984468600376195
NRM1=tf_rep(NRM1)	455.6901508633901	0.0	0.0021087630205668933	4.922598580881164	12.623575789488768	9.948750969353318
NRM1=tf_rep(NRM1)	455.65509728888753	0.0	0.0021148734409848434	4.909690764643879	12.712236249536858	10.0
NRM1=tf_rep(NRM1)	455.6563341228704	0.0	0.0021197549175686085	4.903797086756465	12.760475085518042	10.0
NRM1=tf_rep(NRM1)	455.7184301151853	0.0	0.0020949895052978797	4.949114670805575	12.451780022701763	9.956412967079904
NRM1=tf_rep(NRM1)	455.65509728788186	0.0	0.0021148901724326805	4.909697107948743	12.712248291918819	10.0
NRM1=tf_rep(CLN3)	310.9164103243715	0.0	0.13430414175862204	17.647933665242192	73.02283052244157	5.811297134399671
NRM1=tf_rep(CLN3)	310.9134208024147	0.0	0.13431558423856474	17.740527841435338	72.85515351881637	5.771213395176835
NRM1=tf_rep(CLN3)	310.9195737549907	0.0	0.13448158493322743	17.888767468104767	72.62199239826909	5.7156857169054325
NRM1=tf_rep(CLN3)	310.9170099907524	0.0	0.1343273173113029	17.641666479188117	73.03969624271807	5.815215811678638
NRM1=tf_rep(CLN3)	310.91733490519084	0.0	0.1346219831231576	17.842803251200362	72.74485437542845	5.748882830282067
NRM1=tf_rep(CLN3)	310.9169798568438	0.0	0.13405709698397228	17.781570642562535	72.71427693118274	5.73468859443516
NRM1=tf_rep(CLN3)	310.913420805381	0.0	0.13431549135603457	17.74056450422915	72.85506612615565	5.771194776765841
NRM1=tf_rep(CLN3)	310.91354388238415	0.0	0.13431774422807402	17.75960562691105	72.82064136314261	5.763053309418679
NRM1=tf_rep(CLN3)	310.92526867387954	0.0	0.13433773629342355	17.932868013164896	72.50920649939924	5.691269158868055
NRM1=tf_rep(CLN3)	310.9540181827962	0.0	0.1342507266186913	18.0946518364809	72.19638380200537	5.622387869048162
NRM1=tf_rep(WHI5)	507.0478010779502	0.0	0.0028529574266893147	18.747696718664834	37.19439407620555	10.0
NRM1=tf_rep(WHI5)	507.04827081829313	0.0	0.002866480107692161	18.433157942388963	37.28128197565609	10.0
NRM1=tf_rep(WHI5)	507.04781422590594	0.0	0.002856878958366856	18.655536407684576	37.21964378154332	10.0
NRM1=tf_rep(WHI5)	507.04856242728374	0.0	0.002869740641510067	18.359168903983623	37.30202016520882	10.0
NRM1=tf_rep(WHI5)	507.0482059533652	0.0	0.002865627067914495	18.452630296133762	37.27583929793686	10.0
NRM1=tf_rep(WHI5)	507.0483999861445	0.0	0.0028680863084304922	18.398120099475555	37.291133196089234	10.0
NRM1=tf_rep(WHI5)	507.047813647865	0.0	0.0028519599271442393	18.771329066363034	37.18794904252293	10.0
NRM1=tf_rep(WHI5)	507.0482190144681	0.0	0.002842929897459397	18.987640617981363	37.129464094071004	10.0
NRM1=tf_rep(WHI5)	507.050481468445	0.0	0.002825363327669247	19.420925152914744	37.015023494908625	10.0
NRM1=tf_rep(WHI5)	507.0496094812514	0.0	0.0028305612924191506	19.290469642615122	37.04909192471409	10.0
NRM1=tf_act(YOX1)	34.40866484350269	0.0	0.07805258164821327	9.39672327964985	45.19001652430482	7.388580069252386
NRM1=tf_act(YOX1)	34.40076047858655	0.0	0.07798684053007947	9.382770880273497	45.15102967506067	7.47643951617035
NRM1=tf_act(YOX1)	34.40041109387112	0.0	0.07796201233958834	9.37864707925231	45.14188338288546	7.499460552450308
NRM1=tf_act(YOX1)	34.4071555566055	0.0	0.0780439394079364	9.394985644676389	45.185342262458356	7.399184903482543
NRM1=tf_act(YOX1)	34.40041109453979	0.0	0.07796197343942524	9.378642933644713	45.14188680861385	7.499454885402704
NRM1=tf_act(YOX1)	34.41664865040955	0.0	0.07809773752208672	9.404786956611137	45.20910521813511	7.344097586050436
NRM1=tf_act(YOX1)	34.40041109449656	0.0	0.07796197664322085	9.378644128895075	45.14188960106377	7.49945258799415
NRM1=tf_act(YOX1)	34.402762337640794	0.0	0.0780089506271306	9.3881153974577	45.16745203344636	7.440135328252926
NRM1=tf_act(YOX1)	34.40041113145517	0.0	0.07796145439661971	9.378580374547242	45.1418370244578	7.4995985314555025
NRM1=tf_act(YOX1)	34.400411094604024	0.0	0.07796197047964837	9.378642899641205	45.14188832072701	7.499451926737552
NRM1=tf_rep(YOX1)	604.2165206011317	0.3	0.003151590312462298	0.0	0.0690263869465049	1.0031794829964682
NRM1=tf_rep(YOX1)	604.2165206011317	0.3	0.0031515903171760768	0.0	0.001	1.0
NRM1=tf_rep(YOX1)	604.2193039771063	0.3	0.0031536694165684486	0.24114119370503087	0.016893638306060072	1.0101650375290736
NRM1=tf_rep(YOX1)	604.2165206011321	0.3	0.0031515903090536214	0.0	0.4031987662263937	1.063944805293971
NRM1=tf_rep(YOX1)	604.2165222865376	0.3	0.0031515922742010056	0.0038577373562165467	0.001	1.046711880896867
NRM1=tf_rep(YOX1)	604.2165206011314	0.3	0.0031515903370771424	0.0	0.36934929577286	1.0220362751854244
NRM1=tf_rep(YOX1)	604.2165207309173	0.3	0.0031515093947529515	0.004316841582803235	0.030843584157028425	1.4325172508755066
NRM1=tf_rep(YOX1)	604.2163765548073	0.3	0.0031521910818273313	0.2445281428210229	0.10385372992017382	1.4669681935105316
NRM1=tf_rep(YOX1)	604.2165812652067	0.3	0.003152512966951985	0.665113458464529	0.0414264139858086	1.4255373905283435
NRM1=tf_rep(YOX1)	604.2165212943546	0.3	0.003151593976360176	0.4127462770778035	0.001	1.3999574998006978
NRM1=tf_act(ASH1)	604.2165206203445	0.3	0.0031516863073549847	0.0	100.0	10.0
NRM1=tf_act(ASH1)	604.2165206011321	0.3	0.0031515903172140694	0.0	99.75496021062415	9.974181999583838
NRM1=tf_act(ASH1)	604.216520601132	0.3	0.003151590307984114	0.0	99.84376824852933	10.0
NRM1=tf_act(ASH1)	604.216520601132	0.3	0.0031515903139411423	0.0	100.0	10.0
NRM1=tf_act(ASH1)	604.2165206011317	0.3	0.0031515903155415535	0.0	99.55888190468747	9.98314366266239
NRM1=tf_act(ASH1)	604.2165206010739	0.3	0.003151595573104576	0.0	99.93901863955675	9.948476966855525
NRM1=tf_act(ASH1)	604.2165206011317	0.3	0.0031515903165605513	0.0	99.72851975047152	9.921438085607264
NRM1=tf_act(ASH1)	604.216520601132	0.3	0.0031515903132210135	0.0	99.96918127765414	9.999980380491413
NRM1=tf_act(ASH1)	604.2165206011317	0.3	0.003151590316827612	0.0	99.99998095319415	9.999997223522907
NRM1=tf_act(ASH1)	604.2165206011317	0.3	0.0031515903207317546	0.0	99.54032040199642	9.974417331395124
NRM1=tf_rep(ASH1)	604.2165206011321	0.3	0.0031515903113333485	0.10048675885160185	0.28104945572040196	10.0
NRM1=tf_rep(ASH1)	604.2165206011321	0.3	0.003151590314762075	0.0	0.03600966634455138	9.974181999583838
NRM1=tf_rep(ASH1)	604.216520601132	0.3	0.0031515903159607863	0.24131114236323759	0.05193643745133436	9.984033105199781
NRM1=tf_rep(ASH1)	604.2165206012062	0.3	0.0031515877325131746	0.033073873930394404	0.4949487713722457	10.0
NRM1=tf_rep(ASH1)	604.2165206011317	0.3	0.003151590312597409	0.03694819965317486	0.053341301359502546	9.982765279821214
NRM1=tf_rep(ASH1)	604.2165206011308	0.3	0.0031515903135330343	0.07504761103775892	0.42908581765948306	9.944531066446613
NRM1=tf_rep(ASH1)	604.2165206011317	0.3	0.003151590313330288	0.41257569170688413	0.17267300615660697	9.900033008349666
NRM1=tf_rep(ASH1)	604.2165206010744	0.3	0.0031515959366408388	0.670131889172775	0.2899074036765166	9.912109670321062
NRM1=tf_rep(ASH1)	604.2165206010746	0.3	0.0031515959253861337	1.090668621888357	0.12000026958808901	9.870964965875494
NRM1=tf_rep(ASH1)	604.216520601132	0.3	0.0031515903143858165	0.8383014404991902	0.001	9.84538507374771
NRM1=tf_act(RIF1)	188.71944558144938	0.0	0.09216502486310182	18.20061130860364	95.2022281572405	2.466394439176522
NRM1=tf_act(RIF1)	188.6983463223218	0.0	0.09217006928661188	18.121207581388845	94.87023536814156	2.4718076887971074
NRM1=tf_act(RIF1)	188.70295978934706	0.0	0.09216409195701604	18.13769917939656	94.94263902707337	2.470642814511231
NRM1=tf_act(RIF1)	188.7195977308367	0.0	0.09220942427896789	18.20773510159679	95.20147409273999	2.46616448591914
NRM1=tf_act(RIF1)	188.69303919942567	0.0	0.09216477896987613	18.100195137802412	94.78774433028155	2.4731554464118166
NRM1=tf_act(RIF1)	188.71602935775968	0.0	0.09215943565822961	18.186844885462566	95.14840648784832	2.467333391159455
NRM1=tf_act(RIF1)	188.70594337197954	0.0	0.09216204585581594	18.14870539545319	94.98949954220234	2.4698875953726347
NRM1=tf_act(RIF1)	188.71781337124904	0.0	0.09216649375967927	18.194630111989596	95.17631383681505	2.4668154977134717
NRM1=tf_act(RIF1)	188.71403520653922	0.0	0.09215667894908598	18.17871198722065	95.11705366019508	2.4678388642679754
NRM1=tf_act(RIF1)	188.68131834843624	0.0	0.09219604223638074	18.061207298171624	94.60465960621431	2.4760510380395764
NRM1=tf_rep(RIF1)	604.2165206011317	0.3	0.003151590318991646	0.0	0.023464263371923286	1.0041152795047694
NRM1=tf_rep(RIF1)	604.2165206011321	0.3	0.003151590314762075	0.0	0.001	1.0
NRM1=tf_rep(RIF1)	604.2190022386446	0.3	0.00315291606725266	0.24119938025090298	0.016892435197771664	1.010063535454183
NRM1=tf_rep(RIF1)	604.2165206011321	0.3	0.003151590312339597	0.0	0.4315745860840574	1.0618971463713585
NRM1=tf_rep(RIF1)	604.216522240227	0.3	0.003151591836019737	0.0038576796921998787	0.001	1.0446632913250702
NRM1=tf_rep(RIF1)	604.2264112805616	0.3	0.00315701965882288	0.041875541521270716	0.3764886295078716	1.0068851509803525
NRM1=tf_rep(RIF1)	604.2165517485556	0.3	0.003151645576286491	0.2842037050139736	0.001	1.1833242638134327
NRM1=tf_rep(RIF1)	604.2165524993471	0.3	0.003151667794528942	0.5058886343929974	0.001	1.2390064868205732
NRM1=tf_rep(RIF1)	604.2166082912903	0.3	0.003151653255430994	0.9263967807358647	0.001	1.1981139703086863
NRM1=tf_rep(RIF1)	604.2166027759979	0.3	0.00315162545064031	0.6740295902180107	0.001	1.1725341357611196
NRM1=tf_act(EDS1)	350.7333363634469	0.0	0.05053077894131141	5.2859207368540035	48.84521785318544	10.0
NRM1=tf_act(EDS1)	350.73333636530407	0.0	0.050530584622003515	5.28591018927595	48.845241411239876	10.0
NRM1=tf_act(EDS1)	350.7333363657722	0.0	0.05053054595915617	5.285913223960244	48.84525791030434	10.0
NRM1=tf_act(EDS1)	350.7333363628639	0.0	0.05053072323480836	5.285924076232175	48.845242697557296	10.0
NRM1=tf_act(EDS1)	350.73333636324236	0.0	0.0505307130552748	5.285922882306726	48.84523964771273	10.0
NRM1=tf_act(EDS1)	350.7333363648017	0.0	0.050530589092512915	5.285915913696854	48.84525446880015	10.0
NRM1=tf_act(EDS1)	350.73333636773117	0.0	0.05053055597850877	5.285924497100381	48.84528134854625	10.0
NRM1=tf_act(EDS1)	350.7333363685774	0.0	0.05053084083262706	5.285907676945277	48.84517711640789	10.0
NRM1=tf_act(EDS1)	350.73333636526684	0.0	0.050530576502572824	5.285916176242303	48.845256113599184	10.0
NRM1=tf_act(EDS1)	350.73333636445415	0.0	0.05053060634485424	5.285916788952792	48.84525252962297	10.0
NRM1=tf_rep(EDS1)	604.2165206011315	0.3	0.00315159033007941	0.0	0.23425610318124965	1.0380903959472991
NRM1=tf_rep(EDS1)	604.2165206011321	0.3	0.003151590314762075	0.0	0.001	1.0122723955311363
NRM1=tf_rep(EDS1)	604.2183061348885	0.3	0.003153000737593136	0.2411975855868845	0.0168939831363304	1.0223360423779955
NRM1=tf_rep(EDS1)	604.216520601132	0.3	0.0031515903174568756	0.0	0.3760168792500926	1.0941913067459683
NRM1=tf_rep(EDS1)	604.2165215656422	0.3	0.0031515911250076943	0.0038678241722028446	0.001	1.0769568445814341
NRM1=tf_rep(EDS1)	604.2234341666157	0.3	0.003157008744786408	0.041888436441407925	0.3764913284279677	1.0391487862272688
NRM1=tf_rep(EDS1)	604.2165420441466	0.3	0.0031514872715022574	0.2682941416785459	0.001	1.1981269540231814
NRM1=tf_rep(EDS1)	604.2165444006367	0.3	0.0031516173986186036	0.48998587381798414	0.001	1.2499485826053118
NRM1=tf_rep(EDS1)	604.216586051161	0.3	0.0031516274608886933	0.9104896206269664	0.001	1.2090690006400342
NRM1=tf_rep(EDS1)	604.2165809691284	0.3	0.0031516283467899853	0.6581224255529831	0.001	1.1834891921561372
