# LEMpy target file for RIF1, replicate 0 
# Run configuration file:  ../pipeline/src/yeast_data/simulations202110_Orlando_2/extra_nodes_annot/results4/edge_finding_20211012001140/lempy_20211012001140_config.txt 
# Time series data file:   ../pipeline/src/yeast_data/time_series/orlando2008_WildType_r1_trunc.tsv 
# Computed on:  2021-10-12 00:13:57 
 
model	loss	pld	inv_temp	prior	rhs_param_0	rhs_param_1	rhs_param_2	rhs_param_3	rhs_param_4	hess_eigs	hess_det	bnd_params	pld_time	opt_time
tf_rep(NRM1)	97.49522688166799	0.543181	1.0	0.0625	0.0	0.020577122519335654	5.34459018457311	22.011834407756425	3.0283114282102392	[1, 1, 12.262496324737599, 28.266181744049604, 7397001.85847503]	2563904030.4798408	1.0	3.948400000020058e-05	0.19963281300000002
tf_act(EDS1)	108.73816932440005	0.262869	1.0	0.0625	0.3	0.01240508899217824	14.342038081255996	100.0	10.0	[1, 1, 1.8521438904065075, 16.49879422315146, 7396844.876325016]	226033828.0903042	3.0	3.74790000003955e-05	0.1884444219999999
tf_rep(WHI5)	133.9973806711594	0.0994395	1.0	0.0625	0.0	0.010772954475278426	7.848309259014204	45.158071812601314	10.0	[1, 1, 5.1925277427106735, 16.559947899447327, 7396865.832525302]	636041616.9963741	2.0	3.7350000000380135e-05	0.30800477400000004
tf_act(SWI4)	158.99519316485768	0.0360159	1.0	0.0625	0.3	0.014518336522536483	6.240612081749645	100.0	10.0	[1, 1, 1, 20.73619790474697, 7396854.500391447]	153382638.7927353	3.0	0.00018220400000057424	0.1579962359999998
tf_act(YOX1)	174.6446440350844	0.022798	1.0	0.0625	0.3	0.05724801414137263	14.432697850996268	94.58999501729633	1.8248205594217584	[1, 1, 1, 246.31272732291518, 7400306.238148166]	1822789612.5430574	1.0	3.731700000031424e-05	0.1869814729999999
tf_rep(ASH1)	181.88975199981192	0.00953474	1.0	0.0625	0.3	0.06972958597149141	6.320037655315055	48.405544978604404	1.2998337855706414	[1, 1, 6.989852601574907, 117.13009916788748, 7397742.679678602]	6056695631.998254	1.0	3.7655999999941514e-05	0.331293246
tf_act(HCM1)	216.5160157135337	0.00762565	1.0	0.0625	0.3	0.013393561841493592	2.6397526112982805	78.92879050581293	10.0	[1, 1, 1, 27.460542465010658, 7396884.818114125]	203122469.65661556	2.0	5.215899999999607e-05	0.33418522400000006
tf_rep(CLN3)	252.0273438484139	0.00623065	1.0	0.0625	0.0	0.002372443237136435	0.24131114236323759	0.05193643745133436	9.984033105199781	[1, 1, 1, 16.140816237991338, 7396843.123961792]	119391085.60511707	1.0	3.792499999999421e-05	0.16605105200000025
tf_rep(EDS1)	252.02734384850586	0.00311532	1.0	0.0625	0.0	0.002372438356446742	0.0	0.44018101438627116	1.5041843132377486	[1, 1, 1, 16.14084596711771, 7396843.125273218]	119391305.52796859	2.0	3.695399999958937e-05	0.15513317000000004
tf_act(RIF1)	243.36867015691678	0.00188483	1.0	0.0625	0.3	0.010628426801307664	3.0526368875851113	100.0	10.0	[1, 1, 1, 19.11038366654378, 7396853.178683676]	141356702.16973895	3.0	3.8045000000153095e-05	0.204991025
tf_rep(YOX1)	169.38318486118936	0.00162924	1.0	0.0625	0.0	0.004839793286557327	100.0	6.892157572573035	10.0	[1, 1, 15.731560668614037, 286.31491520507683, 7396921.076288426]	33317067367.679302	3.0	3.594699999975859e-05	0.18767502999999985
tf_rep(RIF1)	252.02734384850623	0.00155766	1.0	0.0625	0.0	0.002372438346748755	0.0	0.001	1.0996124162055625	[1, 1, 1, 16.140816241451876, 7396843.123961854]	119391085.63071512	3.0	3.679900000008729e-05	0.15568769799999993
tf_act(ASH1)	252.02734384841702	0.00152521	1.0	0.0625	0.0	0.0023724424153012806	0.0	99.25378064696845	4.026339721673916	[1, 1, 3.6071875186840896, 18.66818834497732, 7396867.617625146]	498102520.8073345	2.0	3.6886000000180275e-05	0.15719581799999993
tf_act(SWI5)	252.02734384841477	0.00143488	1.0	0.0625	0.0	0.002372442834519885	0.0	99.0674863919284	9.872138592830632	[1, 1, 4.707696450829455, 16.161886253871952, 7396863.402529752]	562792234.8978976	2.0	3.97459999996741e-05	0.15581048100000006
tf_rep(SWI4)	252.02734384846235	0.000655533	1.0	0.0625	0.0	0.002372439722629374	0.0	0.001	1.0	[1, 1, 1.4115574500973846, 16.140816256055267, 7396843.123962952]	168527376.54975078	4.0	6.279599999992058e-05	0.25335156999999997
tf_act(NDD1)	252.0273438484187	0.00050294	1.0	0.0625	0.0	0.002372442198191847	0.0	98.6831232747388	1.0	[1, 1, 8.43719995939457, 18.34946429543232, 7397153.500641665]	1145213246.001045	3.0	4.198799999954872e-05	0.13575769000000015
null_model	252.0273438484823				0.0	0.0023724390429798836								
