# LEMpy local minima file for target YOX1, replicate 0
# Right-hand side of tf_act():  p0 - p1(tar) + p2(reg^p4) / (p3^p4 + reg^p4)
# Right-hand side of tf_rep():  p0 - p1(tar) + p2(p3^p4) / (p3^p4 + reg^p4)
# Run configuration file:  ../pipeline/src/yeast_data/simulations202110_Orlando_2/extra_nodes_no_annot/results3/edge_finding_20211013003459/lempy_20211013003459_config.txt
# Time series data file:   ../pipeline/src/yeast_data/time_series/orlando2008_WildType_r1_trunc.tsv
# Computed on:  2021-10-13 00:37:18 
 
model	loss	p0	p1	p2	p3	p4
YOX1=tf_act(SWI4)	93.52465167249105	0.3	0.36735720628555185	74.02980251711269	100.0	1.6661976541469319
YOX1=tf_act(SWI4)	93.50690891051025	0.3	0.3648951236143336	73.54024807777284	100.0	1.6667087467558734
YOX1=tf_act(SWI4)	93.50687790444779	0.3	0.3649898859264691	73.55919103806526	100.0	1.6666918970444486
YOX1=tf_act(SWI4)	93.51764021138908	0.3	0.36315415776211657	73.19420550573082	100.0	1.6670782866415057
YOX1=tf_act(SWI4)	93.50687789896858	0.3	0.3649901440150379	73.5592424159835	100.0	1.6666918592533257
YOX1=tf_act(SWI4)	93.50687788135379	0.3	0.3649911829127457	73.55944122614942	100.0	1.66669144369447
YOX1=tf_act(SWI4)	93.50687788081726	0.3	0.3649926558365398	73.55967411931815	100.0	1.666689544606105
YOX1=tf_act(SWI4)	93.50803863416198	0.3	0.36439462734716305	73.43994714914722	100.0	1.6667900062607648
YOX1=tf_act(SWI4)	93.50687787062486	0.3	0.36499277182822204	73.55973341999737	100.0	1.6666906121426
YOX1=tf_act(SWI4)	93.50687790502357	0.3	0.36498985845916715	73.5591860766103	100.0	1.666691930940461
YOX1=tf_rep(SWI4)	550.0065613742598	0.0	0.0013450948159019662	64.46781518840278	0.09130412766928658	4.26985626574322
YOX1=tf_rep(SWI4)	550.0065623299067	0.0	0.001345095014312064	64.32623598619988	0.16146589597833083	4.230644814042437
YOX1=tf_rep(SWI4)	550.0065613733185	0.0	0.0013450948285234892	64.41685947724562	0.0836654728129241	4.205698122518031
YOX1=tf_rep(SWI4)	550.0065654364146	0.0	0.0013450957238583233	64.0518123272735	0.22071205815429587	4.215163127128113
YOX1=tf_rep(SWI4)	550.0065675814751	0.0	0.0013450961305712303	63.92859240423413	0.23901861906092917	4.19686219528938
YOX1=tf_rep(SWI4)	550.0065612997844	0.0	0.0013450947972158801	64.06974193408543	0.001	4.153682508706922
YOX1=tf_rep(SWI4)	550.0065612997804	0.0	0.0013450949890435962	64.56508337284197	0.001	4.132225112659136
YOX1=tf_rep(SWI4)	550.4565786826896	0.047037971145962615	0.002253487196126985	64.6204525301952	0.001	4.119331966234784
YOX1=tf_rep(SWI4)	550.0065612997844	0.0	0.0013450948006960672	64.44670950083419	0.001	4.147988797759666
YOX1=tf_rep(SWI4)	550.0065612997842	0.0	0.001345094802498385	64.33963537382421	0.001	4.1232915875796605
YOX1=tf_act(HCM1)	550.0065612997844	0.0	0.0013450947977607414	0.0	100.0	1.4027326900637438
YOX1=tf_act(HCM1)	550.0065612997844	0.0	0.0013450947934158938	0.0	100.0	1.3635210494586354
YOX1=tf_act(HCM1)	550.0065612997844	0.0	0.001345094791802074	0.0	99.92265513153484	1.3551567840326668
YOX1=tf_act(HCM1)	550.0065612997844	0.0	0.0013450947967565937	0.0	100.0	1.3646221520589423
YOX1=tf_act(HCM1)	550.0065612997843	0.0	0.001345094800051091	0.0	100.0	1.3463208412883692
YOX1=tf_act(HCM1)	550.0065612997844	0.0	0.001345094794864481	0.0	99.55248637252848	1.31588000771493
YOX1=tf_act(HCM1)	550.0065612997325	0.0	0.0013451003923959327	0.0	99.3790577534615	4.187401681907264
YOX1=tf_act(HCM1)	550.0065612997843	0.0	0.0013450948017634835	0.0	99.28436073613477	4.175235324405178
YOX1=tf_act(HCM1)	550.0065612997843	0.0	0.0013450947978440103	0.0	99.11729964282577	4.190999009505708
YOX1=tf_act(HCM1)	550.0065612997845	0.0	0.0013450947922327358	0.0	98.97726929236438	4.166301799325702
YOX1=tf_rep(HCM1)	525.1033723445101	0.0	0.01138870418761935	70.37939210836127	9.14806943098917	3.469022262774617
YOX1=tf_rep(HCM1)	525.102620093992	0.0	0.0114175660611661	70.22123716562554	9.162958090254724	3.469363521634209
YOX1=tf_rep(HCM1)	525.0984534423814	0.0	0.011434263735311036	70.31171812167266	9.08447340498505	3.4446841675892776
YOX1=tf_rep(HCM1)	525.1037103930533	0.0	0.011420655492465199	69.94596062596342	9.204093113080752	3.478633881699142
YOX1=tf_rep(HCM1)	525.1017698159922	0.0	0.01141404883907293	69.81494885529462	9.199680698784684	3.476226059802664
YOX1=tf_rep(HCM1)	525.096388358257	0.0	0.01146829054966862	69.96512727452753	8.996043758485914	3.4105854314923856
YOX1=tf_rep(HCM1)	525.1467482051571	0.0	0.011477836513245068	70.46139258271937	8.664048373469885	3.3153294103209836
YOX1=tf_rep(HCM1)	525.0990833293336	0.0	0.011444161626782676	70.53284874881263	9.026482712240872	3.4285777770124093
YOX1=tf_rep(HCM1)	525.1066467149087	0.0	0.011460123520430602	70.41520058120567	8.880242829528532	3.3811974749246123
YOX1=tf_rep(HCM1)	525.0978672569894	0.0	0.011443529579669659	70.35319690875231	9.033005258648524	3.4285200378243954
YOX1=tf_act(NDD1)	550.0065612997843	0.0	0.0013450948018761248	0.0	100.0	1.0
YOX1=tf_act(NDD1)	550.0065612997844	0.0	0.0013450947987414825	0.0	100.0	1.0
YOX1=tf_act(NDD1)	550.0065612997843	0.0	0.001345094799029425	0.0	99.92267623679088	1.0
YOX1=tf_act(NDD1)	550.0065612997845	0.0	0.0013450947961043058	0.0	100.0	1.0094653680262755
YOX1=tf_act(NDD1)	550.0065612997844	0.0	0.0013450947944230963	0.0	100.0	1.0
YOX1=tf_act(NDD1)	550.0065612997845	0.0	0.001345094795373342	0.0	99.55966395347605	1.0
YOX1=tf_act(NDD1)	550.0065612997844	0.0	0.0013450947986213579	0.0	99.09538233001054	1.0
YOX1=tf_act(NDD1)	550.1790750985084	0.0	0.0013685141954543842	0.00635765841342868	99.00137164150571	1.0
YOX1=tf_act(NDD1)	550.0065612997846	0.0	0.0013450947946862433	0.0	98.92832123670154	1.0157636851005296
YOX1=tf_act(NDD1)	550.0065612997844	0.0	0.0013450947975196692	0.0	98.78829088624015	1.0
YOX1=tf_rep(NDD1)	190.33459359292314	0.0	0.03657527378217192	83.869779159119	15.069355778666056	2.994819541230897
YOX1=tf_rep(NDD1)	190.33462972960493	0.0	0.03657471173629889	83.68666961057136	15.083113120913673	2.9952100905190253
YOX1=tf_rep(NDD1)	190.33460773581788	0.0	0.036575025802414535	83.79756576958206	15.074772249368582	2.9949734166877335
YOX1=tf_rep(NDD1)	190.3525318233149	0.0	0.036323289435334645	83.43122146364809	15.191900593682476	3.0183521107901
YOX1=tf_rep(NDD1)	190.3347183516685	0.0	0.03657391030964451	83.25554422028713	15.115517205805467	2.9960914241814747
YOX1=tf_rep(NDD1)	190.3346830343603	0.0	0.03657429344850753	83.42440285913766	15.102771982110696	2.9957390094102596
YOX1=tf_rep(NDD1)	190.33457980803297	0.0	0.03657532758233794	83.94086632590918	15.064054996848357	2.994678039264627
YOX1=tf_rep(NDD1)	190.33456782156856	0.0	0.03657545456852923	84.00323966191736	15.059402018736758	2.9945504717770866
YOX1=tf_rep(NDD1)	190.33458851735446	0.0	0.03657527684846938	83.89587302764468	15.06740234492905	2.994766837308688
YOX1=tf_rep(NDD1)	190.33459701537396	0.0	0.036575119847766506	83.8522490417444	15.070687204051247	2.99486252526447
YOX1=tf_act(SWI5)	550.0772850382972	0.00820691632991256	0.0015063467609241492	0.0	99.99292760603467	1.011435682332564
YOX1=tf_act(SWI5)	550.0065612997843	0.0	0.0013450947943222272	0.0	100.0	1.0
YOX1=tf_act(SWI5)	550.0065612997843	0.0	0.0013450947986139096	0.0	99.92217613832317	1.00032895942686
YOX1=tf_act(SWI5)	550.0065612997843	0.0	0.001345094798771881	0.0	100.0	1.0097943274531356
YOX1=tf_act(SWI5)	550.0065612997844	0.0	0.001345094800045341	0.0	100.0	1.0
YOX1=tf_act(SWI5)	550.0065612997844	0.0	0.0013450948004089865	0.0	99.5594449307645	1.0
YOX1=tf_act(SWI5)	550.0065612997844	0.0	0.0013450947966340253	0.0	99.14314786249942	1.148668959450967
YOX1=tf_act(SWI5)	550.006561299784	0.0	0.0013450948088931402	0.0	99.04841012530908	1.1362733172098427
YOX1=tf_act(SWI5)	550.0065612997844	0.0	0.0013450947978978422	0.0	98.88134903200007	1.1520370023103723
YOX1=tf_act(SWI5)	550.0065612997845	0.0	0.0013450947975857139	0.0	98.74131868153869	1.1273397921303667
YOX1=tf_rep(SWI5)	162.73632840066142	0.0	0.09819535903050454	9.11636047952177	40.36724581611759	2.049820024267028
YOX1=tf_rep(SWI5)	162.74217656965826	0.0	0.09810418431004513	9.094411430429853	40.49358305761035	2.0673412016143655
YOX1=tf_rep(SWI5)	162.73663297215998	0.0	0.09823263490025988	9.124928924191783	40.31939769059198	2.0431999343146794
YOX1=tf_rep(SWI5)	162.7461455734357	0.0	0.09822025827909779	9.098815908256931	40.5421616119297	2.0700607116366787
YOX1=tf_rep(SWI5)	162.73628245252385	0.0	0.09820871597721498	9.11876880459557	40.35519285672463	2.047770385986226
YOX1=tf_rep(SWI5)	162.7362718420919	0.0	0.09819107772573506	9.117631276726259	40.3526994488199	2.0482064328111464
YOX1=tf_rep(SWI5)	162.73627183276295	0.0	0.09819139460392806	9.117656394531174	40.35271047381117	2.0481962774610745
YOX1=tf_rep(SWI5)	162.73922165919643	0.0	0.09818334376549664	9.128715557785448	40.247506917427835	2.0357218534617236
YOX1=tf_rep(SWI5)	162.7362718327669	0.0	0.0981913931955172	9.117661020951758	40.352674467712234	2.048193708116464
YOX1=tf_rep(SWI5)	162.73627464779474	0.0	0.09819502347083182	9.118303505109125	40.34971765471287	2.0477521252260655
YOX1=tf_act(NRM1)	550.0065612997844	0.0	0.0013450947982259708	0.0	100.0	1.047209364204834
YOX1=tf_act(NRM1)	550.0065612997845	0.0	0.0013450947961093534	0.0	100.0	1.0079977235997255
YOX1=tf_act(NRM1)	550.0065612997845	0.0	0.0013450948010566158	0.0	99.92252137344974	1.003521585486368
YOX1=tf_act(NRM1)	550.0065612997844	0.0	0.0013450947986046852	0.0	100.0	1.0129869535126435
YOX1=tf_act(NRM1)	550.0065612997844	0.0	0.0013450948000241036	0.0	100.0	1.0
YOX1=tf_act(NRM1)	550.0065612997844	0.0	0.0013450948008862105	0.0	99.5744530763757	1.0
YOX1=tf_act(NRM1)	550.0065612997844	0.0	0.001345094796422779	0.0	99.21473922918156	1.0
YOX1=tf_act(NRM1)	550.0065612997844	0.0	0.0013450948008353638	0.0	99.12226622360109	1.0
YOX1=tf_act(NRM1)	550.0065612997844	0.0	0.0013450948008345233	0.0	98.95520513029209	1.0157636851005296
YOX1=tf_act(NRM1)	550.0065612997843	0.0	0.0013450948002761295	0.0	98.8151747798307	1.0
YOX1=tf_rep(NRM1)	241.0325915609458	0.0	0.03846756329920869	68.08171485100044	1.4688614286911195	1.17245774351607
YOX1=tf_rep(NRM1)	197.29953837007835	0.0	0.041827859798097916	7.370670858354488	26.240520855323872	3.474861136813586
YOX1=tf_rep(NRM1)	197.29953836976256	0.0	0.041827857737701514	7.370668280780529	26.240526112844535	3.4748636915881654
YOX1=tf_rep(NRM1)	197.30930963622447	0.0	0.04190981795970233	7.328005632124706	26.47209984341686	3.524352331441381
YOX1=tf_rep(NRM1)	197.29953836945347	0.0	0.04182786696482949	7.370667343344483	26.240537904450175	3.4748667461588916
YOX1=tf_rep(NRM1)	197.29958633608584	0.0	0.041831730445257446	7.374358096472329	26.22874520582641	3.471942593818088
YOX1=tf_rep(NRM1)	197.299538371467	0.0	0.041827814985042386	7.370661428728093	26.240517777202445	3.4748619880537106
YOX1=tf_rep(NRM1)	197.3015566936546	0.0	0.04179233038938124	7.390410106071648	26.135281974068754	3.452608670449351
YOX1=tf_rep(NRM1)	197.3084728073281	0.0	0.041759877955054495	7.413146435243185	26.019407568670047	3.428002939664901
YOX1=tf_rep(NRM1)	197.30679823205256	0.0	0.041813427606736724	7.4134757465200405	26.048061727860734	3.43080873870366
YOX1=tf_act(CLN3)	452.7816751904297	0.0	0.02908065884496547	6.062510628852804	98.55743561971457	10.0
YOX1=tf_act(CLN3)	452.7833970039372	0.0	0.029067966087753194	6.072265137070503	98.59191990762532	10.0
YOX1=tf_act(CLN3)	452.78086626646626	0.0	0.02907952389981557	6.055919496432661	98.53995710495504	10.0
YOX1=tf_act(CLN3)	452.7813834296308	0.0	0.029080308897795247	6.060203234179248	98.55128970431959	10.0
YOX1=tf_act(CLN3)	452.7808900051783	0.0	0.02907937460536565	6.056089304407308	98.54049867668684	10.0
YOX1=tf_act(CLN3)	452.77793189082973	0.0	0.029154792773681083	5.9406056349319725	98.17188575049758	10.0
YOX1=tf_act(CLN3)	452.7857232592707	0.0	0.02918615764406092	5.888163714153255	98.00318000317819	10.0
YOX1=tf_act(CLN3)	452.7905597431701	0.0	0.029197389353422806	5.866899792849623	97.93515575736035	10.0
YOX1=tf_act(CLN3)	452.8092964510475	0.0	0.029228672623820097	5.808277498923133	97.745628402077	10.0
YOX1=tf_act(CLN3)	452.831754409922	0.0	0.029252560070453338	5.757981266840167	97.58287841492252	10.0
YOX1=tf_rep(CLN3)	550.0066948098548	0.0	0.0013451188657750857	69.31035216132541	0.6413821867005582	3.776135860212173
YOX1=tf_rep(CLN3)	550.0067952426036	0.0	0.0013450841301004917	69.16877292851908	0.7115050041989132	3.7369571228416825
YOX1=tf_rep(CLN3)	550.0067312338483	0.0	0.0013451236495219474	69.25939640427461	0.6337019513085097	3.7120124802050745
YOX1=tf_rep(CLN3)	550.0068970525555	0.0	0.0013451878081558548	68.89434925428696	0.7707555115505809	3.7214713533047865
YOX1=tf_rep(CLN3)	550.0069565898838	0.0	0.001345250111216077	68.77112903732157	0.7890207500111052	3.7032089390014202
YOX1=tf_rep(CLN3)	550.006583362733	0.0	0.0013450986040282492	68.91227856717288	0.34087948213144265	3.660029215201865
YOX1=tf_rep(CLN3)	550.0065612997844	0.0	0.0013450947994151337	69.40762000592942	0.001	3.63857181915408
YOX1=tf_rep(CLN3)	550.0065612997844	0.0	0.001345094800963332	69.46298916328264	0.001	3.625678672729727
YOX1=tf_rep(CLN3)	550.0065612997844	0.0	0.0013450947991311209	69.34461529127486	0.001	3.6414423578302566
YOX1=tf_rep(CLN3)	550.0065612997844	0.0	0.0013450947986232992	69.23754116426488	0.001	3.616745147650251
YOX1=tf_act(WHI5)	550.0065612997844	0.0	0.0013450947978666183	0.0	100.0	1.053046887342218
YOX1=tf_act(WHI5)	550.0065612997845	0.0	0.001345094796026014	0.0	100.0	1.0138352467371097
YOX1=tf_act(WHI5)	550.0065612997845	0.0	0.0013450947960466707	0.0	99.92283496054115	1.0
YOX1=tf_act(WHI5)	550.0065612997843	0.0	0.0013450947967824597	0.0	100.0	1.0094653680262755
YOX1=tf_act(WHI5)	550.0065612997845	0.0	0.001345094797091986	0.0	100.0	1.0
YOX1=tf_act(WHI5)	550.0065612997845	0.0	0.0013450947940587704	0.0	99.55584560026661	1.0
YOX1=tf_act(WHI5)	550.0065612997843	0.0	0.0013450947997436158	0.0	91.80947043515492	1.0
YOX1=tf_act(WHI5)	550.0354337829228	0.0	0.0013547362835849566	0.001597953145680787	91.71500687265502	1.0
YOX1=tf_act(WHI5)	550.0065612997844	0.0	0.0013450947963335456	0.0	91.54794577934602	1.0157636851005296
YOX1=tf_act(WHI5)	550.0065612997845	0.0	0.0013450947920898224	0.0	91.40791542888464	1.0
YOX1=tf_rep(WHI5)	292.0037743404731	0.0	0.02789479312332406	70.02493294438936	27.328326987648296	4.852098501078662
YOX1=tf_rep(WHI5)	291.99885338316415	0.0	0.027894735377609413	69.86343220861308	27.344062152013514	4.852610584794247
YOX1=tf_rep(WHI5)	292.0073007096269	0.0	0.028056481543258217	69.9546352480992	27.26968874417362	4.8268815635245
YOX1=tf_rep(WHI5)	291.99053089839845	0.0	0.027869571020702987	69.58764905293717	27.386061093415936	4.858686602129505
YOX1=tf_rep(WHI5)	291.98677718690755	0.0	0.02794075773053829	69.45314120398817	27.36760605576692	4.847136260398635
YOX1=tf_rep(WHI5)	292.04141585351164	0.0	0.028405141666611733	69.61587116126972	27.174543725618033	4.77698283113948
YOX1=tf_rep(WHI5)	292.00751955353445	0.0	0.027893439498858048	70.14832387057805	27.316394864799957	4.851801890460829
YOX1=tf_rep(WHI5)	292.0093531439201	0.0	0.02789248017882439	70.20889406654001	27.310870954360524	4.851754880582993
YOX1=tf_rep(WHI5)	292.01836980194713	0.0	0.02810117629158822	70.09668270715362	27.219661571636127	4.8149561754701615
YOX1=tf_rep(WHI5)	292.00449526324263	0.0	0.02789632220361957	70.04839473352565	27.32454482460255	4.851561507427304
YOX1=tf_act(YOX1)	512.0079342260468	0.3	0.015157216364474787	2.3982569054694127	76.29404138044596	10.0
YOX1=tf_act(YOX1)	512.0066498172806	0.3	0.01516148411069554	2.3961162207688953	76.24237724505429	10.0
YOX1=tf_act(YOX1)	512.0069206716995	0.3	0.015162619303226568	2.397387085278105	76.25525402279659	10.0
YOX1=tf_act(YOX1)	512.0110539238439	0.3	0.015154117396753227	2.4024662823512406	76.37126240547782	10.0
YOX1=tf_act(YOX1)	512.0066055265038	0.3	0.015163479189161841	2.3965924703891344	76.23937441257891	10.0
YOX1=tf_act(YOX1)	512.021079170053	0.3	0.015172183698988923	2.3708348347274417	75.81106729501546	10.0
YOX1=tf_act(YOX1)	512.0081818972574	0.3	0.015159060337395813	2.3811012215344163	76.02892498789973	10.0
YOX1=tf_act(YOX1)	512.0121144711168	0.3	0.01516919645803912	2.3783107686736233	75.93825481919377	10.0
YOX1=tf_act(YOX1)	512.0059137133352	0.3	0.015161709661998018	2.3909994801012338	76.16451549595521	10.0
YOX1=tf_act(YOX1)	512.0141860512146	0.3	0.015154213082583459	2.371448370874827	75.90664637392533	10.0
YOX1=tf_rep(YOX1)	403.62488287296435	0.0	0.005677893034136074	69.78129927249992	7.431382532903489	9.989194139618478
YOX1=tf_rep(YOX1)	403.6260497788353	0.0	0.005678352448475497	69.6260257725172	7.429411541101738	9.950564382601979
YOX1=tf_rep(YOX1)	403.62682241134195	0.0	0.00567860383274385	69.71950782898598	7.425429777923967	9.924696800664508
YOX1=tf_rep(YOX1)	403.62654644154264	0.0	0.005678523906488595	69.33962413081335	7.431667883595313	9.935508252248582
YOX1=tf_rep(YOX1)	403.6284015654959	0.001087905606279969	0.0057020952297019796	69.21292622369144	7.431517622140677	9.917385629893936
YOX1=tf_rep(YOX1)	403.62980330478837	0.0	0.005679561773825702	69.36057141010996	7.4204343316601875	9.832581868704008
YOX1=tf_rep(YOX1)	403.63171152111016	0.0	0.005680206227783517	69.85998502306818	7.4072738835871945	9.77348674692636
YOX1=tf_rep(YOX1)	403.6324482980094	0.0	0.005680448132794449	69.91664259207718	7.404152339582054	9.751941138638875
YOX1=tf_rep(YOX1)	403.632637788126	0.0	0.0056804960431105	69.80040266873175	7.4051875557333835	9.747063202193745
YOX1=tf_rep(YOX1)	403.6337262549108	0.0	0.005680903125842519	69.70164715667367	7.403212926841202	9.716816035200813
YOX1=tf_act(ASH1)	550.0065612997842	0.0	0.0013450948046825233	0.0	100.0	1.04276029974723
YOX1=tf_act(ASH1)	550.0065612997844	0.0	0.0013450948015470362	0.0	100.0	1.0035486591421217
YOX1=tf_act(ASH1)	550.0065612997845	0.0	0.0013450947968413646	0.0	99.92239592249362	1.0067928319031212
YOX1=tf_act(ASH1)	550.0065612997844	0.0	0.0013450947945263326	0.0	100.0	1.0162581999293967
YOX1=tf_act(ASH1)	550.0065612997845	-2.168404344971009e-19	0.00134509479469947	0.0	100.0	1.0
YOX1=tf_act(ASH1)	550.0065612997356	0.0	0.001345098463428217	0.0	99.55309667661349	1.0
YOX1=tf_act(ASH1)	550.0065612997844	0.0	0.001345094795798884	0.0	99.21241210714291	1.0
YOX1=tf_act(ASH1)	550.0065612997844	0.0	0.00134509479674553	0.0	99.11778657316886	1.0
YOX1=tf_act(ASH1)	550.0065612997844	0.0	0.0013450947985503476	0.0	98.95072547985986	1.0157636851005296
YOX1=tf_act(ASH1)	550.0065612997844	-2.710505431213761e-20	0.0013450947975947804	0.0	98.81069512939847	1.0
YOX1=tf_rep(ASH1)	548.1609510945931	0.0	0.005530510607905991	34.877803938559104	0.12030559741175535	1.0
YOX1=tf_rep(ASH1)	548.1605730386199	0.0	0.005531818843735237	34.75940888527035	0.120757685426634	1.0
YOX1=tf_rep(ASH1)	548.1608629652759	0.0	0.005531010059272355	34.85011652976543	0.12041271154357532	1.0
YOX1=tf_rep(ASH1)	548.1596913345686	0.0	0.005533859712206968	34.48658379825282	0.1217827393259501	1.0
YOX1=tf_rep(ASH1)	548.1592869705488	0.0	0.005534877896354903	34.36298309546564	0.12225396325020067	1.0
YOX1=tf_rep(ASH1)	548.1597485743466	0.0	0.00553367282415988	34.504156920261465	0.121714185872999	1.0
YOX1=tf_rep(ASH1)	548.1613368521447	0.0	0.005529588649538794	34.99950270044783	0.11985712456225686	1.0
YOX1=tf_rep(ASH1)	548.1615136323156	0.0	0.005529190173260394	35.0555762076951	0.11965202389846213	1.0
YOX1=tf_rep(ASH1)	548.1611397540413	0.0	0.0055301176079653935	34.937210092336784	0.12008791380680087	1.0
YOX1=tf_rep(ASH1)	548.1607992411966	0.0	0.005531065969493738	34.83014615648536	0.12048767848466767	1.0
YOX1=tf_act(RIF1)	550.0065612997844	0.0	0.0013450947966142245	0.0	100.0	1.4105116519851222
YOX1=tf_act(RIF1)	550.0065612997845	0.0	0.0013450947960888765	0.0	100.0	1.3713000113800138
YOX1=tf_act(RIF1)	550.0065612997843	0.0	0.0013450948006779938	0.0	99.92261651830495	1.355814594936313
YOX1=tf_act(RIF1)	550.0065612997844	0.0	0.0013450947953803079	0.0	100.0	1.3652799629625885
YOX1=tf_act(RIF1)	550.0065612997844	0.0	0.0013450947918541185	0.0	100.0	1.3469786521920153
YOX1=tf_act(RIF1)	550.0065612997843	0.0	0.0013450947993831784	0.0	99.55259521865176	1.3069524756637336
YOX1=tf_act(RIF1)	550.0065612997844	0.0	0.0013450947931865002	0.0	99.1569391512578	1.0
YOX1=tf_act(RIF1)	550.0572705907936	0.0	0.0013966020952403413	0.0075005816311733585	99.06230309823371	1.0
YOX1=tf_act(RIF1)	550.006561299776	0.0	0.0013450952089187145	0.0	98.89524200492471	1.0157636851005296
YOX1=tf_act(RIF1)	550.0065612997845	0.0	0.0013450947948301466	0.0	98.75521165446332	1.0
YOX1=tf_rep(RIF1)	459.4441550769192	0.0	0.014506938739136738	71.19713286379321	31.58774553191264	10.0
YOX1=tf_rep(RIF1)	459.4618169922575	0.0	0.014507309533762709	71.05067710263187	31.594702024748937	10.0
YOX1=tf_rep(RIF1)	459.4503854022713	0.0	0.014506484876410791	71.14539124965825	31.590056624170035	10.0
YOX1=tf_rep(RIF1)	456.9704899479163	0.0	0.014641379652679821	100.0	30.51769361883784	10.0
YOX1=tf_rep(RIF1)	456.9781198433479	0.0	0.014642334134282932	99.87552334104473	30.521869649511075	10.0
YOX1=tf_rep(RIF1)	456.9704899483016	0.0	0.014641364902356577	100.0	30.51769133611605	10.0
YOX1=tf_rep(RIF1)	456.9704899480485	0.0	0.014641373520155848	100.0	30.517692112200507	10.0
YOX1=tf_rep(RIF1)	456.97048994815583	0.0	0.014641369437031914	100.0	30.517691159658796	10.0
YOX1=tf_rep(RIF1)	456.9775303396711	0.0	0.014641348232850706	99.8851181736701	30.52133447958874	10.0
YOX1=tf_rep(RIF1)	456.9834488869163	0.0	0.014641849066195612	99.78875381617544	30.524508567985254	10.0
YOX1=tf_act(EDS1)	264.65432913122413	0.3	0.017615100439683076	20.252716071425052	100.0	10.0
YOX1=tf_act(EDS1)	264.65432913056236	0.3	0.01761506401895268	20.252667772807985	100.0	10.0
YOX1=tf_act(EDS1)	264.6716196057347	0.3	0.01761065183114747	20.172628267014943	99.93310888325276	10.0
YOX1=tf_act(EDS1)	264.7013898731438	0.3	0.017577701003594997	20.004023838849555	99.8366881958331	10.0
YOX1=tf_act(EDS1)	264.6543291302401	0.3	0.01761507203313972	20.252666324912926	100.0	10.0
YOX1=tf_act(EDS1)	264.6543291301319	0.3	0.017615084608169178	20.25268115449009	100.0	10.0
YOX1=tf_act(EDS1)	264.65432915454386	0.3	0.017614981970536316	20.252491075017947	100.0	10.0
YOX1=tf_act(EDS1)	264.6543291303289	0.3	0.017615069840728192	20.252671395592355	100.0	10.0
YOX1=tf_act(EDS1)	264.654329130177	0.3	0.017615076870175567	20.252677074984046	100.0	10.0
YOX1=tf_act(EDS1)	264.6543291333186	0.3	0.017615095296566144	20.2527375129526	100.0	10.0
YOX1=tf_rep(EDS1)	550.6175268230356	0.061216603776474796	0.002518356822463545	67.81663529771176	0.09130261493029813	3.9624794863685793
YOX1=tf_rep(EDS1)	550.0690367524418	0.007266968226634667	0.0014879262410131696	67.67505609550885	0.16146460921497752	3.923267918403867
YOX1=tf_rep(EDS1)	550.0065613802954	0.0	0.001345094819590869	67.7656795865546	0.08366416998598508	3.8983212268794616
YOX1=tf_rep(EDS1)	550.0065646421656	0.0	0.0013450958244347357	67.40063243658247	0.2207105159679225	3.9077863512435598
YOX1=tf_rep(EDS1)	550.0065663107351	0.0	0.0013450963408882398	67.27741249732208	0.2390175901354779	3.8894855715376955
YOX1=tf_rep(EDS1)	550.0065612997844	0.0	0.0013450947982318444	67.41856202717338	0.001	3.846305884955238
YOX1=tf_rep(EDS1)	550.0065612997845	0.0	0.0013450947933014313	67.91390346592992	0.001	3.824848488907453
YOX1=tf_rep(EDS1)	550.4565786647639	0.04703797200655666	0.0022534872852913424	67.96927262328315	0.001	3.8119553424831003
YOX1=tf_rep(EDS1)	550.0065612997845	0.0	0.0013450947973297107	67.79552959392214	0.001	3.8406121740079824
YOX1=tf_rep(EDS1)	550.0065612997844	-2.710505431213761e-20	0.0013450948003013881	67.68845546691216	0.001	3.815914963827977
