# LEMpy target file for YOX1, replicate 0 
# Run configuration file:  ../pipeline/src/yeast_data/simulations202110_Orlando_2/extra_nodes_no_annot/results3/edge_finding_20211013003459/lempy_20211013003459_config.txt 
# Time series data file:   ../pipeline/src/yeast_data/time_series/orlando2008_WildType_r1_trunc.tsv 
# Computed on:  2021-10-13 00:37:30 
 
model	loss	pld	inv_temp	prior	rhs_param_0	rhs_param_1	rhs_param_2	rhs_param_3	rhs_param_4	hess_eigs	hess_det	bnd_params	pld_time	opt_time
tf_act(SWI4)	93.50687787062486	0.779939	1.0	0.045454545454545456	0.3	0.36499277182822204	73.55973341999737	100.0	1.6666906121426	[1, 1, 1.6646128673825495, 8140.403456224763, 4319822.741205408]	58536277897.49471	2.0	0.0003671210000000258	0.4589020289999999
tf_rep(SWI5)	162.73627183276295	0.137001	1.0	0.045454545454545456	0.0	0.09819139460392806	9.117656394531174	40.35271047381117	2.0481962774610745	[1, 2.2348015052135652, 19.04000810144429, 88.30761554691574, 4207182.188978732]	15808678288.49355	1.0	8.977199999904428e-05	0.4863032260000004
tf_rep(NRM1)	197.29953836945347	0.0434982	1.0	0.045454545454545456	0.0	0.04182786696482949	7.370667343344483	26.240537904450175	3.4748667461588916	[1, 2.8335241175743673, 19.895169840151794, 50.15389585832027, 4206853.717472012]	11894238677.685303	1.0	7.486100000164697e-05	0.4411137730000001
tf_rep(NDD1)	190.33456782156856	0.0308952	1.0	0.045454545454545456	0.0	0.03657545456852923	84.00323966191736	15.059402018736758	2.9945504717770866	[1, 1, 26.38536606734836, 349.8225091805524, 4212769.874270153]	38884687275.14496	1.0	9.933599999811804e-05	0.3169571499999999
tf_act(EDS1)	264.6543291301319	0.00619782	1.0	0.045454545454545456	0.3	0.017615084608169178	20.25268115449009	100.0	10.0	[1, 1.1712576276977549, 2.6325525658380804, 33.17633100914154, 4206644.186693372]	430322068.4167269	3.0	6.288600000203814e-05	0.3691740280000002
tf_rep(WHI5)	291.98677718690755	0.00225502	1.0	0.045454545454545456	0.0	0.02794075773053829	69.45314120398817	27.36760605576692	4.847136260398635	[1, 1, 21.5158804558326, 111.56066071021733, 4208056.536032011]	10100706837.155706	1.0	7.373400000076913e-05	0.38225121100000026
tf_act(CLN3)	452.77589171185093	0.0000551552	1.0	0.045454545454545456	0.0	0.029126871348262782	5.985124695674451	98.31437708589498	10.0	[1, 2.1078629289658384, 2.973319030373512, 36.66150925052751, 4206749.8927914845]	966586907.9371785	2.0	7.175000000003706e-05	0.39074938999999986
tf_rep(YOX1)	403.62463225786826	0.0000258955	1.0	0.045454545454545456	0.0	0.005677881514612481	69.31186376673512	7.438786281381148	10.0	[1, 1, 32.63155565403596, 343.8507333968746, 4206734.4369672]	47201177213.89821	2.0	8.073800000119036e-05	0.33105997500000006
tf_act(YOX1)	512.0059137133352	0.0000207263	1.0	0.045454545454545456	0.3	0.015161709661998018	2.3909994801012338	76.16451549595521	10.0	[1, 1, 2.403007524260871, 45.596956784469995, 4206682.6739738695]	460925506.4460551	2.0	7.638199999959738e-05	0.41576196600000026
tf_rep(SWI4)	550.0065612997804	0.0000165987	1.0	0.045454545454545456	0.0	0.0013450949890435962	64.56508337284197	0.001	4.132225112659136	[1, 1, 1, 32.83123944415718, 4206641.6057927925]	138109257.815537	2.0	0.0001409600000030764	0.3047999360000002
tf_rep(CLN3)	550.0065612997844	0.0000165987	1.0	0.045454545454545456	0.0	0.0013450947994151337	69.40762000592942	0.001	3.63857181915408	[1, 1, 1, 32.83123944350518, 4206641.605792794]	138109257.81279436	2.0	7.322500000128684e-05	0.3495243699999997
tf_rep(EDS1)	550.0065612997844	0.0000165987	1.0	0.045454545454545456	0.0	0.0013450947982318444	67.41856202717338	0.001	3.846305884955238	[1, 1, 1, 32.83123944479246, 4206641.605792789]	138109257.8182093	2.0	6.306899999941606e-05	0.354607342
tf_rep(RIF1)	456.9704899479163	0.0000136376	1.0	0.045454545454545456	0.0	0.014641379652679821	100.0	30.51769361883784	10.0	[1, 1, 14.53634430622127, 53.095210102006945, 4206822.890867695]	3246869048.36731	3.0	6.38989999970363e-05	0.37900699400000004
tf_act(HCM1)	550.0065612997325	0.0000118146	1.0	0.045454545454545456	0.0	0.0013451003923959327	0.0	99.3790577534615	4.187401681907264	[1, 1, 1.890989436254995, 34.269673299154164, 4206667.290154097]	272607143.1478049	2.0	0.00010911399999713467	0.354950643
tf_act(RIF1)	550.006561299776	0.0000113425	1.0	0.045454545454545456	0.0	0.0013450952089187145	0.0	98.89524200492471	1.0157636851005296	[1, 1, 2.0257897226063433, 34.705447480155655, 4206913.306926811]	295770989.5936311	2.0	6.642099999965012e-05	0.35084993900000017
tf_rep(HCM1)	525.0948276732155	0.00000953841	1.0	0.045454545454545456	0.0	0.011446829304759437	69.90833637743523	9.050591437046808	3.4284095374070582	[1, 1, 13.354636683578766, 87.19867168694084, 4207324.339863016]	4899456876.575217	1.0	9.654899999844702e-05	0.41230108099999985
tf_act(SWI5)	550.006561299784	0.00000641967	1.0	0.045454545454545456	0.0	0.0013450948088931402	0.0	99.04841012530908	1.1362733172098427	[1, 1, 5.150696774960841, 42.61190130410702, 4206792.209124422]	923310887.7452598	2.0	0.00010090500000003999	0.31586043499999983
tf_act(ASH1)	550.0065612997327	0.00000344876	1.0	0.045454545454545456	0.0	0.0013451004131248615	0.0	99.9810241198547	1.0	[1, 1, 4.188823228428086, 45.38857452880613, 4206770.411783509]	799811026.8370564	3.0	8.661999999759473e-05	0.3328274379999998
tf_act(NRM1)	550.0065612997843	0.00000213	1.0	0.045454545454545456	0.0	0.0013450948002761295	0.0	98.8151747798307	1.0	[1, 1, 13.895229415722378, 35.870207292783064, 4206826.193109842]	2096786333.654731	3.0	8.093199999947842e-05	0.23410714000000032
tf_rep(ASH1)	548.1592869705488	0.00000131697	1.0	0.045454545454545456	0.0	0.005534877896354903	34.36298309546564	0.12225396325020067	1.0	[1, 1, 21.280496098170538, 264.7683984178643, 4213189.885029852]	23738809177.75086	2.0	7.353899999884561e-05	0.3195698520000003
tf_act(WHI5)	550.0065612997843	0.00000117469	1.0	0.045454545454545456	0.0	0.0013450948026514176	0.0	100.0	1.0	[1, 1, 10.780849884870685, 38.000172256657834, 4206966.447250196]	1723485414.7072153	4.0	7.38980000001277e-05	0.2885138789999999
tf_act(NDD1)	550.0065612997322	0.000000949041	1.0	0.045454545454545456	0.0	0.0013450994257980897	0.0	100.0	1.0	[1, 1, 16.410545452694386, 38.246650552570955, 4206944.620649693]	2640482048.7070746	4.0	9.395500000053403e-05	0.2472724740000003
null_model	550.0065612997844				0.0	0.0013450947933491145								
