# LEMpy target file for SWI4, replicate 1 
# Run configuration file:  ../pipeline/src/yeast_data/simulations202110_Orlando_2/no_annot/results3/edge_finding_20211012211140/lempy_20211012211140_config.txt 
# Time series data file:   ../pipeline/src/yeast_data/time_series/orlando2008_WildType_r2_trunc.tsv 
# Computed on:  2021-10-12 21:14:13 
 
model	loss	pld	inv_temp	prior	rhs_param_0	rhs_param_1	rhs_param_2	rhs_param_3	rhs_param_4	hess_eigs	hess_det	bnd_params	pld_time	opt_time
tf_rep(NRM1)	85.10445936765055	0.679436	1.0	0.534589729737659	0.0	0.04883004746566455	7.059112176650949	30.869708193466145	4.594013935425737	[1, 1.642630659345912, 13.43344361725499, 44.48307315740598, 4223472.861031805]	4145641780.5197186	1.0	5.562900000022353e-05	0.44138272700000014
tf_rep(NDD1)	79.72762754464377	0.316993	1.0	0.363391601482417	0.0	0.04746243135132739	7.237172808080238	45.05450439232064	10.0	[1, 1.8682821538172665, 11.883412335433821, 42.426807737283994, 4223473.221029163]	3978265219.469619	2.0	5.992300000023931e-05	0.414922357
tf_rep(WHI5)	160.0132852021627	0.00354195	1.0	0.0924060930529829	0.0	0.03483230368697105	7.687655985048739	68.27505330131432	10.0	[1, 1, 7.97425696338678, 35.88680159211989, 4223377.086542605]	1208606259.8124182	2.0	5.6571000000005256e-05	0.39160795000000004
tf_rep(SWI5)	166.60037564452074	0.0000276244	1.0	0.00609404548066081	0.3	0.11002233145566313	13.218421400664464	18.43417955101848	1.0	[1, 1, 7.121750356084835, 1714.1503137911416, 4227529.965309253]	51608631502.756905	2.0	5.640100000015025e-05	0.39958219800000006
tf_rep(HCM1)	241.0068072908862	0.00000106824	1.0	0.000463823039026845	0.0	0.020489559419562774	12.509361022041698	31.509569224396387	10.0	[1, 1.4359214547913846, 4.643118592992236, 37.857940158161156, 4223350.156214691]	1065993438.4508309	2.0	6.114400000001297e-05	0.32309471200000006
tf_rep(YOX1)	262.8463559483856	0.00000050143	1.0	0.000168843110094198	0.0	0.012575960988580518	12.184582230798124	13.750304429637705	6.957514588393237	[1, 1.0340918887384007, 4.35318760648459, 34.06108243094148, 4223291.949227026]	647554112.0293498	1.0	5.6429999998997005e-05	0.433601892
tf_act(CLN3)	387.8931501709276	0.0000000849588	1.0	0.00171418412706974	0.0	0.004253481278242786	0.0	98.86097714013076	1.9651160564135435	[1, 1, 3.0148922931974997, 43.11100826978284, 4223551.836448689]	548956346.6946462	2.0	6.272399999929235e-05	0.3248076449999999
tf_rep(CLN3)	387.89315017092747	0.00000000929957	1.0	0.000121637786074165	0.0	0.00425348105948047	0.0	34.970543690995484	2.747387506345043	[1, 1, 1.6113744211619885, 33.90027007872296, 4223290.228819826]	230701570.60980943	2.0	5.557800000133284e-05	0.3265451970000002
tf_rep(SWI4)	387.89315017092747	0.00000000840292	1.0	0.000176061467403979	0.0	0.004253481002275982	0.0	34.48513000522184	1.2059393584944662	[1, 1, 2.8898113442504463, 48.50117235436505, 4223626.662084413]	591980294.8882824	2.0	7.424900000074786e-05	0.29650867800000036
tf_act(ASH1)	387.89315017092764	0.00000000678928	1.0	0.000162576312438552	0.0	0.004253481428735101	0.0	99.50207749713883	1.7339231576447527	[1, 1, 3.9573930008749816, 46.26369050882296, 4223342.0802729]	773224693.2647965	2.0	6.226899999894897e-05	0.3219401740000003
tf_act(YOX1)	387.89315017092804	0.00000000668232	1.0	0.000129980023728759	0.0	0.004253480563816358	0.0	98.49073213107157	3.169351588383683	[1, 1, 3.4167293047415828, 35.356967522923455, 4223297.289325804]	510196219.0569996	2.0	5.743000000002496e-05	0.2532564260000001
tf_act(SWI4)	358.1348133777743	0.00000000510354	1.0	0.000108786233878473	0.3	0.2965456958162264	40.061376709339044	63.981852305802164	1.9477365746406612	[1, 1, 1, 2702.4871111345756, 4234815.901900994]	11444535392.915178	1.0	0.00012681300000139117	0.4515055069999998
tf_act(HCM1)	387.89315017092804	0.00000000469442	1.0	7.31704829243718e-5	0.0	0.004253481542927277	0.0	99.09694776032211	3.1138349500673823	[1, 1, 2.250460016882118, 34.46861449667481, 4223305.524463579]	327602817.89789355	2.0	6.390699999947458e-05	0.2545829799999999
tf_act(NRM1)	387.8931501709284	0.00000000431719	1.0	0.000108837802129668	0.0	0.004253481669032452	0.0	99.09322771998885	2.403935244357405	[1, 1, 5.941527304031283, 34.15414983388521, 4223324.060773446]	857029918.5541394	2.0	5.5445999999292894e-05	0.3307050760000001
tf_act(NDD1)	387.89315017092775	0.00000000371725	1.0	5.31284084497758e-5	0.0	0.004253480694215113	0.0	98.47272486847281	2.3796168768908594	[1, 1, 1.8689148254618377, 34.898001609312104, 4223365.559612271]	275453783.20034313	2.0	6.387799999885146e-05	0.32563490800000006
tf_act(SWI5)	387.8931501709275	0.00000000318559	1.0	9.33775653400205e-5	0.0	0.004253481002651323	0.0	98.84670095563173	2.4248038269878327	[1, 1, 7.0793902140651275, 38.75210639414455, 4223320.4328475995]	1158631145.143115	2.0	5.766499999992902e-05	0.30959880800000006
tf_rep(ASH1)	371.1865872780748	0.0000000022892	1.0	8.77238987218989e-5	0.3	0.017051589199471685	0.9658349847270906	18.086956420808804	10.0	[1, 1.9262905767295648, 7.091790939114976, 80.91194821637912, 4223455.154664459]	4668294760.596141	2.0	5.762400000008938e-05	0.4107616629999997
tf_act(WHI5)	387.8931501709279	0.00000000085512	1.0	5.63999890003858e-5	0.0	0.004253480564707147	0.0	98.21248027817374	1.0	[1, 1, 8.217289678316725, 42.2537761734753, 4223661.769251327]	1466504017.8845823	3.0	5.5703000001017244e-05	0.19035497700000015
null_model	387.89315017092764				0.0	0.004253481174610105								
