# LEMpy local minima file for target NDD1, replicate 0
# Right-hand side of tf_act():  p0 - p1(tar) + p2(reg^p4) / (p3^p4 + reg^p4)
# Right-hand side of tf_rep():  p0 - p1(tar) + p2(p3^p4) / (p3^p4 + reg^p4)
# Run configuration file:  ../pipeline/src/yeast_data/simulations202110_Orlando_2/no_annot/results3/edge_finding_20211012211140/lempy_20211012211140_config.txt
# Time series data file:   ../pipeline/src/yeast_data/time_series/orlando2008_WildType_r1_trunc.tsv
# Computed on:  2021-10-12 21:14:07 
 
model	loss	p0	p1	p2	p3	p4
NDD1=tf_act(SWI4)	45.91905447628219	0.0	0.05388257396453377	9.79947056957803	50.42785816404271	4.136508345286657
NDD1=tf_act(SWI4)	45.92035070653383	0.0	0.053880591539796616	9.81215504247528	50.49720880764846	4.115158184183568
NDD1=tf_act(SWI4)	45.927157836454946	0.0	0.05389489339247046	9.769464803224302	50.25774869278029	4.190030248534123
NDD1=tf_act(SWI4)	45.956923585610255	0.0	0.05389447896217149	9.734288251848273	50.068705697101166	4.254163588340244
NDD1=tf_act(SWI4)	45.91905517319559	0.0	0.05387951013461384	9.799184669244562	50.42858382833106	4.1365620353557695
NDD1=tf_act(SWI4)	45.91905448273173	0.0	0.05388227627273445	9.799420087561193	50.427832909762444	4.136528219712215
NDD1=tf_act(SWI4)	45.97169829378912	0.0	0.05389204699262825	9.72194330838291	50.00708872521095	4.274538357411874
NDD1=tf_act(SWI4)	45.919054486324434	0.0	0.053882326257120326	9.799413534334764	50.42775762081802	4.136560003563695
NDD1=tf_act(SWI4)	45.92542762061019	0.0	0.05380883874820943	9.765965528293249	50.29421555576364	4.190262155014443
NDD1=tf_act(SWI4)	45.950963178532085	0.0	0.053932008487197335	9.744511153459692	50.09418340960349	4.242487098331286
NDD1=tf_rep(SWI4)	437.8845159609078	0.3	0.002719203512693582	0.0	33.8317993387178	1.0
NDD1=tf_rep(SWI4)	437.88451596090755	0.3	0.0027192035157172076	0.0	34.08736324205392	1.013635448051266
NDD1=tf_rep(SWI4)	437.88451596090806	0.3	0.0027192035086897612	0.0	33.92821833283961	1.0
NDD1=tf_rep(SWI4)	437.8845159609079	0.3	0.002719203510124312	0.0	33.75838640729702	1.0
NDD1=tf_rep(SWI4)	437.88451596090783	0.3	0.0027192035119893055	0.0	33.847614543657635	1.0
NDD1=tf_rep(SWI4)	437.88451596090806	0.3	0.0027192035089945153	0.0	33.38983856337164	1.0
NDD1=tf_rep(SWI4)	437.8845159609078	0.3	0.0027192035136028503	0.0	33.113969661089506	1.0217646012631676
NDD1=tf_rep(SWI4)	437.8845159609078	0.3	0.0027192035127768335	0.0	32.765332614172195	1.0
NDD1=tf_rep(SWI4)	437.8845159609078	0.3	0.0027192035126737697	0.0	32.37382060524378	1.017281223043611
NDD1=tf_rep(SWI4)	437.8845159609077	0.3	0.0027192035138940258	0.0	32.175367101659354	1.0120257958679275
NDD1=tf_act(HCM1)	14.418609180643935	0.3	0.11332304167193086	17.81897421809796	57.38766013124975	2.4966557835963092
NDD1=tf_act(HCM1)	14.41867049582959	0.3	0.11334146810571172	17.833097175311575	57.42301702090713	2.493962898583725
NDD1=tf_act(HCM1)	14.418609175902713	0.3	0.11332315541885402	17.819006873786414	57.38770768947458	2.4966524781039143
NDD1=tf_act(HCM1)	14.418609178199281	0.3	0.1133230979027434	17.81899812445756	57.38770524991858	2.4966521107238147
NDD1=tf_act(HCM1)	14.418609181109858	0.3	0.1133230318766412	17.81897362192772	57.38766313148532	2.496655872341996
NDD1=tf_act(HCM1)	14.4186091804054	0.3	0.11332304661128115	17.81897489073407	57.387660599002345	2.496655414892034
NDD1=tf_act(HCM1)	14.430359315124878	0.3	0.113065875209357	17.628457548338965	56.91668224284696	2.533795476473944
NDD1=tf_act(HCM1)	14.450186788814985	0.3	0.11274149794448785	17.492518069373652	56.6479281461828	2.558669120693473
NDD1=tf_act(HCM1)	14.470703355563847	0.3	0.11246442384285624	17.392516359489115	56.46895097790156	2.5763875758065105
NDD1=tf_act(HCM1)	14.494671166357945	0.3	0.11278212507631015	17.36232753025111	56.23039802027293	2.590586109540597
NDD1=tf_rep(HCM1)	437.8845159609079	0.3	0.0027192035100445395	0.0	30.799706159221998	1.0
NDD1=tf_rep(HCM1)	437.8845159609078	0.3	0.0027192035141848643	0.0	31.055270082068127	1.0136326868053906
NDD1=tf_rep(HCM1)	437.8845159609078	0.3	0.002719203512876388	0.0	30.896125172853818	1.0
NDD1=tf_rep(HCM1)	437.88451596090783	0.3	0.0027192035138260805	0.0	30.726293247311222	1.0
NDD1=tf_rep(HCM1)	437.8845159609076	0.3	0.002719203513983269	0.0	30.92071374638259	1.0
NDD1=tf_rep(HCM1)	437.88451596090783	0.3	0.0027192035114075013	0.0	30.462937766096598	1.0
NDD1=tf_rep(HCM1)	437.884515960908	0.3	0.0027192035113879523	0.0	30.187068865474398	1.0217644051006929
NDD1=tf_rep(HCM1)	437.88451596090783	0.3	0.002719203513966594	0.0	29.838431818557083	1.0
NDD1=tf_rep(HCM1)	437.88451596090783	0.3	0.0027192035114462104	0.0	29.446919809628668	1.017281223043611
NDD1=tf_rep(HCM1)	437.88451596089493	0.3	0.0027192037977598347	0.0	29.248466307480424	1.0120256364896383
NDD1=tf_act(NDD1)	437.8845159609079	0.3	0.002719203508902942	0.0	83.81939119466576	1.0
NDD1=tf_act(NDD1)	437.88451596130784	0.3	0.0027191979581966735	0.0	84.0749548879791	1.0136238239892374
NDD1=tf_act(NDD1)	437.88451596090806	0.3	0.002719203509004083	0.0	83.9158099787648	1.0
NDD1=tf_act(NDD1)	437.8845159609078	0.3	0.0027192035123099483	0.0	83.7459780532222	1.0
NDD1=tf_act(NDD1)	437.8845159609079	0.3	0.0027192035096418924	0.0	85.8474671551892	1.0
NDD1=tf_act(NDD1)	437.8845159609078	0.3	0.0027192035116993785	0.0	85.3896911749032	1.0
NDD1=tf_act(NDD1)	437.8845159609078	0.3	0.0027192035128175886	0.0	85.11382226384633	1.0217616123467934
NDD1=tf_act(NDD1)	437.8845159609078	0.3	0.0027192035117993467	0.0	84.76518521692901	1.0
NDD1=tf_act(NDD1)	437.8845159609078	0.3	0.0027192035133135352	0.0	84.3736732080006	1.017281223043611
NDD1=tf_act(NDD1)	437.88451596090664	0.3	0.002719203536286601	0.0	84.17521970161324	1.0120242507592092
NDD1=tf_rep(NDD1)	314.52028275719294	0.0	0.002177919710500529	99.96790676883751	21.666706760935572	9.796107655181995
NDD1=tf_rep(NDD1)	314.34192541154187	0.0	0.0021741100183959054	99.66859981159574	21.80754772767349	10.0
NDD1=tf_rep(NDD1)	314.37644308217006	0.0	0.0021770416439059284	99.30442076117848	21.79157914547227	9.959950071466439
NDD1=tf_rep(NDD1)	314.34282291201436	0.0	0.0021741492950109013	99.10893527200288	21.820629399127746	10.0
NDD1=tf_rep(NDD1)	314.342487923459	0.0	0.002174137573018623	99.31704572401603	21.815749762354873	10.0
NDD1=tf_rep(NDD1)	314.3431490460772	0.0	0.002174158932485376	98.90721485939753	21.82536431357906	10.0
NDD1=tf_rep(NDD1)	314.3439134695135	0.0	0.0021741895077175403	98.43780647631115	21.836431314543066	10.0
NDD1=tf_rep(NDD1)	314.34407984974166	0.0	0.002174194200623441	98.33626452524612	21.838831839337146	10.0
NDD1=tf_rep(NDD1)	314.34408339164065	0.0	0.002174195056494224	98.33410530157698	21.838882936984035	10.0
NDD1=tf_rep(NDD1)	314.4060443574119	0.0	0.002169255087761693	98.18640074671683	21.792540558980416	9.928696836642962
NDD1=tf_act(SWI5)	437.8845159609078	0.3	0.002719203513141039	0.0	99.50207749713883	2.65908055180773
NDD1=tf_act(SWI5)	437.88451596090783	0.3	0.0027192035131226523	0.0	99.75764121182726	2.6727331590938173
NDD1=tf_act(SWI5)	437.8845159609079	0.3	0.0027192035116163538	0.0	99.59849630261296	2.6331237430079173
NDD1=tf_act(SWI5)	437.8845159609078	0.3	0.002719203511181192	0.0	99.42866437707036	2.6117324596336196
NDD1=tf_act(SWI5)	437.8845159609078	0.3	0.0027192035126063553	0.0	99.54659231096949	2.655530951076579
NDD1=tf_act(SWI5)	437.8845159609078	0.3	0.002719203513834406	0.0	99.0888163306835	2.640609380443601
NDD1=tf_act(SWI5)	437.8845159607923	0.3	0.0027192082787494964	0.0	98.81294742378894	2.6623744477785958
NDD1=tf_act(SWI5)	437.8845159609079	0.3	0.002719203510989565	0.0	98.46431037687162	2.6257122249901967
NDD1=tf_act(SWI5)	437.8845159609078	0.3	0.0027192035126525366	0.0	98.07279836794321	2.6429934480338075
NDD1=tf_act(SWI5)	437.8845159607941	0.3	0.0027192078331092348	0.0	97.87434486364045	2.637738097206522
NDD1=tf_rep(SWI5)	143.58234654398993	0.0	0.026901636728658918	4.366608850282027	40.59276648801794	4.29975888113108
NDD1=tf_rep(SWI5)	143.55322197682577	0.0	0.02721549217748373	4.37505427259843	40.96668025025162	4.302768656530026
NDD1=tf_rep(SWI5)	143.56560832216562	0.0	0.027157684772625743	4.3750758729620705	40.826298224352904	4.253236904005494
NDD1=tf_rep(SWI5)	143.58064346913446	0.0	0.027036218194785626	4.370840633287519	40.66593486800404	4.231203592031993
NDD1=tf_rep(SWI5)	143.5776103215745	0.0	0.027039296676380126	4.3716099952891865	40.67492587456437	4.241226091234213
NDD1=tf_rep(SWI5)	143.5491267070773	0.0	0.02719073282069595	4.369003190901046	41.0523058130882	4.359095060351618
NDD1=tf_rep(SWI5)	143.5541997754183	0.0	0.027043735747880788	4.364216503111865	40.892770086777304	4.364262075303623
NDD1=tf_rep(SWI5)	143.58263912823182	0.0	0.026917815506487645	4.363253415537848	40.59858911012373	4.257922051946064
NDD1=tf_rep(SWI5)	143.54901270285237	0.0	0.027209434757411465	4.371713329663691	41.053990398878675	4.359503374414759
NDD1=tf_rep(SWI5)	143.55446717691254	0.0	0.027045000399239065	4.364889868340442	40.871306822179335	4.349181812880909
NDD1=tf_act(NRM1)	437.8845159609079	0.3	0.0027192035106009334	0.0	99.13347800249501	1.8897312906292603
NDD1=tf_act(NRM1)	437.88451596090783	0.3	0.002719203511713719	0.0	99.38904178768831	1.9033894882179512
NDD1=tf_act(NRM1)	437.8845159609077	0.3	0.002719203511251184	0.0	99.22989687847401	1.8637800721320512
NDD1=tf_act(NRM1)	437.8845159609078	0.3	0.0027192035108722446	0.0	99.06006495293141	1.8423887887577535
NDD1=tf_act(NRM1)	437.88451596079534	0.3	0.00271920767860814	0.0	99.19730126650515	2.564429733645519
NDD1=tf_act(NRM1)	437.8845159609078	0.3	0.0027192035117490645	0.0	98.73952528621916	2.549508163012541
NDD1=tf_act(NRM1)	437.9891926322785	0.3	0.002807926576443995	0.03805008384847149	98.4636563734546	2.571272821141043
NDD1=tf_act(NRM1)	437.88451596090783	0.3	0.0027192035112785875	0.0	98.11501932653728	2.534610598352644
NDD1=tf_act(NRM1)	437.8845159609078	0.3	0.002719203513255927	0.0	97.72350731760886	2.551891821396255
NDD1=tf_act(NRM1)	437.8845159609077	0.3	0.002719203513824365	0.0	97.52505381683198	2.546636708375208
NDD1=tf_rep(NRM1)	343.6499369760355	0.0	0.0013729578549432394	3.9606429709991327	12.493194382514874	9.978437047606253
NDD1=tf_rep(NRM1)	343.546707528775	0.0	0.0013995548215338142	3.91352114013572	12.965950904767315	10.0
NDD1=tf_rep(NRM1)	343.56649758930615	0.0	0.0013963552011140674	3.919690112796124	12.898860539283307	9.96032680311133
NDD1=tf_rep(NRM1)	343.58905820811475	0.0	0.0013888761597099465	3.9305006927647956	12.77791241911471	9.938434931989248
NDD1=tf_rep(NRM1)	343.5467071904479	0.0	0.0013996103658429897	3.9133334007239493	12.966049639009796	10.0
NDD1=tf_rep(NRM1)	343.54670718773593	0.0	0.0013995968829904509	3.913340966673614	12.966000518013047	10.0
NDD1=tf_rep(NRM1)	343.56452654548	0.0	0.0013846144842229926	3.9297523502253853	12.755644018839298	10.0
NDD1=tf_rep(NRM1)	343.54670718773974	0.0	0.0013995960603812741	3.913340412013579	12.965999428884004	10.0
NDD1=tf_rep(NRM1)	343.54670721191076	0.0	0.001399584560863427	3.913396148384171	12.965882541938468	10.0
NDD1=tf_rep(NRM1)	343.54670718733115	0.0	0.0013995935375470932	3.9133424929184537	12.965967877310725	10.0
NDD1=tf_act(CLN3)	432.982955343428	0.2999993776518849	0.01648076067830222	0.9576848348934014	22.980039306253406	9.926741388005711
NDD1=tf_act(CLN3)	432.9832380988511	0.2989470241009309	0.016478263918636358	0.9585653352605241	23.235581496485192	9.940444616769115
NDD1=tf_act(CLN3)	432.98314497869234	0.29893989755283196	0.016478476026334017	0.9585866872774108	23.076426533077882	9.900858072550212
NDD1=tf_act(CLN3)	432.9829956182298	0.29828669070635583	0.016478805028041166	0.9592618908262927	22.906590160210055	9.879476714795448
NDD1=tf_act(CLN3)	432.9832964818725	0.2252823564301089	0.01647989400220671	1.0323439309418232	23.022739414756852	9.901474226305602
NDD1=tf_act(CLN3)	432.9827735300598	0.2265965451902504	0.01647938714147317	1.0309911774742861	22.564952078694933	9.886578614991034
NDD1=tf_act(CLN3)	432.9824316848403	0.22713282395943132	0.016479959414913467	1.0304923471963463	22.28906502446272	9.908385240965275
NDD1=tf_act(CLN3)	432.9821787067488	0.22816278619751384	0.016480406143462193	1.0294922050293391	21.94042530538182	9.871728891545247
NDD1=tf_act(CLN3)	432.98182351678213	0.23238173356026443	0.016481932232434597	1.0253770438588004	21.5488898934507	9.889059881173399
NDD1=tf_act(CLN3)	432.9816891865338	0.2333204804386726	0.01648124975734354	1.0243902036218966	21.35043352942777	9.883811004308088
NDD1=tf_rep(CLN3)	323.9193438563501	0.001112255448723825	0.11130732854881016	28.766508949380015	53.94358830881147	2.5621215053861923
NDD1=tf_rep(CLN3)	323.8649157949311	0.0	0.11287229042972224	28.819824084987008	54.42560648325045	2.577353831486452
NDD1=tf_rep(CLN3)	323.844088545229	0.0	0.11331513857821825	28.746123050428896	54.68370691987563	2.585612281676031
NDD1=tf_rep(CLN3)	323.8564077572795	0.0	0.11186200840356741	28.51621839231735	54.4862835570982	2.5784239922002095
NDD1=tf_rep(CLN3)	323.84601631900244	0.0	0.11352184809131895	28.782231170502747	54.70596441940284	2.5863721488183424
NDD1=tf_rep(CLN3)	323.84851292928346	0.0	0.1130811442699777	28.743679855749907	54.605722132241844	2.5831739470768667
NDD1=tf_rep(CLN3)	323.85764944714094	0.0023291397284223524	0.11316255946078725	28.780256623235402	54.656464758626576	2.593460453727404
NDD1=tf_rep(CLN3)	323.88370553081	0.0029540235805791707	0.11174131800654698	28.62885094658085	54.26933765039586	2.5714147745848237
NDD1=tf_rep(CLN3)	323.86977000902647	0.0	0.11343919361204194	28.930333963023457	54.467412802410365	2.5783997763582867
NDD1=tf_rep(CLN3)	323.87470311336176	0.0	0.11279698662857136	28.85653847145793	54.32390489431208	2.5716864031934126
NDD1=tf_act(WHI5)	321.02994049899434	0.3	0.22148394834026552	50.15752332455142	100.0	2.556348165943381
NDD1=tf_act(WHI5)	321.02994037521245	0.3	0.22148800146283673	50.15847892009707	100.0	2.5563510465240373
NDD1=tf_act(WHI5)	321.02994056838963	0.3	0.22148248641635657	50.15717352517885	100.0	2.556346568528312
NDD1=tf_act(WHI5)	321.2303593904982	0.3	0.22035375963187503	49.79228344532495	99.83085216774856	2.559967848585325
NDD1=tf_act(WHI5)	321.03020286677355	0.3	0.22115204150475928	50.08302301191207	100.0	2.5565090043993863
NDD1=tf_act(WHI5)	321.04395770637996	0.3	0.21902243547972308	49.60153186247903	100.0	2.5571986680528016
NDD1=tf_act(WHI5)	321.0299406887215	0.3	0.22148127285808752	50.157086125670496	100.0	2.556365668338126
NDD1=tf_act(WHI5)	321.03889062989657	0.3	0.21951844783110838	49.71360638055978	100.0	2.557037163777869
NDD1=tf_act(WHI5)	321.4924454948679	0.3	0.22087888651296314	49.765740501008636	99.60808007053845	2.5640960106178503
NDD1=tf_act(WHI5)	321.0299405476524	0.3	0.2214828827430511	50.157305783588875	100.0	2.5563509595252287
NDD1=tf_rep(WHI5)	382.9044021363246	0.0	0.0019159971318841824	9.425447358357966	39.63827039135155	10.0
NDD1=tf_rep(WHI5)	382.90414891396773	0.0	0.0019416131264708418	9.105230695878094	39.85821543033244	10.0
NDD1=tf_rep(WHI5)	382.9101832492812	0.0	0.0019569728609300113	8.912097874576899	39.99567197348998	10.0
NDD1=tf_rep(WHI5)	382.91373033809293	0.0	0.001963673384983478	8.841622128195192	40.04756985617379	10.0
NDD1=tf_rep(WHI5)	382.90899217747125	0.0	0.0019554452137801443	8.940170504619264	39.97608910760993	10.0
NDD1=tf_rep(WHI5)	382.91447314118716	0.0	0.0019647437519393685	8.82850687880102	40.05720592860106	10.0
NDD1=tf_rep(WHI5)	382.9281094803519	0.0	0.0019821038061496946	8.642483947519512	40.197868835652514	10.0
NDD1=tf_rep(WHI5)	382.9226193807762	0.0	0.0019752685079044707	8.70773527398999	40.147001184921116	10.0
NDD1=tf_rep(WHI5)	382.91271968685504	0.0	0.0019621318280655053	8.860345921747419	40.03401255286386	10.0
NDD1=tf_rep(WHI5)	382.9136674533196	0.0	0.0019639982039496066	8.843056957078872	40.047237975896856	10.0
NDD1=tf_act(YOX1)	18.50023995523872	0.3	0.07930657112057464	11.950949073532005	45.75679350102025	3.3001592150633265
NDD1=tf_act(YOX1)	18.501125025386667	0.3	0.07946239416199033	11.991301433703454	45.82390076292517	3.2752358148692386
NDD1=tf_act(YOX1)	18.504702835495486	0.3	0.07897677437487258	11.864380873163244	45.61055778887226	3.3560678310317797
NDD1=tf_act(YOX1)	18.500239942721045	0.3	0.07930690315149382	11.95102253571742	45.7568968598682	3.300115095299199
NDD1=tf_act(YOX1)	18.5076540890428	0.3	0.07985829258563883	12.0793285358515	45.94028701220433	3.2275399263624633
NDD1=tf_act(YOX1)	18.51588911739386	0.3	0.07862470718168175	11.78224544583648	45.49241887402765	3.4082699153450466
NDD1=tf_act(YOX1)	18.500239942279535	0.3	0.0793069759464259	11.951000277471408	45.75677422435721	3.3001480244858863
NDD1=tf_act(YOX1)	18.508254179093505	0.3	0.07875185877855319	11.822466213491634	45.57410391411959	3.378170405620401
NDD1=tf_act(YOX1)	18.500239953735463	0.3	0.0793068024041372	11.951030019359866	45.756982049577935	3.3001015689228725
NDD1=tf_act(YOX1)	18.50023994766641	0.3	0.07930676426968336	11.950985140951389	45.756814732349994	3.300146392666373
NDD1=tf_rep(YOX1)	437.8845159609079	0.3	0.0027192035117256717	0.0	98.72247768801824	1.0
NDD1=tf_rep(YOX1)	437.88451596090715	0.3	0.002719203525495664	0.0	98.97804153554257	1.0136398069040247
NDD1=tf_rep(YOX1)	437.88451596090783	0.3	0.002719203510941304	0.0	98.81889662632827	1.0
NDD1=tf_rep(YOX1)	437.88451596090806	0.3	0.002719203511065832	0.0	98.64906470078567	1.0
NDD1=tf_rep(YOX1)	440.16060977734935	0.3	0.003933269825882401	0.1310113375628182	98.76076965358875	1.0069411098394854
NDD1=tf_rep(YOX1)	437.88451596090783	0.3	0.002719203512193425	0.0	98.19128872049968	1.0
NDD1=tf_rep(YOX1)	437.8845159609078	0.3	0.002719203511308662	0.0	97.91541981818419	1.021764556130072
NDD1=tf_rep(YOX1)	437.884515960908	0.3	0.0027192035101803796	0.0	97.56678277126687	1.0
NDD1=tf_rep(YOX1)	437.8845159609077	0.3	0.0027192035139690135	0.0	97.17527076233846	1.017281223043611
NDD1=tf_rep(YOX1)	437.8845159609065	0.3	0.0027192035390581942	0.0	96.97681725980419	1.0120256686221747
NDD1=tf_act(ASH1)	437.88451596090766	0.3	0.002719203513023583	0.0	99.50207749713883	2.102536417466796
NDD1=tf_act(ASH1)	439.4140677657047	0.29906219126223854	0.0027258416833424322	0.034014871117061425	99.75764129161088	2.1162153053002224
NDD1=tf_act(ASH1)	437.884515960908	0.3	0.0027192035111850157	0.0	99.34293258792452	2.062927001380896
NDD1=tf_act(ASH1)	437.8845159609077	0.3	0.00271920351298418	0.0	99.17310066238193	2.0415357180065983
NDD1=tf_act(ASH1)	437.8845159609078	0.3	0.002719203512989151	0.0	99.29884312553993	2.200001520468611
NDD1=tf_act(ASH1)	437.8845159609079	0.3	0.002719203512566113	0.0	98.84106714525394	2.1850799498356333
NDD1=tf_act(ASH1)	437.8845159607932	0.3	0.002719208012459914	0.0	98.56519823835939	2.206845017170628
NDD1=tf_act(ASH1)	437.8845159609076	0.3	0.0027192035139003558	0.0	98.21656119144207	2.170182794382229
NDD1=tf_act(ASH1)	437.8845159609077	0.3	0.002719203513259199	0.0	97.82504918251365	2.1874640174258397
NDD1=tf_act(ASH1)	437.8845159607939	0.3	0.0027192078514322107	0.0	97.62659567821089	2.1822086665985543
NDD1=tf_rep(ASH1)	197.51627693640407	0.07047544785474684	0.04740046804405414	4.86459169063833	56.00461985255539	4.111190372655633
NDD1=tf_rep(ASH1)	197.49455245789048	0.07023575384672143	0.04774479137320463	4.884287040554906	56.35203026176967	4.114381189610394
NDD1=tf_rep(ASH1)	197.48545568369465	0.024010158468757436	0.04707414170159326	4.888733004756544	56.2228200193964	4.072207597552312
NDD1=tf_rep(ASH1)	197.41202560215655	0.0	0.04815818993936892	4.9871775179297515	57.19079393678254	3.905685701870785
NDD1=tf_rep(ASH1)	197.41629747227807	0.0	0.04801210784846302	4.980042037367521	57.02108171632086	3.904041556786539
NDD1=tf_rep(ASH1)	197.46890975904566	0.0021988254254220025	0.04755723649073272	4.949858821745057	56.595394576147875	3.8870372975803553
NDD1=tf_rep(ASH1)	197.49883584340986	0.0038391477801553043	0.04737504221246907	4.93698894974283	56.4208710999905	3.8946901564294207
NDD1=tf_rep(ASH1)	197.49090126612137	0.01971771118878048	0.046947948455224625	4.884076630248836	56.189328553995885	4.094808242488192
NDD1=tf_rep(ASH1)	197.56200355711914	0.021527212462388427	0.04699202621326038	4.899841852570922	55.87514670036124	4.081792201250141
NDD1=tf_rep(ASH1)	197.56118092073294	0.10051158393594274	0.047441470527356075	4.83777866980784	55.71869780340861	4.112111347369246
