# LEMpy all scores file for replicate 0 
# Run configuration file:  ../pipeline/src/yeast_data/simulations202110_Orlando_2/extra_nodes_annot/results2/edge_finding_20211011155829/lempy_20211011155829_config.txt 
# Time series data file:   ../pipeline/src/yeast_data/time_series/orlando2008_WildType_r1_trunc.tsv 
# Ground truth edge list:   
# Computed on:  2021-10-11 16:01:12 
 
model	pld	loss	norm_loss
NDD1=tf_act(YOX1)	0.999947	18.50023995418257	0.042249130261182974
WHI5=tf_act(SWI4)	0.998637	15.899364990672193	0.06437171532648656
ASH1=tf_act(SWI5)	0.996229	72.88166821298373	0.11608503614173726
YOX1=tf_rep(NRM1)	0.993437	197.29953836991078	0.35872215397512597
RIF1=tf_rep(NRM1)	0.893145	97.49522689684467	0.38684384562448354
HCM1=tf_rep(NRM1)	0.87766	185.44894395503096	0.4595840389471655
CLN3=tf_rep(YOX1)	0.806285	20.47317425156852	0.11278734570053793
NRM1=tf_act(HCM1)	0.640826	28.142470893857116	0.04657679810850091
SWI5=tf_rep(ASH1)	0.61525	223.04350515876936	0.3141106165354773
NRM1=tf_act(YOX1)	0.353991	34.40041109383767	0.056933913458069904
SWI5=tf_act(YOX1)	0.352438	334.9050053654306	0.4716443890229848
CLN3=tf_rep(SWI4)	0.171594	34.575697100031064	0.19047857717322567
EDS1=tf_act(SWI4)	0.134762	116.87589205958375	0.9547178851394696
SWI4=tf_rep(WHI5)	0.109205	512.9597682675789	0.999999893617857
SWI4=tf_rep(YOX1)	0.109204	512.9598216358287	0.9999999976576813
SWI4=tf_rep(RIF1)	0.109204	512.9597780486462	0.9999999126857584
SWI4=tf_rep(CLN3)	0.109204	512.9598233528906	1.0000000010050427
SWI4=tf_rep(EDS1)	0.109204	512.9598239195959	1.0000000021098179
EDS1=tf_rep(WHI5)	0.0739603	122.41928633860552	0.9999999152425112
EDS1=tf_rep(NRM1)	0.0739603	122.41927751468155	0.9999998431629927
EDS1=tf_rep(CLN3)	0.0739603	122.41929677123554	1.0000000004629814
EDS1=tf_rep(ASH1)	0.0739603	122.41929671458253	1.000000000000203
EDS1=tf_rep(RIF1)	0.0739603	122.4192773414381	0.9999998417478281
EDS1=tf_rep(EDS1)	0.0739603	122.41927957174877	0.9999998599664484
EDS1=tf_rep(SWI4)	0.0739594	122.41954493023839	1.0000020275862331
EDS1=tf_act(RIF1)	0.0673807	116.87602353883845	0.9547189591470668
EDS1=tf_act(HCM1)	0.0673807	116.87602879271299	0.9547190020641124
EDS1=tf_act(NDD1)	0.0673807	116.87602371784128	0.9547189606092776
EDS1=tf_act(EDS1)	0.0673807	116.87602339813722	0.9547189579977281
SWI4=tf_rep(SWI4)	0.0546022	512.9598234829195	1.0000000012585304
SWI4=tf_rep(NRM1)	0.0546022	512.9598223677594	0.9999999990845587
SWI4=tf_rep(ASH1)	0.0546022	512.9598228373462	1.0000000000000042
HCM1=tf_act(YOX1)	0.0510233	206.12827750557295	0.5108320613581115
EDS1=tf_act(ASH1)	0.0471293	113.38264636274573	0.9261827947526727
SWI4=tf_act(SWI5)	0.0387507	512.959822837345	1.0000000000000018
SWI4=tf_act(RIF1)	0.0386096	512.9598228373449	1.0000000000000016
SWI4=tf_act(EDS1)	0.0386096	512.9598228373449	1.0000000000000016
SWI4=tf_act(NDD1)	0.0386096	512.9598228373451	1.000000000000002
SWI4=tf_act(HCM1)	0.0386096	512.959822837345	1.0000000000000018
SWI4=tf_act(SWI4)	0.0386096	512.959822837345	1.0000000000000018
SWI4=tf_act(YOX1)	0.0365194	512.959822837345	1.0000000000000018
SWI4=tf_act(ASH1)	0.0218531	511.3686285924209	0.9968980138909871
RIF1=tf_act(YOX1)	0.0183516	174.1208573532794	0.6908808175116387
EDS1=tf_act(SWI5)	0.0170747	113.96236317627312	0.93091829666361
RIF1=tf_rep(YOX1)	0.0140132	169.39650542043074	0.6721354232194613
RIF1=tf_rep(ASH1)	0.010245	252.02734384844652	1.0000000000001272
RIF1=tf_rep(RIF1)	0.010245	252.0273282418569	0.9999999380759353
RIF1=tf_rep(CLN3)	0.010245	252.02734399968242	1.0000000006002046
RIF1=tf_rep(EDS1)	0.010245	252.02735300814996	1.0000000363442132
RIF1=tf_rep(WHI5)	0.010245	252.02729458505263	0.9999998045316788
HCM1=tf_rep(RIF1)	0.00879322	403.5147347855817	0.9999999333100595
HCM1=tf_rep(WHI5)	0.00879322	403.51469681672245	0.9999998392147181
HCM1=tf_rep(CLN3)	0.00879321	403.51476242879374	1.0000000018161332
HCM1=tf_rep(ASH1)	0.00879321	403.5147616959595	1.000000000000006
HCM1=tf_rep(EDS1)	0.00879321	403.51476700606526	1.0000000131596378
CLN3=tf_act(SWI5)	0.00788371	116.54292681952867	0.6420385629814891
EDS1=tf_rep(YOX1)	0.00697227	108.9302831417192	0.8898130120426152
EDS1=tf_act(YOX1)	0.00681747	122.41929671455765	0.9999999999999997
SWI5=tf_act(HCM1)	0.00657185	623.6080890265131	0.878222933150167
SWI5=tf_act(EDS1)	0.00657181	623.6084336255029	0.8782234184465268
SWI5=tf_act(RIF1)	0.00657181	623.6084358705579	0.8782234216082221
SWI5=tf_act(SWI4)	0.00657179	623.608570086121	0.8782236106230659
NRM1=tf_act(SWI4)	0.00516501	104.45698562484733	0.17288005551541952
RIF1=tf_rep(SWI4)	0.00512249	252.0273455154708	1.0000000066145853
HCM1=tf_rep(YOX1)	0.00442068	333.0845125799029	0.8254580605179384
HCM1=tf_rep(SWI4)	0.0043966	403.5147643561739	1.0000000065926131
ASH1=tf_rep(SWI4)	0.00374387	198.67014366439508	0.3164393924157855
RIF1=tf_act(RIF1)	0.00362215	252.02734384850382	1.0000000000003546
RIF1=tf_act(HCM1)	0.00362215	252.0273438485038	1.0000000000003546
RIF1=tf_act(NDD1)	0.00362215	252.02734384850376	1.0000000000003544
RIF1=tf_act(SWI4)	0.00362215	252.02734384850382	1.0000000000003546
SWI5=tf_act(NDD1)	0.0032859	623.6084386885484	0.8782234255767786
HCM1=tf_act(SWI4)	0.00310888	403.51476169595935	1.0000000000000056
HCM1=tf_act(EDS1)	0.00310887	403.51476169595946	1.0000000000000058
HCM1=tf_act(RIF1)	0.00310887	403.51476169595935	1.0000000000000056
HCM1=tf_act(NDD1)	0.00310887	403.5147616959594	1.0000000000000056
HCM1=tf_act(HCM1)	0.00310887	403.51476169595946	1.0000000000000058
CLN3=tf_act(HCM1)	0.00209484	181.51996890801976	0.999999083347381
RIF1=tf_act(EDS1)	0.00181108	252.02734384842296	1.0000000000000338
HCM1=tf_act(ASH1)	0.00177884	403.5147616959594	1.0000000000000056
CLN3=tf_rep(ASH1)	0.00148127	181.52013478849935	0.9999999971880373
CLN3=tf_rep(WHI5)	0.00148127	181.52011274136882	0.9999998757297182
CLN3=tf_rep(CLN3)	0.00148127	181.52013494048828	0.999999998025349
CLN3=tf_rep(RIF1)	0.00148127	181.52010444792418	0.999999830040877
HCM1=tf_act(SWI5)	0.00121041	403.51476169595946	1.0000000000000058
CLN3=tf_act(NDD1)	0.00104742	181.5199631760067	0.9999990517695451
CLN3=tf_act(EDS1)	0.00104742	181.5199624795844	0.9999990479329331
CLN3=tf_act(RIF1)	0.00104742	181.51996264801596	0.9999990488608278
CLN3=tf_act(SWI4)	0.00104742	181.5199680176938	0.9999990784425479
RIF1=tf_act(ASH1)	0.000970808	252.0273438485037	1.0000000000003542
RIF1=tf_act(SWI5)	0.00087219	252.02734384850382	1.0000000000003546
YOX1=tf_rep(WHI5)	0.000758185	550.0064804536904	0.9999998530088556
YOX1=tf_rep(RIF1)	0.000758184	550.0065138521356	0.9999999137325771
YOX1=tf_rep(CLN3)	0.000758183	550.0065617229291	1.000000000769345
YOX1=tf_rep(YOX1)	0.000758183	550.0065597140311	0.9999999971168468
YOX1=tf_rep(EDS1)	0.000758183	550.0065680283666	1.00000001223364
CLN3=tf_rep(EDS1)	0.000740635	181.52013432966334	0.9999999946602957
WHI5=tf_rep(ASH1)	0.000632508	131.60164642655812	0.5328152240820518
CLN3=tf_act(YOX1)	0.000523707	181.5199628075133	0.9999990497395036
YOX1=tf_act(YOX1)	0.000473359	512.0059137125185	0.9309087377113064
SWI5=tf_rep(RIF1)	0.000435137	710.0794640832999	0.9999999690357145
SWI5=tf_rep(WHI5)	0.000435137	710.0794435306324	0.9999999400915359
SWI5=tf_rep(CLN3)	0.000435137	710.0794806572403	0.9999999923766796
SWI5=tf_rep(EDS1)	0.000435137	710.0794926926076	1.0000000093260035
SWI5=tf_rep(NRM1)	0.000435137	710.0794749908507	0.9999999843967425
CLN3=tf_act(ASH1)	0.000393021	168.66129148656643	0.9291602345316412
YOX1=tf_rep(ASH1)	0.000379092	550.0065613044821	1.0000000000085414
YOX1=tf_rep(SWI4)	0.000379092	550.0065647679846	1.0000000063057437
CLN3=tf_rep(NRM1)	0.000370317	181.5201352989276	1.0000000000000024
SWI5=tf_act(SWI5)	0.000268882	673.10979120086	0.9479358359243203
YOX1=tf_act(SWI4)	0.000268059	550.006561299784	0.9999999999999996
YOX1=tf_act(EDS1)	0.000268058	550.0065612997832	0.9999999999999981
YOX1=tf_act(RIF1)	0.000268058	550.006561299784	0.9999999999999996
YOX1=tf_act(NDD1)	0.000268058	550.0065612997727	0.9999999999999789
YOX1=tf_act(HCM1)	0.000268058	550.006561299784	0.9999999999999996
SWI5=tf_rep(SWI4)	0.000168841	658.7330434818178	0.9276891621348783
YOX1=tf_act(SWI5)	0.000122014	550.006561299784	0.9999999999999996
SWI5=tf_rep(YOX1)	0.000118207	673.7371873418864	0.9488193935447474
WHI5=tf_act(HCM1)	0.000117644	237.15487047872548	0.9601682721104
WHI5=tf_act(EDS1)	0.000117642	237.15531448821915	0.9601700697704163
YOX1=tf_act(ASH1)	0.0000786487	550.006561299732	0.999999999999905
WHI5=tf_rep(RIF1)	0.0000606373	246.99301527686322	0.9999999419071509
WHI5=tf_rep(WHI5)	0.0000606373	246.9929881416489	0.9999998320448833
WHI5=tf_rep(CLN3)	0.0000606372	246.99302907299852	0.999999997763526
WHI5=tf_rep(EDS1)	0.0000606372	246.99303882864737	1.0000000372611946
WHI5=tf_act(NDD1)	0.000058821	237.1553329691538	0.9601701445941255
WHI5=tf_act(RIF1)	0.000058821	237.15531750270586	0.9601700819751603
WHI5=tf_rep(NRM1)	0.0000540676	151.37320353152137	0.6128642729760643
NDD1=tf_rep(ASH1)	0.0000466839	197.4120256036508	0.45083125437878424
WHI5=tf_rep(SWI4)	0.0000303186	246.99303041682302	1.0000000032042646
WHI5=tf_act(YOX1)	0.0000240574	246.99302962545852	1.0000000000002693
NRM1=tf_rep(ASH1)	0.0000184879	266.63061274869	0.4412832215899129
WHI5=tf_rep(YOX1)	0.0000181606	193.38935018219217	0.7829749304079586
SWI5=tf_act(ASH1)	0.00000715826	710.0794860704037	1.0
ASH1=tf_act(NDD1)	0.00000518205	563.0890116364012	0.8968813402542546
ASH1=tf_act(RIF1)	0.00000518204	563.0890219304719	0.8968813566505253
ASH1=tf_act(SWI4)	0.00000518202	563.0892573337471	0.8968817315980037
ASH1=tf_act(HCM1)	0.00000518202	563.0892625210878	0.8968817398603369
WHI5=tf_act(SWI5)	0.00000455262	246.99302962533986	0.9999999999997888
WHI5=tf_act(ASH1)	0.00000432681	246.99302962545843	1.000000000000269
ASH1=tf_act(EDS1)	0.00000259102	563.0890218618861	0.8968813565412826
ASH1=tf_act(YOX1)	0.000000870331	584.8680531250338	0.9315707330786893
ASH1=tf_act(ASH1)	0.00000076047	563.0890310731118	0.8968813712128111
NDD1=tf_rep(NRM1)	0.000000739557	343.5467071873227	0.7845600715830825
NDD1=tf_act(SWI4)	0.000000704684	432.978550045108	0.9887962105604035
NDD1=tf_act(HCM1)	0.000000704667	432.9796789494479	0.9887987886473161
NDD1=tf_act(RIF1)	0.000000704657	432.980212261894	0.9888000065767626
NDD1=tf_act(EDS1)	0.000000704657	432.98021044037085	0.9888000024169371
ASH1=tf_rep(ASH1)	0.000000625017	445.6941468956857	0.7098962251982225
ASH1=tf_rep(EDS1)	0.000000485994	627.8299208775799	0.9999998743573515
ASH1=tf_rep(WHI5)	0.000000485994	627.8299692161596	0.9999999513504544
NDD1=tf_rep(CLN3)	0.000000443024	437.884515144047	0.9999999981347927
NDD1=tf_rep(WHI5)	0.000000443024	437.8844801533033	0.9999999182261812
NDD1=tf_rep(YOX1)	0.000000443024	437.8845151541535	0.9999999981578731
NDD1=tf_rep(RIF1)	0.000000443024	437.8845167082851	1.0000000017070545
NDD1=tf_rep(EDS1)	0.000000443024	437.8845289364087	1.0000000296325078
ASH1=tf_rep(RIF1)	0.000000370463	576.4025825740749	0.9180870343796822
NDD1=tf_act(NDD1)	0.000000352328	432.9802220709258	0.9888000289777186
ASH1=tf_rep(CLN3)	0.000000242997	627.8299952077094	0.9999999927494793
ASH1=tf_rep(YOX1)	0.000000242997	627.8299992247722	0.9999999991478081
NDD1=tf_rep(SWI4)	0.000000221512	437.8845162815984	1.000000000732627
NRM1=tf_act(RIF1)	0.0000000495813	592.1968083093177	0.9801069453053033
NRM1=tf_act(EDS1)	0.0000000495813	592.1968059898769	0.9801069414665456
ASH1=tf_rep(NRM1)	0.0000000481068	601.8991606612847	0.9586976743570077
NRM1=tf_rep(CLN3)	0.0000000274213	604.216518979292	0.9999999973158924
NRM1=tf_rep(WHI5)	0.0000000274213	604.2164711995053	0.9999999182386328
NRM1=tf_rep(EDS1)	0.0000000274213	604.2165359076677	1.0000000253329608
NRM1=tf_rep(SWI4)	0.0000000274213	604.2165209928238	1.0000000006483596
NRM1=tf_act(NDD1)	0.0000000247907	592.196819991906	0.9801069646404057
NRM1=tf_rep(NRM1)	0.0000000150403	475.81858684663956	0.7874968171563657
NRM1=tf_rep(RIF1)	0.0000000137106	604.2165156533354	0.9999999918113149
NDD1=tf_act(SWI5)	0.0000000129053	437.88451596090766	1.0000000000002633
NDD1=tf_act(ASH1)	0.0000000118687	437.88451596090766	1.0000000000002633
NRM1=tf_act(SWI5)	0.00000000478435	604.2165206011317	1.0000000000000953
NRM1=tf_rep(YOX1)	0.00000000404766	604.2165206011316	1.000000000000095
NRM1=tf_act(ASH1)	0.00000000267679	604.2165206011314	1.0000000000000946
