# LEMpy local minima file for target SWI5, replicate 1
# Right-hand side of tf_act():  p0 - p1(tar) + p2(reg^p4) / (p3^p4 + reg^p4)
# Right-hand side of tf_rep():  p0 - p1(tar) + p2(p3^p4) / (p3^p4 + reg^p4)
# Run configuration file:  ../pipeline/src/yeast_data/simulations202110_Orlando_2/extra_nodes_no_annot/results5/edge_finding_20211013134623/lempy_20211013134623_config.txt
# Time series data file:   ../pipeline/src/yeast_data/time_series/orlando2008_WildType_r2_trunc.tsv
# Computed on:  2021-10-13 13:49:08 
 
model	loss	p0	p1	p2	p3	p4
SWI5=tf_act(SWI4)	370.4188414170563	0.0	0.0032842732560240243	13.480031528854939	99.95054362981787	10.0
SWI5=tf_act(SWI4)	370.3986868619737	0.0	0.0033272839303899837	13.567827281854036	100.0	10.0
SWI5=tf_act(SWI4)	370.3986868619249	0.0	0.003327286794624731	13.567830750563305	100.0	10.0
SWI5=tf_act(SWI4)	370.51167783053734	0.0	0.003282753398402092	13.278787247881173	99.67175673669664	10.0
SWI5=tf_act(SWI4)	370.39868686203954	0.0	0.0033272813459288204	13.567825975299115	100.0	10.0
SWI5=tf_act(SWI4)	370.3986868643965	0.0	0.0033272953823482807	13.567805286943235	100.0	10.0
SWI5=tf_act(SWI4)	370.3986868618922	0.0	0.003327293297453578	13.567829742331432	100.0	10.0
SWI5=tf_act(SWI4)	370.39868686193876	0.0	0.0033272856959986235	13.567829329825615	100.0	10.0
SWI5=tf_act(SWI4)	370.398686861953	0.0	0.0033272852038839775	13.567829716527553	100.0	10.0
SWI5=tf_act(SWI4)	370.3986868622424	0.0	0.003327276756814285	13.567818979312811	100.0	10.0
SWI5=tf_rep(SWI4)	529.2386908161427	0.3	0.01322659225920291	9.326414784447737	22.924351060223746	10.0
SWI5=tf_rep(SWI4)	529.2606346402875	0.3	0.013195243569306927	9.46759694364159	22.86495338866295	10.0
SWI5=tf_rep(SWI4)	529.3210332674905	0.3	0.01313563132275821	9.711187426844019	22.764304420544768	10.0
SWI5=tf_rep(SWI4)	529.2487519952125	0.3	0.013214712165632522	9.399507910248039	22.89441794155141	10.0
SWI5=tf_rep(SWI4)	529.2401673138248	0.3	0.013224791058150609	9.338502540280233	22.91936787125284	10.0
SWI5=tf_rep(SWI4)	529.2253746926532	0.3	0.013273818199327197	9.107345824298969	23.01875220491397	10.0
SWI5=tf_rep(SWI4)	529.2285312586235	0.3	0.013252636455757168	9.213163520928468	22.973087071459396	10.0
SWI5=tf_rep(SWI4)	529.2781541464893	0.3	0.013113328178924237	9.455297675693002	22.847825283297173	9.989402812469711
SWI5=tf_rep(SWI4)	529.2370384113136	0.3	0.013230470430578211	9.312195634238979	22.930517892379772	10.0
SWI5=tf_rep(SWI4)	529.2511898256726	0.3	0.013297192414898787	9.04091913375065	23.046952260592807	9.985529568057501
SWI5=tf_act(HCM1)	304.9412159546826	0.0	0.009748375599320711	4.868780290691751	67.85792256499619	10.0
SWI5=tf_act(HCM1)	304.9946704119631	0.0	0.009519923126096487	4.978362899046567	68.70433807466225	10.0
SWI5=tf_act(HCM1)	304.9367715693394	0.0	0.009687427816591291	4.889867766739222	68.04393834360569	10.0
SWI5=tf_act(HCM1)	304.93677156945756	0.0	0.00968741645280678	4.889865939462739	68.04394844544834	10.0
SWI5=tf_act(HCM1)	304.9367715703207	0.0	0.009687391684728054	4.889865552362193	68.04397555477664	10.0
SWI5=tf_act(HCM1)	304.93677157452584	0.0	0.009687394294456222	4.889858105379342	68.04398456934265	10.0
SWI5=tf_act(HCM1)	304.9621763061621	3.007459077032087e-05	0.009841007308336085	4.8439895007267655	67.60731819982384	10.0
SWI5=tf_act(HCM1)	304.9367715726292	0.0	0.009687363932117667	4.889859492359985	68.04395657114183	10.0
SWI5=tf_act(HCM1)	304.93742751754644	0.0	0.009667249134783907	4.8987437149259	68.11482346442033	10.0
SWI5=tf_act(HCM1)	304.9367715695239	0.0	0.00968741412349299	4.889867117141387	68.04395723984089	10.0
SWI5=tf_rep(HCM1)	595.1306378306543	0.3	0.0	100.0	18.535977996284203	10.0
SWI5=tf_rep(HCM1)	595.1306437652573	0.3	0.0	99.9938130718449	18.536095790056702	10.0
SWI5=tf_rep(HCM1)	595.1306473138153	0.3	0.0	99.99011410831693	18.536170668844964	10.0
SWI5=tf_rep(HCM1)	595.1310626471402	0.3	0.0	99.55912906219741	18.54444965941991	10.0
SWI5=tf_rep(HCM1)	595.1311894404935	0.3	0.0	99.42832184754684	18.547000595298957	10.0
SWI5=tf_rep(HCM1)	595.1645847840085	0.3	0.0	98.93348722149982	18.53123633626939	9.969030142467986
SWI5=tf_rep(HCM1)	595.3340320450354	0.3	0.0	98.89955917741796	18.397034204575416	9.822873675164617
SWI5=tf_rep(HCM1)	595.1315376043151	0.3	0.0	99.07097972955411	18.55393359105175	10.0
SWI5=tf_rep(HCM1)	595.1316236012997	0.3	0.0	98.98312700114012	18.55563979590521	10.0
SWI5=tf_rep(HCM1)	595.1321026133872	0.3	0.0	98.49673118879915	18.565125817071394	10.0
SWI5=tf_act(NDD1)	101.99123181989003	0.0	0.06454280676188069	7.572198105513345	56.29348440722238	10.0
SWI5=tf_act(NDD1)	101.99123182574316	0.0	0.0645430163079932	7.572194604944987	56.29342256187495	10.0
SWI5=tf_act(NDD1)	101.991231822367	0.0	0.06454276053389252	7.57219010112788	56.29348010476854	10.0
SWI5=tf_act(NDD1)	101.9912318189581	0.0	0.06454287872084133	7.5722034974279975	56.293482301983666	10.0
SWI5=tf_act(NDD1)	101.99123181945916	0.0	0.06454282656934142	7.572199000413943	56.29348042811598	10.0
SWI5=tf_act(NDD1)	101.99168367052258	0.0	0.06463143079717905	7.574491956804079	56.2722101128399	10.0
SWI5=tf_act(NDD1)	101.99123181877188	0.0	0.0645428641931008	7.5721998981023	56.293471197865415	10.0
SWI5=tf_act(NDD1)	101.99123181940594	0.0	0.06454283336495113	7.572201454101868	56.29348657275502	10.0
SWI5=tf_act(NDD1)	101.99211664825654	0.0	0.06452835643449566	7.565718315496399	56.27830688535951	10.0
SWI5=tf_act(NDD1)	101.99123181989	0.0	0.06454280803676944	7.572197298340855	56.29348135147618	10.0
SWI5=tf_rep(NDD1)	575.1174223198678	0.3	0.000892962647625763	2.662323867747115	31.09171584958406	10.0
SWI5=tf_rep(NDD1)	575.1065934295553	0.3	0.0009310290547939738	2.603783151543775	31.35681841536411	10.0
SWI5=tf_rep(NDD1)	575.1130609074291	0.3	0.0009060481219923356	2.6521220107519197	31.156163790244424	10.0
SWI5=tf_rep(NDD1)	575.1407321744199	0.3	0.000884746196852168	2.6664393162989484	31.050903769477628	9.985989475881803
SWI5=tf_rep(NDD1)	575.1309791919356	0.3	0.0008742991354761057	2.693554952171015	30.956055105188707	10.0
SWI5=tf_rep(NDD1)	575.1065910874039	0.3	0.0009304141627400753	2.6029551982684063	31.359168250388947	10.0
SWI5=tf_rep(NDD1)	575.1298762179661	0.3	0.0008754558139321683	2.691277154354151	30.965356833582565	10.0
SWI5=tf_rep(NDD1)	575.1065910873356	0.3	0.0009304156057087688	2.6029581232208705	31.359150929011317	10.0
SWI5=tf_rep(NDD1)	575.1159302401854	0.3	0.0009650569218476443	2.5508199254836863	31.603133913570343	10.0
SWI5=tf_rep(NDD1)	575.1090330121208	0.3	0.0009117772381063465	2.6298988289492686	31.232562539767148	10.0
SWI5=tf_act(SWI5)	591.2451260032564	0.3	0.009232671994306307	2.3132460316811576	70.29217821281446	10.0
SWI5=tf_act(SWI5)	591.2667365271458	0.3	0.0090234901882993	2.3044009855408785	71.10191159413482	10.0
SWI5=tf_act(SWI5)	591.4513990129757	0.3	0.00872205013728213	2.2901483229005395	72.28042430655536	10.0
SWI5=tf_act(SWI5)	591.3949541251383	0.3	0.008642802177844454	2.2622933934815515	72.03555888161608	10.0
SWI5=tf_act(SWI5)	591.3432354581499	0.3	0.008816160280219065	2.287164861301712	71.73625837816358	10.0
SWI5=tf_act(SWI5)	591.2416926684272	0.3	0.009155600414241438	2.306631727524296	70.51114987956613	10.0
SWI5=tf_act(SWI5)	591.2569718542079	0.3	0.00930695064642698	2.318201668507764	70.0523661966833	10.0
SWI5=tf_act(SWI5)	591.2727674641727	0.3	0.0093266679508759	2.3140060028158875	69.86634576937662	10.0
SWI5=tf_act(SWI5)	591.2594974661633	0.3	0.009291769413294751	2.313556027590594	70.0198483481418	10.0
SWI5=tf_act(SWI5)	591.38331967624	0.3	0.009545466560951087	2.3272667072493647	69.15503987586504	10.0
SWI5=tf_rep(SWI5)	501.117747136875	0.0	0.0004385143406442471	99.99999983393852	0.9594406661527507	1.749275724744012
SWI5=tf_rep(SWI5)	501.1176458533225	0.0	0.0004292938436381577	99.90709964910575	0.9631710309575495	1.7519338035417105
SWI5=tf_rep(SWI5)	501.58351228374414	0.00024393405362131544	0.0	99.65368120625757	1.3177903839638443	2.0215565790934282
SWI5=tf_rep(SWI5)	501.1170758571567	0.0	0.00042950502042855436	99.21705430627976	0.9671311153296054	1.7519806925077073
SWI5=tf_rep(SWI5)	501.12305585870325	0.0003546811182657902	0.0005298935681938985	99.08439358275317	0.9530434386951622	1.7379986311125595
SWI5=tf_rep(SWI5)	501.1170240394919	0.0	0.0003918832421523741	98.58134827412782	0.9845425694916934	1.7632706343731224
SWI5=tf_rep(SWI5)	501.11734185913326	0.0	0.00037878321120856344	98.54736960714523	0.9889724330156743	1.766819006060628
SWI5=tf_rep(SWI5)	501.11913938042886	0.0	0.0005186720541074431	98.71229541961392	0.9396281783476222	1.726882750569351
SWI5=tf_rep(SWI5)	501.18740073618835	0.0	0.0	98.55323906922852	1.1443628246149695	1.893438554611693
SWI5=tf_rep(SWI5)	501.11610269517774	0.0	0.00042938328833215067	98.06103104322415	0.9740322488925288	1.7521976987010617
SWI5=tf_act(NRM1)	91.67198378727183	0.0	0.06485310919424819	8.435352367825951	50.93454337475928	5.313725784479426
SWI5=tf_act(NRM1)	91.6877996858213	0.0	0.06511475030374149	8.54339372886646	51.26715064361047	5.139215900749893
SWI5=tf_act(NRM1)	91.66460698794279	0.0	0.06485193398167236	8.467426017533208	51.067639881676236	5.256377443176829
SWI5=tf_act(NRM1)	91.66460962852115	0.0	0.06485323733483876	8.468091689499133	51.069908664536094	5.255119871043069
SWI5=tf_act(NRM1)	91.67229983659716	0.0	0.06472617959925861	8.425898118728298	50.95134043365497	5.323699797450791
SWI5=tf_act(NRM1)	91.67411030404564	0.0	0.06488685984808337	8.433757402325913	50.91352922439049	5.317013877740292
SWI5=tf_act(NRM1)	91.66460698924898	0.0	0.06485183560268667	8.467423874121039	51.06767015016203	5.2563759655516
SWI5=tf_act(NRM1)	91.66460698915658	0.0	0.06485186149490905	8.46743083259473	51.0676829145347	5.256376775539559
SWI5=tf_act(NRM1)	91.66531042749128	0.0	0.06488146219008964	8.479807089832017	51.10574423410978	5.236882512196466
SWI5=tf_act(NRM1)	91.66460703385255	0.0	0.06485123807114725	8.467344660044894	51.06762718951692	5.256408448535228
SWI5=tf_rep(NRM1)	579.149114990087	0.3	0.0002982392884711041	5.117607268489482	7.500561229817776	4.549334517703173
SWI5=tf_rep(NRM1)	573.5639955247688	0.3	0.00037919713815932925	2.315471722305964	13.14836840177165	10.0
SWI5=tf_rep(NRM1)	573.5742904986993	0.3	0.00038939124274210734	2.303844019772216	13.556610980540638	10.0
SWI5=tf_rep(NRM1)	573.5663151557306	0.3	0.0003839728102794588	2.3100328478123315	13.34133743996693	10.0
SWI5=tf_rep(NRM1)	573.5640807121744	0.3	0.00038009107938638916	2.3144192078406194	13.185183562770614	10.0
SWI5=tf_rep(NRM1)	573.5639957061219	0.3	0.000378911295727018	2.315473623518788	13.14823136164548	10.0
SWI5=tf_rep(NRM1)	573.5765585655132	0.3	0.00036980813154475703	2.329813901885639	12.710730158726797	10.0
SWI5=tf_rep(NRM1)	573.6044273834947	0.3	0.0003633915235307053	2.343199826798452	12.380224008548659	10.0
SWI5=tf_rep(NRM1)	573.5639955264609	0.3	0.000379201769095815	2.3154697768795316	13.148531729408775	10.0
SWI5=tf_rep(NRM1)	573.5780705221019	0.3	0.0003697497015961527	2.3297444384633237	12.710932534027325	9.986572162069145
SWI5=tf_act(CLN3)	582.8153026129829	0.3	0.020383428104501104	2.3768744065355425	95.03489776660871	1.0
SWI5=tf_act(CLN3)	582.9125217251504	0.3	0.02051148147565188	2.4003036363912384	95.74296095256665	1.0
SWI5=tf_act(CLN3)	583.0617431702052	0.3	0.02044646316197608	2.408553467430208	96.86503102486219	1.0
SWI5=tf_act(CLN3)	583.028112126754	0.3	0.020316335305671868	2.391092279466792	96.62094537832225	1.0
SWI5=tf_act(CLN3)	582.9999195090875	0.3	0.020368969324469244	2.3939209523306015	96.40770532876591	1.0
SWI5=tf_act(CLN3)	583.0033771219066	0.3	0.020323171179951954	2.3893184413254236	96.43474270423081	1.0
SWI5=tf_act(CLN3)	582.9434923077881	0.3	0.02036041726282477	2.3872764926510173	95.98577408151205	1.0
SWI5=tf_act(CLN3)	582.9119005934065	0.3	0.020440494513289203	2.392686242959918	95.7466030179974	1.0
SWI5=tf_act(CLN3)	582.9373040971102	0.3	0.020395072243417592	2.3903808608151267	95.93844842009675	1.0
SWI5=tf_act(CLN3)	543.8229233905422	0.3	0.029793925572043658	1.5339754561496024	0.001	1.0000000273889198
SWI5=tf_rep(CLN3)	241.7716438274499	0.3	0.01758191229723026	98.18066765263093	37.610549312541366	10.0
SWI5=tf_rep(CLN3)	241.79055826530706	0.3	0.01759793140641546	98.42848757585712	37.5644828790978	9.960480796859313
SWI5=tf_rep(CLN3)	241.76942863111103	0.3	0.017581480351484925	98.85933381516448	37.58207610493535	10.0
SWI5=tf_rep(CLN3)	241.78655337707187	0.3	0.01758767592949669	98.42931562029794	37.570330078303755	9.968550845457273
SWI5=tf_rep(CLN3)	241.77123015617772	0.3	0.017581821956291953	98.30660860250724	37.605245485761756	10.0
SWI5=tf_rep(CLN3)	241.7728650249732	0.3	0.01758217845693095	97.8109817015761	37.62616591833938	10.0
SWI5=tf_rep(CLN3)	241.8205439631866	0.3	0.017609508371711134	97.78592164119652	37.53959821869401	9.905810380949738
SWI5=tf_rep(CLN3)	241.77234401784878	0.3	0.017582050849812157	97.96832005844757	37.61950770958445	10.0
SWI5=tf_rep(CLN3)	241.77270726331653	0.3	0.017582144932974057	97.85856415105575	37.62415258104346	10.0
SWI5=tf_rep(CLN3)	241.77429363904594	0.3	0.01758244638034965	97.38245208670536	37.64434846433547	10.0
SWI5=tf_act(WHI5)	276.0363955643123	0.0	0.04480753360321798	12.465792053804856	100.0	10.0
SWI5=tf_act(WHI5)	276.0363955650381	0.0	0.044807493859226874	12.465781857072619	100.0	10.0
SWI5=tf_act(WHI5)	276.0363955646777	0.0	0.04480750870386465	12.465784838031484	100.0	10.0
SWI5=tf_act(WHI5)	276.0363955642692	0.0	0.044807536923449014	12.465789494251279	100.0	10.0
SWI5=tf_act(WHI5)	276.03639556557096	0.0	0.044807475367750156	12.465776834687246	100.0	10.0
SWI5=tf_act(WHI5)	276.03639556476304	0.0	0.04480750543673204	12.465784675078533	100.0	10.0
SWI5=tf_act(WHI5)	276.0363955652964	0.0	0.04480749276650292	12.465778956845602	100.0	10.0
SWI5=tf_act(WHI5)	276.0363955646883	0.0	0.04480750825735424	12.465784649857932	100.0	10.0
SWI5=tf_act(WHI5)	276.0363955639121	0.0	0.04480755735997341	12.465795072864339	100.0	10.0
SWI5=tf_act(WHI5)	276.03639556475645	0.0	0.044807505300191	12.465783905538833	100.0	10.0
SWI5=tf_rep(WHI5)	561.409548467344	0.3	0.023777686299472477	2.2784406387454834	99.77290243886684	1.0
SWI5=tf_rep(WHI5)	561.3904550607843	0.3	0.023783896879423273	2.276655978671675	100.0	1.0
SWI5=tf_rep(WHI5)	561.4539492527398	0.3	0.02383210417162998	2.2887356944021793	99.25147748799782	1.0
SWI5=tf_rep(WHI5)	561.4726636893998	0.3	0.023753708047278763	2.2840764466800025	99.0256322889218	1.0
SWI5=tf_rep(WHI5)	561.4820763438971	0.3	0.02376600816037107	2.2863430510131164	98.91488627045123	1.0
SWI5=tf_rep(WHI5)	561.4783554961842	0.3	0.023751431019693892	2.284577164197068	98.9584993897876	1.0
SWI5=tf_rep(WHI5)	561.5155613733558	0.3	0.023741386237528275	2.2882912156398034	98.52072942824051	1.0
SWI5=tf_rep(WHI5)	561.5556008702848	0.3	0.02375426370246169	2.294427051498084	98.05259167697116	1.0
SWI5=tf_rep(WHI5)	561.5330970144202	0.3	0.02375073574175696	2.291314938759326	98.31539968862306	1.0
SWI5=tf_rep(WHI5)	561.5716782333451	0.3	0.023715476423854825	2.2929591428471574	97.86379588121603	1.0
SWI5=tf_act(YOX1)	368.6543644243208	0.0	0.00782427637191883	9.41558848431129	99.82675869562007	4.309320609039491
SWI5=tf_act(YOX1)	368.669274553751	0.0	0.007608841661626898	9.515186255694752	100.0	4.3880968331979515
SWI5=tf_act(YOX1)	368.65692379179444	0.0	0.007816509130727184	9.455483708050417	99.99999955461733	4.307447360881353
SWI5=tf_act(YOX1)	368.65251860744496	0.0	0.007874047635634271	9.372203526868422	99.67485854061562	4.296117993010736
SWI5=tf_act(YOX1)	368.6587733647093	0.0	0.00800468472581092	9.29475918866374	99.51445187461267	4.248429016009962
SWI5=tf_act(YOX1)	368.6492782941694	0.0	0.007831141381010175	9.338830719528758	99.49388948453975	4.314830675004222
SWI5=tf_act(YOX1)	368.64371801269135	0.0	0.007776215924469842	9.256990000772308	99.05611180434614	4.347513467437641
SWI5=tf_act(YOX1)	368.6367250394645	0.0	0.007856062142535798	9.164540176361207	98.72832444683009	4.325443949026802
SWI5=tf_act(YOX1)	368.6459468336626	0.0	0.007983632619743143	9.178043051098744	98.94589339859367	4.271027167311188
SWI5=tf_act(YOX1)	368.6311680245026	0.0	0.007865403078425053	9.093715236802854	98.41165667656834	4.330392605916137
SWI5=tf_rep(YOX1)	593.3190247163649	0.3	0.0	44.411532645849626	6.482522830383088	9.966224717220973
SWI5=tf_rep(YOX1)	593.3192209193834	0.3	0.0	44.669127295929975	6.473476408432872	9.93012216397863
SWI5=tf_rep(YOX1)	593.3190355956862	0.3	0.0	45.034746075897175	6.471687413667884	9.961669073686211
SWI5=tf_rep(YOX1)	593.3190338982349	0.3	0.0	44.602849913155026	6.479041639215014	9.963762370677586
SWI5=tf_rep(YOX1)	593.3192352751843	0.3	0.0	44.47130532294989	6.476517676932958	9.928421312633
SWI5=tf_rep(YOX1)	593.3194339104712	0.3	0.0	43.97686895211872	6.480468364381092	9.895937952878638
SWI5=tf_rep(YOX1)	593.3198228940328	0.3	0.0	43.943490206490104	6.472240721184561	9.83052793988791
SWI5=tf_rep(YOX1)	593.3204065224744	0.3	0.0	44.10962725388591	6.456574032785718	9.736397487553718
SWI5=tf_rep(YOX1)	593.3203159877819	0.3	0.0	44.00811433616874	6.460315593366293	9.750963718394967
SWI5=tf_rep(YOX1)	593.3209378014856	0.3	0.0	43.518946762507426	6.455992602167503	9.658596197349317
SWI5=tf_act(ASH1)	619.8367364090453	0.3	0.0	0.0	64.1157528105764	3.620240275717519
SWI5=tf_act(ASH1)	619.5443591723191	0.3	0.0	0.04724264537402526	65.20454588243486	1.0
SWI5=tf_act(ASH1)	619.5527034232667	0.3	0.0	0.046802907429842756	65.79027082063817	1.0
SWI5=tf_act(ASH1)	619.5494522591345	0.3	0.0	0.04696781820393991	65.56015646828278	1.0
SWI5=tf_act(ASH1)	619.5472099858837	0.3	0.0	0.047091431646103965	65.40287117800186	1.0
SWI5=tf_act(ASH1)	619.5477685053405	0.3	0.0	0.0470596818936725	65.44194140081913	1.0
SWI5=tf_act(ASH1)	619.54138879905	0.3	0.0	0.047400885480949055	64.99983135108042	1.0
SWI5=tf_act(ASH1)	619.5362013168045	0.3	0.0	0.04767521716657725	64.6469308269902	1.0
SWI5=tf_act(ASH1)	619.5395746763154	0.3	0.0	0.04749623942019582	64.87575713214876	1.0
SWI5=tf_act(ASH1)	619.5328116775444	0.3	0.0	0.04784839457664344	64.41943345430298	1.0
SWI5=tf_rep(ASH1)	275.1921198348164	8.84772329867571e-05	0.009453046893985446	100.0	7.204530933486548	9.981173778500338
SWI5=tf_rep(ASH1)	275.14669775797654	0.0	0.00953406404929113	99.24917417210334	7.215814176411146	10.0
SWI5=tf_rep(ASH1)	275.1351418777306	0.0	0.009534543266651537	100.0	7.209936854444551	10.0
SWI5=tf_rep(ASH1)	275.14180340093117	0.0	0.00953402433903752	99.56574923107495	7.213321460079553	10.0
SWI5=tf_rep(ASH1)	275.1438511051901	0.0	0.009533870349474642	99.43304365693379	7.21435907501493	10.0
SWI5=tf_rep(ASH1)	275.15188439890346	0.0	0.009533423035373717	98.91593480938008	7.2184274180457075	10.0
SWI5=tf_rep(ASH1)	275.1524199602872	0.0	0.009533198853366124	98.88165466596631	7.218689083757617	10.0
SWI5=tf_rep(ASH1)	275.1498459062421	0.0	0.009533382687054838	99.04662649938282	7.217390151695446	10.0
SWI5=tf_rep(ASH1)	275.1569672219304	0.0	0.009533273911420555	98.59160912977242	7.220988184861871	10.0
SWI5=tf_rep(ASH1)	275.31764788296834	0.0005341544582617403	0.009439944460876523	98.10479352100818	7.212911096198505	9.947439648705188
SWI5=tf_act(RIF1)	284.33593563101164	0.0	0.01184275901245379	5.194311002685165	76.30360563255624	10.0
SWI5=tf_act(RIF1)	284.36499681755015	0.0	0.011508173527742445	5.261489132444078	77.19332934807639	10.0
SWI5=tf_act(RIF1)	284.56635446445273	0.0	0.011071419447120964	5.365151416822367	78.47477084209335	10.0
SWI5=tf_act(RIF1)	284.33342768422574	0.0	0.011762243521820242	5.2070768729338965	76.49641838577848	10.0
SWI5=tf_act(RIF1)	284.34154117476083	0.0	0.0118973371263284	5.182103068967254	76.1535874687887	10.0
SWI5=tf_act(RIF1)	284.3334277015589	0.0	0.011762076414431185	5.20710473000975	76.4968415921312	10.0
SWI5=tf_act(RIF1)	284.347232499959	0.0	0.011947468805662213	5.176629312404867	76.04858780878402	10.0
SWI5=tf_act(RIF1)	284.3334276867956	0.0	0.011762192752674558	5.2070852753902495	76.49654136296	10.0
SWI5=tf_act(RIF1)	284.3340314011431	0.0	0.011725279410654958	5.213998173826318	76.59137493840997	10.0
SWI5=tf_act(RIF1)	284.40742805325874	0.0	0.01217643228443359	5.135372640728332	75.48468591344268	10.0
SWI5=tf_rep(RIF1)	579.6100696758609	0.3	0.021433106972504567	1.7962708702128714	100.0	1.0
SWI5=tf_rep(RIF1)	579.6100696776234	0.3	0.02143305807693305	1.7962683935682804	100.0	1.0
SWI5=tf_rep(RIF1)	579.7392758693777	0.3	0.021555107425786167	1.8106526570237151	99.26435977931769	1.0
SWI5=tf_rep(RIF1)	579.7769604389807	0.3	0.02138145473434935	1.798657977779394	99.03848310840048	1.0
SWI5=tf_rep(RIF1)	579.6100696758134	0.3	0.02143310919493809	1.7962710427337654	100.0	1.0
SWI5=tf_rep(RIF1)	579.6100696740386	0.3	0.021433264178776446	1.796283091598124	100.0	1.0
SWI5=tf_rep(RIF1)	579.6864194321007	0.3	0.021463881129637194	1.8015702018097264	99.56015501494514	1.0
SWI5=tf_rep(RIF1)	579.7654736894353	0.3	0.021447024889996832	1.8033297648307027	99.1058276820747	1.0
SWI5=tf_rep(RIF1)	579.6100696794066	0.3	0.021432990807776588	1.7962628579352882	100.0	1.0
SWI5=tf_rep(RIF1)	579.6886283113313	0.3	0.021408972594715824	1.7974044952213255	99.54634653525099	1.0
SWI5=tf_act(EDS1)	470.4783486226496	0.0	0.010478251837150293	3.2746043768504736	58.470241816536785	10.0
SWI5=tf_act(EDS1)	470.4740055978147	0.0	0.010312975122026181	3.296863328301022	58.62998863989708	10.0
SWI5=tf_act(EDS1)	470.47400559772103	0.0	0.010312968988718535	3.296863663639234	58.62999647928805	10.0
SWI5=tf_act(EDS1)	470.5949820433249	0.0003347870016299381	0.010562688148874982	3.2166109967234675	58.2851244541255	9.967402721328494
SWI5=tf_act(EDS1)	470.47400571480557	0.0	0.010313495058105724	3.2967230213787255	58.62928385171027	10.0
SWI5=tf_act(EDS1)	470.66107044840595	0.0	0.011260174665639012	3.1386932210818266	57.620095513043424	10.0
SWI5=tf_act(EDS1)	470.47400559768647	0.0	0.010312989988270538	3.29686092636615	58.6299750575497	10.0
SWI5=tf_act(EDS1)	470.47400559824536	0.0	0.010313062375324382	3.2968553491040202	58.62991523676589	10.0
SWI5=tf_act(EDS1)	470.47630163981864	0.0	0.010409588621897267	3.278183957739785	58.51915410876063	10.0
SWI5=tf_act(EDS1)	470.4740055980537	0.0	0.010312940793198357	3.2968711915997253	58.63003788327689	10.0
SWI5=tf_rep(EDS1)	558.0601104436176	0.3	0.029205453922008417	2.3118562959732274	99.77290346570823	1.0
SWI5=tf_rep(EDS1)	558.2035150740136	0.29725180369400855	0.030610578260339853	2.4211666437291735	99.74696060774542	1.0
SWI5=tf_rep(EDS1)	558.1300437900516	0.3	0.02929436940462752	2.32473629882512	99.00345963151133	1.0
SWI5=tf_rep(EDS1)	558.149698309416	0.3	0.029197314541113746	2.3192951406774336	98.7810538720063	1.0
SWI5=tf_rep(EDS1)	558.1607680010309	0.3	0.02921041880368226	2.321273582363538	98.65950578480545	1.0
SWI5=tf_rep(EDS1)	558.1567013953671	0.3	0.0291958300512987	2.3198132756982592	98.70404045316435	1.0
SWI5=tf_rep(EDS1)	558.196709458358	0.3	0.0291958125942073	2.323423133760823	98.26552025984536	1.0
SWI5=tf_rep(EDS1)	558.4364732189807	0.299965759137768	0.031055231024543918	2.458387071504367	97.88559098753274	1.0
SWI5=tf_rep(EDS1)	558.2120759546514	0.3	0.02920893026064903	2.325797960747129	98.09795257537658	1.0
SWI5=tf_rep(EDS1)	558.2535482797597	0.3	0.029185621759174968	2.327812158908356	97.64665468865857	1.0
