# LEMpy local minima file for target NRM1, replicate 1
# Right-hand side of tf_act():  p0 - p1(tar) + p2(reg^p4) / (p3^p4 + reg^p4)
# Right-hand side of tf_rep():  p0 - p1(tar) + p2(p3^p4) / (p3^p4 + reg^p4)
# Run configuration file:  ../pipeline/src/yeast_data/simulations202110_Orlando_2/extra_nodes_no_annot/results5/edge_finding_20211013134623/lempy_20211013134623_config.txt
# Time series data file:   ../pipeline/src/yeast_data/time_series/orlando2008_WildType_r2_trunc.tsv
# Computed on:  2021-10-13 13:49:08 
 
model	loss	p0	p1	p2	p3	p4
NRM1=tf_act(SWI4)	124.4385236854739	0.0	0.05317510735968275	8.69164526012235	57.37644568143766	3.3446487023160527
NRM1=tf_act(SWI4)	124.3365118808847	0.0	0.052917822406819554	8.818248750340702	58.23318909883034	3.2858989464634165
NRM1=tf_act(SWI4)	124.23243388085322	0.0	0.05295176384009557	9.023807382310007	59.32622933784803	3.204425268986864
NRM1=tf_act(SWI4)	124.26176234026602	0.0	0.053115508997394166	8.975090116053613	58.95528437240013	3.2237027748844302
NRM1=tf_act(SWI4)	124.28484876356681	0.0	0.05299903553991657	8.917585046217264	58.716420907173536	3.2465197459421127
NRM1=tf_act(SWI4)	124.05227026563476	0.0	0.052954743592485594	10.06690604893729	65.01218909967945	2.88878011066825
NRM1=tf_act(SWI4)	124.0548923148172	0.0	0.05307588139681953	10.010166820599737	64.58610237637338	2.907718897874867
NRM1=tf_act(SWI4)	124.05291516646948	0.0	0.05295606387381262	9.990230815711318	64.59300300795745	2.907545263309137
NRM1=tf_act(SWI4)	124.05262994233564	0.0	0.05295682622017878	10.009588368732558	64.69809956047985	2.902755851649773
NRM1=tf_act(SWI4)	124.0572800516852	0.0	0.05296306307526313	9.858850711875819	63.87097332931001	2.941097558474083
NRM1=tf_rep(SWI4)	577.6838484246931	0.3	0.0031071175214784576	0.1616354371617592	0.001	1.1466019040459985
NRM1=tf_rep(SWI4)	577.6837616587882	0.3	0.003106700394304509	0.21385769616229444	0.14102057092738493	3.1906618623870266
NRM1=tf_rep(SWI4)	577.6840956012801	0.3	0.003106888989951765	0.7126877020937098	0.6384564139359523	3.217023932386281
NRM1=tf_rep(SWI4)	577.6837868917767	0.3	0.0031068423969584317	0.27716222174782984	0.4077881412818855	3.255079488332473
NRM1=tf_rep(SWI4)	577.6837636600463	0.3	0.0031068341592949142	0.1431776708480041	0.25050244020646784	3.2421456031906772
NRM1=tf_rep(SWI4)	577.6837607163881	0.3	0.0031068338053718454	0.0	0.2895727322554432	3.2086302472655617
NRM1=tf_rep(SWI4)	577.6837607163881	0.3	0.003106833809940448	0.0	0.001	3.2157282600045463
NRM1=tf_rep(SWI4)	577.6837607163883	0.3	0.0031068338085072362	0.16087850841280904	0.001	3.178024144018099
NRM1=tf_rep(SWI4)	577.6837623132127	0.3	0.003106833994582173	0.07745665311447525	0.2298513616241908	3.1839122219714073
NRM1=tf_rep(SWI4)	577.6837607163882	0.3	0.0031068338054996785	0.0	0.001	3.1695502062786485
NRM1=tf_act(HCM1)	48.10198256877199	0.0	0.08843492132714117	9.810665329228177	49.46173585172442	9.55103706548024
NRM1=tf_act(HCM1)	48.10372612651674	0.0	0.08895022770352672	9.853837647342516	49.467461432479745	9.410538619780178
NRM1=tf_act(HCM1)	48.11614838373139	0.0	0.08951705804303196	9.901748609565969	49.474541320770896	9.261031798220989
NRM1=tf_act(HCM1)	48.10691018644963	0.0	0.08912625506697222	9.86886721486065	49.47150766897964	9.356333538005611
NRM1=tf_act(HCM1)	48.10154949560376	0.0	0.08858868085486545	9.823511657206677	49.46367723834886	9.507231600955977
NRM1=tf_act(HCM1)	48.101562151380556	0.0	0.0886160480493371	9.82581003115801	49.46398569784182	9.499743704466592
NRM1=tf_act(HCM1)	48.101840513326565	0.0	0.08845662259052844	9.81250155826443	49.462415500176235	9.543078517679152
NRM1=tf_act(HCM1)	48.10163919972918	0.0	0.08866303376396148	9.829753185114788	49.464407322720696	9.487412625460578
NRM1=tf_act(HCM1)	48.10184378537593	0.0	0.08859581712348705	9.822675844600022	49.46427656473285	9.489319555178744
NRM1=tf_act(HCM1)	48.10497038602621	0.0	0.08813207375757137	9.78552553779404	49.45969107722989	9.631414695273092
NRM1=tf_rep(HCM1)	577.6837607163883	0.3	0.0031068338010546595	0.0	44.058534631066074	2.796766636106667
NRM1=tf_rep(HCM1)	577.683760716388	0.3	0.003106833813493451	0.0	44.295790183919216	2.7198725997335207
NRM1=tf_rep(HCM1)	577.683760716388	0.3	0.0031068338115882695	0.0	43.87698862077253	2.470259958828581
NRM1=tf_rep(HCM1)	577.6837607163883	0.3	0.0031068338046805967	-2.7755575615628914e-17	43.64631752461393	2.5083155496359435
NRM1=tf_rep(HCM1)	577.6837607163881	0.3	0.003106833807010443	0.0	43.71970339983343	2.457326041082677
NRM1=tf_rep(HCM1)	577.6837607163882	0.3	0.003106833809339077	0.0	43.7587736918824	2.4238106851575614
NRM1=tf_rep(HCM1)	577.6837607163882	0.3	0.0031068338081871208	0.0	43.31669315460198	2.430908697896546
NRM1=tf_rep(HCM1)	577.6837607163312	0.3	0.0031068380680632926	0.0	42.89311575189906	2.3207320337817046
NRM1=tf_rep(HCM1)	577.6837607163881	0.3	0.0031068338131170874	0.0	43.12196743655917	2.326619789221935
NRM1=tf_rep(HCM1)	577.6837607163878	0.3	0.003106833815511731	0.0	42.66564462327995	2.312257773529176
NRM1=tf_act(NDD1)	517.4783650780131	0.3	0.3344959476614821	65.90660352977093	100.0	2.090138020953171
NRM1=tf_act(NDD1)	517.4783836020739	0.3	0.3343236806324193	65.87278461793528	100.0	2.0901582769900604
NRM1=tf_act(NDD1)	517.4829230079698	0.3	0.3375038646791841	66.49634369761272	100.0	2.089759165488164
NRM1=tf_act(NDD1)	517.4784339565995	0.3	0.3348833430866508	65.98247147272482	100.0	2.090085093347856
NRM1=tf_act(NDD1)	517.4788013374716	0.3	0.3335908603576686	65.72901401759209	100.0	2.0902475545452095
NRM1=tf_act(NDD1)	517.4903837836662	0.3	0.3296661305967119	64.95888880881255	100.0	2.0907266007577774
NRM1=tf_act(NDD1)	517.940244481468	0.3	0.3311251282765444	64.93285879101713	99.55785662045334	2.0954336130822337
NRM1=tf_act(NDD1)	517.8578295000156	0.3	0.3300463714743439	64.78065413649706	99.6412537878007	2.094625644281366
NRM1=tf_act(NDD1)	517.4957188232613	0.3	0.32867982798900836	64.76670449638242	100.0	2.090910644303192
NRM1=tf_act(NDD1)	517.4783650054515	0.3	0.3345013638111936	65.90769666328957	100.0	2.090139545124301
NRM1=tf_rep(NDD1)	396.51118719084667	0.0	0.008494205590879733	4.445366052262892	38.06239085132722	10.0
NRM1=tf_rep(NDD1)	396.5111871846247	0.0	0.008494240962375624	4.445354422799412	38.062407204684675	10.0
NRM1=tf_rep(NDD1)	396.51118718474464	0.0	0.008494233611580693	4.445355489593404	38.062398818770816	10.0
NRM1=tf_rep(NDD1)	396.5126678278775	0.0	0.008456045836487559	4.452207573743834	38.022443383448845	10.0
NRM1=tf_rep(NDD1)	396.5111871849876	0.0	0.00849422575386626	4.445356393060534	38.06239180614363	10.0
NRM1=tf_rep(NDD1)	396.5111871845799	0.0	0.008494244468787252	4.445353780590138	38.06240987497324	10.0
NRM1=tf_rep(NDD1)	396.5111871847767	0.0	0.008494232251966617	4.445355103347507	38.06239903466152	10.0
NRM1=tf_rep(NDD1)	396.5111871895319	0.0	0.008494175821103296	4.445366281048132	38.062354844060984	10.0
NRM1=tf_rep(NDD1)	396.51118718473646	0.0	0.00849424472027362	4.445359284435312	38.06240313252912	10.0
NRM1=tf_rep(NDD1)	396.51118718452796	0.0	0.008494258058035706	4.445352761196622	38.06241724595506	10.0
NRM1=tf_act(SWI5)	577.6837607164957	0.3	0.0031068472481956544	0.0	90.96155544431568	1.0
NRM1=tf_act(SWI5)	577.6837607163882	0.3	0.0031068338038064934	0.0	91.27568287788739	1.0
NRM1=tf_act(SWI5)	577.6837607163881	0.3	0.0031068338104690662	0.0	90.76521417787762	1.0
NRM1=tf_act(SWI5)	577.6837607163881	0.3	0.0031068338080402482	0.0	90.53454305270621	1.038056196467167
NRM1=tf_act(SWI5)	577.6837607163881	0.3	0.003106833809882033	0.0	90.37725783176711	1.025122278721263
NRM1=tf_act(SWI5)	577.6837607163882	0.3	0.0031068338069440587	0.0	90.41632812381609	1.0
NRM1=tf_act(SWI5)	577.6837607163881	0.3	0.0031068338089425412	0.0	89.97424758653565	1.0070980127389846
NRM1=tf_act(SWI5)	577.6837607163881	0.3	0.0031068338086435924	0.0	89.61337528606224	1.0
NRM1=tf_act(SWI5)	577.6837607163881	0.3	0.0031068338100217695	0.0	89.84222697072234	1.0058877554402303
NRM1=tf_act(SWI5)	577.6837607163882	0.3	0.0031068338073999236	0.0	89.38590415744312	1.0
NRM1=tf_rep(SWI5)	200.89475169748798	0.0	0.029352811996192368	4.121431208430537	33.65832901267633	4.831857383744564
NRM1=tf_rep(SWI5)	200.88199389214168	0.0	0.02969324946810316	4.131132535354378	33.84978541120773	4.776971858194515
NRM1=tf_rep(SWI5)	200.87882540953976	0.0	0.029707780898371946	4.129488357376894	33.904817040793354	4.817280994371457
NRM1=tf_rep(SWI5)	200.88263761434627	0.0	0.029532563641936842	4.125060957683258	33.796594621313005	4.838073755261839
NRM1=tf_rep(SWI5)	200.8820922535577	0.0	0.029627849697402828	4.129534256337803	33.81171212631032	4.788158146952372
NRM1=tf_rep(SWI5)	200.87875140790297	0.0	0.029721250644963663	4.129254766388221	33.9265024832197	4.828103024749331
NRM1=tf_rep(SWI5)	200.90019970062926	-6.776263578034403e-21	0.029473694414167462	4.127655937963326	33.646199745011074	4.734303350643265
NRM1=tf_rep(SWI5)	200.8787269517049	0.0	0.02971054363423162	4.129095992717768	33.91603146241457	4.825339328847472
NRM1=tf_rep(SWI5)	200.88541468948884	0.0	0.029801698187406054	4.128068456400844	34.048846433698	4.886616142422131
NRM1=tf_rep(SWI5)	200.89798593078694	0.0	0.029395498003053966	4.1244243711730855	33.628080924425845	4.770719289750326
NRM1=tf_act(NRM1)	577.6835373119709	0.3	0.0032947949777523957	0.04209352516123521	99.77352463996448	1.8000123652842634
NRM1=tf_act(NRM1)	529.6245774982448	0.3	0.012386214592545438	7.718573847169924	100.0	10.0
NRM1=tf_act(NRM1)	529.6245774980672	0.3	0.012386229353865715	7.718579839707691	100.0	10.0
NRM1=tf_act(NRM1)	529.624577499749	0.3	0.012386179460306217	7.718545092875187	100.0	10.0
NRM1=tf_act(NRM1)	529.6245774981546	0.3	0.01238622789852803	7.718588880854357	100.0	10.0
NRM1=tf_act(NRM1)	529.6245774985657	0.3	0.012386203774029172	7.718568675713805	100.0	10.0
NRM1=tf_act(NRM1)	529.6245774984505	0.3	0.012386207157487781	7.718567858444014	100.0	10.0
NRM1=tf_act(NRM1)	529.9576701844773	0.3	0.012307294804028495	7.5093974603960465	99.66809269903776	10.0
NRM1=tf_act(NRM1)	529.6245774982676	0.3	0.012386213821283056	7.718572502848337	100.0	10.0
NRM1=tf_act(NRM1)	529.6245775012123	0.3	0.012386160109041654	7.71854671467579	100.0	10.0
NRM1=tf_rep(NRM1)	408.2079344539537	0.0	0.006919938708697086	4.109406945385191	21.623828319944565	10.0
NRM1=tf_rep(NRM1)	408.1061021974639	0.0	0.0071817814523694665	4.030895873192088	21.911194631077198	10.0
NRM1=tf_rep(NRM1)	408.106101658816	0.0	0.00718115151943259	4.031040287385833	21.910508723564636	10.0
NRM1=tf_rep(NRM1)	408.1062123281822	0.0	0.007172124515271375	4.0334601674318495	21.900941482739352	10.0
NRM1=tf_rep(NRM1)	408.1061016609462	0.0	0.007181002988636605	4.0310247736645115	21.91045699473461	10.0
NRM1=tf_rep(NRM1)	408.10610165425607	0.0	0.007181087692833218	4.031016255476784	21.9105150231671	10.0
NRM1=tf_rep(NRM1)	408.10610165433457	0.0	0.007181084824789435	4.031016770857388	21.910512576890813	10.0
NRM1=tf_rep(NRM1)	408.1061016550742	0.0	0.007181085866872524	4.031007662144061	21.91052290417458	10.0
NRM1=tf_rep(NRM1)	408.1061016542083	0.0	0.007181091899612775	4.031018092793903	21.910516476251104	10.0
NRM1=tf_rep(NRM1)	408.1061016545859	0.0	0.007181080809596561	4.031020176260513	21.91050702891566	10.0
NRM1=tf_act(CLN3)	572.200517286262	0.3	0.014910682092254	0.8390764571556508	33.6091737482388	1.0
NRM1=tf_act(CLN3)	561.0133876325278	0.2999748753931166	0.025286863430654116	1.0985648950984213	0.001	1.000000190198199
NRM1=tf_act(CLN3)	561.0127841319598	0.0	0.025287559393105348	1.3985620507110308	0.001	1.2278512104466388
NRM1=tf_act(CLN3)	561.0127564032117	0.002510376122142403	0.025287429909390646	1.396043925543485	0.001	1.2659428263006178
NRM1=tf_act(CLN3)	561.012762708476	0.04140717205230701	0.02528713619709066	1.3571367599555162	0.001	1.2531298965407356
NRM1=tf_act(CLN3)	561.0206009906738	0.04340472526858777	0.025282542126654296	1.3550404718787297	0.03980347907776031	1.221497873981377
NRM1=tf_act(CLN3)	561.0127800605193	0.054588112524960694	0.025288104222107227	1.3440000034334776	0.001	1.2287613867417175
NRM1=tf_act(CLN3)	561.0128013745261	0.0	0.025293215431799312	1.3988399047353939	0.001	1.2109076947011763
NRM1=tf_act(CLN3)	561.0722970028056	0.02343325168566053	0.02534286016507488	1.3788717829271626	0.20961905059725422	1.2269050643777464
NRM1=tf_act(CLN3)	561.0127968918325	0.024451439435071862	0.025287342437371525	1.3740992651253383	0.001	1.2125766727630438
NRM1=tf_rep(CLN3)	331.7810893285456	0.0	0.0837853648834054	24.267792754732397	42.58695461015944	2.7138399291100663
NRM1=tf_rep(CLN3)	331.78989296585195	0.0	0.08387719609501364	24.34798718054636	42.52752989570648	2.7121751363653055
NRM1=tf_rep(CLN3)	331.80556014977464	0.0	0.08388789754651403	24.467613676367517	42.394298301519314	2.7078348417707514
NRM1=tf_rep(CLN3)	331.79803115926507	0.0	0.08379203059638737	24.395062989925208	42.44189764708645	2.7090034511527232
NRM1=tf_rep(CLN3)	308.0288203755004	0.0	0.07707502351128875	7.314984858994991	81.85942368078183	10.0
NRM1=tf_rep(CLN3)	308.0288204172825	0.0	0.07707473095860448	7.315007703564632	81.85919017944393	10.0
NRM1=tf_rep(CLN3)	308.02882036294176	0.0	0.07707478467170942	7.3149636812042536	81.85939432893652	10.0
NRM1=tf_rep(CLN3)	308.028820365056	0.0	0.07707472131599247	7.314955511313599	81.8594050845701	10.0
NRM1=tf_rep(CLN3)	308.02882037287	0.0	0.07707507309030044	7.315009247022671	81.85933851646278	10.0
NRM1=tf_rep(CLN3)	308.0288203615545	0.0	0.07707521972803384	7.31499025834377	81.85943258412287	10.0
NRM1=tf_act(WHI5)	567.7166141516254	0.3	0.022618104988263624	2.074981929286183	95.58934070315247	1.0
NRM1=tf_act(WHI5)	567.7292941910263	0.3	0.022663810834283857	2.0885694402732806	96.3432108802611	1.0
NRM1=tf_act(WHI5)	567.7474442920449	0.3	0.022647169412887753	2.0995439291716553	97.44752237080425	1.0
NRM1=tf_act(WHI5)	567.7434502655625	0.3	0.02260852950228559	2.0926035484470704	97.20557629746632	1.0
NRM1=tf_act(WHI5)	567.7396934753805	0.3	0.022627460881432627	2.091984689137388	96.97596807014925	1.0
NRM1=tf_act(WHI5)	567.7402396452684	0.3	0.022609259634262004	2.0904248725996104	97.00972620931388	1.0
NRM1=tf_act(WHI5)	567.7328573186588	0.3	0.022617557117158463	2.086150440160137	96.56194338781677	1.0
NRM1=tf_act(WHI5)	567.7291759900784	0.3	0.022642049091312212	2.0861938871533727	96.33878968379317	1.0
NRM1=tf_act(WHI5)	567.7506825651978	0.2994876081147232	0.022026186397976474	2.019628927995637	96.55774474724132	1.0
NRM1=tf_act(WHI5)	566.1321263416066	0.3	0.02599316185759744	1.679476903096403	39.932301560170025	1.0
NRM1=tf_rep(WHI5)	460.66448695691696	0.0	0.0037905921124346477	6.8505935519638825	54.458925987710295	10.0
NRM1=tf_rep(WHI5)	460.6895972450738	0.0	0.0037674594377471293	6.933550420929313	54.314642070940764	10.0
NRM1=tf_rep(WHI5)	460.64853431565797	0.0	0.0038681169063289494	6.737036719751553	54.722846399215726	10.0
NRM1=tf_rep(WHI5)	460.648544748721	0.0	0.0038702057421230664	6.734254939038182	54.72961121572113	10.0
NRM1=tf_rep(WHI5)	460.64887058833386	0.0	0.003879529457959789	6.720718484537591	54.76084578259524	10.0
NRM1=tf_rep(WHI5)	460.64853509904714	0.0	0.0038683291692999744	6.737638369236794	54.7225873792407	10.0
NRM1=tf_rep(WHI5)	460.67040341231666	0.0	0.0037777726592222497	6.870649194437195	54.4138494026703	10.0
NRM1=tf_rep(WHI5)	460.74987598680383	0.0	0.003680028603362639	7.035501843811823	54.05764517825791	10.0
NRM1=tf_rep(WHI5)	460.6485343440676	0.0	0.00386794402440139	6.737091197381535	54.722620090979575	10.0
NRM1=tf_rep(WHI5)	460.65092210182826	0.0	0.0038957873582741594	6.6927613540329105	54.823099610540275	10.0
NRM1=tf_act(YOX1)	28.930724006800823	0.0	0.07376610903211471	8.901037219833245	47.19638402771809	7.698446901574761
NRM1=tf_act(YOX1)	28.930722513500484	0.0	0.07376666946526703	8.901041619669073	47.195970657145985	7.699791893019881
NRM1=tf_act(YOX1)	28.938621519807473	0.0	0.07388026492320622	8.923791486293428	47.24310392249004	7.57882477543189
NRM1=tf_act(YOX1)	28.93142613063581	0.0	0.0737406615027347	8.894907960943968	47.18138408745532	7.735947530863892
NRM1=tf_act(YOX1)	28.932759855870497	0.0	0.07370962915136582	8.889795803070976	47.172893603791074	7.761611336228372
NRM1=tf_act(YOX1)	28.93462864027381	0.0	0.07370680641054274	8.88664141737321	47.16143883726014	7.784921390144594
NRM1=tf_act(YOX1)	28.940347916895934	0.0	0.07364671706236083	8.877177939414528	47.14631431763867	7.834579054707627
NRM1=tf_act(YOX1)	28.93072254702443	0.0	0.07376682294884579	8.901067734194918	47.1959586341648	7.699779554668645
NRM1=tf_act(YOX1)	28.93079591629093	0.0	0.07377785863175959	8.903270486590005	47.200503199491216	7.688099538208259
NRM1=tf_act(YOX1)	28.939133772208397	0.0	0.07365168242315834	8.878313606788964	47.14930529530332	7.825659085210764
NRM1=tf_rep(YOX1)	577.6837812248533	0.3	0.0031069177432857067	0.16742716565640786	0.001	1.0000266417402917
NRM1=tf_rep(YOX1)	577.6669790057952	0.3	0.0031206193689448463	0.43985501272085925	0.29757188660478945	1.3613879558162223
NRM1=tf_rep(YOX1)	502.6915585698435	0.1406687672940019	0.002402157269251612	100.0	6.361453402068543	10.0
NRM1=tf_rep(YOX1)	502.6937781730452	0.14235180490945107	0.0024352929815749636	99.56562790602999	6.360255254429144	9.971772741925172
NRM1=tf_rep(YOX1)	502.6965310367451	0.14216052039522786	0.00243161483361352	99.43268737829443	6.356207205623757	9.936628864340214
NRM1=tf_rep(YOX1)	502.6992161787465	0.14197292319154486	0.0024281762206652983	98.93623050184405	6.355126307293815	9.903808472224693
NRM1=tf_rep(YOX1)	502.7036277921133	0.14305946160335442	0.0024496590794247245	98.89919432608019	6.347625222139232	9.851269566099663
NRM1=tf_rep(YOX1)	502.7121370196686	0.14234386759955678	0.002436029650358762	99.06233419376503	6.332399821328198	9.754485413524991
NRM1=tf_rep(YOX1)	502.7109853461153	0.13662567724211194	0.0023237681974666003	98.93494993391741	6.336407530353248	9.769056960852723
NRM1=tf_rep(YOX1)	502.71948966110483	0.1352656472528187	0.0022973685104321407	98.44183991162467	6.327159387707145	9.681056649162546
NRM1=tf_act(ASH1)	577.6837607186386	0.3	0.0031068703210149016	0.0	54.24146844150594	1.7815101075594633
NRM1=tf_act(ASH1)	577.6837607163882	0.3	0.0031068338088706656	0.0	54.77990874620473	1.529550671156968
NRM1=tf_act(ASH1)	577.6837607163878	0.3	0.003106833812783101	0.0	56.49668928631144	1.0
NRM1=tf_act(ASH1)	577.6837607163882	0.3	0.0031068338074156316	0.0	56.26601815643789	1.038055833002142
NRM1=tf_act(ASH1)	577.6837607163882	0.3	0.0031068338063022912	0.0	56.108732935498786	1.025121915256238
NRM1=tf_act(ASH1)	577.6837607163882	0.3	0.003106833810197967	0.0	56.14780322754776	1.0
NRM1=tf_act(ASH1)	577.6837607163882	0.3	0.0031068338074217213	0.0	55.705722690267336	1.0070980127389846
NRM1=tf_act(ASH1)	577.6837607163882	0.3	0.0031068338091506617	0.0	55.37082816986027	1.0
NRM1=tf_act(ASH1)	577.6837607163881	0.3	0.0031068338111720907	0.0	55.599679854520375	1.0058877554402303
NRM1=tf_act(ASH1)	577.6837607163882	0.3	0.003106833806135907	0.0	55.14335704124116	1.0
NRM1=tf_rep(ASH1)	247.6157181311728	0.0	0.048571068393800584	4.149333952443767	54.85137047306552	8.016087212876492
NRM1=tf_rep(ASH1)	247.61612323106218	0.0	0.048594116943538476	4.150410935321057	54.85399137683432	7.9962186223249265
NRM1=tf_rep(ASH1)	247.61535632592617	0.0	0.04857744204966861	4.149605525618576	54.874098810723844	8.031920389452182
NRM1=tf_rep(ASH1)	247.62051376569494	0.0	0.04840879142197866	4.1422020453924056	54.70142519561507	8.038538033538993
NRM1=tf_rep(ASH1)	247.6230643300777	0.0	0.04845782375649856	4.144961888614255	54.66055502941299	7.962799602871674
NRM1=tf_rep(ASH1)	247.62150178847833	0.0	0.04853385339409546	4.147843502169183	54.71048231205578	7.919075693449205
NRM1=tf_rep(ASH1)	247.66887609223303	0.0	0.04812342677321629	4.129860735090467	54.27183420229315	7.922198161961782
NRM1=tf_rep(ASH1)	247.614922853061	0.0	0.04854889083233341	4.148238170202103	54.90123262175146	8.086572273681705
NRM1=tf_rep(ASH1)	247.63525266022276	0.0	0.048851523484087056	4.159678748100877	55.23601208156097	8.051281301011645
NRM1=tf_rep(ASH1)	247.61665321200422	0.0	0.04850407355505606	4.146358986510849	54.791197909929785	8.025964130902219
NRM1=tf_act(RIF1)	177.31094937179688	0.3	0.0932940837517755	19.849190584862015	99.84946534645371	2.5958028318889297
NRM1=tf_act(RIF1)	177.308813599695	0.3	0.09330887376562329	19.891801872080347	100.0	2.5932886803906086
NRM1=tf_act(RIF1)	177.30881355696846	0.3	0.09331106036804505	19.892129510878114	100.0	2.5932633321143292
NRM1=tf_act(RIF1)	177.31427381961637	0.3	0.09328859378886813	19.786512623310102	99.61679479272651	2.599612114815006
NRM1=tf_act(RIF1)	177.31660386224033	0.3	0.09330223209363182	19.745974438984064	99.45445788612055	2.60218311103887
NRM1=tf_act(RIF1)	177.31642518902754	0.3	0.09330227754538505	19.749246048894097	99.46681336610979	2.6019787198607354
NRM1=tf_act(RIF1)	177.32279258352568	0.3	0.09329631656674069	19.632794222633045	99.0310446753176	2.6092160310282955
NRM1=tf_act(RIF1)	177.32785531225272	0.3	0.09329191879095022	19.542118478051297	98.69100804767814	2.6149501644407973
NRM1=tf_act(RIF1)	177.32457741700145	0.3	0.09329530147105616	19.600733716742894	98.91051603420298	2.611237028511355
NRM1=tf_act(RIF1)	177.33197383800805	0.3	0.09328869026112882	19.46958965917391	98.4184839378806	2.6196041774818752
NRM1=tf_rep(RIF1)	577.6837607163882	0.3	0.003106833807685087	0.0	25.24857813989441	3.3585955580257685
NRM1=tf_rep(RIF1)	577.6837607163882	0.3	0.0031068338101471315	0.0	25.04172930071331	6.045766333122021
NRM1=tf_rep(RIF1)	577.6837607163881	0.3	0.0031068338072178844	0.0	24.94736318560773	7.745838023433176
NRM1=tf_rep(RIF1)	577.6837607942653	0.3	0.003106655712750379	0.0	24.716690528669314	7.78389890354769
NRM1=tf_rep(RIF1)	577.6837607163882	0.3	0.0031068338078166875	0.0	24.559405307730216	7.770964985801786
NRM1=tf_rep(RIF1)	577.6837607163881	0.3	0.003106833810271895	0.0	24.598475599779192	7.737449629876671
NRM1=tf_rep(RIF1)	577.683760716388	0.3	0.0031068338103929323	0.0	24.156395062498767	7.744547642615655
NRM1=tf_rep(RIF1)	577.6837607163882	0.3	0.0031068338078469944	0.0	23.793649703401176	7.712026108771997
NRM1=tf_rep(RIF1)	577.6837607163882	0.3	0.0031068338057741963	0.0	24.02250138806128	7.717913864212227
NRM1=tf_rep(RIF1)	577.6837607163882	0.3	0.003106833805469785	0.0	23.566178574782068	7.703551848519469
NRM1=tf_act(EDS1)	255.67815874787883	0.042465589826030034	0.01114671362631254	9.628669229408876	80.50312009229195	10.0
NRM1=tf_act(EDS1)	254.47641046158915	0.07138380867440436	0.010141460300014145	17.90925391801686	100.0	10.0
NRM1=tf_act(EDS1)	254.47641046146015	0.07138443282004968	0.01014145901926942	17.90923988521421	100.0	10.0
NRM1=tf_act(EDS1)	254.49236158550912	0.07583996432043186	0.010230693561063446	17.581095474416745	99.67230801664567	9.952186345619914
NRM1=tf_act(EDS1)	254.4967103945814	0.07721040815840056	0.010283676903871395	17.47027655694703	99.51366027270315	9.939888527822609
NRM1=tf_act(EDS1)	254.48279155720257	0.07127065245914252	0.010149487579192651	17.498252560874192	99.53595924373437	10.0
NRM1=tf_act(EDS1)	254.48998686071965	0.0600849289795481	0.009941994025759878	17.18328437521401	99.15025261805458	10.0
NRM1=tf_act(EDS1)	254.5039063311414	0.055251859492429174	0.009863252235879643	16.937003914059147	98.8504569023439	9.965063467109061
NRM1=tf_act(EDS1)	254.49359721651177	0.07801121980776773	0.010295298661202644	17.081694547106537	99.05541038624598	9.985261075611126
NRM1=tf_act(EDS1)	254.5040834742995	0.0782916856078104	0.01031754735810517	16.702351876418874	98.58736589471327	9.97133354977551
NRM1=tf_rep(EDS1)	577.6837607165211	0.3	0.00310682974210629	0.16298479421586376	0.001	4.133523411282676
NRM1=tf_rep(EDS1)	577.6837607624478	0.3	0.003106833820609071	0.4647608504189057	0.3180968839023373	4.09318264834158
NRM1=tf_rep(EDS1)	577.6837647752459	0.3	0.003106834533202026	0.9636073097662411	0.8155916442832206	4.119500909789996
NRM1=tf_rep(EDS1)	577.6837611964554	0.3	0.003106839407710098	0.5280811166471263	0.5849205205243551	4.15755789129096
NRM1=tf_rep(EDS1)	577.6837608198205	0.3	0.0031068338249160836	0.3940967904788898	0.4276352682978774	4.144623942275547
NRM1=tf_rep(EDS1)	577.6837607163882	0.3	0.0031068338065945115	0.0	0.4667055603468528	4.111108586350431
NRM1=tf_rep(EDS1)	577.6837607163882	0.3	0.003106833809151272	0.0	0.024625023066426388	4.118206599089415
NRM1=tf_rep(EDS1)	577.6837607163882	0.3	0.003106833809617087	0.16087850841280904	0.001	4.0805024831029675
NRM1=tf_rep(EDS1)	577.683760718492	0.3	0.0031068338104590022	0.07745697734884738	0.22985168466010475	4.086390238543198
NRM1=tf_rep(EDS1)	577.6837607163882	0.3	0.0031068338054996785	0.0	0.001	4.07202822285044
