# LEMpy target file for EDS1, replicate 1 
# Run configuration file:  ../pipeline/src/yeast_data/simulations202110_Orlando_2/extra_nodes_no_annot/results5/edge_finding_20211013134623/lempy_20211013134623_config.txt 
# Time series data file:   ../pipeline/src/yeast_data/time_series/orlando2008_WildType_r2_trunc.tsv 
# Computed on:  2021-10-13 13:49:26 
 
model	loss	pld	inv_temp	prior	rhs_param_0	rhs_param_1	rhs_param_2	rhs_param_3	rhs_param_4	hess_eigs	hess_det	bnd_params	pld_time	opt_time
tf_rep(HCM1)	87.8471047971333	0.278516	1.0	0.0886950503782607	0.0	0.019354923837517815	6.785898487293018	30.977248232070664	5.4646601859368085	[1, 1, 1.7178518787785908, 16.17375898429946, 5784716.314680998]	160723265.31547013	1.0	5.578399999706107e-05	0.3982588480000002
tf_rep(NDD1)	76.90761184455407	0.181684	1.0	0.0520680205507841	0.3	0.03566829777129838	7.293948782180955	28.868905373097654	2.3976844101583463	[1, 1, 2.086474323968737, 36.01597077941994, 5785277.774521267]	434742787.8281417	1.0	5.8131999999488926e-05	0.41120853099999977
tf_rep(RIF1)	108.09385283854412	0.117528	1.0	0.0822257922383294	0.0	0.01039850798965212	9.247085858909173	29.506917745613386	5.332981612253441	[1, 1, 1.1945350292841412, 14.477034381740296, 5784669.549374809]	100036168.73671779	1.0	4.9366999999023164e-05	0.24463836900000047
tf_rep(EDS1)	119.83263720470241	0.0857708	1.0	0.173189552540999	0.0	0.005502326922497279	12.56372998782278	31.115416551762532	10.0	[1, 1, 1, 11.987819814333614, 5784603.705630985]	69344786.92043076	2.0	4.9952000001241004e-05	0.2495122900000002
tf_rep(WHI5)	83.1320380914378	0.0559339	1.0	0.015591432369216	0.3	0.04326736181573767	15.174260654719037	36.09501219358508	2.445748661341462	[1, 1, 1, 35.432209201313775, 5787587.277766522]	205067003.1966855	1.0	5.026300000210426e-05	0.30397022699999976
tf_act(EDS1)	120.79158233683142	0.0445973	1.0	0.0460230140219115	0.12688914023889486	0.00624464900553218	0.0	98.6286423822678	1.6860021787124617	[1, 1, 1, 11.475962311017954, 5784737.466459736]	66385429.14422542	1.0	4.941100000266374e-05	0.3065351869999997
tf_rep(SWI4)	118.52469321867498	0.0409623	1.0	0.0517477056437412	0.0	0.009385697916568833	4.415588911914358	6.208984665484217	1.427846322733274	[1, 1, 1, 21.156727488017452, 5785052.858601146]	122392786.83320081	1.0	6.969599999706588e-05	0.30995038800000074
tf_rep(SWI5)	116.86299179276982	0.0359141	1.0	0.0704665913630117	0.3	0.014317595988290781	2.119590231605404	4.199553971423923	1.0	[1, 1, 1, 14.871158948238445, 5784893.058823097]	86028064.17631957	2.0	5.2383999999960906e-05	0.36003530500000025
tf_rep(CLN3)	120.79158233917703	0.0340927	1.0	0.035233295687488	0.1268835835123165	0.006244553571285051	0.0	35.03573259834174	3.3541882208397804	[1, 1, 1, 11.509358829224489, 5784611.008204554]	66577163.78090826	1.0	7.618200000081288e-05	0.29398579899999966
tf_rep(NRM1)	75.37131863932127	0.0186148	1.0	0.0283258211913134	0.3	0.04458410684592952	7.50292030181531	13.480250089249097	1.0	[1, 1, 3.3418989509441137, 188.9059902688672, 5788110.0723180445]	3654061270.5048227	2.0	4.978800000188244e-05	0.3690755459999995
tf_act(CLN3)	117.33622285791549	0.0178261	1.0	0.0790184977442324	0.0	0.009647696959583008	0.5113636988619142	74.17532869214456	10.0	[1, 1, 1.9843902836581726, 36.61005511453392, 5785320.310647557]	420295638.95750237	2.0	4.951100000027964e-05	0.36384297599999993
tf_act(ASH1)	120.2918561751039	0.017785	1.0	0.030396483741784	0.0	0.005440588175996973	0.2308363311584117	58.71641301159185	1.298979657864754	[1, 1, 1, 32.94228985322752, 5784844.559257694]	190566026.22693315	1.0	4.871999999878085e-05	0.32954426199999975
tf_act(YOX1)	120.79158234106721	0.0123152	1.0	0.0262365362328297	0.1268799497414045	0.0062444875190893505	0.0	62.098762998755	3.5310812480720966	[1, 1, 3.3456115550510828, 14.618686979831311, 5784763.586251416]	282923809.5097722	1.0	4.921400000057474e-05	0.25564582199999997
tf_act(WHI5)	120.79158233805607	0.011878	1.0	0.0473963836038558	0.12688633781217315	0.006244598752303249	0.0	98.84705145434539	1.0	[1, 1, 2.862700124311404, 14.98312725723174, 5784996.605216824]	248131232.9050876	2.0	5.1157999997997194e-05	0.18285503999999975
tf_rep(ASH1)	120.7915823344775	0.0112548	1.0	0.0121260196050627	0.12689466249931577	0.006244768388904523	0.0	3.6707155018864923	1.0413046514585758	[1, 1, 1, 12.509200620346256, 5784625.216737354]	72361037.34968151	1.0	4.936800000265862e-05	0.29261454700000034
tf_act(NRM1)	120.79158233010061	0.0102992	1.0	0.0317536304094052	0.12691824717229222	0.006245166662489607	0.0	63.22861917639158	4.219609544418711	[1, 1, 8.780497737889348, 11.66582606027587, 5784765.260289302]	592543682.9390597	1.0	5.067800000091438e-05	0.2595742320000003
tf_act(SWI5)	120.79158233716045	0.00999494	1.0	0.0312871750439495	0.1268888871249217	0.006244641297422867	0.0	61.66570206070575	5.02909432883817	[1, 1, 4.522138510678521, 23.34981770644351, 5784762.5562919825]	610819498.639587	1.0	5.5852999999217445e-05	0.3155535140000003
tf_act(SWI4)	120.79158234048387	0.00635383	1.0	0.0268601983009677	0.12688095647228936	0.006244507718144683	0.0	59.06907534688978	1.0	[1, 1, 4.121303490607755, 11.681387010446153, 5784941.770352965]	278501796.7163998	2.0	0.0001524949999982539	0.28974412600000043
tf_act(NDD1)	120.7915823315807	0.00366201	1.0	0.0360747338042822	0.126903217126902	0.006244910553264372	0.0	100.0	1.0	[1, 1, 4.760382955670307, 13.729463850500633, 5784846.936271623]	378083166.6365393	3.0	5.3645999997797844e-05	0.31868636199999933
tf_act(RIF1)	120.79158233295705	0.00318443	1.0	0.0144415532601113	0.12689847637644844	0.00624482678080322	0.0	98.84695563870078	1.0	[1, 1, 4.606006226665982, 12.028929152607283, 5784871.574629966]	320512675.65908265	2.0	5.341600000008384e-05	0.18734124999999935
tf_act(HCM1)	120.79158234029812	0.00157862	1.0	0.0144829449542086	0.12688126243320455	0.0062445174798564235	0.0	100.0	1.0	[1, 1, 4.773249423972956, 11.87613817698118, 5784816.968302044]	327928372.1269039	3.0	5.8267000000000735e-05	0.30367455400000054
tf_rep(YOX1)	97.82765342997456	0.000253387	1.0	0.0063595673142563	0.0	0.022492711713187837	100.0	0.534360568659566	1.0893062116018817	[1, 1, 25.9296010206034, 586.3727967652459, 5823932.532579792]	88549473584.4259	2.0	4.816499999904522e-05	0.35876186600000004
null_model	120.79158232828226				0.12693016953578729	0.006245404600808991								
