# LEMpy local minima file for target NDD1, replicate 1
# Right-hand side of tf_act():  p0 - p1(tar) + p2(reg^p4) / (p3^p4 + reg^p4)
# Right-hand side of tf_rep():  p0 - p1(tar) + p2(p3^p4) / (p3^p4 + reg^p4)
# Run configuration file:  ../pipeline/src/yeast_data/simulations202110_Orlando_2/no_annot/results2/edge_finding_20211012205137/lempy_20211012205137_config.txt
# Time series data file:   ../pipeline/src/yeast_data/time_series/orlando2008_WildType_r2_trunc.tsv
# Computed on:  2021-10-12 20:55:01 
 
model	loss	p0	p1	p2	p3	p4
NDD1=tf_act(SWI4)	66.72237459139929	0.0	0.05055353582498466	15.072882609506362	99.54055036840984	1.7781142897722617
NDD1=tf_act(SWI4)	66.72469006981284	0.0	0.05062716781975285	15.105475708429426	99.73234700677303	1.7746807405993328
NDD1=tf_act(SWI4)	66.72724792865549	0.0	0.05055898505796597	15.137692182512778	99.99030070931339	1.7748766073138225
NDD1=tf_act(SWI4)	66.36879608012707	0.0	0.04986120608253027	10.152344468842552	66.35431067246739	2.2445633988524007
NDD1=tf_act(SWI4)	66.3688806108849	0.0	0.04985348958153134	10.113035931361711	66.10037428702087	2.251634935624253
NDD1=tf_act(SWI4)	66.36954640445755	0.0	0.049890540311434514	10.27442686668916	67.13938766032682	2.2232141742740783
NDD1=tf_act(SWI4)	66.37079602798731	0.0	0.04990148863959117	10.353379673625124	67.65598123922375	2.2098954515601266
NDD1=tf_act(SWI4)	66.37141664134626	0.0	0.04990821533232412	10.383796703075252	67.8527931814869	2.2048602650810265
NDD1=tf_act(SWI4)	66.37196325417482	0.0	0.04991318188252656	10.407882520933159	68.00911788287354	2.2009069344475947
NDD1=tf_act(SWI4)	66.37568506536874	0.0	0.04995400719186782	10.539739211488314	68.85237320721495	2.1798510871167496
NDD1=tf_rep(SWI4)	358.3394312292274	0.3	0.003335050115753043	0.5333443360621661	0.001	2.283911269747225
NDD1=tf_rep(SWI4)	358.3455115206666	0.3	0.0033359158422095587	0.9460859413955014	0.44784055386714705	2.255972775409079
NDD1=tf_rep(SWI4)	358.35598319975827	0.3	0.0033372354786089546	0.7262015398302756	0.7642697670637941	2.239023519171009
NDD1=tf_rep(SWI4)	358.3394316897349	0.3	0.0033351646927985705	0.5815927179152789	0.12053893341667994	3.377206153713533
NDD1=tf_rep(SWI4)	358.3394312266164	0.3	0.003335045274661923	0.4149320461518222	0.001	3.3440934321067872
NDD1=tf_rep(SWI4)	358.3395329405577	0.3	0.003335058410905468	0.9016911170642722	0.4905931691700222	3.30152480203745
NDD1=tf_rep(SWI4)	358.3409625117016	0.3	0.003335238843532738	1.3689984737509229	0.9314277188113256	3.250258339490769
NDD1=tf_rep(SWI4)	358.3427030043832	0.3	0.003335457004179305	0.8940236880842967	1.2968111282584398	3.2152028428208532
NDD1=tf_rep(SWI4)	358.34428393524706	0.3	0.0033356542567884975	1.316372571930798	1.327840626832335	3.237338033693925
NDD1=tf_rep(SWI4)	358.35681557629647	0.3	0.0033372151261930882	1.6191032369775724	1.795554305150709	3.2044513824496903
NDD1=tf_act(HCM1)	39.156448327212466	0.2493144242930051	0.10355719446889733	12.320298223608669	50.52224348812383	3.6821345657720603
NDD1=tf_act(HCM1)	39.20043019111601	0.18169352244397607	0.10382600674213899	12.609930083247736	50.93682625029065	3.519019718602973
NDD1=tf_act(HCM1)	39.15589595775658	0.2404934537774148	0.10357157494215942	12.311102392691893	50.436390337523605	3.695845213270622
NDD1=tf_act(HCM1)	39.15859308638601	0.2995087298565619	0.10333062112422041	12.253223352158754	50.68871262064663	3.69328047824659
NDD1=tf_act(HCM1)	39.15323161101592	0.25642363066184004	0.1033145403453919	12.235490968207891	50.38603197241898	3.730705858666873
NDD1=tf_act(HCM1)	39.14795788596406	0.3	0.10319001579677907	12.15116251484996	50.421362825597534	3.7664618717746725
NDD1=tf_act(HCM1)	39.18377144423679	0.2999999678237602	0.10348920781194185	12.345641016544578	50.930698286406084	3.6263779142255275
NDD1=tf_act(HCM1)	39.16672022321449	0.18033008940841277	0.10363415014968773	12.463152179121806	50.53619595764387	3.616362121818877
NDD1=tf_act(HCM1)	39.194676171641355	0.1122081218570968	0.104209179106989	12.726023042617822	50.749501168857265	3.494213446802373
NDD1=tf_act(HCM1)	39.25287070865598	0.059831041931053784	0.10462344727037302	12.9914966307974	51.12376023098411	3.3624897564246057
NDD1=tf_rep(HCM1)	358.33952014976865	0.3	0.003335098582561413	0.40737010099019766	0.001	1.103519789857771
NDD1=tf_rep(HCM1)	358.33952895735723	0.3	0.003335134675867578	0.5244687448893508	0.001	1.1192633101510736
NDD1=tf_rep(HCM1)	358.3394316027006	0.3	0.0033350739602956573	0.09535319892447228	0.10055939696444102	2.5940539228387585
NDD1=tf_rep(HCM1)	358.3394386642137	0.3	0.003335049517528069	0.28245895466077414	0.23007484908529857	2.6347736410068423
NDD1=tf_rep(HCM1)	358.33943122661896	0.3	0.003335045275157518	0.11579828289731747	0.001	2.6016609194000964
NDD1=tf_rep(HCM1)	358.33960421376275	0.3	0.0033351398163988014	0.6025556145787809	0.49058935638099294	2.5590968574862467
NDD1=tf_rep(HCM1)	358.342099167948	0.3	0.003336429621374239	1.0813526221794512	0.9621033018957867	2.462416816256298
NDD1=tf_rep(HCM1)	358.34393838633326	0.3	0.0033373061844287864	0.6212030138403276	1.3425387443365153	2.3978539553373515
NDD1=tf_rep(HCM1)	358.3475072925162	0.3	0.0033390983841119267	1.049064237457778	1.3836910126686202	2.401244720330143
NDD1=tf_rep(HCM1)	358.33940400328595	0.3	0.0033351309289424047	1.0479740957755153	1.3265462864193263	3.678182268617656
NDD1=tf_act(NDD1)	358.3394312266163	0.3	0.003335045276798728	0.0	100.0	1.4382708783439775
NDD1=tf_act(NDD1)	358.3394312266164	0.3	0.003335045275181808	0.0	100.0	1.44439662763989
NDD1=tf_act(NDD1)	358.3394312266163	0.3	0.0033350452771871153	0.0	100.0	1.4269422531292164
NDD1=tf_act(NDD1)	358.3394312266162	0.3	0.0033350452776030924	0.0	100.0	1.4689812796840425
NDD1=tf_act(NDD1)	358.3394312465066	0.3	0.003334972556110608	0.0	99.7600797727323	1.4358514892318166
NDD1=tf_act(NDD1)	358.33943122654284	0.3	0.0033350485941648616	0.0	100.0	1.0
NDD1=tf_act(NDD1)	358.33943122661606	0.3	0.0033350452823076586	0.0	100.0	1.0
NDD1=tf_act(NDD1)	358.33943122661157	0.3	0.0033350454169677976	0.0	99.99999998319696	1.0
NDD1=tf_act(NDD1)	358.3394312266162	0.3	0.0033350452788590015	0.0	100.0	1.0
NDD1=tf_act(NDD1)	358.3394312266164	0.3	0.00333504527731047	0.0	100.0	1.0
NDD1=tf_rep(NDD1)	262.5568988438114	0.0	0.004944688815998674	20.810025439047482	19.36133074257	4.6952375638765105
NDD1=tf_rep(NDD1)	262.5805543937796	0.0	0.004850605886149126	21.125701366360136	19.351516750211633	4.7421405764141635
NDD1=tf_rep(NDD1)	262.5423934942499	0.0	0.004796141152333441	20.827935331197597	19.47069452666329	4.777973459254933
NDD1=tf_rep(NDD1)	238.5079332989589	0.0	0.006325092882776469	3.734379659231241	37.90735465590255	10.0
NDD1=tf_rep(NDD1)	238.52267322057932	0.0	0.006210336569897851	3.7543539387742793	37.74546813995512	10.0
NDD1=tf_rep(NDD1)	238.50793329574293	0.0	0.006325058195160526	3.734391025924754	37.90727087462554	10.0
NDD1=tf_rep(NDD1)	238.5192041159741	0.0	0.006421399940417502	3.715718629104952	38.04669741440968	10.0
NDD1=tf_rep(NDD1)	238.73671082692752	0.0	0.00678646636748052	3.662324350410604	38.5307374221929	10.0
NDD1=tf_rep(NDD1)	238.73425619834674	0.0	0.006805925232437793	3.67135836183964	38.52909835352897	10.0
NDD1=tf_rep(NDD1)	238.5079332958635	0.0	0.006325068627971222	3.7343803236867976	37.90730321861838	10.0
NDD1=tf_act(SWI5)	358.3394312266162	0.3	0.0033350452765027864	0.0	99.91096955731689	9.999989797986037
NDD1=tf_act(SWI5)	358.3394312266163	0.3	0.003335045276135312	0.0	100.0	10.0
NDD1=tf_act(SWI5)	358.3394312266162	0.3	0.0033350452769052214	0.0	100.0	9.982545625489326
NDD1=tf_act(SWI5)	358.3394312266163	0.3	0.003335045275681716	0.0	100.0	10.0
NDD1=tf_act(SWI5)	358.3394312266163	0.3	0.003335045276900768	0.0	99.7600797470191	9.96688732121223
NDD1=tf_act(SWI5)	358.33943122653426	0.3	0.003335050719059556	0.0	100.0	9.942347273133064
NDD1=tf_act(SWI5)	358.33943122661634	0.3	0.00333504527303965	0.0	100.0	9.907005381524733
NDD1=tf_act(SWI5)	358.3394312265344	0.3	0.0033350507616952255	0.0	100.0	9.875425225608074
NDD1=tf_act(SWI5)	358.3394312266161	0.3	0.0033350452758173807	0.0	100.0	9.999988854021609
NDD1=tf_act(SWI5)	358.33943122659446	0.3	0.0033350459914331825	0.0	100.0	9.990823328005266
NDD1=tf_rep(SWI5)	134.31117123837018	0.0	0.022696784913419324	8.26908006522241	7.137357386690846	1.0743642028166884
NDD1=tf_rep(SWI5)	109.0168277490961	0.0	0.02613986964197763	3.7516959022108747	36.623260470128265	4.080299366593582
NDD1=tf_rep(SWI5)	109.02948181423139	0.0	0.026396755234392104	3.756720523356766	36.94390397038893	4.138344812617625
NDD1=tf_rep(SWI5)	109.0424427349312	0.0	0.026439535263389442	3.75553046983004	37.04683041664929	4.185566203138412
NDD1=tf_rep(SWI5)	109.02507566525311	0.0	0.026275173155234484	3.7521178387595997	36.84416626448909	4.147107403672598
NDD1=tf_rep(SWI5)	109.01992023385324	0.0	0.02619716479028021	3.750454294344575	36.744218351164164	4.1246790145208285
NDD1=tf_rep(SWI5)	109.01682775124375	0.0	0.026139885112614232	3.751695020101046	36.62329415686064	4.080333972936276
NDD1=tf_rep(SWI5)	109.05872969884332	0.0	0.026756754263095536	3.776328000873249	37.11532112903186	4.032999186766555
NDD1=tf_rep(SWI5)	109.01682774770761	0.0	0.026139919047022574	3.751697214667868	36.62331231382286	4.080309753629149
NDD1=tf_rep(SWI5)	109.0168547751213	0.0	0.026135570881292564	3.751855601083174	36.612713411783304	4.076063612583828
NDD1=tf_act(NRM1)	358.3394312265595	0.3	0.003335047473244288	0.0	99.53630311585965	2.101619281219872
NDD1=tf_act(NRM1)	358.3394312266163	0.3	0.003335045275471686	0.0	99.94460855026999	2.112123423095762
NDD1=tf_act(NRM1)	358.33943122661634	0.3	0.0033350452767234528	0.0	100.0	2.094669048585088
NDD1=tf_act(NRM1)	358.3247882343861	0.3	0.003919619436591373	0.179264952460416	100.0	2.135882322962172
NDD1=tf_act(NRM1)	358.3394312266162	0.3	0.003335045278693878	0.0	99.7600826018942	2.102895263544755
NDD1=tf_act(NRM1)	332.8578918635911	0.3	0.008699066931425978	5.380406443619932	100.0	10.0
NDD1=tf_act(NRM1)	332.8578918663329	0.3	0.008699041773984936	5.380362698422108	100.0	10.0
NDD1=tf_act(NRM1)	332.90776867553865	0.3	0.00862723559830426	5.283306931179333	99.91729503309077	10.0
NDD1=tf_act(NRM1)	332.85789186352116	0.3	0.008699069462762728	5.380405888059539	100.0	10.0
NDD1=tf_act(NRM1)	332.8578918677501	0.3	0.00869901437188626	5.380379969217876	100.0	10.0
NDD1=tf_rep(NRM1)	246.0052123424422	0.0	0.005272650000190354	3.399510815437313	21.64609165251599	10.0
NDD1=tf_rep(NRM1)	246.01703386797377	0.0	0.00535518544341175	3.374312006218937	21.76750010165168	10.0
NDD1=tf_rep(NRM1)	246.00521234202824	0.0	0.005272682782298661	3.399512811148329	21.64610792582477	10.0
NDD1=tf_rep(NRM1)	246.00541015018942	0.0	0.00528340272102477	3.396306100802155	21.661823371224287	10.0
NDD1=tf_rep(NRM1)	246.00521234231707	0.0	0.005272653777604672	3.399510899143414	21.646094034231343	10.0
NDD1=tf_rep(NRM1)	246.00521234217788	0.0	0.005272658902110473	3.3995112451226337	21.64609726073702	10.0
NDD1=tf_rep(NRM1)	246.00521235187043	0.0	0.005272571632824786	3.3995024383112473	21.646029169208983	10.0
NDD1=tf_rep(NRM1)	246.0052123421683	0.0	0.005272662848533914	3.39951305476972	21.6460997604689	10.0
NDD1=tf_rep(NRM1)	246.01384024190034	0.0	0.005356886749516063	3.3838709630813977	21.75108398033586	10.0
NDD1=tf_rep(NRM1)	246.00521234231846	0.0	0.005272657157160601	3.399512275499988	21.646097824827823	10.0
NDD1=tf_act(CLN3)	358.3394312266163	0.3	0.003335045276337459	0.0	99.9942751200146	9.410632818595865
NDD1=tf_act(CLN3)	358.3394312266163	0.3	0.003335045275382829	0.0	100.0	9.798244742248077
NDD1=tf_act(CLN3)	358.33943122661634	0.3	0.0033350452760299272	0.0	100.0	9.780790367737403
NDD1=tf_act(CLN3)	358.3394312266163	0.3	0.003335045276983345	0.0	100.0	9.900364335793203
NDD1=tf_act(CLN3)	358.3394312266162	0.3	0.0033350452758099287	0.0	99.76007953879024	9.867251255910276
NDD1=tf_act(CLN3)	358.33943122661634	0.3	0.0033350452755553876	0.0	100.0	9.89404366184684
NDD1=tf_act(CLN3)	358.3394312266161	0.3	0.00333504527637855	0.0	100.0	9.993140656979444
NDD1=tf_act(CLN3)	358.3394312266162	0.3	0.0033350452763609316	0.0	100.0	9.961560609961095
NDD1=tf_act(CLN3)	358.33943122656467	0.3	0.0033350472063448794	0.0	100.0	9.964907001458489
NDD1=tf_act(CLN3)	358.3394312266163	0.3	0.0033350452780474887	0.0	100.0	9.936007608250167
NDD1=tf_rep(CLN3)	192.48639435340664	0.0	0.08797167740987058	33.5120086618745	31.384587360434193	1.9034418024077724
NDD1=tf_rep(CLN3)	192.49119566968315	0.0	0.08797614569805756	33.62107986961872	31.298110754419564	1.901862113478141
NDD1=tf_rep(CLN3)	192.47779473465292	0.0	0.0879197693660225	33.31212826817011	31.530468980151365	1.9060746871644891
NDD1=tf_rep(CLN3)	192.47931322378307	0.0	0.08792835137952247	33.346074166553436	31.503217166653595	1.9054604711911178
NDD1=tf_rep(CLN3)	192.47871177284964	0.0	0.0879624642867836	33.33905272960554	31.522176622131276	1.9059614829155123
NDD1=tf_rep(CLN3)	192.47787983972532	0.0	0.08791982675718411	33.312570422824045	31.52746103293585	1.9058786709113396
NDD1=tf_rep(CLN3)	192.5165544794911	0.00013522543534968018	0.08841833484505038	33.529253055201345	31.72575107922738	1.921409617361381
NDD1=tf_rep(CLN3)	192.4838614605329	0.0	0.088809720579715	33.05097115460229	32.08514523921417	1.9199465468312467
NDD1=tf_rep(CLN3)	192.47192946965734	0.0	0.08795795256658481	33.188698511432	31.644080092737724	1.9082070036944871
NDD1=tf_rep(CLN3)	173.54037960477382	0.0	0.07274554879579721	7.104192604137198	85.83090419862027	10.0
NDD1=tf_act(WHI5)	338.3360631422366	0.3	0.020291086612140907	4.817956307960518	100.0	10.0
NDD1=tf_act(WHI5)	338.3360631398496	0.3	0.020291221127905625	4.817997660456378	100.0	10.0
NDD1=tf_act(WHI5)	338.3360631390743	0.3	0.02029121815909145	4.817991922559418	100.0	10.0
NDD1=tf_act(WHI5)	338.3360631400864	0.3	0.020291166291884686	4.817979115407828	100.0	10.0
NDD1=tf_act(WHI5)	338.3360631422751	0.3	0.020291085090373674	4.817955340223687	100.0	10.0
NDD1=tf_act(WHI5)	338.3360631418909	0.3	0.020291096963825275	4.817958707609643	100.0	10.0
NDD1=tf_act(WHI5)	338.33606314264915	0.3	0.020291074071262096	4.817952228060877	100.0	10.0
NDD1=tf_act(WHI5)	338.33606314236715	0.3	0.02029108233363505	4.817954563571211	100.0	10.0
NDD1=tf_act(WHI5)	338.33606314206685	0.3	0.020291091449990823	4.817957095482261	100.0	10.0
NDD1=tf_act(WHI5)	338.3360631425731	0.3	0.020291076278318162	4.817952838086284	100.0	10.0
NDD1=tf_rep(WHI5)	289.3961948146486	0.0	0.00265256455688677	37.20689303271724	35.043024285678726	6.861910520360122
NDD1=tf_rep(WHI5)	289.3936971459263	0.0	0.0025741140846847407	37.56570571868354	35.13336491378409	6.951618169265669
NDD1=tf_rep(WHI5)	289.38335303134414	0.0	0.0025535928100825058	37.3100701258431	35.21340421593576	6.977620160877826
NDD1=tf_rep(WHI5)	289.38748825571025	0.0	0.002498813929775281	37.48766580741272	35.27740941439329	7.038760755845294
NDD1=tf_rep(WHI5)	285.3500667892418	3.501941065120664e-07	0.0018798198165188053	9.013286784777142	46.88283803554399	8.395894645412852
NDD1=tf_rep(WHI5)	284.2960899719429	0.0	0.002684085834201196	9.393089179613419	47.25869352426961	8.381450651106766
NDD1=tf_rep(WHI5)	278.8294118915218	0.0	0.0030552401734573885	5.73147383307665	54.36115951401081	10.0
NDD1=tf_rep(WHI5)	278.866550516455	0.0	0.003167667794256475	5.56369139443501	54.86157571452538	10.0
NDD1=tf_rep(WHI5)	278.8389820589011	0.0	0.0031086521527540923	5.641966422990319	54.614178933781915	10.0
NDD1=tf_rep(WHI5)	278.83101041663787	0.0	0.0030726973887937707	5.691799662415126	54.460795931239325	10.0
NDD1=tf_act(YOX1)	28.550894612003617	0.0	0.06788922980916662	19.176722651309642	99.53419714931773	1.7357559718964326
NDD1=tf_act(YOX1)	22.4111842715835	0.3	0.059394629049262605	7.805619793057214	47.83547918907646	5.820928369046069
NDD1=tf_act(YOX1)	22.41517486805198	0.3	0.059492915026836866	7.839109626795159	47.934829044156814	5.715950422448466
NDD1=tf_act(YOX1)	22.422071653582513	0.3	0.059552810482256885	7.861385159048037	48.00384334413585	5.648328261398073
NDD1=tf_act(YOX1)	22.411915377745174	0.3	0.05943599297271171	7.819793466738888	47.87753430166704	5.776153928234489
NDD1=tf_act(YOX1)	22.444358149458427	0.3	0.05978458326152097	7.9156134648031715	48.12243897239212	5.515505069209629
NDD1=tf_act(YOX1)	22.411184271566317	0.3	0.059394628703320934	7.805617627900336	47.83546920308137	5.820935626017834
NDD1=tf_act(YOX1)	22.411184273426386	0.3	0.05939459970416912	7.8056233416663945	47.835505412288704	5.820913085256892
NDD1=tf_act(YOX1)	22.41675993976633	0.3	0.05954127881364912	7.848224063858682	47.9491777338894	5.695702896020046
NDD1=tf_act(YOX1)	22.411184271214175	0.3	0.05939464102352217	7.8056177349710705	47.835461624520185	5.820944029189273
NDD1=tf_rep(YOX1)	305.04512326915136	0.0	0.00014023334100896702	97.52300611630453	6.272356217839384	10.0
NDD1=tf_rep(YOX1)	305.0450728622414	0.0	0.0001433253083548354	97.87685394713773	6.270227527103876	10.0
NDD1=tf_rep(YOX1)	305.0461318541708	0.00037585691769708324	0.0001496035989597592	97.59786889732119	6.269803514342663	9.984278363818508
NDD1=tf_rep(YOX1)	305.0452562564066	0.0001840199185761466	0.00014455299390839113	97.78385353761033	6.2703862992167165	9.999724118592878
NDD1=tf_rep(YOX1)	305.0479130753096	0.0	0.00014345027705305895	97.61872984374094	6.263407119787958	9.942231309708836
NDD1=tf_rep(YOX1)	305.0450706083988	0.0	0.00014333269945371338	97.91672627826465	6.269947662999552	10.0
NDD1=tf_rep(YOX1)	305.0470122791338	0.0	0.00014341786339852557	98.30437875386455	6.26119873320413	9.959543888579773
NDD1=tf_rep(YOX1)	305.0628938109548	0.017128566753351646	0.0004302399182623848	97.77096800451423	6.259169988777613	9.931924055101577
NDD1=tf_rep(YOX1)	305.0470415806535	0.0	0.00014337123855260724	98.19312529611526	6.261883273612956	9.9590828029699
NDD1=tf_rep(YOX1)	305.0498069885565	0.0018406010502007098	0.00017402973113831832	98.32736230444965	6.256663664668335	9.93194766489389
NDD1=tf_act(ASH1)	358.33943122661634	0.3	0.003335045273200416	0.0	99.90626708104203	9.999997396337944
NDD1=tf_act(ASH1)	358.3394312266162	0.3	0.003335045278953068	0.0	100.0	10.0
NDD1=tf_act(ASH1)	358.3394312266162	0.3	0.0033350452775985978	0.0	100.0	9.982545625489326
NDD1=tf_act(ASH1)	358.3394312266163	0.3	0.0033350452768380725	0.0	100.0	10.0
NDD1=tf_act(ASH1)	358.3394312266163	0.3	0.0033350452770032415	0.0	99.76007981649794	9.9668874866669
NDD1=tf_act(ASH1)	358.3394312266163	0.3	0.0033350452770662307	0.0	100.0	9.94936417371949
NDD1=tf_act(ASH1)	358.3394312266164	0.3	0.00333504527425853	0.0	100.0	9.909264216201802
NDD1=tf_act(ASH1)	358.3394312265344	0.3	0.003335050762200784	0.0	100.0	9.877684060285143
NDD1=tf_act(ASH1)	358.33943122661634	0.3	0.0033350452752610436	0.0	100.0	9.999986686726883
NDD1=tf_act(ASH1)	358.33943122661606	0.3	0.0033350452785361785	0.0	100.0	9.793904323454328
NDD1=tf_rep(ASH1)	138.21665388798044	0.01641934014023081	0.04177404938433882	3.9217960847645617	57.6180772315514	5.351995425132566
NDD1=tf_rep(ASH1)	138.17810851915553	0.014241407419676257	0.04231281210198698	3.9521682375173657	58.062120097182685	5.277340265788316
NDD1=tf_rep(ASH1)	138.17057841941227	0.0	0.04279780889320269	3.994137611906941	58.466076335747616	5.125868870040849
NDD1=tf_rep(ASH1)	138.1715398341955	0.0003727602761791461	0.04284736160351049	3.9961826614244047	58.584977397696164	5.174905115533913
NDD1=tf_rep(ASH1)	138.17044828364382	4.959982189253968e-05	0.04266406775183622	3.9863124263559517	58.36579285072335	5.135149901044427
NDD1=tf_rep(ASH1)	138.16883025935417	0.0	0.0426261183278509	3.9844942310287705	58.395874059544425	5.183006238177815
NDD1=tf_rep(ASH1)	138.208302657887	9.05721965364928e-07	0.04198155833783821	3.9473653342990778	58.457655238921035	5.616610390437401
NDD1=tf_rep(ASH1)	138.22669749118197	0.0018037694074319315	0.04250600382964277	3.9718703339900134	58.90937210952273	5.561240379101617
NDD1=tf_rep(ASH1)	138.1685924651575	0.0	0.04259183870780128	3.982289544614902	58.41269501340012	5.210816798993618
NDD1=tf_rep(ASH1)	138.16911200988056	0.0	0.04253163646318178	3.978504951074409	58.43112336630803	5.253577120883791
