# LEMpy target file for CLN3, replicate 1 
# Run configuration file:  ../pipeline/src/yeast_data/simulations202110_Orlando_2/no_annot/results2/edge_finding_20211012205137/lempy_20211012205137_config.txt 
# Time series data file:   ../pipeline/src/yeast_data/time_series/orlando2008_WildType_r2_trunc.tsv 
# Computed on:  2021-10-12 20:55:10 
 
model	loss	pld	inv_temp	prior	rhs_param_0	rhs_param_1	rhs_param_2	rhs_param_3	rhs_param_4	hess_eigs	hess_det	bnd_params	pld_time	opt_time
tf_rep(SWI4)	66.14331156251039	0.847679	1.0	0.663976770117002	0.3	0.06370303131750671	24.528387851536728	11.435404893954267	1.0792570947452909	[1, 1, 1, 31.44554128556913, 12256523.045758396]	385413001.45292515	1.0	6.995199999870749e-05	0.3145889079999997
tf_rep(YOX1)	69.2454974404309	0.144718	1.0	0.293464531756108	0.3	0.06442408227605019	8.238365225053675	55.21897447757292	2.1056362131992796	[1, 1, 3.0305406145692944, 47.861684285311995, 12214665.176132748]	1771697829.470084	1.0	5.189200000010885e-05	0.2831150819999997
tf_rep(HCM1)	86.71119744836025	0.00747437	1.0	0.0376978544822916	0.3	0.1076897173600671	12.81124910364046	72.19580133151796	1.9732420566524802	[1, 1, 1.9266063746148105, 64.23144539467476, 12216118.506451055]	1511728932.621932	1.0	5.6547999999878584e-05	0.4623690359999997
tf_act(SWI5)	117.34574235927279	0.000061577	1.0	0.00191124195886613	0.3	0.009294155165172192	2.334330158974452	59.58173830046493	10.0	[1, 1, 4.181369634848049, 13.386060116564495, 12213938.327804038]	683639353.6742139	2.0	5.194999999957872e-05	0.4797371799999999
tf_act(YOX1)	153.66252533063795	0.0000135864	1.0	0.000381374129562046	0.2977371559705078	0.0042673170358870725	0.26643122893569393	0.001	1.9642488081616234	[1, 1, 1, 8.029301309732682, 12215700.55252037]	98083540.44565406	1.0	5.206700000037756e-05	0.26451033599999985
tf_rep(NDD1)	153.80285398744994	0.00000943179	1.0	0.000788377179924914	0.3	0.0009557493636821837	0.0	99.95612726114048	10.0	[1, 1, 1, 4.39982540503334, 12215475.580275798]	53745959.79266184	3.0	5.285700000001725e-05	0.4434428849999996
tf_rep(CLN3)	153.42969366089787	0.00000923238	1.0	0.000263126517029061	0.02264604340727943	0.0	9.07275962888753	9.092195067578201	1.79315796169919	[1, 1, 1, 8.435329298245042, 12214098.933274694]	103029946.58351554	1.0	5.028700000053732e-05	0.3880574509999999
tf_rep(WHI5)	144.9254183528813	0.00000819437	1.0	0.000353573910392452	0.16402989512298174	0.0	39.25950421460492	33.87155390623126	10.0	[1, 1, 1.9001905335534226, 5.10395129596822, 12213782.845763287]	118455127.8761623	2.0	5.445200000053774e-05	0.2426272199999997
tf_act(SWI4)	153.66252527264493	0.00000679319	1.0	0.000190687123882759	0.28854585512925374	0.0042674262548614	0.2756331612656494	0.001	2.458536720567511	[1, 1, 1, 8.029301354084353, 12215700.55252622]	98083540.98748776	1.0	0.00013908100000037393	0.22496614300000006
tf_act(NRM1)	153.6625252826179	0.00000578198	1.0	0.0001623019992621	0.2999999915328908	0.0042675035027627374	0.2641852782217855	0.001	2.135028350896718	[1, 1, 1, 8.029301318286095, 12215700.552524673]	98083540.55017453	1.0	5.507200000032242e-05	0.2508179420000003
tf_act(NDD1)	149.47849555259495	0.00000499716	1.0	0.000381369470645737	0.038485244895760974	0.0	0.7773759361927381	72.22813841222506	10.0	[1, 1, 1, 20.846431622851554, 12213888.523859013]	254615991.96175823	2.0	5.3660000000732566e-05	0.2446597499999994
tf_rep(NRM1)	153.80285398754387	0.00000322751	1.0	6.76268971283593e-5	0.3	0.0009557455184580612	5.3440542505348945e-17	99.96824589628801	9.89034329784178	[1, 1, 1, 4.423620386223915, 12215493.488517348]	54036706.023590825	1.0	4.993900000016538e-05	0.42455873199999994
tf_act(ASH1)	153.8028539874544	0.00000249138	1.0	0.00014310189315317	0.3	0.0009557485829421812	0.0	99.76635159122634	4.101668963262428	[1, 1, 1.389141496064418, 5.983283111449065, 12213813.387704415]	101516659.32851925	2.0	5.118999999886853e-05	0.3950119710000002
tf_act(CLN3)	153.76334536771404	0.00000159477	1.0	6.63237268316138e-5	0.3	0.005539019022547429	0.8312571707884865	99.99689351442213	1.0	[1, 1, 1, 4.371061311452715, 12214157.21682911]	53388830.06248269	2.0	5.0297999999671106e-05	0.21789264799999986
tf_rep(SWI5)	153.8028539875297	0.000000979604	1.0	4.09477812255263e-5	0.3	0.0009557458267488362	0.0	0.012096153552488503	1.0029582344912547	[1, 1, 1.096265731431724, 4.015321464073157, 12213781.48999597]	53763347.905503355	2.0	5.609699999986617e-05	0.375570293
tf_rep(ASH1)	152.44910747349613	0.00000053313	1.0	3.47503452989177e-5	0.0	0.004716207423886453	0.6555600580642768	97.4612827779027	10.0	[1, 1, 1, 11.939418751108054, 12215388.95970646]	145844643.9975976	2.0	5.0590000000738655e-05	0.2786823500000004
tf_act(WHI5)	153.8028539874711	0.000000262018	1.0	4.92846367570534e-5	0.3	0.0009557475762116156	0.0	100.0	1.0	[1, 1, 1.1783585485877142, 4.727445218087818, 12214176.676135598]	68040603.87909314	4.0	5.938699999852304e-05	0.2233191350000001
tf_act(HCM1)	153.80285398754327	0.0000000763134	1.0	2.67560746385108e-5	0.3	0.000955745530770422	0.0	100.0	1.0	[1, 1, 2.7930055187013427, 6.929784889596511, 12213998.136583319]	236401047.68655214	4.0	6.053200000089021e-05	0.374612296
null_model	153.80285398744994				0.3	0.00095574941670671								
