NDD1=a(YOX1)
YOX1=r(NRM1)
NRM1=a(YOX1)
NRM1=a(HCM1)
YOX1=a(SWI4)
NDD1=a(HCM1)
YOX1=r(WHI5)
SWI4=r(WHI5)
WHI5=a(YOX1)
NDD1=a(SWI4)
WHI5=a(HCM1)
CLN3=a(SWI5)
CLN3=r(YOX1)
HCM1=r(NRM1)
CLN3=a(HCM1)
CLN3=a(NDD1)
CLN3=r(NRM1)
CLN3=r(WHI5)
ASH1=r(SWI4)
NRM1=a(SWI4)
WHI5=r(NRM1)
CLN3=a(ASH1)
SWI5=r(CLN3)
CLN3=a(SWI4)
HCM1=r(WHI5)
WHI5=r(ASH1)
CLN3=r(ASH1)
CLN3=a(YOX1)
SWI4=r(YOX1)
HCM1=a(YOX1)
SWI5=a(HCM1)
WHI5=r(CLN3)
YOX1=r(ASH1)
YOX1=a(YOX1)
WHI5=r(YOX1)
SWI5=r(ASH1)
HCM1=r(ASH1)
SWI4=r(CLN3)
SWI5=a(YOX1)
YOX1=a(ASH1)
YOX1=a(NDD1)
YOX1=a(SWI5)
SWI4=a(YOX1)
HCM1=r(CLN3)
WHI5=a(SWI5)
YOX1=r(SWI4)
YOX1=r(CLN3)
SWI4=a(NDD1)
WHI5=a(NDD1)
HCM1=a(HCM1)
SWI4=a(SWI5)
SWI4=a(ASH1)
WHI5=r(SWI4)
ASH1=r(YOX1)
HCM1=a(ASH1)
WHI5=a(ASH1)
SWI4=a(HCM1)
SWI5=a(SWI4)
YOX1=a(HCM1)
HCM1=a(NDD1)
SWI4=r(ASH1)
HCM1=a(SWI5)
SWI4=a(SWI4)
NDD1=r(ASH1)
HCM1=r(YOX1)
HCM1=r(SWI4)
NDD1=r(CLN3)
ASH1=a(NDD1)
NRM1=r(CLN3)
NRM1=r(ASH1)
ASH1=r(CLN3)
NDD1=r(NRM1)
NDD1=r(WHI5)
SWI5=a(SWI5)
ASH1=a(YOX1)