gene	0.0	0.5	1.0	1.5	2.0	2.5	3.0	3.5	4.0	4.5	5.0	5.5	6.0	6.5	7.0	7.5	8.0	8.5	9.0	9.5	10.0	10.5	11.0	11.5	12.0	12.5	13.0	13.5	14.0	14.5	15.0
A	0.8760441190355699	0.5710151078204012	0.3655248870856789	0.2380295529394344	0.16021854106105865	0.11292349055535253	0.0842293244947827	0.06769030298696065	0.11727647411355616	0.6468669614316015	1.1255333838652657	0.8650728141499574	0.563100122661094	0.36055485672490817	0.2349887236460493	0.15836908121221713	0.11180061878531558	0.08354960481200573	0.06740704346735739	0.12299815456308227	0.6705087992711443	1.123769435659714	0.8549869738291033	0.5557003542039263	0.35589511013263425	0.2321354645664245	0.15663321297718286	0.11074660066699296	0.0829118321368592	0.067171668732858	0.1293266775714389
B	1.5416297260723133	1.8678843615141631	2.0566263155545625	2.0846289684416304	1.793608051106253	1.2829588226330986	0.8507445503434479	0.5601075482935226	0.3793221640707043	0.4354856671098016	1.0465987885441974	1.5520525923085835	1.8742462103554265	2.059611126042604	2.081235772162377	1.7801391487962643	1.2686436602299571	0.8405044924784535	0.5535968710967881	0.3754088280015603	0.4487934308539934	1.0640975243848092	1.563693116309156	1.8813788963834284	2.063011431754528	2.0777546854983986	1.7662958936555866	1.2541466690338354	0.8301735924280257	0.5470356240485277	0.3714858687606335
C	6.550609415574518	6.826863284331221	5.690468512696014	3.9972977581316993	2.7388348061731898	1.934543274880414	1.372663831143223	0.9578736514338956	0.9827966621613	3.2276883056010686	5.309605806102684	6.5682537350753485	6.8127655438658365	5.6413084171430015	3.9539579658015698	2.7104203356698013	1.916372977455877	1.3585462381354354	0.9494237546915746	1.0163245293841372	3.295874521791848	5.3596023216174125	6.590193736212328	6.799398408010597	5.5911144693901775	3.909971199689775	2.6816217557852693	1.8978846963027547	1.3440497533318605	0.940781346025538	1.0543729339670331
D	0.0489523600241292	0.037227893234399116	0.03545364531116646	0.04078606778513126	0.060061828298896336	0.11723616615748088	0.19325933727963496	0.2037001875727786	0.14985891720256295	0.10528774065809283	0.07002070182007145	0.04848362127095898	0.03704836877432738	0.03554306118778658	0.041065015640923436	0.06105336131993544	0.11939814325788695	0.1948119287278824	0.2025328764260814	0.14831250697294246	0.10404141725708996	0.0692184894287228	0.048012396176576495	0.03686584439141776	0.03562189764292048	0.041349691828774085	0.062116988239184726	0.12168453079033273	0.19641124130890592	0.2013517809353605	0.1467977478210157
E	2.5608173614844483	1.675059094804206	1.0875301835823974	0.7230629125123809	0.5015898016284449	0.3751506566111336	0.3513392641004725	0.5015466024816165	1.3372135190834105	3.317692622889532	3.5942250118244177	2.53207358856094	1.6548397320514918	1.0747996122609744	0.7152716414699658	0.4969247015552286	0.3728768287701508	0.3530182519200129	0.5091902232893609	1.3874060062118616	3.366900545388805	3.566107747303064	2.502315932375536	1.633911366070219	1.0616277099908145	0.7072102712680469	0.4921004585393262	0.3705498715010784	0.354839805001182	0.517303047457814	1.4399329443351616
F	0.7149194778126453	0.4783727150897541	0.33326059468157504	0.24485343785747465	0.1917508299527903	0.16461458363667172	0.18713139557578154	0.4072057080601333	0.9008539316266564	1.333315144392192	1.0749805002752824	0.7069183945245827	0.47343950917412	0.3302494067443076	0.24302686620577416	0.1906879375101248	0.16432553343512193	0.18956552735168666	0.4185243444676222	0.9159081097746818	1.3389332436266708	1.0622672291754267	0.6984224149624053	0.4682004835293349	0.3270506773632163	0.2410860849404909	0.1895589383446898	0.1640254325228353	0.19219080191758706	0.4303537335228241	0.9312203467768608
G	2.0	3.31304195	3.98087549	3.67533757	2.5465647999999996	1.14921857	0.16993312	0.08991411	0.94848164	2.32374896	3.53993106	3.99941497	3.47641741	2.22793127	0.86744325	0.06347602	0.21108659999999999	1.23774143	2.63895829	3.72620097	3.9652152999999997	3.23855336	1.90328554	0.6155417	0.00809916	0.37944576	1.54710754	2.93731364	3.86693838	3.87917859	2.96801964
