# LEMpy target file for F, replicate 0 
# Run configuration file:  ../pipeline/src/syn_net/syn_net_6D_simulations_202110_with_G/p1945/results3/edge_finding_20211015113701/lempy_20211015113701_config.txt 
# Time series data file:   ../pipeline/src/syn_net/time_series_with_G/syn_net_6D_20191104_a_data_p1945_transposed_with_G.tsv 
# Computed on:  2021-10-15 11:40:06 
 
model	loss	pld	inv_temp	prior	rhs_param_0	rhs_param_1	rhs_param_2	rhs_param_3	rhs_param_4	hess_eigs	hess_det	bnd_params	pld_time	opt_time
tf_rep(B)	12.91331260982765	0.995212	1.0	0.07142857142857142	0.3	0.12618212868773193	16.900735036507402	35.19964629267957	10.0	[1, 1, 5.652326694192608, 29.01268492626004, 2830095.0694065397]	464104951.2986861	2.0	4.814399999997221e-05	0.36526634300000005
tf_rep(C)	60.36169223070882	0.00478125	1.0	0.07142857142857142	0.0	0.08209405532942636	25.02392246620087	15.547183951298955	10.0	[1, 1, 26.30055567951664, 63.74632476652319, 2830855.354574819]	4746109508.284193	2.0	4.501499999953751e-05	0.3697548340000001
tf_act(D)	235.38485875494865	0.0000069598	1.0	0.07142857142857142	0.0	0.06848781179723848	9.941821289234547	65.38325551323143	10.0	[1, 1, 6.696947274533701, 31.242513840126936, 2830075.2704031947]	592135142.9751612	2.0	4.385599999956469e-05	0.3067244259999997
tf_rep(D)	703.9760183100028	0.00000000104731	1.0	0.07142857142857142	0.028236422805142367	0.0005209433184365356	0.34053544263374136	0.2706763441347826	9.942227089931919	[1, 1, 1, 28.18702106851731, 2829932.4863702515]	79767366.61579986	0.0	4.526699999995998e-05	0.38399913900000016
tf_act(F)	645.2911098931768	0.000000000682189	1.0	0.07142857142857142	0.3	0.05726203799223235	7.951362780408532	60.843088184632286	10.0	[1, 1, 1.3333623673674817, 29.838483887723157, 2830048.3413590225]	112594920.87368661	2.0	4.4510000000386185e-05	0.33096304099999996
tf_act(A)	703.9760183088233	0.000000000473969	1.0	0.07142857142857142	0.02825058750308356	0.000521294535439855	0.0	75.29522423163043	6.146852819527295	[1, 1, 1.204564513325552, 28.56284055543948, 2829968.494352345]	97367285.11947678	1.0	0.00019991899999993734	0.30124326199999985
tf_rep(A)	703.9760183092957	0.000000000261827	1.0	0.07142857142857142	0.028239291965204	0.0005210152794599071	0.26786651595144095	0.001	10.0	[1, 1, 1, 28.18702106841556, 2829932.4863702524]	79767366.61551194	2.0	6.0662000000100136e-05	0.36647220099999966
tf_rep(F)	664.056660307437	0.000000000250849	1.0	0.07142857142857142	0.0	0.014182424167901865	6.843850689617565	12.281456741756218	10.0	[1, 1, 2.8977133908084074, 48.7662802089986, 2830105.5753511568]	399924208.93084127	2.0	4.547899999973737e-05	0.34341595000000025
tf_act(E)	703.9760183095416	0.000000000233788	1.0	0.07142857142857142	0.028238812606424187	0.0005210187345147954	0.0	72.58078655343989	10.0	[1, 1, 1.201025644748287, 29.435305512398998, 2830004.224266797]	100047885.02997062	2.0	4.4431000000066945e-05	0.2902495850000002
tf_rep(G)	656.2961748445779	0.000000000172301	1.0	0.07142857142857142	0.0	0.01927266040344869	4.2233750246485435	6.099236428608042	10.0	[1, 2.7721921577947137, 4.752722085167505, 30.750438948093937, 2829998.6280738865]	1146577182.5101986	2.0	4.6090000000553744e-05	0.335254425
tf_rep(E)	571.9639811742892	0.000000000139842	1.0	0.07142857142857142	0.0	0.026121365984578603	100.0	7.564843845410969	10.0	[1, 1, 10.296359297740924, 449.2331655322597, 2833129.877373622]	13104546150.24082	3.0	4.514899999996658e-05	0.44727925699999993
tf_act(B)	703.9760183098982	0.000000000117587	1.0	0.07142857142857142	0.02823687236532844	0.0005209656837892389	0.0	99.77925573037099	1.0431546977179311	[1, 1, 15.3554584079242, 36.40179010613217, 2830149.1726883063]	1581957654.761659	1.0	5.192600000025749e-05	0.33275523699999976
tf_act(C)	703.9760183091083	0.000000000116245	1.0	0.07142857142857142	0.028240323903338294	0.0005210403653388475	0.0	99.77925573037099	1.0431546977179311	[1, 1, 18.04966208679379, 31.687833880159396, 2830102.266585388]	1618690275.3056436	1.0	4.569599999992846e-05	0.3376529050000001
tf_act(G)	703.9760183094846	0.0000000000933068	1.0	0.07142857142857142	0.028238454655370022	0.0005209937826938943	0.0	100.0	1.0	[1, 1, 1.8634661717894356, 29.77456529346998, 2830084.5109641696]	157024112.42513096	3.0	4.906999999931827e-05	0.3535878549999998
null_model	703.976018308966				0.028251790968891	0.0005213255051449392								
