# LEMpy target file for CLN3, replicate 1 
# Run configuration file:  ../pipeline/src/yeast_data/simulations202110_Orlando_2/extra_nodes_annot/results2/edge_finding_20211011155829/lempy_20211011155829_config.txt 
# Time series data file:   ../pipeline/src/yeast_data/time_series/orlando2008_WildType_r2_trunc.tsv 
# Computed on:  2021-10-11 16:01:21 
 
model	loss	pld	inv_temp	prior	rhs_param_0	rhs_param_1	rhs_param_2	rhs_param_3	rhs_param_4	hess_eigs	hess_det	bnd_params	pld_time	opt_time
tf_rep(YOX1)	69.24549742404038	0.855883	1.0	0.806284530641519	0.3	0.0644246768082361	8.23840651935655	55.21927318517207	2.1056481666908264	[1, 1, 3.0305288641272297, 47.862551024977435, 12214665.188515462]	1771723045.7994962	1.0	7.917099999943389e-05	0.2723412820000002
tf_rep(SWI4)	64.68226154353647	0.141831	1.0	0.171594467387922	0.3	0.03539322933237719	44.608640932031975	8.325079199169863	1.8008961000972386	[1, 1, 3.905898863250466, 106.77766312742862, 12238436.733346779]	5104196116.792655	1.0	7.670299999951169e-05	0.47415712500000007
tf_act(SWI5)	123.45474028578181	0.000996675	1.0	0.00788370853714283	0.3	0.00865036002142113	3.853754316649665	91.26012937323975	3.4980630047498886	[1, 1.5346442997782221, 4.03113328361563, 6.241247938838204, 12213847.638923468]	471583739.62790835	1.0	5.304899999991619e-05	0.44399460999999985
tf_act(HCM1)	153.6625275304576	0.000160644	1.0	0.0020948427009306	0.0	0.004272656505528845	0.5645934524338588	6.066536602742171	9.96456463874499	[1, 1, 1, 8.029299849483293, 12215700.552473908]	98083522.60731173	1.0	5.846899999895072e-05	0.3657465400000004
tf_rep(CLN3)	153.8028537544469	0.000159737	1.0	0.00148126933612813	0.3	0.0009557446710299794	43.93956327812517	7.19578885651824	9.999999998812735	[1, 1, 1, 4.01528147013683, 12213781.489623046]	49041770.49558362	1.0	5.078799999935768e-05	0.32434775000000027
tf_rep(WHI5)	153.80285002788267	0.000159737	1.0	0.00148127055645904	0.3	0.0009557415992371563	43.9395632813039	7.195788453700877	9.99999999869019	[1, 1, 1, 4.015281470134467, 12213781.489623047]	49041770.495554775	1.0	4.988499999925011e-05	0.18753827000000012
tf_rep(RIF1)	153.8028430502816	0.000159737	1.0	0.00148127101236666	0.3	0.0009557371224008178	43.9395632719229	7.196983071347838	9.999999997697609	[1, 1, 1, 4.015281470140282, 12213781.489623053]	49041770.49562582	1.0	5.1867000001593055e-05	0.33011851000000014
tf_rep(ASH1)	153.01092907952827	0.000104284	1.0	0.00148126934448249	0.17604945671405864	0.0	44.61092775528361	5.771971550111696	9.87282940319419	[1, 1, 1, 10.04300403282742, 12213794.662384994]	122663189.05045852	1.0	5.080199999873969e-05	0.4164270390000002
tf_act(NDD1)	153.66252978261542	0.0000803223	1.0	0.00104742228032088	0.0	0.004272427188304589	0.5645752411467545	6.152348848031437	9.896362414564662	[1, 1, 1, 8.029297334399697, 12215700.55241432]	98083491.8833252	1.0	5.354400000001647e-05	0.4100776420000001
tf_act(RIF1)	153.66252531257288	0.0000803223	1.0	0.00104742228904147	0.0	0.004267269406107843	0.5641645629717812	6.109420614225441	9.910904961028908	[1, 1, 1, 8.02930137847824, 12215700.552523296]	98083541.2854527	1.0	4.955900000069846e-05	0.21124829899999975
tf_act(EDS1)	153.66252527898902	0.0000803223	1.0	0.00104742229388074	0.0	0.004267324086505932	0.564168935004169	6.306394125673216	9.938775405258934	[1, 1, 1, 8.029301387605958, 12215700.552522603]	98083541.3969486	1.0	4.9712999999229623e-05	0.34741974099999995
tf_act(SWI4)	153.66276892746345	0.0000803222	1.0	0.00104742328937205	0.0	0.004271546828429442	0.5645060857437817	6.92003839101063	9.254571053469464	[1, 1, 1, 8.029173677419937, 12215700.544496149]	98081981.26311287	1.0	0.00014561500000098704	0.34465979199999985
tf_act(YOX1)	153.66252539694545	0.0000803217	1.0	0.000523707380027841	0.022354422556612734	0.004270654728855579	0.5420790128793194	1.0947083276693959	8.355566179500697	[1, 1, 1, 8.029301216918862, 12215700.552522803]	98083539.31188776	0.0	4.947600000093644e-05	0.41976619300000007
tf_rep(EDS1)	153.80285361088204	0.0000798685	1.0	0.000740634684851243	0.3	0.0009557425449977522	43.9395632713854	7.195794662254769	9.999999999997508	[1, 1, 1, 4.015281470141006, 12213781.489623057]	49041770.495634675	1.0	5.007199999873535e-05	0.33783375799999993
tf_act(ASH1)	153.66252563040717	0.0000602782	1.0	0.000393020936448972	0.11358453954425055	0.0042672939863693	0.45058202424286276	1.5064334784167817	8.164978622478172	[1, 1, 1, 8.029296506260538, 12215700.552365413]	98083481.76663253	0.0	5.513300000004051e-05	0.410101434
tf_rep(NRM1)	144.279288502918	0.00000394917	1.0	0.000370317329106016	0.17204349975137484	0.0	43.744681328349024	5.033384761779189	10.0	[1, 1, 3.2282577369098506, 69.37453596844287, 12213798.759838125]	2735388721.1458287	2.0	5.087999999986437e-05	0.19201302600000014
null_model	153.80285398745292				0.3	0.0009557501472468275								
