# LEMpy local minima file for target G, replicate 0
# Right-hand side of tf_act():  p0 - p1(tar) + p2(reg^p4) / (p3^p4 + reg^p4)
# Right-hand side of tf_rep():  p0 - p1(tar) + p2(p3^p4) / (p3^p4 + reg^p4)
# Run configuration file:  ../pipeline/src/syn_net/syn_net_6D_simulations_202110_with_G/p270/results5/edge_finding_20211014222046/lempy_20211014222046_config.txt
# Time series data file:   ../pipeline/src/syn_net/time_series_with_G/syn_net_6D_20191104_a_data_p270_transposed_with_G.tsv
# Computed on:  2021-10-14 22:22:46 
 
model	loss	p0	p1	p2	p3	p4
G=tf_act(A)	1218.3588341462994	0.0	0.0025904267946855277	0.2254253584223621	19.166461611571844	4.401697068607973
G=tf_act(A)	1217.26618334306	0.0	0.004903665080303531	0.44745783879661394	22.54511531386704	1.5525821366059236
G=tf_act(A)	1217.230691148361	0.0	0.005217725027646038	0.48496799745031904	23.258776771924637	1.3876851855696095
G=tf_act(A)	1217.2516696476364	0.0	0.005113147893660452	0.47135935717193694	22.89898319206777	1.430822616732994
G=tf_act(A)	1217.2865381044116	0.0	0.005104314215629477	0.4670115400634352	22.540141395305948	1.4336287885796217
G=tf_act(A)	1217.1979672642642	0.0	0.005230423779826672	0.49577782783503815	24.065462784945364	1.2997407531760947
G=tf_act(A)	1217.2090905784476	0.0	0.005328875569121911	0.5053925290587372	24.09040266537343	1.2769580905166495
G=tf_act(A)	1217.2477143422125	0.0	0.0053541081176812465	0.5054284351745227	23.803432444968458	1.2546255119801135
G=tf_act(A)	1217.232409121148	0.0	0.0054658596646723675	0.5208895492453242	24.275968329028263	1.2206510608244763
G=tf_act(A)	1217.0719610732756	0.0	0.00474728385650845	0.4491399508856016	24.301557301570835	1.718901965379596
G=tf_rep(A)	1219.3236462242546	0.012771231639642062	0.0	10.549482064155722	0.0644770396076737	8.510766873611889
G=tf_rep(A)	1219.4204460110784	0.035848233372082754	0.0005805387193382405	10.872932346250346	0.5454046072204539	8.515031036997685
G=tf_rep(A)	1219.3236462479467	0.012771205149108171	0.0	11.32662602184879	0.9093303018045774	8.53399668369158
G=tf_rep(A)	1219.3236462245316	0.012771230627652957	0.0	10.93509779417551	0.5496508363476329	8.571437064002998
G=tf_rep(A)	1219.4167483207448	0.03599309206840959	0.0005772167154440397	10.8654051250835	0.19156939855908878	8.572212833050154
G=tf_rep(A)	1219.3236462246207	0.012771204804414482	0.0	11.23167312157496	0.5625149138906433	8.554535720918123
G=tf_rep(A)	1219.3236462248296	0.012771206610348283	0.0	11.143334572774076	0.5880750733627749	8.528742874174924
G=tf_rep(A)	1219.3236462242573	0.012771210566008129	0.0	11.08359879509895	0.3014650687790067	8.503856790803866
G=tf_rep(A)	1219.3236462303187	0.012771207484011612	0.0	11.101728211797441	0.7609470008314977	8.47101247034144
G=tf_rep(A)	1219.323646228598	0.012771239791311697	0.0	11.348845347049593	0.7305308952493943	8.474632445924303
G=tf_act(B)	1219.3236462242544	0.012771219492866711	0.0	0.0	20.36864160688262	4.116064548559273
G=tf_act(B)	1224.3948335553337	0.15366709411916907	0.00396691742091818	0.16442085671326725	20.759103600893337	3.9663860258094354
G=tf_act(B)	1224.0748426105756	0.2114802878531218	0.005049380707883227	0.14009966570468793	20.362961190837055	3.7976300026553886
G=tf_act(B)	1219.3236462242555	0.012771244066216386	0.0	0.0	20.008962141425673	4.1535049288706904
G=tf_act(B)	1219.323646224255	0.01277123417117507	0.0	0.0	19.65088054179579	4.154280607612568
G=tf_act(B)	1219.323646224255	0.01277120835547494	0.0	0.0	20.104268596914185	4.076993583204888
G=tf_act(B)	1219.3236462242548	0.012771223071881655	0.0	0.0	20.129828756386317	4.051200736461689
G=tf_act(B)	1219.323646224255	0.012771234937039869	0.0	0.0	19.84321875180255	4.0263146530906315
G=tf_act(B)	1219.3236464968659	0.012753711133284683	0.0	0.0	20.302679906034466	3.9934547180268485
G=tf_act(B)	1219.3236462242555	0.012771244375478193	0.0	0.0	20.244314813186556	3.9798007638615807
G=tf_rep(B)	1219.3236462242548	0.012771223120839654	0.0	5.067634257339894e-12	0.0644770396076737	10.0
G=tf_rep(B)	1143.347048097013	0.0	0.009977629191087219	100.0	0.19638177032305135	10.0
G=tf_rep(B)	1219.3236462242492	0.01277123881085541	0.0	55.46476347731329	0.001	5.989643542341157
G=tf_rep(B)	1219.3236462242548	0.012771231898328858	0.0	99.60847177232672	0.001	10.0
G=tf_rep(B)	1219.323646224255	0.012771238761967776	0.0	99.930307330908	0.001	10.0
G=tf_rep(B)	1219.3236462241916	0.012771199522874319	0.0	50.66604590101507	0.001	5.549060870198469
G=tf_rep(B)	1143.3561046707698	0.0	0.009978426436016052	99.69342722091483	0.1962852697947057	9.974545952592564
G=tf_rep(B)	1219.3236462242546	0.012771239783010008	0.0	99.6336914432397	0.001	9.949659869221506
G=tf_rep(B)	1143.3495132011108	0.0	0.00997726250037953	98.12076459869597	0.19677170958901546	10.0
G=tf_rep(B)	1143.349989398107	0.0	0.009977506226810122	98.32131727707177	0.19671581585381956	9.997805653127882
G=tf_act(C)	1219.3236462242546	0.01277120451718381	0.0	0.0	19.47586220999828	8.493759429305982
G=tf_act(C)	1219.3236462242548	0.012771210881897187	0.0	0.0	19.89031308646023	8.483220341395063
G=tf_act(C)	1222.4572553439818	0.2532475023963897	0.005782437683457037	0.07396116777725932	19.66810686144707	8.452204215477993
G=tf_act(C)	1219.3236462242546	0.012771211914259308	0.0	0.0	19.530633621003286	8.52066072170648
G=tf_act(C)	1219.323646224256	0.012771197107859993	0.0	0.0	19.172551833555268	8.521436455148942
G=tf_act(C)	1219.3236462242548	0.01277122169059744	0.0	0.0	19.629269123774232	8.474345565914641
G=tf_act(C)	1219.3236462242548	0.012771219173912192	0.0	0.0	19.654829283246364	8.448552719171442
G=tf_act(C)	1219.3236462242548	0.012771208356886422	0.0	0.0	19.368219278662597	8.423666635800384
G=tf_act(C)	1219.3236467761567	0.01274630596765214	0.0	0.0	19.827662247714827	8.390820933981253
G=tf_act(C)	1219.323646224255	0.01277119869477907	0.0	0.0	19.958115134219437	8.402569498962919
G=tf_rep(C)	1219.3236462242548	0.012771220814146448	0.0	0.0	0.0644770396076737	1.0030069039331213
G=tf_rep(C)	1219.3236462242546	0.012771222727466435	0.0	0.0	0.3321538779073775	1.007177471853927
G=tf_rep(C)	1219.3236462242546	0.012771212768479971	0.0	0.0	0.1422463767785756	1.0273761131373333
G=tf_rep(C)	1219.3236462242548	0.012771226477476586	0.0	0.0	0.001	1.0648164934487507
G=tf_rep(C)	1219.4167491176775	0.03599313342862947	0.0005772183873228438	0.0008897420400294122	0.001	1.065592253971932
G=tf_rep(C)	1219.5174992693542	0.03619429038366441	0.0006377253867318604	0.36692328661451123	0.37170867424295323	1.049014024552006
G=tf_rep(C)	1219.323646224255	0.012771202547237095	0.0	0.0	0.0932776750634035	1.0210683522576192
G=tf_rep(C)	1219.3236462242553	0.012771198667863469	0.0	0.0	0.001	1.0
G=tf_rep(C)	1219.3236462242553	0.012771234851711838	0.0	0.0	0.43305507738344134	1.0
G=tf_rep(C)	1219.3236474178916	0.012771053536161632	0.0	0.001228778057579987	0.001	1.003974913568575
G=tf_act(D)	1215.4159129246086	0.0	0.008404743924331574	0.5129306875575088	20.634339247013468	10.0
G=tf_act(D)	1215.4375656225882	0.0	0.008116565468356837	0.5017571367020258	21.49996785445267	10.0
G=tf_act(D)	1215.4159129223378	0.0	0.008405013664383277	0.5129474190879079	20.634160140773396	10.0
G=tf_act(D)	1215.4206759211427	0.0	0.008533833330975052	0.5178483372895722	20.273343792893336	10.0
G=tf_act(D)	1215.4362196422726	0.0	0.008655268678344138	0.5221772987211506	19.914058003648396	10.0
G=tf_act(D)	1215.4527099931033	0.0	0.008108742821479208	0.5029768732759397	21.765766873876792	9.988235450611437
G=tf_act(D)	1215.4550759025853	0.0	0.007981334665583336	0.4954717124436801	21.790748974513352	9.962457115618674
G=tf_act(D)	1215.4421156757387	0.0	0.008079588319805825	0.49955279296613325	21.503773984799746	9.937597357431947
G=tf_act(D)	1215.4779590889937	0.0	0.00828737934346124	0.5149866268728701	21.975877862561536	9.905248976572965
G=tf_act(D)	1215.4711212583863	-5.2027572584484536e-20	0.007907379357910036	0.49235291050044316	22.012258471152197	9.92219261587077
G=tf_rep(D)	1219.3236462242546	0.01277121992186542	0.0	0.0	0.0644770396076737	10.0
G=tf_rep(D)	1219.4204449781957	0.0358486343050158	0.0005805436655546874	0.3234502820946241	0.5454046072204539	10.0
G=tf_rep(D)	1219.3236462242683	0.012771211873343258	0.0	0.7771439576930685	0.9093303017963738	10.0
G=tf_rep(D)	1219.3236462242548	0.012771225122792036	0.0	0.38561573001978866	0.5496508363394292	10.0
G=tf_rep(D)	1219.4167483672047	0.0359932752357468	0.0005772197254962856	0.3159230609277792	0.19156939855088512	10.0
G=tf_rep(D)	1219.3236462242553	0.01277124366216725	0.0	0.6821910574192401	0.5625149138824397	9.98232288786797
G=tf_rep(D)	1219.323646224255	0.012771220944545655	0.0	0.5938525086183568	0.5880750733545712	9.95653004112477
G=tf_rep(D)	1219.3236462242553	0.012771207204767663	0.0	0.53411673094323	0.30146506877080304	9.931643957753712
G=tf_rep(D)	1219.3236462242571	0.01277121686290222	0.0	0.5522461476417216	0.760947000823294	9.898799637291287
G=tf_rep(D)	1219.3236462242571	0.012771215092042472	0.0	0.7993632828938743	0.7305308952411906	9.90241961287415
G=tf_act(E)	1208.9100208440766	0.0	0.0036554482408681136	1.0561694889336988	57.710198053087325	10.0
G=tf_act(E)	1208.9136168480643	0.0	0.0036474210078198837	1.0646756910660407	58.20139055652554	10.0
G=tf_act(E)	1208.921447625258	0.0	0.003640248237748203	1.0710066695069325	58.58048418239172	10.0
G=tf_act(E)	1208.9127881965082	0.0	0.0036488904201164175	1.063788048453744	58.14146405237671	10.0
G=tf_act(E)	1208.910098315894	0.0	0.003654332052895307	1.0574319000731498	57.7820915984246	10.0
G=tf_act(E)	1208.921087311321	0.0	0.0036452125387604673	1.070200503418401	58.48141000999387	9.989518248299028
G=tf_act(E)	1208.9295309946142	7.022170915527852e-05	0.003586463913086624	1.0528579154755031	58.50540929121986	9.964200695937791
G=tf_act(E)	1208.925627512691	0.0	0.0036458154602422156	1.0646216326073952	58.21719492548994	9.940321859813288
G=tf_act(E)	1208.943562446043	0.0	0.003660386231762697	1.0787874890081084	58.68151309550769	9.9078164449936
G=tf_act(E)	1208.9418456586652	0.0	0.0036357139608841947	1.071555354030615	58.658530718614074	9.910680754221662
G=tf_rep(E)	1219.3236550931254	0.012771129754323464	0.0	20.704133814758357	0.22298472778801984	5.536953022540054
G=tf_rep(E)	1219.4252392031121	0.035398120364933644	0.0005736118189723531	21.027569159497478	0.7015325667527949	5.541904766389688
G=tf_rep(E)	1219.3236478722533	0.012745664261929449	0.0	21.473426789968375	0.18418932001034755	5.86006785305531
G=tf_rep(E)	1219.3236462242548	0.01277120679038696	0.0	21.081898562295095	0.001	5.897508233366727
G=tf_rep(E)	1219.4167520522492	0.03599308618405125	0.0005772224543471214	21.012205893203085	0.001	5.898284002413883
G=tf_rep(E)	1219.3237080328051	0.012770659550209078	0.0	21.378473889694547	0.3719321224419665	5.880609401823365
G=tf_rep(E)	1219.3237435869053	0.012770318663135247	0.0	21.290135494770848	0.3974960146183977	5.854815869641135
G=tf_rep(E)	1219.323646284938	0.012771217918886297	0.0	21.23039971709572	0.11088600955709496	5.829929810066594
G=tf_rep(E)	1219.3245631141108	0.012759087653685518	0.0	21.248529021921904	0.5703506684929902	5.797089292780152
G=tf_rep(E)	1219.324308217674	0.012761925840927425	0.0	21.495641927185147	0.5389416645655926	5.8009395324062885
G=tf_act(F)	1219.3236462242548	0.012771215333296518	0.0	0.0	22.542584787971585	9.791799044552063
G=tf_act(F)	1219.323646224255	0.012771208808112569	0.0	0.0	23.223500985706675	9.779897728782327
G=tf_act(F)	1219.3236462242567	0.012771179235945961	0.0	0.0	23.920519771229177	9.779604331813658
G=tf_act(F)	1219.323646224255	0.012771218939076156	0.0	0.0	23.56084030577223	9.817044712125076
G=tf_act(F)	1219.323646224255	0.012771199801097425	0.0	0.0	23.202759579629003	9.817820431738694
G=tf_act(F)	1219.3236462242546	0.012771211138926406	0.0	0.0	23.976094213188755	9.788831310255878
G=tf_act(F)	1219.32364538281	0.012750665660141814	0.0	4.26532630370824e-05	24.00165443226314	9.76303846077289
G=tf_act(F)	1219.323646224255	0.012771225137282462	0.0	0.0	23.715044431664367	9.738152377250408
G=tf_act(F)	1219.320713803862	0.007648246147236671	0.0	0.010659289190668131	24.175920879208274	9.705300470572558
G=tf_act(F)	1219.3250874234516	0.0028797455408604627	0.0	0.019341714514319902	24.134510628058795	9.709263018477394
G=tf_rep(F)	1209.6231133324645	0.0	0.0038002842172165222	25.539942252885176	6.183937535366727	8.514393966966425
G=tf_rep(F)	1209.6239809143722	0.0	0.0037935358608636293	25.66509302740694	6.21102705731433	8.619918981405245
G=tf_rep(F)	1209.6267354370716	0.0	0.0037854653885826743	26.108360899094837	6.231527691615598	8.736435512436815
G=tf_rep(F)	1209.6253145384023	0.0	0.0037883864870509533	25.75829532329072	6.230640915442966	8.697939300951191
G=tf_rep(F)	1209.624540728911	0.0	0.003790950778872912	25.69793177831565	6.221062543161016	8.65825517168555
G=tf_rep(F)	1209.6255469495904	0.0	0.0037871326853473122	25.71257960986106	6.236546913209583	8.714285417077031
G=tf_rep(F)	1209.6250562918651	0.0	0.0037887092012700305	25.62347882742474	6.234395245782991	8.697296358954997
G=tf_rep(F)	1209.6236694238567	0.0	0.0037945988352521155	25.570918164956908	6.209859255401111	8.606332147219552
G=tf_rep(F)	1209.6232140939383	0.0	0.0037911261345142744	24.93339564031656	6.24540561088757	8.66455309374775
G=tf_rep(F)	1209.6249353239227	0.00017687674472757748	0.003768530147256575	25.181037939159047	6.232890859515163	8.66635429975242
G=tf_act(G)	1219.3057918744978	0.0	0.0	0.02415467807703583	29.11327325314043	1.5676201110769152
G=tf_act(G)	1219.399564787098	0.0	0.0035529435488594976	0.3471273316772639	29.594659729752554	1.5710986003111114
G=tf_act(G)	1219.3054195943764	0.0	0.0	0.02493799363860109	30.226506584378527	1.411857157440325
G=tf_act(G)	1219.3054902238964	0.0	0.0	0.02471216781001106	29.86682723947909	1.4492973567233522
G=tf_act(G)	1219.3055596925174	0.0	0.0	0.024586118146318742	29.508746010447133	1.450073413345931
G=tf_act(G)	1219.3054605905456	0.0	0.0	0.02489836404368773	30.011756717080424	1.3964738809055213
G=tf_act(G)	1219.3054711033487	0.0	0.0	0.02496785395642817	30.03731700074504	1.3706817455661504
G=tf_act(G)	1219.3055399280154	0.0	0.0	0.024932228395156193	29.750707086302352	1.345796432188844
G=tf_act(G)	1219.3055289318486	0.0	0.0	0.025169457636388257	30.21022199565267	1.3131578419397638
G=tf_act(G)	1219.305546341297	0.0	0.0	0.025174555242289787	30.18085224162762	1.3071652029230643
G=tf_rep(G)	1219.3236462241675	0.012771225174006522	0.0	1.1658825850402145e-06	0.0644770396076737	10.0
G=tf_rep(G)	1205.9211501262273	0.0	0.0020970872588907384	3.8610408024958147	0.5465780386437584	10.0
G=tf_rep(G)	1205.9338046867545	0.0	0.002086765388427628	3.8383101457866737	0.7941792528751991	10.0
G=tf_rep(G)	1205.9208984666857	0.0	0.00209701570291954	3.8620532492229636	0.45466959929026773	9.999993537755723
G=tf_rep(G)	1205.9249388676574	0.0	0.002056116760978071	3.7947966319151223	0.49237272693299167	9.997189507246206
G=tf_rep(G)	1205.9332461664035	0.0	0.002087884811975046	3.8402802833371905	0.790011376643804	9.981543289137194
G=tf_rep(G)	1205.9487939262583	0.0	0.0020326365049221835	3.7485016505454487	0.8159446445806144	9.955729907578988
G=tf_rep(G)	1205.921084216227	0.0	0.0020970715560488552	3.86114354528536	0.5291020585746771	9.930956746806666
G=tf_rep(G)	1205.920865547591	0.0	0.0020961901152509402	3.8646252255177562	0.3929696089547651	9.929748345824148
G=tf_rep(G)	1205.9208518895582	0.0	0.0020970385402245524	3.9349208376841394	0.30155324860519994	9.932071655585098
