# LEMpy target file for G, replicate 0 
# Run configuration file:  ../pipeline/src/syn_net/syn_net_6D_simulations_202110_with_G/p270/results5/edge_finding_20211014222046/lempy_20211014222046_config.txt 
# Time series data file:   ../pipeline/src/syn_net/time_series_with_G/syn_net_6D_20191104_a_data_p270_transposed_with_G.tsv 
# Computed on:  2021-10-14 22:22:50 
 
model	loss	pld	inv_temp	prior	rhs_param_0	rhs_param_1	rhs_param_2	rhs_param_3	rhs_param_4	hess_eigs	hess_det	bnd_params	pld_time	opt_time
tf_rep(A)	1219.3236462242546	0.248379	1.0	0.07142857142857142	0.012771231639642062	0.0	10.549482064155722	0.0644770396076737	8.510766873611889	[1, 1, 1, 19.557361396238775, 4536675.25418956]	88725397.48355864	1.0	7.473299999993799e-05	0.40754149299999964
tf_rep(E)	1219.3236462242548	0.12419	1.0	0.07142857142857142	0.01277120679038696	0.0	21.081898562295095	0.001	5.897508233366727	[1, 1, 1, 19.557361393975043, 4536675.25418956]	88725397.47328882	2.0	4.9197000000056335e-05	0.39448068199999975
tf_rep(C)	1219.3236462242546	0.124121	1.0	0.07142857142857142	0.012771222727466435	0.0	0.0	0.3321538779073775	1.007177471853927	[1, 1, 1, 19.57894018559973, 4536676.612701213]	88823320.04148625	2.0	4.654100000056616e-05	0.28684936799999994
tf_act(G)	1219.3054195943764	0.123059	1.0	0.07142857142857142	0.0	0.0	0.02493799363860109	30.226506584378527	1.411857157440325	[1, 1, 1, 19.92650342142314, 4537200.02193802]	90410531.7608291	2.0	4.450300000069518e-05	0.33168017900000013
tf_rep(G)	1205.9208518895582	0.0935472	1.0	0.07142857142857142	0.0	0.0020970385402245524	3.9349208376841394	0.30155324860519994	9.932071655585098	[1, 1, 8.97476286563543, 22.574009257592543, 4536686.669918868]	919116296.5812986	1.0	4.3098999999990895e-05	0.45408060000000017
tf_act(A)	1217.0719610732756	0.0637077	1.0	0.07142857142857142	0.0	0.00474728385650845	0.4491399508856016	24.301557301570835	1.718901965379596	[1, 1, 9.805860560207018, 32.3320608943316, 4537241.824571358]	1438503848.5328162	1.0	0.00017442199999972985	0.34960720200000006
tf_rep(F)	1209.6231133324645	0.0469838	1.0	0.07142857142857142	0.0	0.0038002842172165222	25.539942252885176	6.183937535366727	8.514393966966425	[1, 1, 19.149083761697373, 37.702564974560865, 4536821.884637109]	3275447366.671329	1.0	4.484699999984798e-05	0.4466190939999999
tf_act(D)	1215.4159129223378	0.0376908	1.0	0.07142857142857142	0.0	0.008405013664383277	0.5129474190879079	20.634160140773396	10.0	[1, 1, 5.440256259091496, 43.64219997870237, 4537973.180802671]	1077427155.1952958	2.0	4.467300000055019e-05	0.35532540300000015
tf_act(F)	1219.320713803862	0.0354871	1.0	0.07142857142857142	0.007648246147236671	0.0	0.010659289190668131	24.175920879208274	9.705300470572558	[1, 1, 16.515880403191876, 58.00889710218386, 4537079.718519521]	4346830922.89025	1.0	4.552800000023893e-05	0.30962924700000016
tf_act(E)	1208.9100208440766	0.0334764	1.0	0.07142857142857142	0.0	0.0036554482408681136	1.0561694889336988	57.710198053087325	10.0	[1, 1, 17.767533045691646, 20.425132952314307, 4536738.0100551555]	1646401390.17383	2.0	4.4756999999506775e-05	0.3150190880000001
tf_rep(D)	1219.3236462242546	0.0310474	1.0	0.07142857142857142	0.012771221796101472	0.0	0.0	0.001	10.0	[1, 1, 1, 19.557361396068927, 4536675.254189559]	88725397.48278807	4.0	4.156600000015942e-05	0.2471880879999997
tf_act(B)	1219.3236462242544	0.020045	1.0	0.07142857142857142	0.012771219492866711	0.0	0.0	20.36864160688262	4.116064548559273	[1, 1, 17.60904943821655, 42.62999342622411, 4536845.502192304]	3405690426.120828	2.0	5.1437999999848216e-05	0.3788108239999999
tf_act(C)	1219.3236462242546	0.0179501	1.0	0.07142857142857142	0.01277120451718381	0.0	0.0	19.47586220999828	8.493759429305982	[1, 1, 18.085864160826983, 51.757952528316736, 4537002.699728248]	4247030601.245606	2.0	4.584399999973954e-05	0.277200519
tf_rep(B)	1143.347048097013	0.000316156	1.0	0.07142857142857142	0.0	0.009977629191087219	100.0	0.19638177032305135	10.0	[1, 1, 19.145388180163895, 284033.20567587286, 5741967.816241298]	31224395956917.965	3.0	4.922200000034849e-05	0.365368154
null_model	1219.3236462242546				0.012771220741802545	0.0								
