# LEMpy local minima file for target WHI5, replicate 1
# Right-hand side of tf_act():  p0 - p1(tar) + p2(reg^p4) / (p3^p4 + reg^p4)
# Right-hand side of tf_rep():  p0 - p1(tar) + p2(p3^p4) / (p3^p4 + reg^p4)
# Run configuration file:  ../pipeline/src/yeast_data/simulations202110_Orlando_2/annot/results4/edge_finding_20211012144505/lempy_20211012144505_config.txt
# Time series data file:   ../pipeline/src/yeast_data/time_series/orlando2008_WildType_r2_trunc.tsv
# Computed on:  2021-10-12 14:47:16 
 
model	loss	p0	p1	p2	p3	p4
WHI5=tf_act(SWI4)	33.722459566693765	0.0	0.0570898337151571	6.715367780277766	28.54860168635371	4.415845430330832
WHI5=tf_act(SWI4)	33.73125145611932	0.0	0.05626612371471976	6.6487787631385595	28.751551499818977	4.474857773127158
WHI5=tf_act(SWI4)	33.764141051790276	0.0	0.055289031725443256	6.5683033209029436	28.98952216537522	4.551097967691245
WHI5=tf_act(SWI4)	33.779465317651145	0.0324179168117361	0.05639202934966028	6.594679405804562	28.697182525699635	4.568259554943139
WHI5=tf_act(SWI4)	33.722714311270515	0.0	0.05722492245211403	6.727871299906935	28.521486920846495	4.403454050549191
WHI5=tf_act(SWI4)	33.722459566566826	0.0	0.057089911851484154	6.715369077849975	28.548600698736255	4.4158709383586086
WHI5=tf_act(SWI4)	33.72245954116868	0.0	0.05709059797808252	6.715451056745151	28.548501372677276	4.415741024428968
WHI5=tf_act(SWI4)	33.72650018904499	0.0	0.05763244367964589	6.759115644880065	28.41212602891817	4.375132420967403
WHI5=tf_act(SWI4)	33.722545239824136	0.0	0.05713276014136751	6.72062597303102	28.548153923378262	4.412773112034169
WHI5=tf_act(SWI4)	33.75271488360385	0.0	0.05863500806907667	6.838133778742664	28.16870743024884	4.317650790260237
WHI5=tf_rep(SWI4)	167.58461973321036	0.3	0.006516668046325105	0.5391896497992715	100.0	10.0
WHI5=tf_rep(SWI4)	167.58461973363174	0.3	0.006516662110389978	0.5391890115149374	100.0	10.0
WHI5=tf_rep(SWI4)	167.5846197329256	0.3	0.006516672254093008	0.5391900887815814	100.0	10.0
WHI5=tf_rep(SWI4)	167.7188629517296	0.3	0.005816702869552967	0.4780506496022589	99.69754646987637	10.0
WHI5=tf_rep(SWI4)	167.58461973573728	0.3	0.006516631555277099	0.5391864881640209	100.0	10.0
WHI5=tf_rep(SWI4)	167.58461973275783	0.3	0.006516674661518866	0.539190258160799	100.0	10.0
WHI5=tf_rep(SWI4)	167.58461967389889	0.3	0.006518055849227288	0.5393096038291594	100.0	10.0
WHI5=tf_rep(SWI4)	167.61846233621512	0.3	0.006350865043176824	0.5247101483227362	99.94743191604155	9.969370119860228
WHI5=tf_rep(SWI4)	167.5846196664978	0.3	0.006518414097012974	0.5393422705439124	100.0	10.0
WHI5=tf_rep(SWI4)	167.77721369788722	0.3	0.00548877969616482	0.4493774460600058	99.55366454496375	10.0
WHI5=tf_act(HCM1)	79.08627434488328	0.28777379349904414	0.10381078564103711	10.715809072648268	29.495120451648994	3.2189675899710983
WHI5=tf_act(HCM1)	78.99632486494342	0.28901463856105597	0.10566671348633053	10.915190985013767	29.626535619507557	3.243304890196087
WHI5=tf_act(HCM1)	78.8946471759461	0.3	0.10604546846815473	10.976305170929145	30.13213213669308	3.340213169766465
WHI5=tf_act(HCM1)	78.97273318973603	0.3	0.10343683155652984	10.734536466607247	29.84983283583157	3.218398149621815
WHI5=tf_act(HCM1)	78.89194787833006	0.3	0.10579079247920306	10.958740458809281	30.22914509163758	3.356673413201473
WHI5=tf_act(HCM1)	78.9702914286436	0.3	0.10973721616292881	11.352999019330309	30.168245848627762	3.3601638282826904
WHI5=tf_act(HCM1)	78.8890566496603	0.3	0.10652188637198293	11.02717488485833	30.26819839456931	3.3790638490708935
WHI5=tf_act(HCM1)	78.89962359893343	0.3	0.10660064363345603	11.00651943964662	30.109083087552747	3.3716921671596816
WHI5=tf_act(HCM1)	78.96085653241789	0.3	0.10555990279988549	10.913722549890531	29.728268044213195	3.240548051211458
WHI5=tf_act(HCM1)	78.88905667451225	0.3	0.106521483589146	11.02713988362338	30.268167928390326	3.3790412898771267
WHI5=tf_act(NDD1)	122.70905503137625	0.00032175215338591515	0.06423857821024048	5.66515047875974	0.001	1.029997041548703
WHI5=tf_act(NDD1)	122.70726139355737	0.0036634493217456796	0.06424043808904516	5.661892162443004	0.001	1.3566641157063797
WHI5=tf_act(NDD1)	122.70718450709053	2.2633217141993043e-07	0.06423995974076202	5.6655074321440235	0.001	1.7431729163571739
WHI5=tf_act(NDD1)	122.7071840755965	0.00247730862075128	0.06423753116318807	5.662829792195382	0.001	1.779248151899366
WHI5=tf_act(NDD1)	122.70719459441263	0.00018131752285496967	0.06423764430877557	5.665135563273652	0.0032861049978839866	1.7613024242542856
WHI5=tf_act(NDD1)	122.70720985129397	0.002013150244407032	0.06423787714316113	5.663323564821314	0.005446014888049701	1.7680701755420964
WHI5=tf_act(NDD1)	122.70718921484627	0.0	0.06423733450007352	5.665290883108024	0.0027284005345105116	1.7936224843198287
WHI5=tf_act(NDD1)	122.70718428653434	0.0016161401936971907	0.06423757094483479	5.663694305920989	0.001	1.7628846786889085
WHI5=tf_act(NDD1)	122.7071841988397	0.002636759887001128	0.06423752838822068	5.662670111043309	0.001	1.7694890588368142
WHI5=tf_act(NDD1)	122.70718378806372	0.002169741765112678	0.06423752196823518	5.663136580750525	0.001	1.8066541239237797
WHI5=tf_act(SWI5)	168.24043270085417	0.3	0.0003795977510204739	0.0	99.63550864733376	2.879685283920661
WHI5=tf_act(SWI5)	168.24043270085417	0.3	0.00037959775054698444	0.0	99.91829797024661	2.869553378840921
WHI5=tf_act(SWI5)	168.24043270085423	0.3	0.0003795977507563536	0.0	100.0	2.943298161656273
WHI5=tf_act(SWI5)	168.24043270085423	0.3	0.00037959775126484	0.0	99.6968734043124	2.9793732516822855
WHI5=tf_act(SWI5)	168.2404327008066	0.3	0.0003795985101249804	0.0	99.5973586098078	3.4822199059750205
WHI5=tf_act(SWI5)	168.24043270085426	0.3	0.00037959775042975487	0.0	99.4882703149377	3.957762565849799
WHI5=tf_act(SWI5)	168.24043270085417	0.3	0.0003795977511618702	0.0	99.43042734619341	4.576165781335042
WHI5=tf_act(SWI5)	168.2404327008542	0.3	0.00037959775168857355	0.0	99.37767589288204	4.545427771785329
WHI5=tf_act(SWI5)	168.24043270085417	0.3	0.00037959775120694004	0.0	98.96689254898965	4.552038528416836
WHI5=tf_act(SWI5)	168.24043270085426	0.3	0.0003795977505696593	0.0	98.52345860017908	4.599833222394592
WHI5=tf_rep(NRM1)	76.45166425817123	0.0	0.0011045934863681203	3.1675292023407926	21.234842487117632	10.0
WHI5=tf_rep(NRM1)	76.45166425886661	0.0	0.001104583998085116	3.1675310756625734	21.234822232602195	10.0
WHI5=tf_rep(NRM1)	76.4580731222333	0.0	0.0010482187600199882	3.18931934579679	21.112589042432848	10.0
WHI5=tf_rep(NRM1)	76.45166425837081	0.0	0.0011045901184242822	3.167530594846262	21.234834608259117	10.0
WHI5=tf_rep(NRM1)	76.45166425824763	0.0	0.001104592069416482	3.1675292777881547	21.234839830831778	10.0
WHI5=tf_rep(NRM1)	76.45166425835343	0.0	0.0011045903201797533	3.1675294756366736	21.234837272202082	10.0
WHI5=tf_rep(NRM1)	76.45166425856215	0.0	0.001104587570459007	3.1675283459879457	21.23483403100669	10.0
WHI5=tf_rep(NRM1)	76.50773824694913	0.0	0.0012453561271353096	3.1014131707138635	21.561156729599	9.967352981269364
WHI5=tf_rep(NRM1)	76.46253698178013	0.0	0.001121719547016213	3.1612553720373056	21.264772354723462	9.956487810543125
WHI5=tf_rep(NRM1)	76.53449357620029	0.0	0.0008982340438588237	3.2443258441133422	20.792766760840895	10.0
WHI5=tf_rep(CLN3)	117.16403994052644	0.3	0.05600505744088289	8.381757914473335	98.74966466880501	1.0
WHI5=tf_rep(CLN3)	117.15041760335711	0.3	0.05605301737111027	8.377761765383527	99.0521486498643	1.0
WHI5=tf_rep(CLN3)	117.1423509253531	0.29972069483946634	0.05605842505925314	8.37221999372004	99.23787012035164	1.0
WHI5=tf_rep(CLN3)	117.14626294695805	0.3	0.056158167591647	8.38999456292274	99.1491065753241	1.0
WHI5=tf_rep(CLN3)	117.17100292773397	0.3	0.056225067361155415	8.419891809787973	98.61628481449831	1.0
WHI5=tf_rep(CLN3)	117.10839229432189	0.3	0.056144612196584856	8.356760682557566	100.0	1.0
WHI5=tf_rep(CLN3)	117.14113819367269	0.2949361314703434	0.056501564187692845	8.440227566512323	99.4313704223132	1.0
WHI5=tf_rep(CLN3)	117.14436682848957	0.3	0.05616809171390132	8.380022739770938	99.38204344085713	1.0035647510966992
WHI5=tf_rep(CLN3)	117.15391235155732	0.3	0.05603049531933697	8.377254840093235	98.97426859900726	1.0
WHI5=tf_rep(CLN3)	117.17410050202136	0.3	0.0559806847682923	8.386347851093642	98.52781383842247	1.0
WHI5=tf_rep(WHI5)	90.82775761391115	0.0	0.0006890232791817162	5.040878450047502	56.93560451510966	10.0
WHI5=tf_rep(WHI5)	90.81416309284846	0.0	0.0007723863897840746	4.956968777899453	57.31865842878392	10.0
WHI5=tf_rep(WHI5)	90.81477821579286	0.0	0.0007550144697010528	4.9741293779016065	57.23938919160236	10.0
WHI5=tf_rep(WHI5)	90.81526960346943	0.0	0.0007492687891973113	4.980542196457507	57.21169409590505	10.0
WHI5=tf_rep(WHI5)	90.81416251595824	0.0	0.0007729827703387362	4.956485434312944	57.321134441728574	10.0
WHI5=tf_rep(WHI5)	90.83884841754495	0.0	0.0006666970284643026	5.077248864452	56.805768962771864	10.0
WHI5=tf_rep(WHI5)	90.88374148469063	0.0	0.0005922536560818987	5.160559104116109	56.44937037898431	10.0
WHI5=tf_rep(WHI5)	90.86362509941229	0.0	0.0006167585826769195	5.123770752419959	56.58470644004353	10.0
WHI5=tf_rep(WHI5)	90.90714619487649	0.0	0.0005589320747507959	5.188611082857858	56.30792295728759	10.0
WHI5=tf_rep(WHI5)	90.81416251011247	0.0	0.0007729487557070551	4.9564301486704405	57.32117465817333	10.0
WHI5=tf_act(YOX1)	41.09698804182435	0.3	0.12802583587505043	16.508645455514348	21.79517136649036	1.0
WHI5=tf_act(YOX1)	41.089644526017324	0.3	0.12738784974207398	16.508773277332633	22.126795978731195	1.0
WHI5=tf_act(YOX1)	41.095861297851904	0.3	0.1267769546273817	16.506149307401927	22.436702514073435	1.0
WHI5=tf_act(YOX1)	41.15001225857005	0.3	0.12776560242087598	16.35586505888454	21.32049714503547	1.0002439687455458
WHI5=tf_act(YOX1)	41.08964902926794	0.3	0.12737537757009035	16.50636532800646	22.123638922900064	1.0
WHI5=tf_act(YOX1)	41.08964451525835	0.3	0.12738800629196392	16.508781528809298	22.12674838768462	1.0
WHI5=tf_act(YOX1)	41.08964451712239	0.3	0.12738798552863315	16.508776446983962	22.126734733276685	1.0
WHI5=tf_act(YOX1)	41.09094619553919	0.3	0.1276602636323098	16.508956216833248	21.985696312835053	1.0
WHI5=tf_act(YOX1)	41.149303807346264	0.3	0.12653974548329866	16.25837522647529	21.59082000552685	1.002222045005254
WHI5=tf_act(YOX1)	41.08964445579447	0.3	0.1273897022286318	16.508778646303497	22.125847771120668	1.0
WHI5=tf_rep(YOX1)	168.1865996135899	0.3	0.0020815815321503753	0.1501986227595306	99.63447633296403	10.0
WHI5=tf_rep(YOX1)	168.1390715825547	0.3	0.0027317158129311334	0.20741259348114052	99.91726790158255	9.989869825046
WHI5=tf_rep(YOX1)	168.120127809859	0.3	0.002948058230862243	0.22643311840461705	100.0	10.0
WHI5=tf_rep(YOX1)	168.1771332084104	0.3	0.002227969480791786	0.1630910645419686	99.69688136052305	10.0
WHI5=tf_rep(YOX1)	168.19281432094553	0.3	0.0019372216659245744	0.13747567608124442	99.59068829965412	10.0
WHI5=tf_rep(YOX1)	168.20894031657886	0.3	0.001644017353104246	0.11163938056589294	99.46048141246091	10.0
WHI5=tf_rep(YOX1)	168.48294987831477	0.3	0.004953738433523196	0.4040739366560399	99.28393055614778	9.998661145776225
WHI5=tf_rep(YOX1)	168.12012780885965	0.3	0.0029480728342415304	0.22643440499404835	100.0	10.0
WHI5=tf_rep(YOX1)	168.1201278068463	0.3	0.002948102615344311	0.2264370513282862	100.0	10.0
WHI5=tf_rep(YOX1)	168.19770928399268	0.3	0.0018929462935687138	0.1335821199270009	99.55367994598573	10.0
WHI5=tf_act(ASH1)	168.24043270085423	0.3	0.00037959775081945356	0.0	99.65941067253391	6.5462183548963315
WHI5=tf_act(ASH1)	168.2404327008542	0.3	0.00037959775125948823	0.0	99.94219999544676	6.536086449816591
WHI5=tf_act(ASH1)	168.24043270085414	0.3	0.00037959775125580254	0.0	100.0	6.891162075722551
WHI5=tf_act(ASH1)	168.2404327008542	0.3	0.00037959775062980925	0.0	99.6968734043124	6.927237165748564
WHI5=tf_act(ASH1)	168.2404327008542	0.3	0.0003795977509615774	0.0	99.77487183651937	7.382228085483111
WHI5=tf_act(ASH1)	168.24043270085414	0.3	0.0003795977515300374	0.0	99.6856176744599	7.596750663128838
WHI5=tf_act(ASH1)	168.24043270085414	0.3	0.000379597751507431	0.0	99.6524622005071	7.864300601464481
WHI5=tf_act(ASH1)	168.2404327008542	0.3	0.0003795977510293566	0.0	99.59971074719573	7.8335625919147684
WHI5=tf_act(ASH1)	168.2404327008542	0.3	0.0003795977510216997	0.0	99.18892722316163	7.840167410845338
WHI5=tf_act(ASH1)	168.24043270085417	0.3	0.0003795977505605734	0.0	98.7691506900144	7.9168413661927
WHI5=tf_rep(ASH1)	56.29286087553173	0.3	0.06776547446900529	6.352688763585666	96.92819303444026	6.44135439061112
WHI5=tf_rep(ASH1)	56.28747465369963	0.3	0.06828738374289461	6.392543283023409	97.21976288557701	6.44245362128945
WHI5=tf_rep(ASH1)	56.28718213950834	0.3	0.06829489979502411	6.393152443945768	97.26065836847762	6.42437915961042
WHI5=tf_rep(ASH1)	56.29175676078263	0.3	0.06795648639720288	6.3671614182171625	96.96589571606793	6.47721911133011
WHI5=tf_rep(ASH1)	56.55656870936828	0.29902696582869837	0.07019245666400845	6.591112594935388	96.59607640064884	6.42266872752465
WHI5=tf_rep(ASH1)	56.28711985551808	0.3	0.06833614338692219	6.396289951599021	97.29853173367026	6.417588239739352
WHI5=tf_rep(ASH1)	56.29657539985662	0.28975650589713137	0.06841550808757846	6.4136966269160745	97.12370578733496	6.525773684021168
WHI5=tf_rep(ASH1)	56.295480510643856	0.2903573525399641	0.06819884064557594	6.395215580625593	97.0808270438607	6.506845855559367
WHI5=tf_rep(ASH1)	56.29264981229132	0.3	0.06771112790628148	6.348697857529381	97.03996470085907	6.37018013630721
WHI5=tf_rep(ASH1)	56.31195174088952	0.3	0.06701506509661209	6.295333543494475	96.5882464398054	6.40030296888327
