# LEMpy local minima file for target NDD1, replicate 0
# Right-hand side of tf_act():  p0 - p1(tar) + p2(reg^p4) / (p3^p4 + reg^p4)
# Right-hand side of tf_rep():  p0 - p1(tar) + p2(p3^p4) / (p3^p4 + reg^p4)
# Run configuration file:  ../pipeline/src/yeast_data/simulations202110_Orlando_2/annot/results1/edge_finding_20211012115338/lempy_20211012115338_config.txt
# Time series data file:   ../pipeline/src/yeast_data/time_series/orlando2008_WildType_r1_trunc.tsv
# Computed on:  2021-10-12 11:55:57 
 
model	loss	p0	p1	p2	p3	p4
NDD1=tf_act(SWI4)	45.93321624084994	0.0	0.05403652507909322	9.858530966426533	50.631368657439154	4.059758889424251
NDD1=tf_act(SWI4)	45.964057587289105	0.0	0.05387155153001194	9.867846193788445	50.83606947109936	4.001650169400318
NDD1=tf_act(SWI4)	45.9408187007023	0.0	0.05398675375823279	9.8659090152219	50.70302330444014	4.045260102137656
NDD1=tf_act(SWI4)	45.94360069829615	0.0	0.053874452788316464	9.855707837617308	50.73680020897357	4.04336784131947
NDD1=tf_act(SWI4)	45.92073829845025	0.0	0.05390465219863149	9.813044443925753	50.49485806681738	4.108852870777996
NDD1=tf_act(SWI4)	45.920110282673285	0.0	0.05389474517994121	9.789489366551303	50.36520153210886	4.155258219142849
NDD1=tf_act(SWI4)	45.921341500455696	0.0	0.05388579679192012	9.782890352429924	50.33699890175741	4.164904360530184
NDD1=tf_act(SWI4)	45.92323789256529	0.0	0.053905198511670936	9.779352259181113	50.30396579385575	4.1735774720757295
NDD1=tf_act(SWI4)	45.96180289941809	0.0	0.0538683326633184	9.874239048406606	50.840108036312934	4.014568150174567
NDD1=tf_act(SWI4)	45.91905468331919	0.0	0.053881147468639035	9.7992338453968	50.42773601074118	4.136589814624483
NDD1=tf_rep(SWI4)	437.8850155437589	0.3	0.0027192917672334356	0.24991472923272678	0.001	1.0000411191448315
NDD1=tf_rep(SWI4)	437.8845159609078	0.3	0.0027192035144599875	0.0	0.2963502794577211	1.0232173043099495
NDD1=tf_rep(SWI4)	437.88451596090783	0.3	0.0027192035121502353	0.0	0.25501436459001153	1.024496904814405
NDD1=tf_rep(SWI4)	437.88461098240515	0.3	0.0027190024631204347	0.10018397492417828	0.001	1.0770679032772807
NDD1=tf_rep(SWI4)	437.8849011569425	0.3	0.0027192041165193296	0.42330654135145535	0.001	1.081078683683517
NDD1=tf_rep(SWI4)	437.8845392215775	0.3	0.002719207299550203	0.017647544993868145	0.001	1.0430031980010672
NDD1=tf_rep(SWI4)	437.8845159609076	0.3	0.0027192035134273517	0.0	0.11559973649569934	1.0000844227518455
NDD1=tf_rep(SWI4)	437.88451597744677	0.3	0.002719154848785708	0.018984598851704393	0.001	1.9401682633824646
NDD1=tf_rep(SWI4)	437.8845160397936	0.3	0.0027192034814913593	0.21968097406482165	0.008517285199166641	2.3719838155784636
NDD1=tf_rep(SWI4)	437.88451596090783	0.3	0.002719203509847754	0.0	0.001	2.4070074511691075
NDD1=tf_act(HCM1)	14.418609174369456	0.3	0.1133231968938224	17.819020921768487	57.387727019630496	2.496651210928294
NDD1=tf_act(HCM1)	14.419696423873997	0.3	0.1133850508975732	17.876383814042857	57.53765469645073	2.4855221099362326
NDD1=tf_act(HCM1)	14.418696427639327	0.3	0.11335051161158119	17.836460448012826	57.42923895285757	2.4934091154833773
NDD1=tf_act(HCM1)	14.419409857875667	0.3	0.11338826674791729	17.869790762044293	57.51548505534929	2.486991563222969
NDD1=tf_act(HCM1)	14.41887517072132	0.3	0.11329087557486502	17.79074470835603	57.31483680600679	2.502163169634295
NDD1=tf_act(HCM1)	14.421642969676524	0.3	0.11322006531940954	17.72488690240471	57.14330345177935	2.5152440675267522
NDD1=tf_act(HCM1)	14.423881832955951	0.3	0.11315189660313327	17.690723940830555	57.06929204189958	2.5214900301795984
NDD1=tf_act(HCM1)	14.424465574887396	0.3	0.11317472968844795	17.688025556362742	57.050193044037904	2.5225535006502735
NDD1=tf_act(HCM1)	14.421286028425301	0.3	0.11344264772833836	17.912250287774476	57.62254860214066	2.479010531116678
NDD1=tf_act(HCM1)	14.42803804100832	0.3	0.11297934860758825	17.63594703195017	56.98026675284135	2.530412825101454
NDD1=tf_act(NDD1)	437.8845159609078	0.3	0.002719203513018369	0.0	69.65224567039674	1.0
NDD1=tf_act(NDD1)	437.8845159609079	0.3	0.0027192035109267717	0.0	69.94759594985446	1.023176185165118
NDD1=tf_act(NDD1)	437.8845159609079	0.3	0.0027192035110273896	0.0	69.90626003498674	1.0244557856695735
NDD1=tf_act(NDD1)	437.88451596096183	0.3	0.0027192024568500335	0.0	69.79299373868616	1.065168099559125
NDD1=tf_act(NDD1)	437.8845159609078	0.3	0.00271920351155608	0.0	69.4208985787971	1.0695875850534422
NDD1=tf_act(NDD1)	437.8845159609079	0.3	0.0027192035131069063	0.0	69.36093400800088	1.0315113631769601
NDD1=tf_act(NDD1)	438.19313008583964	0.29986185698992107	0.005423271606367145	0.3876206620022534	69.47568207855446	1.0
NDD1=tf_act(NDD1)	438.35726953714897	0.3	0.006599470071148891	0.5556075147605333	69.3335213771215	1.0
NDD1=tf_act(NDD1)	437.88451596089516	0.3	0.002719203792015633	0.0	69.77880174259784	1.0005300793682637
NDD1=tf_act(NDD1)	437.8845159609078	0.3	0.0027192035124289867	0.0	69.46896473719602	1.0355537149589074
NDD1=tf_act(SWI5)	437.8845159609077	0.3	0.0027192035133827117	0.0	99.88157058070753	9.982287629380036
NDD1=tf_act(SWI5)	437.8845159609078	0.3	0.002719203513383243	0.0	100.0	10.0
NDD1=tf_act(SWI5)	437.8845159609079	0.3	0.002719203511165698	0.0	99.95866408513228	10.0
NDD1=tf_act(SWI5)	437.8845159609079	0.3	0.0027192035137517554	0.0	99.8656898470253	10.0
NDD1=tf_act(SWI5)	437.8845159609079	0.3	0.0027192035120069172	0.0	99.54586404678504	10.0
NDD1=tf_act(SWI5)	437.8845159609079	0.3	0.0027192035119901446	0.0	99.48589947598883	9.961923778123518
NDD1=tf_act(SWI5)	437.8845159609078	0.3	0.0027192035137106477	0.0	99.60064763086523	9.917229817958777
NDD1=tf_act(SWI5)	437.88451596106063	0.3	0.0027192008948631274	0.0	99.57418162401979	9.935142230788786
NDD1=tf_act(SWI5)	437.8845159609079	0.3	0.002719203512502603	0.0	100.0	9.940969027352413
NDD1=tf_act(SWI5)	437.8845159609079	0.3	0.002719203509847492	0.0	99.69016299459818	9.975992662943057
NDD1=tf_rep(NRM1)	354.0165778223849	0.0	0.00424357976894882	9.282700552587887	6.743926008087174	2.174381582777294
NDD1=tf_rep(NRM1)	353.8215717807425	0.0	0.00414830327702091	8.910850986405615	7.011480421845526	2.2284600171707187
NDD1=tf_rep(NRM1)	353.8079273065696	0.0	0.004240245685083572	8.85496961840021	7.000367887255004	2.1962713646497862
NDD1=tf_rep(NRM1)	353.9624360802657	0.0	0.004085436373931011	9.18254837877227	6.874170882781693	2.237021138854669
NDD1=tf_rep(NRM1)	354.1606650155528	0.0	0.00401417279709358	9.567416287151154	6.665049574234384	2.2362807597531624
NDD1=tf_rep(NRM1)	353.90214175838986	0.0	0.004458664330897524	8.831502773657462	6.889186221265366	2.1136722046619103
NDD1=tf_rep(NRM1)	343.5467071882436	0.0	0.0013995841702685546	3.913343398899837	12.965969110476602	10.0
NDD1=tf_rep(NRM1)	343.5651267502133	0.0	0.001385389265555199	3.9311867797105897	12.75348577127534	9.999579075457927
NDD1=tf_rep(NRM1)	343.55307098072893	0.0	0.0014089128268214533	3.9037253691901657	13.093293166671714	10.0
NDD1=tf_rep(NRM1)	343.5476406219709	0.0	0.001396388645123861	3.9174144893962515	12.917580429766172	10.0
NDD1=tf_rep(CLN3)	325.60347666145134	0.0	0.11048315420057624	48.04693626366054	36.33871537702913	2.1254518804680274
NDD1=tf_rep(CLN3)	325.5802212397467	0.0	0.1111293208805472	47.76747803912184	36.6972520137356	2.1345483466169024
NDD1=tf_rep(CLN3)	325.5776200622578	0.0	0.11110966285099634	47.71308113676351	36.72045171628178	2.1347776372760436
NDD1=tf_rep(CLN3)	325.5921521767651	0.0	0.11101709989941519	47.987205519506645	36.53568882159035	2.131060271800512
NDD1=tf_rep(CLN3)	325.61339255705127	0.0	0.110993170293088	48.41095830871754	36.28754161219271	2.126342524062907
NDD1=tf_rep(CLN3)	325.6037603050556	0.0	0.11088641606594779	48.19694262960251	36.380171332011656	2.127915591748446
NDD1=tf_rep(CLN3)	325.588504596673	0.0	0.11115073290997833	47.93165078862229	36.604293287209174	2.132589662617087
NDD1=tf_rep(CLN3)	325.603259834643	0.0	0.11100375698232123	48.20757697350041	36.405828498329186	2.1285815259958265
NDD1=tf_rep(CLN3)	325.61225400420955	0.0	0.11112172193062313	48.40389877481579	36.32663674260465	2.127304595188691
NDD1=tf_rep(CLN3)	325.59987462677844	0.0	0.11114865532787664	48.15752890925917	36.474054012502236	2.1301233065607272
NDD1=tf_rep(WHI5)	382.90592694687433	0.0	0.001910575684999067	9.49502693570557	39.591787174712124	10.0
NDD1=tf_rep(WHI5)	382.90371420661035	0.0	0.0019394681284897125	9.131402141650012	39.83981650455404	10.0
NDD1=tf_rep(WHI5)	382.90460902708054	0.0	0.0019435277490170639	9.081971022815809	39.874616948686324	10.0
NDD1=tf_rep(WHI5)	382.90351524968776	0.0	0.0019204500903880137	9.368092008333065	39.676819433212295	10.0
NDD1=tf_rep(WHI5)	382.91553526982915	0.0	0.0018910032623775026	9.754316079573154	39.42318970857452	10.0
NDD1=tf_rep(WHI5)	382.9054899897659	0.0	0.0019119869007717374	9.477200340396825	39.60372821250706	10.0
NDD1=tf_rep(WHI5)	382.90295900156286	0.0	0.0019335875390874763	9.203465253093006	39.78954379947939	10.0
NDD1=tf_rep(WHI5)	382.9059285457782	0.0	0.001910545613414477	9.495102230188888	39.59176682705089	10.0
NDD1=tf_rep(WHI5)	382.91047544911606	0.0	0.001899757757742229	9.63741446511804	39.49845407031182	10.0
NDD1=tf_rep(WHI5)	382.9046327233581	0.0	0.001915053549680577	9.437559312279536	39.63016097520987	10.0
NDD1=tf_act(YOX1)	18.50718693515086	0.3	0.07985166160207485	12.076084479059785	45.9317616536344	3.2298925840695722
NDD1=tf_act(YOX1)	18.500239935576385	0.3	0.07930731594929069	11.951099448680768	45.75693225410833	3.3000903647343405
NDD1=tf_act(YOX1)	18.500240300672836	0.3	0.07930683556765279	11.95089716541867	45.756578657637434	3.300077728958954
NDD1=tf_act(YOX1)	18.500386182724903	0.3	0.07937033290157647	11.967415100771483	45.78407791720699	3.289935586427687
NDD1=tf_act(YOX1)	18.501379029335357	0.3	0.07912394280372179	11.905066955541027	45.68342761912567	3.328706986066431
NDD1=tf_act(YOX1)	18.5085425888979	0.3	0.07885792923349011	11.833496689234797	45.55879833331107	3.3769779577155674
NDD1=tf_act(YOX1)	18.50999850532409	0.3	0.07878667789230866	11.819511808735507	45.544763249515746	3.3846200216108837
NDD1=tf_act(YOX1)	18.500239940630156	0.3	0.07930701042821035	11.951036855349528	45.756880743897916	3.300108379051
NDD1=tf_act(YOX1)	18.500239957269397	0.3	0.07930653839384325	11.95095556453921	45.75683267520612	3.30014896463102
NDD1=tf_act(YOX1)	18.500239942811103	0.3	0.07930723780016272	11.95108632495146	45.75691500703468	3.30011545694731
NDD1=tf_rep(YOX1)	437.8845922347658	0.3	0.002719229639127888	0.2499263701730391	0.001	1.1227193527795503
NDD1=tf_rep(YOX1)	437.8845159609078	0.3	0.002719203512885004	0.0	0.2963502794577211	1.1458955379446683
NDD1=tf_rep(YOX1)	437.8845159609077	0.3	0.002719203513967263	0.0	0.25501436459001153	1.1471751384491238
NDD1=tf_rep(YOX1)	437.88451596094546	0.3	0.002719214267702888	0.0	0.001	1.2687356690616856
NDD1=tf_rep(YOX1)	437.8845342667272	0.3	0.0027192121660516914	0.32270665480189764	0.001	1.2741606167441162
NDD1=tf_rep(YOX1)	437.8845159609079	0.3	0.0027192035115529874	0.0	0.001	1.236084394867634
NDD1=tf_rep(YOX1)	437.8845159609078	0.3	0.002719203511704572	0.0	0.11557006095608846	1.1914993456019
NDD1=tf_rep(YOX1)	437.88456206662516	0.3	0.002719231441763539	0.32132766800917295	0.001	1.1916310066684899
NDD1=tf_rep(YOX1)	437.8845159609077	0.3	0.0027192035129197964	0.0	0.001	1.3844548910550807
NDD1=tf_rep(YOX1)	437.88451596090783	0.3	0.002719203509847754	0.0	0.001	1.4194785266457244
NDD1=tf_act(ASH1)	437.8845159608225	0.3	0.0027192059456237435	0.0	99.9533805429752	9.976094202027745
NDD1=tf_act(ASH1)	437.88451596090783	0.3	0.0027192035108126226	0.0	100.0	9.999270387192864
NDD1=tf_act(ASH1)	437.8845159609077	0.3	0.0027192035122347346	0.0	99.95866408513228	10.0
NDD1=tf_act(ASH1)	444.429253871274	0.3	0.0027029397118061337	0.2588432673926708	99.91508991181762	9.998936542040235
NDD1=tf_act(ASH1)	437.88451596090783	0.3	0.002719203512263011	0.0	99.6034261896934	10.0
NDD1=tf_act(ASH1)	437.884515960908	0.3	0.002719203511116455	0.0	99.54346161889718	9.961923778123518
NDD1=tf_act(ASH1)	439.0693365942908	0.2998429027527057	0.0027196038287779366	0.04863147022860033	99.65820793896224	9.917228476244306
NDD1=tf_act(ASH1)	437.8845159609079	0.3	0.002719203512254888	0.0	99.60760442925984	9.99551300111351
NDD1=tf_act(ASH1)	437.88451596090783	0.3	0.002719203513354386	0.0	100.0	10.0
NDD1=tf_act(ASH1)	437.884515960908	0.3	0.002719203509238801	0.0	99.69016299459818	10.0
NDD1=tf_rep(ASH1)	197.4646754113615	0.04565420858617916	0.0480475686534992	4.938053829816919	56.58057481584338	3.9669658843706173
NDD1=tf_rep(ASH1)	197.4120256008825	0.0	0.04815828065572275	4.987183706614053	57.19086566921956	3.9056951262846287
NDD1=tf_rep(ASH1)	197.41264854691266	0.0	0.0482147296011207	4.9917059127839405	57.21151784300107	3.8857696020969756
NDD1=tf_rep(ASH1)	197.4135741748381	0.00012386446323810126	0.04796505091295643	4.9732945114256175	57.07145656464796	3.937172519284385
NDD1=tf_rep(ASH1)	197.45493402375357	5.6796805231596906e-05	0.047683910537875004	4.96125182707183	56.69414892942479	3.881749551037277
NDD1=tf_rep(ASH1)	197.43000239155668	0.0	0.04747622078576719	4.940615033992746	56.72088799096077	3.988713651677982
NDD1=tf_rep(ASH1)	197.4184842681287	0.001106529190251017	0.04783502113529112	4.964945476288327	56.93268346551589	3.933546294423591
NDD1=tf_rep(ASH1)	197.44793390659066	0.0007775508888731586	0.04763195175117803	4.9558823648129255	56.68049718671134	3.9054878928908714
NDD1=tf_rep(ASH1)	197.41202887066942	0.0	0.04815753538182321	4.987089792686958	57.190861305202255	3.9046133132092145
NDD1=tf_rep(ASH1)	197.44165495584028	0.0035631097680970643	0.04745593813543713	4.929431194962941	56.83281045146567	4.058353720142101
