# LEMpy target file for CLN3, replicate 1 
# Run configuration file:  ../pipeline/src/yeast_data/simulations202110_Orlando_2/extra_nodes_annot/results5/edge_finding_20211012100236/lempy_20211012100236_config.txt 
# Time series data file:   ../pipeline/src/yeast_data/time_series/orlando2008_WildType_r2_trunc.tsv 
# Computed on:  2021-10-12 10:05:38 
 
model	loss	pld	inv_temp	prior	rhs_param_0	rhs_param_1	rhs_param_2	rhs_param_3	rhs_param_4	hess_eigs	hess_det	bnd_params	pld_time	opt_time
tf_rep(SWI4)	104.86576099942097	0.728298	1.0	0.683730531288511	0.0	0.08959461467563531	7.831969100437294	93.32682424669471	10.0	[1, 1, 1.7909210190354905, 4.417348197655937, 12215482.023049057]	96638165.34313695	2.0	7.174899999995432e-05	0.4238392359999996
tf_rep(YOX1)	108.181595172575	0.266299	1.0	0.302275907526657	0.0	0.08730305419307441	7.6377037309289335	95.28100804881626	10.0	[1, 1, 1.8356338366584817, 4.569185541973225, 12215482.442200674]	102455546.04532425	2.0	5.0990000000084024e-05	0.4535458539999997
tf_rep(RIF1)	108.27896048943661	0.00454605	1.0	0.00899085539947126	0.3	0.11685974314670991	9.935829996453585	100.0	10.0	[1, 1, 1.143906176801885, 5.5128429663569865, 12215448.165705698]	77032755.31388356	3.0	5.12140000008543e-05	0.42701005400000014
tf_act(SWI5)	117.34574236020053	0.000582895	1.0	0.00263151704260155	0.3	0.009294138634822901	2.334326383210378	59.581752646705205	10.0	[1, 1, 4.181369099746148, 13.386060730224225, 12213938.32765965]	683639297.5190439	2.0	5.6452999999123676e-05	0.37936241999999964
tf_act(EDS1)	153.80285398753878	0.000080024	1.0	0.000738080004211548	0.3	0.0009557456257590475	0.0	86.18583376453287	5.284791450712124	[1, 1, 1.3387675033510202, 7.566578986122904, 12213801.552953897]	123724466.92360751	2.0	5.0450999999895885e-05	0.3532346020000001
tf_rep(EDS1)	147.77255755560645	0.0000475561	1.0	0.000188562395079917	8.519444224160526e-06	0.02061615186231923	1.9706564087581928	88.58227536032359	10.0	[1, 1, 2.4954837798112366, 4.903058073754353, 12215506.459422393]	149462852.42686355	1.0	5.028700000053732e-05	0.3645735189999999
tf_act(NDD1)	150.94596737032776	0.0000325425	1.0	0.000133458882734082	0.05225678389493664	0.0	1.0106575152314559	86.06569629043611	5.3768983987184695	[1, 1, 1, 10.097290397706015, 12213837.00843863]	123326659.14445373	1.0	5.852899999858607e-05	0.19695978500000022
tf_rep(CLN3)	152.49808315378178	0.0000183895	1.0	0.000216407535932683	0.10587197681234901	0.0	0.5006569401480696	66.34162014873436	10.0	[1, 1, 1, 18.32447124868397, 12213886.302597718]	223813008.38664687	2.0	5.207000000062578e-05	0.37651787699999995
tf_rep(WHI5)	144.88953464846395	0.0000168379	1.0	0.000265053342019226	0.16421729602427254	0.0	100.0	30.741000826227925	10.0	[1, 1, 2.4243114931790744, 6.310657096070394, 12213783.51202841]	186858655.9659162	3.0	5.2189999999896486e-05	0.27870353800000025
tf_act(ASH1)	153.80285398748904	0.0000134052	1.0	0.000147359910450698	0.3	0.0009557469093862045	0.0	81.22715225556638	3.0180684635553714	[1, 1, 1.3141250575471752, 10.949956018632756, 12213873.994024131]	175752902.6992365	2.0	5.1257999999165804e-05	0.37835105099999966
tf_act(HCM1)	153.80285398751047	0.0000133697	1.0	0.000128387047708252	0.3	0.0009557462909535994	0.0	85.90097048576206	5.162690022641671	[1, 1, 1, 10.980835851792442, 12213810.104690144]	134117843.88456632	2.0	6.019600000151115e-05	0.19782537799999966
tf_rep(NRM1)	153.80285398760248	0.0000125089	1.0	0.000148239052929255	0.3	0.0009557444422212885	0.0	73.26126744975787	2.115392576295256	[1, 1, 3.3603154350261435, 4.976358999722213, 12214746.411822971]	204256650.1787549	2.0	5.466700000056335e-05	0.3660323960000005
tf_act(RIF1)	153.80285398749547	0.0000103725	1.0	0.000112536369699267	0.3	0.0009557467091469083	0.0	86.05917727619702	5.23300176271843	[1, 1, 1, 14.01695974964203, 12213843.178871965]	171200948.2266882	2.0	5.0820000000229015e-05	0.28423467099999966
tf_act(YOX1)	153.80285398753384	0.0000102476	1.0	0.000106278780732582	0.3	0.00095574573418195	0.0	85.935399194517	5.1786972923802175	[1, 1, 1, 12.80814632893468, 12213806.243189316]	156436217.59602472	2.0	5.1007999999796994e-05	0.2056733300000002
tf_act(SWI4)	153.8028539875417	0.00000994579	1.0	9.56577531242435e-5	0.3	0.0009557455637162278	0.0	86.3126219061417	5.358273459214191	[1, 1, 1, 11.015398669519692, 12213799.248960506]	134539867.9967802	2.0	0.00018019100000010724	0.35198433200000023
tf_rep(ASH1)	152.44910749349577	0.00000961575	1.0	9.11676681371328e-5	0.0	0.004715840089997995	0.655536180271491	97.45907672135742	10.0	[1, 1, 1, 11.94014190252419, 12215388.92157727]	145853477.11815453	2.0	5.0718999998977665e-05	0.41565223000000007
null_model	153.8028539874793				0.3	0.0009557472473647079								
