# LEMpy target file for HCM1, replicate 1 
# Run configuration file:  ../pipeline/src/yeast_data/simulations202110_Orlando_2/extra_nodes_annot/results5/edge_finding_20211012100236/lempy_20211012100236_config.txt 
# Time series data file:   ../pipeline/src/yeast_data/time_series/orlando2008_WildType_r2_trunc.tsv 
# Computed on:  2021-10-12 10:05:35 
 
model	loss	pld	inv_temp	prior	rhs_param_0	rhs_param_1	rhs_param_2	rhs_param_3	rhs_param_4	hess_eigs	hess_det	bnd_params	pld_time	opt_time
tf_act(SWI4)	61.97598648846881	0.999388	1.0	0.994944855368438	0.3	0.20953020627918106	41.08610596806366	100.0	1.3100758034449664	[1, 1, 1, 2686.798675346821, 5425372.192683658]	14576882820.565928	2.0	0.00013881599999976402	0.4304759539999998
tf_rep(NRM1)	131.13581632523827	0.000555542	1.0	0.00357950467402781	0.0	0.02455008754945624	4.820995510024893	28.388946924209243	4.984954594022563	[1, 1, 17.60127609338331, 20.13665620611988, 5365622.911590876]	1901742265.0898285	1.0	5.269799999929603e-05	0.24410119299999966
tf_act(EDS1)	144.85332483958544	0.0000446199	1.0	0.000562949183734678	0.3	0.016970906023958742	14.709635769330566	100.0	10.0	[1, 1, 1.4200221866502922, 18.599434037326496, 5365490.405756133]	141711234.64792162	3.0	5.1202999999944154e-05	0.35018141599999986
tf_rep(WHI5)	184.03618225572194	0.0000113379	1.0	0.000793742256441713	0.0	0.015421622715362864	5.836713994181845	63.666848842433815	10.0	[1, 1, 8.523174764297615, 17.876910292055157, 5365532.805302851]	817535667.0116799	2.0	5.154900000015061e-05	0.4206385140000002
tf_act(YOX1)	261.81551316886197	0.0000000433464	1.0	2.26719025205342e-5	0.3	0.01538944882416398	3.0673510860154045	76.51147690605072	10.0	[1, 1, 1.5034330531598692, 30.302031556749363, 5365524.413848642]	244437602.5374291	2.0	5.1821999999646096e-05	0.37718451099999983
tf_rep(ASH1)	260.56188659538674	0.0000000259113	1.0	2.01031803579778e-5	0.3	0.06074630836790196	4.3503463861083	55.613452004239164	1.8939010273844912	[1, 1.5685938737831209, 8.586422993578964, 32.165953343820334, 5366317.81753567]	2324853609.080043	1.0	5.182499999989432e-05	0.44447750899999994
tf_rep(RIF1)	324.76395996682584	0.00000000585165	1.0	5.95436528580281e-6	0.0	0.0016170362702448461	0.17018948191336586	0.0010000008466163118	1.8605464336211455	[1, 1, 1, 17.379179280376952, 5365486.330132513]	93247748.85778475	1.0	5.143100000104539e-05	0.374317177
tf_act(HCM1)	304.0728415582006	0.00000000543958	1.0	1.29701400886925e-5	0.3	0.012224071441795336	5.319955690906078	100.0	10.0	[1, 1, 1, 19.159994078492726, 5365491.602493671]	102802787.33198118	3.0	5.83509999998455e-05	0.3701616830000001
tf_rep(CLN3)	324.76395996421667	0.00000000487187	1.0	9.97923819947821e-6	0.0	0.0016170362713890981	0.0	35.8586868272199	1.4625157271160485	[1, 1, 1, 17.605499002600027, 5365603.4120063335]	94464125.51842481	2.0	5.131400000024655e-05	0.3527895280000002
tf_act(RIF1)	324.2220489208025	0.00000000280083	1.0	1.21341209763693e-5	0.0	0.002457095886955095	0.5886577459652415	100.0	10.0	[1, 1, 1, 20.290993990108202, 5365497.272467896]	108871272.90958804	3.0	5.077099999972745e-05	0.3610846510000001
tf_act(NDD1)	324.7639599642166	0.00000000249479	1.0	8.16657555584916e-6	0.0	0.0016170362690062395	0.0	91.41783877046272	9.65653559224319	[1, 1, 2.3220941543919964, 19.363578020270225, 5365507.029443098]	241254933.47789767	2.0	6.147400000067194e-05	0.3262049330000001
tf_rep(SWI4)	324.7639599642168	0.00000000122521	1.0	2.49342888070665e-6	0.0	0.001617036266536376	0.0	0.04862633363847422	1.201979921495088	[1, 1, 1, 17.379184786865252, 5365486.3303307295]	93247778.40621729	2.0	6.975899999872581e-05	0.328720031
tf_act(ASH1)	324.76395996421667	0.00000000117473	1.0	8.90416197318633e-6	0.0	0.0016170362683431984	0.0	93.02227125934286	10.0	[1, 1, 3.049534089190507, 19.7637662186932, 5365507.536382503]	323380635.2001297	3.0	5.1034000000171886e-05	0.27992244899999985
tf_act(SWI5)	324.76395996421667	0.000000000937741	1.0	8.97460860226811e-6	0.0	0.0016170362685596006	0.0	93.60854864095256	10.0	[1, 1, 5.475856135740519, 17.547125111844508, 5365510.1759502385]	515547903.5079847	3.0	5.349099999918394e-05	0.24444668199999997
tf_rep(EDS1)	324.76395996421667	0.000000000711722	1.0	3.12456869305464e-6	0.0	0.0016170362679605588	0.0	29.359001114241522	1.0117528234297297	[1, 1, 3.791749586271747, 21.32828059334382, 5365722.24337285]	433934001.6600147	2.0	5.1051999999884856e-05	0.3474343649999998
tf_rep(YOX1)	324.7639599642165	0.000000000479581	1.0	3.47222622381978e-6	0.0	0.0016170362808398348	0.0	64.98274015619292	1.613585131846323	[1, 1, 6.160834201365174, 35.69788213556436, 5366282.36130364]	1180199681.5920606	2.0	5.071300000025758e-05	0.33565990899999987
null_model	324.7639599641524				0.0	0.0016170402699850809								
