# LEMpy all scores file for replicate 0 
# Run configuration file:  ../pipeline/src/yeast_data/simulations202110_Orlando_2/annot/results4/edge_finding_20211012144505/lempy_20211012144505_config.txt 
# Time series data file:   ../pipeline/src/yeast_data/time_series/orlando2008_WildType_r1_trunc.tsv 
# Ground truth edge list:   
# Computed on:  2021-10-12 14:47:16 
 
model	pld	loss	norm_loss
ASH1=tf_act(SWI5)	0.997991	72.88166821228451	0.11608503614062356
HCM1=tf_act(SWI4)	0.995647	38.71053013784228	0.09593336802634722
CLN3=tf_rep(SWI4)	0.993488	12.863136044782852	0.07086341150853198
SWI5=tf_act(NDD1)	0.982048	76.99931023337399	0.1084375928946912
WHI5=tf_act(SWI4)	0.955384	15.899365002447468	0.0643717153741759
YOX1=tf_act(SWI4)	0.936431	93.5068778697046	0.17001047705455083
SWI4=tf_rep(NRM1)	0.851427	173.1775373669425	0.33760448607659366
NRM1=tf_act(HCM1)	0.64082	28.142470894379578	0.046576798109365616
NDD1=tf_act(HCM1)	0.513957	14.41860915356688	0.032927880817913764
NDD1=tf_act(YOX1)	0.447492	18.500239948789474	0.04224913024886656
NRM1=tf_act(YOX1)	0.353989	34.40041109379745	0.05693391345800335
SWI4=tf_rep(WHI5)	0.14717	250.6208913129185	0.4885780136281512
YOX1=tf_rep(NRM1)	0.0522263	197.29953836929778	0.3587221539740298
NDD1=tf_act(SWI4)	0.0385288	45.91905447888687	0.10486567303740477
WHI5=tf_act(YOX1)	0.0219766	36.45127494848884	0.14758017667049936
WHI5=tf_act(HCM1)	0.0203916	38.79779639254166	0.15708053158987614
SWI5=tf_rep(CLN3)	0.0175115	189.47534297787317	0.2668368072797513
YOX1=tf_rep(WHI5)	0.0111577	282.87576772392674	0.5143134421077535
NRM1=tf_act(SWI4)	0.00516499	104.45698562433559	0.1728800555145726
HCM1=tf_rep(NRM1)	0.00358215	185.4489439616316	0.45958403896352074
CLN3=tf_act(SWI5)	0.00285972	116.53481369409742	0.6419938675237996
ASH1=tf_rep(SWI4)	0.00187327	198.6668096571596	0.31643408204954504
CLN3=tf_rep(WHI5)	0.00138338	160.46555098215654	0.8840096483939379
WHI5=tf_rep(ASH1)	0.00122685	131.60192425827697	0.5328163489386909
WHI5=tf_rep(WHI5)	0.000512214	174.31438094517935	0.7057461548999892
CLN3=tf_act(HCM1)	0.000478168	181.51996448073092	0.9999990589564889
HCM1=tf_rep(WHI5)	0.000472812	262.0932609930882	0.6495258312026027
WHI5=tf_rep(NRM1)	0.000432341	132.7383954713194	0.5374175768144991
CLN3=tf_rep(YOX1)	0.000403972	166.0081644761307	0.9145440763506053
SWI4=tf_rep(SWI4)	0.00032791	512.9598228373462	1.0000000000000018
CLN3=tf_rep(CLN3)	0.000314477	175.3867806952616	0.9662111611270598
CLN3=tf_act(YOX1)	0.000269202	181.51997137386138	0.9999990969309563
SWI5=tf_act(HCM1)	0.000216168	334.1633558792615	0.4705999292114876
CLN3=tf_act(ASH1)	0.00021412	168.66129148588496	0.9291602345271234
HCM1=tf_act(YOX1)	0.000208244	206.1282774902397	0.5108320613201094
CLN3=tf_act(NDD1)	0.000195789	177.69973182998373	0.9789532799609362
SWI4=tf_act(HCM1)	0.000191449	512.959822837346	1.0000000000000013
SWI4=tf_rep(YOX1)	0.000185596	419.3673121280035	0.8175441690702956
SWI4=tf_act(SWI4)	0.00017326	507.60362230730124	0.9895582455163502
SWI5=tf_rep(ASH1)	0.000170607	223.043505158826	0.31411061653555705
CLN3=tf_rep(ASH1)	0.000159198	181.52013529907705	1.0000000000000038
CLN3=tf_act(SWI4)	0.000132441	181.52013529907703	1.0000000000000036
SWI4=tf_act(ASH1)	0.000131238	511.36862859227097	0.9968980138906923
SWI4=tf_act(YOX1)	0.00011333	512.9598228373137	0.9999999999999384
ASH1=tf_rep(YOX1)	0.000106413	317.076613487604	0.5050357797634896
CLN3=tf_rep(NRM1)	0.000101251	181.52013529907768	1.000000000000007
SWI4=tf_rep(CLN3)	0.0000819775	512.9598228373463	1.000000000000002
SWI4=tf_act(SWI5)	0.0000776668	512.9598228373461	1.0000000000000016
SWI4=tf_act(NDD1)	0.0000711497	512.9598228372892	0.9999999999998905
SWI4=tf_rep(ASH1)	0.0000485046	512.9598228373022	0.999999999999916
SWI5=tf_act(YOX1)	0.0000394052	380.51085611028276	0.5358707913335712
YOX1=tf_act(HCM1)	0.0000390151	549.6718011691505	0.9993913524780239
YOX1=tf_rep(ASH1)	0.0000366302	523.5764342206519	0.9519457967616867
YOX1=tf_rep(YOX1)	0.0000314579	403.6249836155211	0.7338548519524726
WHI5=tf_rep(SWI4)	0.000029005	246.99302962545852	1.0000000000004996
YOX1=tf_act(YOX1)	0.000024885	512.0059137124396	0.9309087377112105
WHI5=tf_rep(CLN3)	0.0000239829	204.82479062420774	0.8292735666869119
NDD1=tf_rep(ASH1)	0.0000208926	197.4120256651278	0.45083125451917805
HCM1=tf_rep(ASH1)	0.0000201172	372.3718470576738	0.9228208789502693
YOX1=tf_rep(CLN3)	0.0000199292	550.0065612997844	1.0000000000000513
YOX1=tf_rep(SWI4)	0.0000199291	550.0065612997844	1.0000000000000513
NRM1=tf_rep(ASH1)	0.0000184878	266.63061274565035	0.44128322158488226
HCM1=tf_rep(CLN3)	0.0000179442	403.51476169595963	1.0000000000000004
HCM1=tf_rep(SWI4)	0.000017944	403.51476169596	1.0000000000000013
SWI5=tf_act(SWI4)	0.0000135318	436.21068267470775	0.6143124695640875
ASH1=tf_act(NDD1)	0.0000132494	407.9198569014555	0.6497297947812594
HCM1=tf_act(HCM1)	0.0000129793	394.1013107878037	0.9766713592618239
WHI5=tf_act(ASH1)	0.0000093183	246.99302962545624	1.0000000000004905
ASH1=tf_rep(CLN3)	0.00000905676	439.6423570229277	0.7002570077745993
WHI5=tf_act(SWI5)	0.00000803613	246.99302962545838	1.0000000000004992
YOX1=tf_act(ASH1)	0.00000712426	550.0065612997373	0.9999999999999657
HCM1=tf_rep(YOX1)	0.00000708251	333.0763435765148	0.8254378158970088
HCM1=tf_act(ASH1)	0.00000671981	403.51476169595963	1.0000000000000004
NRM1=tf_rep(CLN3)	0.00000605572	310.91342080165623	0.5145728562541783
HCM1=tf_act(SWI5)	0.00000489269	403.51476169595946	1.0
YOX1=tf_act(NDD1)	0.00000358799	550.0065612997321	0.9999999999999561
WHI5=tf_rep(YOX1)	0.0000035596	246.9930296253417	1.0000000000000266
WHI5=tf_act(NDD1)	0.00000295904	246.9930296254584	1.0000000000004992
YOX1=tf_act(SWI5)	0.00000230984	550.0065612997844	1.0000000000000513
HCM1=tf_act(NDD1)	0.00000225823	403.5147616958972	0.9999999999998458
NRM1=tf_act(NDD1)	0.00000205573	263.57953229177224	0.4362335740664018
ASH1=tf_rep(ASH1)	0.00000125225	445.69414691253706	0.7098962252250631
ASH1=tf_act(ASH1)	0.0000011762	542.9590257918059	0.8648185432354808
ASH1=tf_act(SWI4)	0.00000115635	570.1773935309978	0.9081716288631272
ASH1=tf_act(HCM1)	0.00000107607	546.6104994332653	0.8706345661124641
ASH1=tf_act(YOX1)	0.00000100644	557.7669693607834	0.8884044559421733
ASH1=tf_rep(WHI5)	0.000000810605	574.7579716424614	0.9154675180579984
NDD1=tf_rep(CLN3)	0.000000667411	324.9999028898204	0.7422046019981198
SWI5=tf_rep(SWI4)	0.000000368657	663.0740473602613	0.9338025676952426
NDD1=tf_rep(NRM1)	0.000000330963	343.54670718723895	0.7845600715828884
NDD1=tf_rep(WHI5)	0.000000205372	382.9028021787252	0.8744378671133657
SWI5=tf_rep(NRM1)	0.000000180833	645.2648499755475	0.9087219989222024
ASH1=tf_rep(NRM1)	0.000000174042	585.660317776014	0.9328326425944553
NRM1=tf_rep(NRM1)	0.00000010641	455.6550972878404	0.7541255191674586
NDD1=tf_act(NDD1)	0.0000000836772	437.88451596079983	1.0000000000000133
SWI5=tf_act(SWI5)	0.0000000745601	673.1097912008846	0.947935835924355
NDD1=tf_act(ASH1)	0.0000000531639	437.8845159607921	0.9999999999999957
NDD1=tf_rep(YOX1)	0.0000000495651	437.88451596090783	1.00000000000026
SWI5=tf_rep(WHI5)	0.0000000483346	658.1224050762977	0.9268292043167763
NDD1=tf_rep(SWI4)	0.0000000475961	437.8845159607953	1.0000000000000029
NRM1=tf_rep(WHI5)	0.0000000381608	507.04779434062004	0.8391822749834932
SWI5=tf_rep(YOX1)	0.0000000286973	673.7351079960538	0.948816465216478
NRM1=tf_rep(SWI4)	0.0000000137105	604.2165206011316	1.0000000000000953
NRM1=tf_rep(YOX1)	0.0000000137102	604.216520601132	1.0000000000000957
NDD1=tf_act(SWI5)	0.0000000114209	437.8845159608837	1.000000000000205
SWI5=tf_act(ASH1)	0.0000000103567	710.0794860704037	1.0
NRM1=tf_act(ASH1)	0.00000000732956	604.2165206011272	1.000000000000088
NRM1=tf_act(SWI5)	0.00000000280987	604.2165206010839	1.0000000000000162
