# LEMpy target file for HCM1, replicate 1 
# Run configuration file:  ../pipeline/src/yeast_data/simulations202110_Orlando_2/no_annot/results1/edge_finding_20211012195319/lempy_20211012195319_config.txt 
# Time series data file:   ../pipeline/src/yeast_data/time_series/orlando2008_WildType_r2_trunc.tsv 
# Computed on:  2021-10-12 19:55:56 
 
model	loss	pld	inv_temp	prior	rhs_param_0	rhs_param_1	rhs_param_2	rhs_param_3	rhs_param_4	hess_eigs	hess_det	bnd_params	pld_time	opt_time
tf_rep(SWI5)	93.90555293804607	0.914266	1.0	0.775108068008506	0.0	0.0661892390427143	6.99769312954841	36.779196097813895	1.5762047284737861	[1, 1, 12.948347449967615, 120.39425436077269, 5365977.78478151]	8365058379.701944	1.0	4.9330999999597225e-05	0.3284381589999996
tf_rep(NDD1)	117.0010309250709	0.0438043	1.0	0.104031747396146	0.0	0.02531943282366019	5.1832382191641955	43.53248181980114	10.0	[1, 1, 15.743847022585202, 20.425773371664786, 5365626.65801339]	1725479568.9665792	2.0	5.204500000033363e-05	0.48908229599999986
tf_rep(NRM1)	131.1358163254952	0.0415817	1.0	0.0977937915762455	0.0	0.024550075855001054	4.820994392151671	28.388937761035127	4.984949499383371	[1, 1, 17.601268026892996, 20.136660881496734, 5365622.911542351]	1901741835.0738573	1.0	4.90969999997759e-05	0.5071233469999998
tf_rep(WHI5)	202.50883783033882	0.000339379	1.0	0.0174423733400356	0.0	0.017382231922753916	45.83921637255253	30.4552895938264	4.293156989851923	[1, 1, 14.279816420536232, 45.69524624758166, 5366353.549451596]	3501651556.865841	1.0	5.297200000065061e-05	0.39382351500000023
tf_rep(ASH1)	260.5619033716526	0.00000385405	1.0	0.00109842004625412	0.3	0.06073417730129063	4.349583741837214	55.60788677337245	1.8929535046579178	[1, 1.5864107450612754, 8.588263929455533, 32.20640760453498, 5366317.736693914]	2354722283.6163287	1.0	4.8421999998993215e-05	0.42232401100000017
tf_rep(HCM1)	242.71300361361259	0.00000190758	1.0	0.000665569364903581	0.0	0.005621229005925354	60.269879953505864	21.40031246375467	10.0	[1, 1, 17.422364193983064, 29.08153972955644, 5365508.017125404]	2718537528.4880657	2.0	5.949700000051905e-05	0.4520025890000001
tf_rep(CLN3)	324.76395996414993	0.000000659495	1.0	0.000489893830549963	0.0	0.0016170409633508042	0.0	1.782640802814852	3.952466164838074	[1, 1, 1, 17.37917927848045, 5365486.330132519]	93247748.84760919	2.0	4.9660000000173454e-05	0.3265516919999998
tf_act(SWI4)	324.7639599641499	0.000000330089	1.0	0.000346657780010512	0.0	0.0016170410578331214	0.0	2.237990250450394	2.8644946016608155	[1, 1, 1, 34.72424679521047, 5367390.597249989]	186378595.74520075	2.0	0.0001280470000004641	0.2169736819999999
tf_act(HCM1)	324.76395996415005	0.000000329979	1.0	0.000346537924664235	0.0	0.0016170409622180727	0.0	2.6616655775087854	2.8195997553764767	[1, 1, 1, 34.72340989255662, 5367390.760918656]	186374109.44489986	2.0	5.798099999942963e-05	0.36614192999999995
tf_act(YOX1)	324.76395996415005	0.000000329876	1.0	0.000346554862969694	0.0	0.0016170409271123592	0.0	2.229210333232017	2.8921986783501077	[1, 1, 1, 34.74849091221596, 5367388.826469921]	186508661.85891953	2.0	5.065000000037401e-05	0.35598411399999996
tf_act(WHI5)	324.76395996415005	0.000000329774	1.0	0.000346426609899041	0.0	0.0016170409641605137	0.0	2.6618158276018002	2.8349681291293227	[1, 1, 1, 34.74431728422596, 5367391.786123289]	186486363.20581582	2.0	4.8362999999440603e-05	0.3611150489999999
tf_act(NDD1)	324.76395996414993	0.000000329771	1.0	0.000346413939430245	0.0	0.00161704096234739	0.0	2.661952470471559	2.818683699718969	[1, 1, 1, 34.74240491821705, 5367390.942812356]	186476069.48955765	2.0	5.103999999889197e-05	0.4018470390000002
tf_act(CLN3)	324.76395996414993	0.000000329735	1.0	0.000346406354214073	0.0	0.001617040964267609	0.0	2.660790276864709	2.8223725084443787	[1, 1, 1, 34.74835923167712, 5367391.697583062]	186508054.8447375	2.0	4.882400000028042e-05	0.19220772200000003
tf_act(NRM1)	324.76395996414965	0.000000204216	1.0	0.00034616632142721	0.0	0.0016170412487770019	0.0	2.324569163680407	2.589394048830675	[1, 1, 2.575441651043139, 35.126251322127175, 5367380.532910697]	485563357.76914066	2.0	5.004000000141673e-05	0.4070554780000002
tf_rep(SWI4)	324.76395996414993	0.000000164874	1.0	0.000244946915278319	0.0	0.0016170415771071729	0.0	0.001	3.3085646305248075	[1, 1, 1, 17.379179281914503, 5365486.330132518]	93247748.86603454	3.0	7.266299999919568e-05	0.2628980580000002
tf_act(ASH1)	324.76395996414976	0.0000000965292	1.0	0.000343426270805613	0.0	0.0016170411005322486	0.0	4.004972058227072	1.0	[1, 1, 2.318268181667484, 42.97920116052753, 5366917.0584275555]	534745202.9744301	3.0	4.842799999948966e-05	0.3109268900000002
tf_rep(YOX1)	324.76395996415005	0.0000000777957	1.0	0.000193356163629958	0.0	0.0016170409621924157	0.0	81.43526983584933	1.0290936185936708	[1, 1, 6.155712607436589, 31.601558243484803, 5366301.540204449]	1043907231.5604216	2.0	4.8293000000754205e-05	0.20000483299999994
tf_act(SWI5)	324.76395996414993	0.0000000608413	1.0	0.000163243295030669	0.0	0.0016170409633065673	0.0	2.999192403635742	2.472394796480512	[1, 1, 5.929033901760727, 38.228530163229024, 5367342.936436963]	1216552564.3807464	2.0	5.1129000000926794e-05	0.3582399019999998
null_model	324.76395996415624				0.0	0.0016170397000584088								
