# LEMpy target file for ASH1, replicate 1 
# Run configuration file:  ../pipeline/src/yeast_data/simulations202110_Orlando_2/no_annot/results1/edge_finding_20211012195319/lempy_20211012195319_config.txt 
# Time series data file:   ../pipeline/src/yeast_data/time_series/orlando2008_WildType_r2_trunc.tsv 
# Computed on:  2021-10-12 19:56:01 
 
model	loss	pld	inv_temp	prior	rhs_param_0	rhs_param_1	rhs_param_2	rhs_param_3	rhs_param_4	hess_eigs	hess_det	bnd_params	pld_time	opt_time
tf_act(SWI5)	55.65457340725074	0.999981	1.0	0.997867001337641	0.3	0.06521243030879442	9.466466540655453	53.666835340852764	10.0	[1, 2.9460698710433215, 10.342200188837742, 107.58348036609, 4218150.056333134]	13826861021.317041	2.0	5.300699999999381e-05	0.41761455499999967
tf_rep(SWI4)	132.01698850035882	0.0000191571	1.0	0.0018730287845892	0.0	0.04293730479148433	8.699039798198875	33.13960045671042	10.0	[1.1871001557952165, 8.457740828421228, 8.949264150169444, 110.71851197954729, 4218109.485664946]	41963060046.00475	2.0	6.970799999983512e-05	0.37383248899999977
tf_rep(YOX1)	311.82320245737145	0.00000000372768	1.0	0.000106399245714532	0.0	0.03576349890535214	5.1294128190928845	41.10375347402792	10.0	[1, 3.4134533714541173, 8.978941916024825, 121.30006339090008, 4218279.8531360505]	15682509286.799105	2.0	4.895100000013031e-05	0.28040922199999985
tf_act(NRM1)	386.57589665374775	0.000000000499704	1.0	6.11992081390755e-5	0.0	0.0025307585807568264	3.89831952018072	70.48914124623786	10.0	[1, 1, 9.875311391504706, 126.19219026385383, 4217941.542768595]	5256344651.413135	2.0	5.0898000001353694e-05	0.23012383599999975
tf_act(NDD1)	393.12357564626365	0.00000000010341	1.0	1.32477590418685e-5	0.0	0.005083848539004483	3.9805254483202797	74.3367536474048	10.0	[1, 1, 7.745014319492364, 126.36656435792761, 4217962.48267964]	4128165648.619965	2.0	5.6142000000036774e-05	0.3504190720000002
tf_rep(HCM1)	517.4689632415233	0.0000000000522221	1.0	4.13466220418732e-5	0.3	0.019923365958088933	9.503782911666265	17.27949460768062	1.896637835470973	[1, 1, 2.4837130594072607, 174.83746970343944, 4219784.579163563]	1832425024.9358282	1.0	5.456399999914652e-05	0.27653517800000005
tf_rep(CLN3)	456.0363681889244	0.0000000000166253	1.0	8.74704694517294e-6	0.09512530787030125	0.0	36.54905338073692	39.273305123517446	10.0	[1, 1, 6.219755183592982, 125.02449642106887, 4217917.29377441]	3279944268.2161484	2.0	4.995299999954739e-05	0.19303551999999957
tf_act(SWI4)	524.5438244025753	0.0000000000160856	1.0	5.1905641578427e-6	0.1599817022093253	0.015034170827680281	1.1427241214446437	0.046164069467040714	5.515054713471244	[1, 1, 1, 211.62852328983718, 4219699.056505794]	893008680.0558404	0.0	0.00019594700000169496	0.27928890599999967
tf_act(HCM1)	524.5464065628681	0.0000000000160856	1.0	5.19056415784496e-6	0.17977054111344634	0.01503364243552515	1.1230316468982897	2.189005350405811	3.0196064990649374	[1, 1, 1, 211.605724994332, 4219698.662823499]	892912394.8043798	0.0	6.248799999930554e-05	0.28932441099999995
tf_act(CLN3)	524.5438262047978	0.0000000000160856	1.0	5.19056406942741e-6	0.07259215118297034	0.015034177793300131	1.230114024153972	1.0059016569887853	4.262394043998324	[1, 1, 1, 211.62851703057706, 4219699.05645614]	893008653.6331382	0.0	4.997899999992228e-05	0.2701842280000002
tf_act(WHI5)	497.198910857165	0.00000000000468971	1.0	3.88635597318039e-6	0.1658350738568391	0.011216376038452769	4.692892738515175	100.0	10.0	[1, 1, 2.5946462594861837, 112.78743161592199, 4217972.667580106]	1234362231.8704703	2.0	4.980199999948809e-05	0.32299563499999984
tf_act(YOX1)	520.5325821976197	0.00000000000455591	1.0	5.19227290543101e-6	0.0	0.017438283329464534	1.433145871793401	10.385554562792246	10.0	[1, 1, 1, 196.64310360771103, 4219662.110518136]	829767453.5881504	2.0	4.86649999995592e-05	0.3247495039999997
tf_act(ASH1)	524.5438244025547	0.00000000000201071	1.0	2.59528207893782e-6	0.0	0.01503417179850733	1.3027058704332402	0.001	4.888924193542343	[1, 1, 1, 211.6285232890499, 4219699.056505796]	893008680.0525186	2.0	5.436500000044475e-05	0.20308102100000003
tf_rep(ASH1)	467.1581644504471	0.000000000000221791	1.0	6.26044212968298e-7	0.14965364845874543	0.0	99.44216712670958	6.748165264216179	10.0	[1, 1, 19.533747821114204, 682.7164267924726, 4218531.262367983]	56258377269.827225	2.0	5.143899999993096e-05	0.3097970120000002
tf_rep(WHI5)	536.3249167165583	0.000000000000201852	1.0	4.05771116950627e-7	0.3	0.011068329751388646	7.161574680940661	10.545367298873815	1.0	[1, 1, 1, 307.62459867790415, 4221841.506693416]	1298742299.1782804	2.0	4.8115000000237274e-05	0.2673514229999996
tf_rep(NRM1)	545.2126283653449	0.0000000000000298709	1.0	2.22327416272981e-7	0.3	0.010063195195107705	1.1079456137568389	100.0	1.0	[1, 1, 4.489998429112776, 160.33768346568348, 4218795.047131802]	3037177831.0844073	3.0	5.0333999999097045e-05	0.1988496030000002
tf_rep(SWI5)	553.718423525382	0.000000000000026817	1.0	3.38216628267768e-7	0.3	0.005528942875228918	0.7822282549308514	100.0	1.0	[1, 1, 7.672662145468384, 187.42430282889336, 4218786.212060309]	6066797471.905366	3.0	5.139100000128849e-05	0.3584710409999996
tf_rep(NDD1)	541.9348661400405	0.0000000000000261183	1.0	1.92033170225893e-7	0.3	0.011255261126523548	1.2827009776218046	100.0	1.0	[1, 1, 5.310630040687452, 152.25692556875245, 4218674.022472751]	3411136296.7567816	3.0	5.160299999928952e-05	0.34738696200000074
null_model	648.2784536650981				0.3	0.0								
