SWI5=a(NRM1)
CLN3=r(YOX1)
RIF1=r(SWI5)
NDD1=a(YOX1)
NRM1=a(YOX1)
WHI5=a(SWI4)
YOX1=r(NDD1)
YOX1=r(SWI5)
WHI5=r(SWI5)
NRM1=a(HCM1)
EDS1=r(YOX1)
NDD1=a(HCM1)
EDS1=r(RIF1)
YOX1=a(SWI4)
RIF1=a(SWI4)
SWI5=a(NDD1)
CLN3=r(HCM1)
EDS1=r(CLN3)
EDS1=r(HCM1)
EDS1=a(CLN3)
EDS1=r(NDD1)
EDS1=a(EDS1)
EDS1=r(WHI5)
EDS1=a(SWI5)
EDS1=a(WHI5)
EDS1=r(SWI4)
EDS1=r(SWI5)
EDS1=a(NRM1)
EDS1=a(ASH1)
HCM1=r(SWI5)
EDS1=a(NDD1)
EDS1=a(SWI4)
CLN3=r(RIF1)
EDS1=r(ASH1)
EDS1=r(NRM1)
SWI4=r(NDD1)
EDS1=a(RIF1)
EDS1=a(HCM1)
RIF1=a(EDS1)
EDS1=a(YOX1)
WHI5=a(YOX1)
YOX1=a(EDS1)
CLN3=r(SWI4)
WHI5=a(RIF1)
NDD1=a(SWI4)
SWI4=r(WHI5)
YOX1=r(NRM1)
WHI5=a(HCM1)
WHI5=r(ASH1)
CLN3=a(ASH1)
CLN3=a(HCM1)
YOX1=r(WHI5)
CLN3=a(SWI5)
HCM1=a(EDS1)
SWI4=a(EDS1)
CLN3=a(CLN3)
WHI5=a(EDS1)
CLN3=a(WHI5)
SWI4=r(SWI5)
CLN3=r(NDD1)
NRM1=a(SWI4)
CLN3=a(NRM1)
CLN3=a(YOX1)
RIF1=a(YOX1)
RIF1=r(WHI5)
ASH1=r(SWI4)
CLN3=r(WHI5)
CLN3=a(SWI4)
CLN3=a(EDS1)
WHI5=r(NDD1)
SWI5=a(WHI5)
NDD1=a(RIF1)
CLN3=r(NRM1)
CLN3=a(NDD1)
CLN3=a(RIF1)