# LEMpy local minima file for target SWI4, replicate 0
# Right-hand side of tf_act():  p0 - p1(tar) + p2(reg^p4) / (p3^p4 + reg^p4)
# Right-hand side of tf_rep():  p0 - p1(tar) + p2(p3^p4) / (p3^p4 + reg^p4)
# Run configuration file:  ../pipeline/src/yeast_data/simulations202110_Orlando_2/extra_nodes_no_annot/results1/edge_finding_20211012222949/lempy_20211012222949_config.txt
# Time series data file:   ../pipeline/src/yeast_data/time_series/orlando2008_WildType_r1_trunc.tsv
# Computed on:  2021-10-12 22:33:31 
 
model	loss	p0	p1	p2	p3	p4
SWI4=tf_act(SWI4)	507.605601554555	0.3	0.011853228225817624	2.004524523364338	99.9830167477803	10.0
SWI4=tf_act(SWI4)	507.6036223074624	0.3	0.011855180250561162	2.0075981333823365	100.0	10.0
SWI4=tf_act(SWI4)	507.60362230768493	0.3	0.011855172612213723	2.0075939181820495	100.0	10.0
SWI4=tf_act(SWI4)	507.6320445751798	0.3	0.011847662545229716	1.9770012013582055	99.75608000624702	10.0
SWI4=tf_act(SWI4)	507.67104413342344	0.3	0.01184185546955325	1.9421278916562437	99.45552285366686	9.982603746115243
SWI4=tf_act(SWI4)	507.71851454076096	0.3	0.01183703909972993	1.901086325903518	99.07524715405143	9.967684289188515
SWI4=tf_act(SWI4)	507.60362232278993	0.3	0.011855270449268271	2.007600478262644	100.0	10.0
SWI4=tf_act(SWI4)	507.60362230892423	0.3	0.011855195106467837	2.0076199675788464	100.0	10.0
SWI4=tf_act(SWI4)	507.6120628946738	0.3	0.011854126679540802	2.006120829107411	100.0	9.964799619364978
SWI4=tf_act(SWI4)	507.6150429329101	0.3	0.01185057211209641	2.000118631450631	99.96470595609658	9.969448669857735
SWI4=tf_rep(SWI4)	512.9598228373363	0.0	0.002706429153973357	0.0	89.12373378818332	1.0369213272464468
SWI4=tf_rep(SWI4)	512.9598228373463	0.0	0.0027064287028804816	0.0	88.92474633658034	1.0179847055589553
SWI4=tf_rep(SWI4)	512.9598228373461	-2.168404344971009e-19	0.0027064287084047124	0.0	89.34449194250028	1.0395443935198472
SWI4=tf_rep(SWI4)	512.9598228373457	0.0	0.002706428729063555	0.0	88.6762797199624	1.051807143315764
SWI4=tf_rep(SWI4)	515.663814029626	0.0	0.0060251985944852985	0.26965121663945096	88.31744201039194	1.0196058793561618
SWI4=tf_rep(SWI4)	512.9598228373462	0.0	0.0027064287053686535	0.0	87.91291864803794	1.0
SWI4=tf_rep(SWI4)	512.9598228373178	0.0	0.002706430142538929	0.0	87.91516082691813	1.0
SWI4=tf_rep(SWI4)	512.9598228373463	0.0	0.0027064286999939355	0.0	87.9303156573008	1.0132304277535875
SWI4=tf_rep(SWI4)	514.3238031989396	0.0	0.004756609858818427	0.16355688333297588	88.33015062836195	1.0
SWI4=tf_rep(SWI4)	514.9380019406259	0.0006508940075715114	0.005406943002327169	0.21576363256390904	88.81490897190108	1.0089703595462
SWI4=tf_act(HCM1)	512.9598228373316	0.0	0.002706429391114093	0.0	99.9892312300558	3.04155967068412
SWI4=tf_act(HCM1)	512.9598228373462	0.0	0.0027064287071411636	0.0	99.79024377845282	3.0226230489966284
SWI4=tf_act(HCM1)	512.9598228373462	0.0	0.0027064287062975585	0.0	100.0	3.061112375232962
SWI4=tf_act(HCM1)	512.959822837346	0.0	0.0027064287142222997	0.0	99.7515435443297	3.0952386176688087
SWI4=tf_act(HCM1)	512.959822837346	0.0	0.002706428710130102	0.0	99.40782728446592	3.1659783445041088
SWI4=tf_act(HCM1)	512.9598228373461	0.0	0.0027064287122664722	0.0	99.17255791811597	6.867321356505304
SWI4=tf_act(HCM1)	512.9598228373461	0.0	0.0027064287099554623	0.0	99.38768359707755	7.061742712756394
SWI4=tf_act(HCM1)	512.9598228373463	0.0	0.0027064286971548346	0.0	99.40283842746022	7.074973140509981
SWI4=tf_act(HCM1)	512.9598228373463	0.0	0.002706428702828052	0.0	100.0	10.0
SWI4=tf_act(HCM1)	512.9598228373463	0.0	0.00270642870713256	-5.551115123125783e-17	100.0	9.999999994927272
SWI4=tf_rep(HCM1)	510.81264111083493	0.0	0.008431751734786252	0.38907241284116856	88.92592232005319	1.913444973370499
SWI4=tf_rep(HCM1)	510.7804981123559	0.0	0.008403129803164591	0.3817191082892249	88.65011925038849	2.0579600356423216
SWI4=tf_rep(HCM1)	510.81476793650626	0.0	0.008352526127451543	0.37885580793439877	89.0257147772015	2.025063682597584
SWI4=tf_rep(HCM1)	510.79912807784797	0.0001509701796782416	0.008298308329935541	0.3719875555539473	88.77721990011825	2.057980995696274
SWI4=tf_rep(HCM1)	510.77902327606387	0.0	0.008606668716089193	0.4071776305187659	88.2377388974559	1.8116229160715813
SWI4=tf_rep(HCM1)	510.69797860084856	0.0	0.008493445779513996	0.38934223580539046	87.79779351242743	2.064683106701611
SWI4=tf_rep(HCM1)	421.57582554438403	0.0	0.019153297687255096	3.489727779975044	36.030452040903256	10.0
SWI4=tf_rep(HCM1)	421.60173817898254	0.0	0.019137859823059655	3.4370085985458436	36.30654903343703	10.0
SWI4=tf_rep(HCM1)	421.7124069015831	0.0	0.019406677530497247	3.429734021652205	36.664204090907894	9.962567162346204
SWI4=tf_rep(HCM1)	421.94293819792557	0.0	0.019615224162247785	3.3805903459927378	37.21113014149302	9.965656231058553
SWI4=tf_act(NDD1)	512.9598228373452	0.0	0.002706428745474712	0.0	99.9892312300558	3.186666524024685
SWI4=tf_act(NDD1)	512.9598228373463	0.0	0.002706428705097699	0.0	99.79024377845282	3.1677299023371934
SWI4=tf_act(NDD1)	512.9598228373465	0.0	0.0027064287050017365	0.0	100.0	3.214885687681897
SWI4=tf_act(NDD1)	512.9598228373462	0.0	0.0027064287076141533	0.0	99.75132674816376	3.1801854408863113
SWI4=tf_act(NDD1)	516.9177280840318	0.2903261283492356	0.00871257656362275	0.011931643523001478	99.50647986915405	1.0683230498995158
SWI4=tf_act(NDD1)	512.9598228373462	0.0	0.002706428704044339	0.0	99.10749769873607	1.0559328728996573
SWI4=tf_act(NDD1)	512.9598228373462	0.0	0.002706428706201928	0.0	98.1577512643256	1.0
SWI4=tf_act(NDD1)	512.9598228373465	0.0	0.0027064286954689713	0.0	98.17290609470827	1.0132304277535875
SWI4=tf_act(NDD1)	517.2991023534785	0.1990960548031945	0.0073938995666519135	0.07572613894834629	98.5645597303652	1.0
SWI4=tf_act(NDD1)	512.9598228373463	0.0	0.0027064287082266595	0.0	98.65766442497693	1.0221965781764388
SWI4=tf_rep(NDD1)	188.1493408854614	0.0	0.049896958437440485	17.807890813526054	32.04292092339791	3.1778005201208965
SWI4=tf_rep(NDD1)	188.1500126152334	0.0	0.049876477120648736	17.69026071165023	32.174131413299136	3.1872297821430857
SWI4=tf_rep(NDD1)	188.1510305118029	0.0	0.04985774739752617	17.592564355033876	32.28354682881155	3.1951614489048668
SWI4=tf_rep(NDD1)	188.14991970187575	0.0	0.04987834184671733	17.701835749129685	32.16108221132237	3.186288244105412
SWI4=tf_rep(NDD1)	188.14977784476645	0.0	0.049939288043007936	18.05497394113486	31.77190476242782	3.158573704884633
SWI4=tf_rep(NDD1)	188.1526674899967	0.0	0.049995471224663135	18.303211525867304	31.50078613842583	3.138252786788441
SWI4=tf_rep(NDD1)	188.15602535415115	0.0	0.05001247143545061	18.494378292213117	31.30460841373387	3.1261699980873368
SWI4=tf_rep(NDD1)	188.15574791434815	0.0	0.049977982141065865	18.400799493039933	31.37102403689873	3.127828181065574
SWI4=tf_rep(NDD1)	188.15319404775514	0.0	0.04998600903891245	18.3455435005505	31.460065032409037	3.1368565100448684
SWI4=tf_rep(NDD1)	188.14921779710872	0.0	0.049911849455749856	17.893861450199374	31.947954388032716	3.1710255219458516
SWI4=tf_act(SWI5)	512.9598228373458	0.0	0.0027064287263154916	0.0	99.9892312300558	2.902490790758909
SWI4=tf_act(SWI5)	512.9598228373463	0.0	0.0027064287069098296	0.0	99.79024377845282	2.883554169071417
SWI4=tf_act(SWI5)	512.9598228373462	0.0	0.0027064287057155	0.0	100.0	2.9240536983284273
SWI4=tf_act(SWI5)	512.9598228373461	0.0	0.0027064287096303934	0.0	99.75122341435254	2.932787795593774
SWI4=tf_act(SWI5)	512.9598228373462	0.0	0.0027064287062572292	0.0	99.39399878965358	2.271421068081754
SWI4=tf_act(SWI5)	512.9598228373462	0.0	0.002706428705886622	0.0	99.00695753493994	2.9448185259802577
SWI4=tf_act(SWI5)	512.9598228373461	0.0	0.002706428710672733	0.0	99.26349870227904	4.209241283567469
SWI4=tf_act(SWI5)	512.9598228373465	0.0	0.0027064286994943733	0.0	99.2786535326617	4.222471711321056
SWI4=tf_act(SWI5)	512.9598228373462	0.0	0.002706428706240957	0.0	99.69158074994101	4.593262805502821
SWI4=tf_act(SWI5)	512.9598228373462	0.0	0.0027064287057389945	0.0	100.0	4.602233193053802
SWI4=tf_rep(SWI5)	299.70891006107473	0.0	0.1180092020618764	11.59821023846918	36.37671889857752	1.1497089052413236
SWI4=tf_rep(SWI5)	299.7090253318503	0.0	0.11800299886400036	11.610448311128877	36.28461154930393	1.1468531143591125
SWI4=tf_rep(SWI5)	299.70927506894157	0.0	0.1179843547162757	11.579337029308672	36.49469995722333	1.1535216429104196
SWI4=tf_rep(SWI5)	299.70915116741304	0.0	0.11799902206446859	11.614779451120771	36.25080493623326	1.145818067146716
SWI4=tf_rep(SWI5)	299.7141712608848	0.0	0.11796826969693759	11.669726243278209	35.837553790241685	1.133253366440053
SWI4=tf_rep(SWI5)	299.7267587589601	0.0	0.11811022430693188	11.741290806949456	35.42473077563533	1.1185688498942075
SWI4=tf_rep(SWI5)	299.7089059130485	0.0	0.11800790326881412	11.600087524890238	36.36234284850398	1.1492633220748225
SWI4=tf_rep(SWI5)	299.70930791391356	0.0	0.11799849484074225	11.579665628014437	36.502387564175486	1.1537080863695515
SWI4=tf_rep(SWI5)	299.71316881556237	0.0	0.11803200107450464	11.53941329153873	36.81656220131951	1.1636029206400635
SWI4=tf_rep(SWI5)	299.73611377836227	0.0	0.11802557162090319	11.447958501592243	37.478090493109235	1.1854381933151292
SWI4=tf_act(NRM1)	512.9598228373358	0.0	0.002706429179718656	0.0	99.9892312300558	2.3887407162603966
SWI4=tf_act(NRM1)	512.9598228373462	0.0	0.0027064287080673633	0.0	99.79024377845282	2.369804094572905
SWI4=tf_act(NRM1)	512.959822837346	0.0	0.0027064287114167062	0.0	100.0	2.4100131028567304
SWI4=tf_act(NRM1)	512.9598228373463	0.0	0.0027064287042691277	-1.734723475976807e-18	99.7527098025958	2.3962027891833317
SWI4=tf_act(NRM1)	512.9598228373463	0.0	0.0027064287043477315	0.0	99.52912276826247	1.0
SWI4=tf_act(NRM1)	512.9598228373463	0.0	0.002706428705965717	0.0	99.16368423301081	1.0
SWI4=tf_act(NRM1)	512.9598228373251	0.0	0.002706429730341819	0.0	98.73315221135579	1.0
SWI4=tf_act(NRM1)	512.9598228373463	0.0	0.002706428698647898	0.0	98.74830704173846	1.0132304277535875
SWI4=tf_act(NRM1)	512.9598228373463	0.0	0.002706428706444765	0.0	99.14700807165292	1.0
SWI4=tf_act(NRM1)	512.9598228373509	0.0	0.0027064285064585525	0.0	99.63176640985306	1.008967526431451
SWI4=tf_rep(NRM1)	173.17753740998086	0.0	0.0561599518427487	7.794200632602639	32.11361932463394	3.7495672936883984
SWI4=tf_rep(NRM1)	173.17753736726056	0.0	0.05616051637902331	7.794283806659741	32.11353540064224	3.7495153741358593
SWI4=tf_rep(NRM1)	173.18274347773317	0.0	0.05609539578865076	7.764128881882206	32.22676083827487	3.7844072715707657
SWI4=tf_rep(NRM1)	173.18060543796264	0.0	0.05614831944416179	7.811733060791893	32.018249823862014	3.724328253434799
SWI4=tf_rep(NRM1)	173.17753736806435	0.0	0.05616048229879134	7.7942822773042035	32.113509188836126	3.749507025283967
SWI4=tf_rep(NRM1)	173.22885917219622	0.0	0.056111958728554324	7.866586790827484	31.72059685394789	3.6469771255847636
SWI4=tf_rep(NRM1)	173.17759240603434	0.0	0.056182595036390774	7.795844862027583	32.11702106737118	3.7483979929250095
SWI4=tf_rep(NRM1)	173.1839752463987	0.0	0.05610028056460728	7.76245730415486	32.241008863362154	3.7893084629959333
SWI4=tf_rep(NRM1)	173.17753736716685	0.0	0.05616051443895299	7.794284671416879	32.11352316326664	3.749510638347155
SWI4=tf_rep(NRM1)	173.17753736808035	0.0	0.05616050289502891	7.794292859278722	32.11347392660539	3.7494983930320123
SWI4=tf_act(CLN3)	374.3679308142686	0.0	0.03844857026226565	7.254719274754473	96.61688752194446	10.0
SWI4=tf_act(CLN3)	374.3896185527842	0.0	0.03852426781617314	7.144357349964892	96.31111026172377	10.0
SWI4=tf_act(CLN3)	374.3674237164461	0.0	0.03842662365907402	7.286824126079619	96.70465333810057	10.0
SWI4=tf_act(CLN3)	374.3673142213932	0.0	0.03843293324456189	7.277306746909241	96.67878324216126	10.0
SWI4=tf_act(CLN3)	374.3709576426792	0.0	0.038468623060482474	7.22245759162479	96.52916851034075	10.0
SWI4=tf_act(CLN3)	374.3997299888893	0.0	0.038538623735772756	7.117148665551593	96.23687915074495	10.0
SWI4=tf_act(CLN3)	374.37198707483833	0.0	0.03847195968658196	7.215054146319513	96.50958142006711	10.0
SWI4=tf_act(CLN3)	374.374355534393	0.0	0.038480309995418856	7.201029940725736	96.47140555924786	10.0
SWI4=tf_act(CLN3)	374.37520283157016	0.0	0.03837632565049746	7.359327916727365	96.90132776262735	10.0
SWI4=tf_act(CLN3)	374.39439762916584	0.0	0.03833624915178325	7.432933541972118	97.09306997592057	10.0
SWI4=tf_rep(CLN3)	512.9598228373458	0.0	0.002706428725562692	0.0	87.2164004461723	1.0369213272464468
SWI4=tf_rep(CLN3)	512.9598228373462	0.0	0.002706428706885442	0.0	87.01741299456933	1.0179847055589553
SWI4=tf_rep(CLN3)	512.9598228373608	0.0	0.0027064281112290714	0.0	87.4370830200141	1.0375794686860134
SWI4=tf_rep(CLN3)	512.9598228373463	0.0	0.0027064287072964834	0.0	87.18861547249816	1.0714776742399093
SWI4=tf_rep(CLN3)	513.5575477489241	1.2762269488284674e-08	0.0031298624034057083	0.044884979619220465	86.82286034288538	1.0
SWI4=tf_rep(CLN3)	512.9598228372887	0.0	0.0027064337031531523	0.0	86.42098804098563	1.0
SWI4=tf_rep(CLN3)	515.4052574417486	0.0	0.004292306395797521	0.17158373813272326	86.27346870683508	1.0
SWI4=tf_rep(CLN3)	512.959822837351	0.0	0.002706428496359267	0.0	86.28842754516317	1.0117926256513035
SWI4=tf_rep(CLN3)	512.9598228373023	0.0	0.002706431267308648	0.0	86.68792062099214	1.0
SWI4=tf_rep(CLN3)	512.9598228373463	0.0	0.002706428703119461	0.0	87.17267898752911	1.0089670039756347
SWI4=tf_act(WHI5)	512.9598228373408	0.0	0.0027064289455923838	0.0	99.9892312300558	2.7409118265529795
SWI4=tf_act(WHI5)	512.9598228373462	0.0	0.002706428701266601	0.0	99.79024377845282	2.7219752048654877
SWI4=tf_act(WHI5)	512.9598228373463	0.0	0.0027064287052267085	0.0	100.0	2.75669803012903
SWI4=tf_act(WHI5)	512.9598228373463	0.0	0.0027064287061418194	0.0	99.75162222475375	2.793793364178644
SWI4=tf_act(WHI5)	512.9598228373462	0.0	0.0027064287053215155	0.0	99.28325934475792	1.7594022284107027
SWI4=tf_act(WHI5)	512.9598228373462	0.0	0.002706428704565664	0.0	98.88711576925965	1.8056163718047296
SWI4=tf_act(WHI5)	512.9598228373459	0.0	0.002706428716334795	0.0	98.77253919333016	1.0
SWI4=tf_act(WHI5)	512.9598228373465	0.0	0.002706428700310711	0.0	98.78769402371283	1.0132304277535875
SWI4=tf_act(WHI5)	512.9598228373462	0.0	0.0027064287077055034	0.0	99.19817157836549	1.0
SWI4=tf_act(WHI5)	512.9598228373463	0.0	0.002706428706380202	0.0	99.68292990706433	1.0089658776122703
SWI4=tf_rep(WHI5)	250.62799133011796	0.0	0.04051503559527818	9.518436011930254	53.03596149826278	7.09659253524604
SWI4=tf_rep(WHI5)	250.62199582029297	0.0	0.04048421358759935	9.529818621515428	53.04883020539428	7.132681461927512
SWI4=tf_rep(WHI5)	250.62249233339816	0.0	0.04045262248702153	9.51969818737362	53.058015099031834	7.138402802590624
SWI4=tf_rep(WHI5)	250.657089595268	0.0	0.040237126214043316	9.619047155656096	52.870438266516686	7.160154816131964
SWI4=tf_rep(WHI5)	250.62089139066833	0.0	0.040483529808469976	9.563927959817494	52.97416214784481	7.107613667161494
SWI4=tf_rep(WHI5)	250.69832179545023	0.0	0.04017404795683544	9.747973165383494	52.597086359584566	7.089212409212347
SWI4=tf_rep(WHI5)	250.62089131423335	0.0	0.04048430076688013	9.563925204164637	52.97442348819493	7.107608920020549
SWI4=tf_rep(WHI5)	250.6387470891743	0.0	0.04044904877224456	9.464147034957673	53.107134998981245	7.1136217255763965
SWI4=tf_rep(WHI5)	250.64546680211518	0.0	0.040496628251026415	9.40633916714453	53.32184717625721	7.223034103035395
SWI4=tf_rep(WHI5)	250.77738466405296	0.0	0.04047058986758859	9.180355106526974	53.82649667778314	7.41166363228333
SWI4=tf_act(YOX1)	513.9495859631593	0.10135626368091373	0.004669451055492612	0.0	99.9892312300558	1.0369213272464468
SWI4=tf_act(YOX1)	513.3822479338852	0.04781855339910121	0.0036397122317035056	0.0	99.79024377845282	1.0179847055589553
SWI4=tf_act(YOX1)	512.9598228373463	0.0	0.0027064287079290373	0.0	100.0	1.09002493793005
SWI4=tf_act(YOX1)	512.9598228373463	0.0	0.0027064287096674917	0.0	99.7515368377943	1.123976237477964
SWI4=tf_act(YOX1)	512.9598228373462	0.0	0.002706428707643376	0.0	99.46099358086116	1.3332663516853283
SWI4=tf_act(YOX1)	512.9598228373462	0.0	0.002706428706457835	0.0	99.06288367762836	1.3302900228574452
SWI4=tf_act(YOX1)	512.9598228373463	0.0	0.0027064287064033207	0.0	99.27544897148725	2.929078839503128
SWI4=tf_act(YOX1)	512.9598228373465	0.0	0.002706428697012572	0.0	99.29060380186992	2.9423092672567157
SWI4=tf_act(YOX1)	512.9598228373463	0.0	0.0027064287036186944	0.0	99.71666708006802	3.394435350769716
SWI4=tf_act(YOX1)	512.959822837346	0.0	0.0027064287152027034	0.0	100.0	3.4034054550823916
SWI4=tf_rep(YOX1)	512.5361318188151	0.0	0.005319971633202915	0.18255090935247453	89.14184107567257	1.2548283306051997
SWI4=tf_rep(YOX1)	512.5317487109395	0.0	0.005339266513662741	0.18464977686537015	88.94283971309744	1.2358782854496357
SWI4=tf_rep(YOX1)	512.5397423358605	0.0	0.005309223041258803	0.18200191271484983	89.35303865662623	1.2439350704742185
SWI4=tf_rep(YOX1)	512.5365981697515	0.0	0.005309726171744314	0.18115173646305502	89.10456462009934	1.2772161193648472
SWI4=tf_rep(YOX1)	512.5288659768848	0.0	0.005384005974029327	0.1905649548050976	88.67921951180868	1.161309596051251
SWI4=tf_rep(YOX1)	512.5240744447557	0.0	0.005402065721963956	0.1930481815168809	88.28050058677773	1.136481397571999
SWI4=tf_rep(YOX1)	512.5334027480905	-5.421010862427522e-20	0.005412779285403257	0.19638452799002357	88.18744623531163	1.070795446196565
SWI4=tf_rep(YOX1)	512.5224381101852	0.0	0.005397788208029792	0.1920635164658807	88.29564375646679	1.1548279718658931
SWI4=tf_rep(YOX1)	512.5264956384048	0.0	0.005358160524046353	0.1865692155285502	88.67397837742412	1.224101304130699
SWI4=tf_rep(YOX1)	512.5357901057635	0.0	0.005329321162100157	0.18390108408866737	89.15870714280324	1.2330394615272013
SWI4=tf_act(ASH1)	511.3996396970451	0.0	0.003997196381840315	0.9262398857465972	99.98924198063183	10.0
SWI4=tf_act(ASH1)	511.36862859315494	0.0	0.004204457066951989	1.0755141708350187	100.0	10.0
SWI4=tf_act(ASH1)	511.36862859247015	0.0	0.004204478077948431	1.0755234445896587	100.0	10.0
SWI4=tf_act(ASH1)	511.3842815324594	0.0	0.0041957913212054285	1.0539134261922278	99.75376910541912	10.0
SWI4=tf_act(ASH1)	511.4061230880382	0.0	0.004181188895550251	1.0242462812495805	99.43779825698361	9.994416259245662
SWI4=tf_act(ASH1)	511.4341507556883	0.0	0.004170793437850888	0.9940267618254922	99.04982387970095	9.983970688122291
SWI4=tf_act(ASH1)	511.4105061711462	0.0	0.004172265030498997	1.0130361117401467	99.34927577774256	10.0
SWI4=tf_act(ASH1)	511.43741276369553	0.0	0.003987058305662775	0.8859479458434075	99.36690265498615	10.0
SWI4=tf_act(ASH1)	511.3686285925897	0.0	0.004204472442299652	1.0755220455574364	100.0	10.0
SWI4=tf_act(ASH1)	511.37199377295616	0.0	0.004199289189497157	1.070389136975406	99.98430580496836	9.99121539734734
SWI4=tf_rep(ASH1)	512.9598228373361	0.0	0.0027064291662420034	0.0	88.97197000363953	1.0369213272464468
SWI4=tf_rep(ASH1)	512.9598228373463	0.0	0.0027064287051627683	0.0	88.77298255203655	1.0179847055589553
SWI4=tf_rep(ASH1)	512.9598228373462	0.0	0.0027064287048989394	0.0	89.19287099123945	1.040957860194432
SWI4=tf_rep(ASH1)	512.9598228373459	0.0	0.002706428717002137	0.0	88.94440303657068	1.0746962799956068
SWI4=tf_rep(ASH1)	512.9598228373462	0.0	0.0027064287057306253	0.0	88.5665405844245	1.0298958532208848
SWI4=tf_rep(ASH1)	512.9598228373462	0.0	0.0027064287068019133	0.0	88.168464850503	1.0002625568569006
SWI4=tf_rep(ASH1)	512.9598228373462	0.0	0.00270642870776852	0.0	87.89805749930254	1.0
SWI4=tf_rep(ASH1)	512.9598228373462	0.0	0.002706428701611592	0.0	87.91321232968521	1.0132304277535875
SWI4=tf_rep(ASH1)	513.0323924099445	0.0	0.00280796944630155	0.007383436957229259	88.31206915788202	1.0
SWI4=tf_rep(ASH1)	512.9598228373462	0.0	0.0027064287076045655	0.0	88.79682752248856	1.0089708341057426
SWI4=tf_act(RIF1)	512.9598228373364	0.0	0.0027064291469445717	0.0	99.9892312300558	2.9319691834100707
SWI4=tf_act(RIF1)	512.9598228373463	0.0	0.0027064287065127514	0.0	99.79024377845282	2.913032561722579
SWI4=tf_act(RIF1)	512.9598228373462	0.0	0.002706428706450395	0.0	100.0	2.9497095823294783
SWI4=tf_act(RIF1)	512.9598228373462	0.0	0.0027064287022887834	0.0	99.75155978448129	2.9843577755023536
SWI4=tf_act(RIF1)	512.959822837346	0.0	0.0027064287088874282	0.0	99.41801116697941	3.2413156182289318
SWI4=tf_act(RIF1)	512.9598228373462	0.0	0.002706428708357301	0.0	99.02999728774306	3.5290071250952746
SWI4=tf_act(RIF1)	512.9598228373462	0.0	0.002706428708207915	0.0	99.22610920774031	4.027789987316999
SWI4=tf_act(RIF1)	512.9598228373467	0.0	0.002706428694450352	0.0	99.24126403812298	4.041020415070586
SWI4=tf_act(RIF1)	512.9598228373462	0.0	0.002706428706422963	0.0	99.64562316504235	4.099888719351943
SWI4=tf_act(RIF1)	512.9598228373462	0.0	0.002706428707032125	0.0	99.99999999081697	4.108858310837135
SWI4=tf_rep(RIF1)	507.81027202738045	0.0	0.009904385990875461	0.40739280212027895	89.17087618329471	10.0
SWI4=tf_rep(RIF1)	418.3819432245808	0.0	0.016635824716051028	100.0	30.777423466268463	10.0
SWI4=tf_rep(RIF1)	418.38295850490476	0.0	0.016636707258241127	99.94537590144917	30.779379194600686	10.0
SWI4=tf_rep(RIF1)	418.39753654649024	0.0	0.016684329196489774	99.96251162369872	30.746190186471534	9.963397155617825
SWI4=tf_rep(RIF1)	418.42586202494465	0.0	0.016789303248166243	100.0	30.6989050071965	9.905015420549997
SWI4=tf_rep(RIF1)	418.3819432248379	0.0	0.01663581473620434	100.0	30.777421070646355	10.0
SWI4=tf_rep(RIF1)	418.38211155161895	0.0	0.016636229293315725	99.9909402079016	30.777807646904833	10.0
SWI4=tf_rep(RIF1)	418.3844449406215	0.0	0.016636839002625487	99.86633386225	30.781909036513376	9.999958301095342
SWI4=tf_rep(RIF1)	418.38214720983524	0.0	0.0166360180822366	99.98901828092738	30.77782044133771	10.0
SWI4=tf_rep(RIF1)	418.3909876787493	0.0	0.016638250370587703	99.51572719225156	30.793570235013608	10.0
SWI4=tf_act(EDS1)	323.04689186939584	0.3	0.01684566972253498	16.83960794254077	100.0	10.0
SWI4=tf_act(EDS1)	323.09993755889457	0.3	0.016841617525863637	16.641929192641978	99.7838958644437	10.0
SWI4=tf_act(EDS1)	323.0468918694185	0.3	0.016845669868779237	16.839612352647222	100.0	10.0
SWI4=tf_act(EDS1)	323.0468918693853	0.3	0.016845671457495735	16.839613153637835	100.0	10.0
SWI4=tf_act(EDS1)	323.0468918782844	0.3	0.016845733781293656	16.83972881843391	100.0	10.0
SWI4=tf_act(EDS1)	323.0806793960771	0.3	0.016805882822606834	16.653296369285695	99.88227855182325	10.0
SWI4=tf_act(EDS1)	323.0468918720846	0.3	0.01684563119231092	16.839568392361276	100.0	10.0
SWI4=tf_act(EDS1)	323.0468918693796	0.3	0.01684567151385619	16.83961265394979	100.0	10.0
SWI4=tf_act(EDS1)	323.0468918693825	0.3	0.016845672942768408	16.839615936685902	100.0	10.0
SWI4=tf_act(EDS1)	323.09544849466795	0.3	0.016806869918038165	16.60294284672374	99.82210092504975	10.0
SWI4=tf_rep(EDS1)	512.9598228373457	0.0	0.002706428726624784	0.0	89.14917532371727	1.069865800426442
SWI4=tf_rep(EDS1)	512.9598228373462	0.0	0.0027064287045827644	0.0	88.9501878721143	1.0509291787389505
SWI4=tf_rep(EDS1)	512.9598228373462	0.0	0.002706428706004915	0.0	89.36986910029627	1.0706493855888937
SWI4=tf_rep(EDS1)	513.3110309156292	0.0008720920024220394	0.0030678629335083524	0.028162722867134535	89.12140319127765	1.10451524025014
SWI4=tf_rep(EDS1)	516.5070162709975	0.0	0.005495002797536771	0.24078570507546795	88.75213546221626	1.0504685887911673
SWI4=tf_rep(EDS1)	512.9598228373459	0.0	0.0027064287205441477	0.0	88.35605439246643	1.0
SWI4=tf_rep(EDS1)	515.2164119792604	0.0	0.004721712965471281	0.17206680194095164	88.41139295058242	1.0
SWI4=tf_rep(EDS1)	512.9598228373444	0.0	0.002706428794135145	0.0	88.42639810155403	1.0119968063093696
SWI4=tf_rep(EDS1)	512.9598228373461	0.0	0.0027064287104386613	0.0	88.82529277609339	1.0
SWI4=tf_rep(EDS1)	513.9643773102106	0.0002581070321519686	0.003700114427824526	0.08272534890775608	89.31005110697379	1.0089723972536526
