# LEMpy target file for NDD1, replicate 0 
# Run configuration file:  ../pipeline/src/yeast_data/simulations202110_Orlando_2/extra_nodes_no_annot/results1/edge_finding_20211012222949/lempy_20211012222949_config.txt 
# Time series data file:   ../pipeline/src/yeast_data/time_series/orlando2008_WildType_r1_trunc.tsv 
# Computed on:  2021-10-12 22:33:35 
 
model	loss	pld	inv_temp	prior	rhs_param_0	rhs_param_1	rhs_param_2	rhs_param_3	rhs_param_4	hess_eigs	hess_det	bnd_params	pld_time	opt_time
tf_act(HCM1)	14.418609171540785	0.512577	1.0	0.045454545454545456	0.3	0.11332327321070891	17.81898817983356	57.3876015574155	2.496654619890656	[1, 1, 7.533868853351234, 159.22439337940844, 9263753.191167058]	11112573200.16115	1.0	0.00010857999999913659	0.525888626
tf_act(YOX1)	18.50023993965371	0.446263	1.0	0.045454545454545456	0.3	0.0793071789846298	11.951076109231156	45.756943887638336	3.300076306253065	[1, 1.3158288386828445, 10.138444615898896, 43.29376925607079, 9263629.227547036]	5350289672.28165	1.0	8.232799999952078e-05	0.5527708360000001
tf_act(SWI4)	45.91905448081129	0.0384237	1.0	0.045454545454545456	0.0	0.05388232200694082	9.79942536389182	50.42783160776477	4.1365238024547875	[1, 2.0411711222692563, 12.378375365872673, 21.834102544389175, 9263556.807881406]	5110415109.354382	1.0	0.0003591899999992876	0.6089776880000004
tf_act(RIF1)	77.57910718803844	0.00253601	1.0	0.045454545454545456	0.0	0.13137665498959342	13.224696758477704	50.64940256879718	10.0	[1, 2.0902053785699266, 7.571976331105352, 34.39549428573197, 9264407.68249538]	5043330411.052828	2.0	7.895000000068819e-05	0.41169671500000016
tf_rep(SWI5)	143.54901270373452	0.000175542	1.0	0.045454545454545456	0.0	0.02720941209993873	4.371714905801168	41.053931361171124	4.359492991328939	[1, 2.9892093886442406, 7.557991950569685, 35.26037244601639, 9263592.544430494]	7379536795.391073	1.0	7.962499999969452e-05	0.40140077100000005
tf_rep(ASH1)	197.41202559498512	0.0000208347	1.0	0.045454545454545456	0.0	0.04815846169627642	4.987205485639145	57.19079523951423	3.9056417722349135	[1, 4.2106826431283935, 10.052510764378805, 21.308475884559176, 9264103.842084728]	8355700383.265843	1.0	8.01610000014108e-05	0.4943729140000004
tf_act(EDS1)	303.5631785838371	0.00000231567	1.0	0.045454545454545456	0.0	0.019972875334334953	11.783940080652316	97.86269518618268	3.01117453910086	[1, 1.0982399047622065, 5.485347485923722, 14.255316475614443, 9264287.838982128]	795591743.8549107	1.0	7.752100000146811e-05	0.27969722399999997
tf_rep(CLN3)	322.5525429928268	0.000000768617	1.0	0.045454545454545456	0.0	0.11442238159216724	20.280963998305012	70.50755011405992	3.358067335595151	[1, 1, 3.009164575577529, 88.55597920365359, 9264089.303668812]	2468690029.8871937	1.0	7.906699999971067e-05	0.5206746130000002
tf_rep(NRM1)	343.54670718732166	0.000000330062	1.0	0.045454545454545456	0.0	0.0013995954676455876	3.9133468773908717	12.965958363452259	10.0	[1, 1, 6.854545546761872, 16.681237083167222, 9263185.873380655]	1059173972.1883038	2.0	7.902499999978829e-05	0.3842885749999998
tf_act(WHI5)	321.0299403504493	0.000000294727	1.0	0.045454545454545456	0.3	0.22149196234787744	50.15941263403908	100.0	2.5563540543270573	[1, 1, 1, 492.32839690908855, 9280967.90656992]	4569284051.206268	2.0	7.674599999951681e-05	0.3918778510000003
tf_rep(NDD1)	314.3413989951019	0.000000163176	1.0	0.045454545454545456	0.0	0.002174089255381422	100.0	21.799841722382702	10.0	[1, 1, 8.80381770732093, 66.50597704078625, 9263215.243164549]	5423672720.157414	3.0	8.099399999927925e-05	0.42807350000000044
tf_act(CLN3)	432.9802125414225	0.000000157243	1.0	0.045454545454545456	0.14980029531636146	0.016483833831854325	1.108081144113424	0.001	3.2376074640987236	[1, 1, 1, 21.368798522723466, 9265092.695183758]	197983899.09773865	1.0	7.855700000014565e-05	0.381444165
tf_rep(WHI5)	434.4397817303994	0.0000000719843	1.0	0.045454545454545456	0.3	0.011763820615516998	1.1347608651675503	88.12608176208369	1.0	[1, 1, 1.4095819207460822, 16.862492380669067, 9263775.556763204]	220191277.78204447	2.0	6.473100000015108e-05	0.43266237399999996
tf_act(SWI5)	437.8845159608084	0.000000047849	1.0	0.045454545454545456	0.3	0.002719206634063812	0.0	99.38940582304632	1.540315887549432	[1, 1, 4.26048959531184, 10.707062189311328, 9263295.211779231]	422566767.2727232	2.0	8.100900000052036e-05	0.33429773800000007
tf_act(ASH1)	437.88451596088447	0.0000000464712	1.0	0.045454545454545456	0.3	0.0027192040460934275	0.0	99.42715888253646	5.712768766811644	[1, 1, 4.29731760450514, 11.25419499493382, 9263197.349015988]	447994626.46993417	2.0	8.247100000069452e-05	0.298817541
tf_act(NDD1)	420.7073506330216	0.0000000408903	1.0	0.045454545454545456	0.3	0.007334237263924691	2.2563501413967555	100.0	10.0	[1, 1, 2.358002229137403, 15.173900791675205, 9263219.8811073]	331438858.5570031	3.0	9.002000000002397e-05	0.35711880099999993
tf_act(NRM1)	437.8845159609067	0.0000000207706	1.0	0.045454545454545456	0.3	0.002719203538892736	0.0	100.0	1.0	[1, 1, 1.4139174641586767, 10.701187879613087, 9263365.688441005]	140160247.81742296	4.0	7.910000000066475e-05	0.3248944899999997
tf_rep(EDS1)	437.88451596079966	0.0000000154114	1.0	0.045454545454545456	0.3	0.0027192072286679847	0.0	86.7390892320251	1.0	[1, 1, 6.488936098182747, 16.940454890526507, 9263948.965812828]	1018344493.0932463	3.0	7.812400000162256e-05	0.3051847969999999
tf_rep(RIF1)	437.8845159608982	0.0000000129791	1.0	0.045454545454545456	0.3	0.002719203720050419	0.0	86.34085659305748	1.0	[1, 1, 7.486535348743081, 20.702443423327516, 9263842.87779353]	1435799065.8093731	3.0	7.950300000025834e-05	0.32261176199999975
tf_rep(HCM1)	437.88451596081734	0.0000000118511	1.0	0.045454545454545456	0.3	0.002719206169340061	0.0	88.29121456811049	1.0	[1, 1, 8.066418448463157, 23.045684895686414, 9263948.676012285]	1722132279.6484187	3.0	8.521899999891502e-05	0.334572326
tf_rep(YOX1)	437.8845159608519	0.0000000102382	1.0	0.045454545454545456	0.3	0.002719204914060763	0.0	88.25068355319046	1.0	[1, 1, 8.974884068221733, 27.752611792214505, 9264042.340042107]	2307454995.722099	3.0	8.074499999999318e-05	0.3368987139999997
tf_rep(SWI4)	437.8845159608096	0.0000000101533	1.0	0.045454545454545456	0.3	0.0027192065555675694	0.0	88.31193713113079	1.0	[1, 1, 9.430048374162709, 26.856790196777354, 9264015.906867411]	2346212364.47241	3.0	0.00010547900000013044	0.35437755000000015
null_model	437.88451596079386				0.3	0.002719209138102381								
