# LEMpy local minima file for target ASH1, replicate 1
# Right-hand side of tf_act():  p0 - p1(tar) + p2(reg^p4) / (p3^p4 + reg^p4)
# Right-hand side of tf_rep():  p0 - p1(tar) + p2(p3^p4) / (p3^p4 + reg^p4)
# Run configuration file:  ../pipeline/src/yeast_data/simulations202110_Orlando_2/extra_nodes_no_annot/results3/edge_finding_20211013003459/lempy_20211013003459_config.txt
# Time series data file:   ../pipeline/src/yeast_data/time_series/orlando2008_WildType_r2_trunc.tsv
# Computed on:  2021-10-13 00:37:18 
 
model	loss	p0	p1	p2	p3	p4
ASH1=tf_act(SWI4)	549.6778824624888	0.3	0.005859385199833208	1.8333581015529556	97.35799987093723	1.0
ASH1=tf_act(SWI4)	549.6789998383485	0.3	0.005860366024230854	1.8340579170081694	97.40092065156908	1.0
ASH1=tf_act(SWI4)	549.6783348552059	0.3	0.005864521480506524	1.8343851910940412	97.37513637279392	1.0
ASH1=tf_act(SWI4)	549.681789702819	0.3	0.005856636120574088	1.8348274299969047	97.50836748549473	1.0
ASH1=tf_act(SWI4)	549.6803332264392	0.3	0.005863455181273638	1.8351891098516553	97.45198070836555	1.0
ASH1=tf_act(SWI4)	524.5438336814669	0.2999995732931802	0.01503372467420977	1.0026871158859132	0.001	1.542777026646311
ASH1=tf_act(SWI4)	524.5475977720823	0.1556809504345741	0.015036309049807824	1.147160340854667	0.04145428936031187	1.5210478263902127
ASH1=tf_act(SWI4)	524.5438392187655	0.1557116570787265	0.015034166222443501	1.1469940891836208	0.001	1.508154398801441
ASH1=tf_act(SWI4)	524.5438370957858	0.157093078309843	0.015034168758308276	1.1456127685446187	0.001	1.5239184026672876
ASH1=tf_act(SWI4)	524.543840004363	0.19535096804187907	0.01503416792756323	1.1073548646037736	0.001	1.4992285881490746
ASH1=tf_rep(SWI4)	132.01698850096795	0.0	0.04293726709559195	8.699034255269916	33.139599979036554	10.0
ASH1=tf_rep(SWI4)	132.01698850070497	0.0	0.04293728155526552	8.699036667955244	33.13960037084446	10.0
ASH1=tf_rep(SWI4)	132.01698850053523	0.0	0.04293730598095219	8.699037585149231	33.13960713969255	10.0
ASH1=tf_rep(SWI4)	132.01698850102028	0.0	0.04293726486134661	8.699034110540056	33.13959944804284	10.0
ASH1=tf_rep(SWI4)	132.01698850126337	0.0	0.04293725773679254	8.699035330872423	33.139596329250935	10.0
ASH1=tf_rep(SWI4)	132.01698850132584	0.0	0.04293728394483289	8.69904188171283	33.139592117648746	10.0
ASH1=tf_rep(SWI4)	132.0169885009182	0.0	0.0429372694880538	8.699034529301793	33.13960000282688	10.0
ASH1=tf_rep(SWI4)	132.01698850073177	0.0	0.042937278647190366	8.699034987228403	33.139601940909564	10.0
ASH1=tf_rep(SWI4)	132.0169885009519	0.0	0.04293726780770083	8.699034088863382	33.139600470723956	10.0
ASH1=tf_rep(SWI4)	132.01698850146482	0.0	0.04293726728836198	8.699038443646407	33.13959612442693	10.0
ASH1=tf_act(HCM1)	527.9531119615626	0.3	0.011139765035151634	2.404359733830393	97.42056187286374	1.0
ASH1=tf_act(HCM1)	527.95313690163	0.3	0.011140398898201183	2.404549165931786	97.42688308704064	1.0
ASH1=tf_act(HCM1)	527.9530741605001	0.3	0.011140988853133551	2.4043773182230215	97.41090858357437	1.0
ASH1=tf_act(HCM1)	527.9535925504437	0.3	0.011138025623022432	2.4060703054021153	97.54293770538479	1.0
ASH1=tf_act(HCM1)	527.9533160277994	0.3	0.01114007838017849	2.405228804931442	97.47243122844907	1.0
ASH1=tf_act(HCM1)	527.951607352661	0.3	0.01114541946781912	2.3990692599918866	97.04016090688775	1.0
ASH1=tf_act(HCM1)	527.950488788238	0.3	0.011149570990880828	2.3951689987114064	96.76000288301117	1.0
ASH1=tf_act(HCM1)	527.9501120113888	0.3	0.01115071121883569	2.393826282574365	96.6661369427216	1.0
ASH1=tf_act(HCM1)	527.9494316418068	0.3	0.011153033296738541	2.3914533782392042	96.49726592162274	1.0
ASH1=tf_act(HCM1)	527.9485326120465	0.3	0.01115769738781485	2.388547808157396	96.27529914111938	1.0
ASH1=tf_rep(HCM1)	518.5077113181004	0.3	0.01936912527559139	68.66753273941434	2.7218566688482215	1.4097999411543736
ASH1=tf_rep(HCM1)	518.5094649925363	0.29831830172413326	0.019368030582254156	68.45357529081024	2.7766342521219016	1.4182400919981075
ASH1=tf_rep(HCM1)	518.5107076662047	0.2967564181810941	0.01938828480077366	68.53761832682814	2.695752427748989	1.4030555084022112
ASH1=tf_rep(HCM1)	518.5082379395714	0.3	0.019352872094489923	68.17025957234124	2.827947849210328	1.4268200968097153
ASH1=tf_rep(HCM1)	518.5087939277527	0.2994589163734072	0.019356453176289146	68.02341507597836	2.839778683979775	1.4279618407220105
ASH1=tf_rep(HCM1)	518.510453563112	0.2996207149651912	0.019410864797234466	68.17476899232166	2.600262466089988	1.3839588215028311
ASH1=tf_rep(HCM1)	518.5183919438474	0.3	0.019439267664461114	68.67627017583416	2.469393687013273	1.3616708586886874
ASH1=tf_rep(HCM1)	518.5078373450657	0.3	0.01936779633066532	68.75272940746432	2.717828424676273	1.4095315633605556
ASH1=tf_rep(HCM1)	518.5086170679377	0.3	0.019344826761475836	68.64269018447341	2.7990764699913986	1.4242050775139536
ASH1=tf_rep(HCM1)	518.5082525664322	0.3	0.01938080410058999	68.53691391038697	2.6596301610328696	1.397436222986255
ASH1=tf_act(NDD1)	393.1235756320419	0.0	0.005083844747489598	3.9805222544954937	74.33685737568533	10.0
ASH1=tf_act(NDD1)	393.12357563316647	0.0	0.005083950089847987	3.980536619230055	74.33682086217974	10.0
ASH1=tf_act(NDD1)	393.12539321529056	0.0	0.005052993619696386	3.994701650592629	74.45681812475405	10.0
ASH1=tf_act(NDD1)	393.12857442524034	0.0	0.005017318118442236	4.001121565718637	74.53949248262695	10.0
ASH1=tf_act(NDD1)	393.12423207137755	0.0	0.00510144614395908	3.9718777523583504	74.26515360767856	10.0
ASH1=tf_act(NDD1)	393.14691945450284	0.0	0.005223584425180613	3.935572011032887	73.89977580834498	10.0
ASH1=tf_act(NDD1)	393.1235756309622	0.0	0.005083864861305069	3.98052313097663	74.33682310952847	10.0
ASH1=tf_act(NDD1)	393.1244152431576	0.0	0.0051111100325447936	3.9721066714259012	74.25378695820909	10.0
ASH1=tf_act(NDD1)	393.13338681381043	0.0	0.005175448660354705	3.9515237407286947	74.05328999340274	10.0
ASH1=tf_act(NDD1)	393.1235756330517	0.0	0.005083834737626071	3.980526501308996	74.33684869259554	10.0
ASH1=tf_rep(NDD1)	560.8233207569466	0.3	0.004061992800604624	66.5191674770927	0.38216784264799036	1.0
ASH1=tf_rep(NDD1)	560.8230524611163	0.3	0.004062196052835479	66.38367721655179	0.3829622381616403	1.0
ASH1=tf_rep(NDD1)	560.8233483969577	0.3	0.0040618098040535264	66.53315338643475	0.38207999575876594	1.0
ASH1=tf_rep(NDD1)	560.8226216567926	0.3	0.004062504164533943	66.16728780422645	0.3842367112256797	1.0
ASH1=tf_rep(NDD1)	560.822374197778	0.3	0.004062801299239911	66.04364021813124	0.38497309130485663	1.0
ASH1=tf_rep(NDD1)	560.8226567456289	0.3	0.004062575679542197	66.1848607596973	0.38413639622990925	1.0
ASH1=tf_rep(NDD1)	560.8236410053394	0.3	0.004061734296148879	66.68163091078303	0.3812194268102033	1.0
ASH1=tf_rep(NDD1)	560.8237551984113	0.3	0.004061634365124661	66.7397565708438	0.380880915523789	1.0
ASH1=tf_rep(NDD1)	560.8235269424814	0.3	0.004061857312743754	66.62367424434449	0.3815586291862252	1.0
ASH1=tf_rep(NDD1)	560.8233530287906	0.3	0.0040619496850740735	66.53550244656297	0.38207166356085137	1.0
ASH1=tf_act(SWI5)	55.65457340674484	0.3	0.06521249977771082	9.466475056137917	53.66683861354664	10.0
ASH1=tf_act(SWI5)	55.654573407832096	0.3	0.0652123867252659	9.466460688114248	53.6668381846325	10.0
ASH1=tf_act(SWI5)	55.65457340776201	0.3	0.06521238998078667	9.466460596133812	53.66683680396586	10.0
ASH1=tf_act(SWI5)	55.654580949065085	0.3	0.06521734954814752	9.466356983110792	53.66468952406492	10.0
ASH1=tf_act(SWI5)	55.65457340770708	0.3	0.06521239259494455	9.466460953920729	53.66683686746336	10.0
ASH1=tf_act(SWI5)	55.654573407867794	0.3	0.06521238554622985	9.46646108323646	53.66683981561185	10.0
ASH1=tf_act(SWI5)	55.654573406141544	0.3	0.065212514188027	9.466472314224939	53.666825657202565	10.0
ASH1=tf_act(SWI5)	55.65457340778123	0.3	0.06521238908053	9.466460474442494	53.666836817398575	10.0
ASH1=tf_act(SWI5)	55.654573407809174	0.3	0.06521238777969017	9.46646072849968	53.666838011032404	10.0
ASH1=tf_act(SWI5)	55.65457340726823	0.3	0.06521241692197986	9.466461835754831	53.666830620196755	10.0
ASH1=tf_rep(SWI5)	553.726959701224	0.3	0.005528729256123269	0.782387225673254	99.92151115776151	1.0
ASH1=tf_rep(SWI5)	553.7184235267331	0.3	0.005528889229592201	0.7822236949848816	100.0	1.0
ASH1=tf_rep(SWI5)	553.7184235255252	0.3	0.005528932404850726	0.7822282409336714	100.0	1.0
ASH1=tf_rep(SWI5)	553.7184235265347	0.3	0.005528868940237189	0.7822242510419869	100.0	1.0
ASH1=tf_rep(SWI5)	553.7184235260813	0.3	0.005528881677044301	0.7822244927344488	100.0	1.0
ASH1=tf_rep(SWI5)	553.7184235259489	0.3	0.005528888006936141	0.7822249625179447	100.0	1.0
ASH1=tf_rep(SWI5)	553.8004652178117	0.3	0.005511114506056094	0.7826547614854301	99.24734999781207	1.0
ASH1=tf_rep(SWI5)	553.8108025088974	0.3	0.005491056953708098	0.7814752471721443	99.15225992922954	1.0
ASH1=tf_rep(SWI5)	553.8289989530505	0.3	0.005483585123380348	0.7813255553872169	98.98576010294383	1.0
ASH1=tf_rep(SWI5)	553.7184235257344	0.3	0.005528913363263988	0.7822271405718909	100.0	1.0
ASH1=tf_act(NRM1)	386.5797496741094	0.0	0.0025030783557855535	3.912124885590923	70.65513490469363	10.0
ASH1=tf_act(NRM1)	387.0474941398262	0.00011871357696141011	0.001853583867817024	3.770018610715512	70.7260933172557	9.961060656583228
ASH1=tf_act(NRM1)	386.5822916702965	0.0	0.002503767698667481	3.9182582000932378	70.70144107118826	10.0
ASH1=tf_act(NRM1)	386.5893009297725	0.0	0.0024785134790932836	3.923998967109006	70.79921850730585	10.0
ASH1=tf_act(NRM1)	386.58289066288114	0.0	0.002498891472166206	3.9183174479330187	70.71219392025249	10.0
ASH1=tf_act(NRM1)	386.5758966759296	0.0	0.002530628330358102	3.898305053535041	70.48911244609732	10.0
ASH1=tf_act(NRM1)	386.5758966539042	0.0	0.00253075327481941	3.8983190927371174	70.48915158063933	10.0
ASH1=tf_act(NRM1)	386.5769472410082	0.0	0.0025452958892474174	3.8911763141916174	70.40265381690332	10.0
ASH1=tf_act(NRM1)	386.5866338136278	0.0	0.0025766805089663166	3.875419022127143	70.21320977596308	10.0
ASH1=tf_act(NRM1)	386.5758966537913	0.0	0.00253076214555159	3.8983168941935182	70.4891129930357	10.0
ASH1=tf_rep(NRM1)	648.2784536650981	0.3	0.0	0.47078239420112067	0.09130412766658402	10.0
ASH1=tf_rep(NRM1)	648.2784536650981	0.3	0.0	0.3292031919982149	0.1614662996708882	9.960788359394892
ASH1=tf_rep(NRM1)	648.2784536650981	0.3	0.0	0.4198266830439591	0.08366587669616482	9.935841667870486
ASH1=tf_rep(NRM1)	648.2784536650981	0.3	0.0	0.054779533071830255	0.22071173540082417	9.94530703589676
ASH1=tf_rep(NRM1)	648.2784536650981	0.3	0.0	0.0	0.23901994626544604	9.927005725126188
ASH1=tf_rep(NRM1)	648.2784536650981	0.3	0.0	0.14114952985129958	0.001	9.88382603854373
ASH1=tf_rep(NRM1)	648.2784536650981	0.3	0.0	0.6364909686078464	0.001	9.862368642495946
ASH1=tf_rep(NRM1)	648.2784536650981	0.3	0.0	0.6918601259610663	0.001	9.849475496071594
ASH1=tf_rep(NRM1)	648.2784536650981	0.3	0.0	0.5734862539532922	0.001	9.865239181172123
ASH1=tf_rep(NRM1)	648.2784536650981	0.3	0.0	0.4664121269433091	0.001	9.840541970992119
ASH1=tf_act(CLN3)	526.8204919421188	0.3	0.01686657207470524	2.4243143063330126	96.69967238286868	1.0
ASH1=tf_act(CLN3)	526.8204831718888	0.3	0.016865898609243726	2.4243506301814928	96.70698169942536	1.0
ASH1=tf_act(CLN3)	526.8204899604699	0.3	0.016865476623080432	2.4242287773106215	96.70133938173578	1.0
ASH1=tf_act(CLN3)	526.8203328369337	0.3	0.016867393466533733	2.4262172326758935	96.83192317642292	1.0
ASH1=tf_act(CLN3)	526.8204221257189	0.3	0.016866119013050105	2.4250707175431807	96.75788207325895	1.0
ASH1=tf_act(CLN3)	526.8209155877087	0.3	0.016862416248496912	2.418962031086852	96.3407960317925	1.0
ASH1=tf_act(CLN3)	526.8203411922032	0.3	0.016866182947321718	2.426025371723198	96.82521325779453	1.0
ASH1=tf_act(CLN3)	526.8204539228294	0.3	0.016866203840230996	2.4247176805569968	96.73138153080667	1.0
ASH1=tf_act(CLN3)	526.8206548767341	0.3	0.016864641382432106	2.42224542425188	96.56279971443357	1.0
ASH1=tf_act(CLN3)	526.8209015288356	0.3	0.016862002076362414	2.419097411702676	96.35285906230905	1.0
ASH1=tf_rep(CLN3)	455.92801777573857	0.09516912103387197	0.0	69.96860344010123	36.55083678041998	10.0
ASH1=tf_rep(CLN3)	455.92758849606037	0.09677477354930235	0.0	69.8231786482249	36.55005411165372	10.0
ASH1=tf_rep(CLN3)	455.95397982314046	0.10033748224761715	0.0	69.91453615223955	36.485081861476274	9.967879895107865
ASH1=tf_rep(CLN3)	455.94283172034204	0.09667090912177295	0.0	69.54505410869245	36.543301865391406	9.977887327957369
ASH1=tf_rep(CLN3)	455.9549592401323	0.09631365324715918	0.0	69.42028872794587	36.53393287201873	9.960239564383476
ASH1=tf_rep(CLN3)	456.02399654961977	0.11018795660236422	0.0	69.58081524150543	36.42260984706858	9.934033183832192
ASH1=tf_rep(CLN3)	455.927147295352	0.09677976896564344	0.0	70.10354404807349	36.53430110337945	10.0
ASH1=tf_rep(CLN3)	455.9450457522151	0.09725496712497515	0.0	70.16219424035114	36.4984060136232	9.973591921794752
ASH1=tf_rep(CLN3)	455.99623369844477	0.10053104201898365	0.0	70.04843753374072	36.414213840180544	9.909372285324988
ASH1=tf_rep(CLN3)	455.9273766837722	0.09677760307033602	0.0	69.9574721398512	36.54250263005657	10.0
ASH1=tf_act(WHI5)	502.81389498788127	0.17581467952597724	0.01558413972177426	2.6460625103104944	87.36709068357888	8.295367005688094
ASH1=tf_act(WHI5)	502.8720239649169	0.1975834156362801	0.015576951518957985	2.576805701593841	87.21755588363685	8.213150172262942
ASH1=tf_act(WHI5)	497.1989108575718	0.16583612820260593	0.0112163536510541	4.6928818655598254	100.0	10.0
ASH1=tf_act(WHI5)	497.23915952110247	0.1866202287627364	0.011336654107372642	4.599005860344249	99.93551515911439	10.0
ASH1=tf_act(WHI5)	497.1989108578892	0.165831625681804	0.01121636668104854	4.692904164159978	100.0	10.0
ASH1=tf_act(WHI5)	497.40024120846243	0.18697470678581282	0.011409966514213311	4.517021173032937	99.61892531316384	10.0
ASH1=tf_act(WHI5)	497.19964209843755	0.1714228655880403	0.0112956479624321	4.6841504082786525	100.0	10.0
ASH1=tf_act(WHI5)	497.19891085839765	0.16583244521511653	0.01121631801533029	4.692891670664398	100.0	10.0
ASH1=tf_act(WHI5)	497.1989108568429	0.16583859308473378	0.011216398053509671	4.692879895745206	100.0	10.0
ASH1=tf_act(WHI5)	497.19891085726704	0.16583576018878798	0.011216367644714806	4.692886074921997	100.0	10.0
ASH1=tf_rep(WHI5)	530.1308749842804	0.3	0.013292137338688304	1.68504485386666	99.92282529227302	1.0
ASH1=tf_rep(WHI5)	530.1283435985247	0.3	0.013291200014002292	1.6843749868108413	100.0	1.0
ASH1=tf_rep(WHI5)	530.1326849014671	0.3	0.013296166415616113	1.6858284603651152	99.86783610591647	1.0
ASH1=tf_rep(WHI5)	530.128343598376	0.3	0.013291206788508307	1.6843755872463135	100.0	1.0
ASH1=tf_rep(WHI5)	530.1283435984162	0.3	0.013291204896839343	1.6843754148929535	100.0	1.0
ASH1=tf_rep(WHI5)	530.1437685628702	0.3	0.013287493863967662	1.6876380153121664	99.5307592446379	1.0
ASH1=tf_rep(WHI5)	530.1283437591104	0.3	0.013290149362875044	1.6842862974067274	100.0	1.0
ASH1=tf_rep(WHI5)	530.13145464885	0.3	0.013290106390621692	1.6850012590570538	99.9051483556983	1.0
ASH1=tf_rep(WHI5)	530.1369086896544	0.3	0.013288342982777389	1.6861146179257376	99.73911701402788	1.0
ASH1=tf_rep(WHI5)	530.1283435988132	0.3	0.01329118830247714	1.684374181988223	100.0	1.0
ASH1=tf_act(YOX1)	550.2041263549377	0.3	0.006564754402729097	1.936991445368937	97.36393172166686	1.0
ASH1=tf_act(YOX1)	550.2047405836449	0.3	0.006566070477244702	1.9376444182051629	97.39761594138689	1.0
ASH1=tf_act(YOX1)	550.2042909606429	0.3	0.006569012460416632	1.9377771530667647	97.3727657002594	1.0
ASH1=tf_act(YOX1)	550.2067065368475	0.3	0.006562209494996112	1.9384655265582391	97.5058153060649	1.0
ASH1=tf_act(YOX1)	550.2056769538733	0.3	0.006567887110124912	1.938605701731513	97.448908587072	1.0
ASH1=tf_act(YOX1)	524.543846643488	0.2999992388875639	0.015036941411558032	1.002832005592602	0.001	1.446507030008974
ASH1=tf_act(YOX1)	524.5438422717491	0.14242690845578415	0.01503414956194747	1.1602784608610772	0.001	1.479608437522503
ASH1=tf_act(YOX1)	524.5438446967748	0.14245038281649197	0.015034176500621553	1.1602559782859174	0.001	1.4667148677188753
ASH1=tf_act(YOX1)	524.5438417501393	0.14384747944954848	0.015034174722746426	1.1588587549322065	0.001	1.4824791153144976
ASH1=tf_act(YOX1)	524.5438458144761	0.18166150178880727	0.015034168925062865	1.121044528853211	0.001	1.457797245214264
ASH1=tf_rep(YOX1)	480.2021023274652	0.0	0.014522661876280096	67.74208904292978	0.7038627942060608	1.0
ASH1=tf_rep(YOX1)	480.19722067956565	0.0	0.014524911124583472	67.59879818554418	0.7054571198437818	1.0
ASH1=tf_rep(YOX1)	480.20033398772836	0.0	0.01452369801789106	67.69011651387153	0.7044451644590618	1.0
ASH1=tf_rep(YOX1)	311.8232024566538	0.0	0.03576358925386309	5.129420744435787	41.10376477606734	10.0
ASH1=tf_rep(YOX1)	311.8232024588419	0.0	0.03576344547743215	5.1294080271986475	41.10375251378426	10.0
ASH1=tf_rep(YOX1)	311.8232024561662	0.0	0.03576361153633276	5.129423641077638	41.10375917352767	10.0
ASH1=tf_rep(YOX1)	311.823202461811	0.0	0.03576333563240522	5.129404122940535	41.1037217401573	10.0
ASH1=tf_rep(YOX1)	311.84914970381703	0.0	0.03523717293908414	5.109531742547569	40.97859732118073	10.0
ASH1=tf_rep(YOX1)	311.9371872286628	0.0	0.03459637560371009	5.081466387365671	40.83798556730423	10.0
ASH1=tf_rep(YOX1)	311.8232024594505	0.0	0.03576343679248552	5.129412143220946	41.10374001020868	10.0
ASH1=tf_act(ASH1)	524.5453960610887	0.2999934635709991	0.01503511982375989	1.002795099888201	0.001	1.0000181647195274
ASH1=tf_act(ASH1)	524.5438248088552	6.050898285146383e-07	0.015034172546048469	1.3027040035184512	0.0034886460711866783	2.273532256648841
ASH1=tf_act(ASH1)	524.5438244323894	0.0	0.0150341761475401	1.302706080045549	0.001004448974247191	2.2485856587285173
ASH1=tf_act(ASH1)	524.5456541138191	0.00110232570508141	0.015034879917572621	1.3016514360505367	0.13754631158817907	2.258245083886773
ASH1=tf_act(ASH1)	524.5438244235039	0.044800912071701435	0.015034169664752016	1.2579048512362674	0.001	2.2831624143773355
ASH1=tf_act(ASH1)	524.5438244347959	0.008439655854417123	0.01503417389116496	1.2942663158765746	0.0010064393653740449	2.2399825694278235
ASH1=tf_act(ASH1)	524.5438244692372	0.0	0.015034178583731824	1.3027061975547165	0.0012759623028200764	2.2185253325796905
ASH1=tf_act(ASH1)	524.5438244460026	0.0	0.015034187139243408	1.3027066198755948	0.001	2.205632186155338
ASH1=tf_act(ASH1)	524.5438244405324	0.001565481995151912	0.01503416669488327	1.3011401433387424	0.001	2.2213958710100483
ASH1=tf_act(ASH1)	524.5438244478258	0.03439983440376242	0.01503426267733519	1.2683103847827466	0.001	2.196710248753402
ASH1=tf_rep(ASH1)	467.3007857775855	0.15055065498962072	0.0	69.67406277575584	7.004373837149932	10.0
ASH1=tf_rep(ASH1)	467.30182896967113	0.15055618426437467	0.0	69.52306037333281	7.005980914025908	10.0
ASH1=tf_rep(ASH1)	467.30119580612416	0.1505597799228893	0.0	69.61463178294962	7.004998613390692	10.0
ASH1=tf_rep(ASH1)	467.30396569564755	0.1505692321609441	0.0	69.21585743994709	7.009263593588918	10.0
ASH1=tf_rep(ASH1)	467.304832931921	0.15057820936330252	0.0	69.09196557149382	7.010585778220062	10.0
ASH1=tf_rep(ASH1)	467.3037686227566	0.15057067811976765	0.0	69.24407370330673	7.008956012819188	10.0
ASH1=tf_rep(ASH1)	467.30028253390907	0.15054847751426262	0.0	69.74714851732224	7.003596109642216	10.0
ASH1=tf_rep(ASH1)	467.3000235641789	0.14983163470898977	0.0	69.80514232392771	7.00379711548227	10.0
ASH1=tf_rep(ASH1)	467.3006805912068	0.15055241226353935	0.0	69.68932594964721	7.004209130163183	10.0
ASH1=tf_rep(ASH1)	467.3014072318595	0.15055672053415944	0.0	69.58402590198794	7.00532821398381	10.0
ASH1=tf_act(RIF1)	524.3470041618273	0.29879906361232894	0.01125311050410161	2.3305550780015434	96.8455954968525	1.225208742477724
ASH1=tf_act(RIF1)	524.3782375598281	0.3	0.011788942737980777	2.240435382302834	96.88726221063092	1.0
ASH1=tf_act(RIF1)	524.3682127998576	0.29345319615514726	0.011652018269794177	2.305230430919632	96.82754241924353	1.0949128366418657
ASH1=tf_act(RIF1)	524.3616726448515	0.3	0.011660936457644482	2.297809054496601	96.95958643414208	1.1049914268971064
ASH1=tf_act(RIF1)	504.43467121180123	0.27788407747294236	0.0	3.758683178330959	95.74217366748962	10.0
ASH1=tf_act(RIF1)	504.3090879757234	0.2793751056650245	0.0	3.6495406666438877	95.27611816418154	9.965979190140754
ASH1=tf_act(RIF1)	504.29358821547874	0.27691490472047703	0.0	3.661309577419656	95.20164548558576	9.952482317770903
ASH1=tf_act(RIF1)	504.2723732873402	0.2785840825103671	0.0	3.629943695179618	95.12394266003666	9.947530828375609
ASH1=tf_act(RIF1)	504.21359397532757	0.27690416362966136	0.0	3.6103971223042715	94.9254458276237	9.965868004858782
ASH1=tf_act(RIF1)	504.17543182466653	0.27599513961985467	0.0	3.5872281399880026	94.75852799780078	9.944692924558698
ASH1=tf_rep(RIF1)	526.172672558817	0.3	0.019263364534799758	68.9358179228145	1.081782929375677	1.0154654030032884
ASH1=tf_rep(RIF1)	526.2063037530564	0.3	0.019605338263380144	68.75927958311087	1.148407614036408	1.0268656937844267
ASH1=tf_rep(RIF1)	526.1557666789429	0.3	0.019548541003989242	68.84522104032371	1.0694903709412642	1.0092854408989567
ASH1=tf_rep(RIF1)	526.1273374519652	0.3	0.019355716265792102	68.47456771007137	1.0285736534098373	1.0
ASH1=tf_rep(RIF1)	526.1356262124347	0.3	0.019523883912870108	68.34893985921077	1.0466611925554663	1.0022051863790284
ASH1=tf_rep(RIF1)	526.1273495231807	0.3	0.01935575533064855	68.5354465346811	1.0276446529594172	1.0
ASH1=tf_rep(RIF1)	526.1274522679508	0.3	0.019356077722742913	69.05783442403796	1.0197399066670505	1.0
ASH1=tf_rep(RIF1)	526.127464603798	0.3	0.019356116743032253	69.12106595651466	1.0187913479753594	1.0
ASH1=tf_rep(RIF1)	526.127443400486	0.3	0.019356032127657376	69.01244739262236	1.0204212270210338	1.0
ASH1=tf_rep(RIF1)	526.1274513046242	0.3	0.019356032656856096	69.05289570273257	1.0198123242516197	1.0
ASH1=tf_act(EDS1)	525.9361417646913	0.29758170247188304	0.010442990574346082	2.3312733708086992	96.57644189392153	1.1301022896820627
ASH1=tf_act(EDS1)	525.530963589122	0.3	0.011869880479171813	2.394920399889441	96.54800917705931	1.0
ASH1=tf_act(EDS1)	525.5308670649429	0.3	0.011871067710266907	2.39493352184504	96.53843711988002	1.0
ASH1=tf_act(EDS1)	525.5322081405342	0.3	0.011866368078568291	2.3963921031887465	96.67044055464164	1.0
ASH1=tf_act(EDS1)	525.5314729959132	0.3	0.011870924287708862	2.3958499545745453	96.59793534685743	1.0
ASH1=tf_act(EDS1)	525.5270904255603	0.3	0.011873641690599642	2.3893883640033606	96.16796728124028	1.0
ASH1=tf_act(EDS1)	525.7417339130695	0.1424217361018974	0.011586410878571995	2.7868424098566225	95.82488700352381	1.0
ASH1=tf_act(EDS1)	525.7347131177529	0.14243359827037091	0.011401710003568731	2.760153674061424	95.7316572178179	1.0
ASH1=tf_act(EDS1)	525.520954924985	0.3	0.011881338634279169	2.380884610691178	95.56816709565497	1.0
ASH1=tf_act(EDS1)	525.5186598082845	0.3	0.011887871374853453	2.378202755512209	95.34433687703886	1.0
ASH1=tf_rep(EDS1)	526.6447594003901	0.3	0.019638773068671827	68.75611123992331	0.9515893668358318	1.0
ASH1=tf_rep(EDS1)	526.6445179235888	0.3	0.01963868425915003	68.60561877659978	0.9537120839530158	1.0
ASH1=tf_rep(EDS1)	526.6446667602867	0.3	0.019638725977766187	68.69829900357249	0.9524033446900345	1.0
ASH1=tf_rep(EDS1)	526.6440334446593	0.3	0.019638559750023054	68.30564060447637	0.9579731736984907	1.0
ASH1=tf_rep(EDS1)	526.6438336697053	0.3	0.019638596081356097	68.18270010287209	0.9597340696903587	1.0
ASH1=tf_rep(EDS1)	526.6441412889791	0.3	0.01963860642895516	68.37219096314597	0.9570252636165695	1.0
ASH1=tf_rep(EDS1)	526.6449838228513	0.3	0.019638802996169515	68.89656093966158	0.9496150754430822	1.0
ASH1=tf_rep(EDS1)	526.6450850661087	0.3	0.01963882668847426	68.96010782303169	0.9487248473970842	1.0
ASH1=tf_rep(EDS1)	526.6449129358264	0.3	0.019638921990322782	68.85213783194799	0.9502431672958478	1.0
ASH1=tf_rep(EDS1)	526.6449104008901	0.3	0.019638534557165906	68.8505415898882	0.9502512596737583	1.0
