# LEMpy target file for YOX1, replicate 1 
# Run configuration file:  ../pipeline/src/yeast_data/simulations202110_Orlando_2/extra_nodes_no_annot/results3/edge_finding_20211013003459/lempy_20211013003459_config.txt 
# Time series data file:   ../pipeline/src/yeast_data/time_series/orlando2008_WildType_r2_trunc.tsv 
# Computed on:  2021-10-13 00:37:46 
 
model	loss	pld	inv_temp	prior	rhs_param_0	rhs_param_1	rhs_param_2	rhs_param_3	rhs_param_4	hess_eigs	hess_det	bnd_params	pld_time	opt_time
tf_rep(NDD1)	153.9807427891405	0.481073	1.0	0.0308952418469982	0.0	0.0424755257668307	7.241340840960782	44.98436602642553	10.0	[1, 1.7993733748154692, 15.454781163194317, 34.55937582814997, 4318023.505083009]	4149875255.659566	2.0	0.00010146200000349381	0.5546793359999995
tf_rep(SWI5)	199.77915717852457	0.392038	1.0	0.13700119255344	0.0	0.10066730504990441	8.995751894618367	42.158233180496616	1.9656686592122514	[1, 2.285204403466663, 18.341999285889028, 86.12847401966312, 4318371.047903511]	15589724220.619848	1.0	9.936899999729576e-05	0.6378818099999997
tf_act(SWI4)	290.2150483894945	0.123834	1.0	0.779939181673102	0.0	0.21811265418204948	22.769529875509075	46.693100258751265	2.457417161066968	[1, 1, 7.745406804023257, 457.0936175541979, 4318524.561014915]	15289200778.07802	1.0	0.0003911450000018135	0.5812000580000003
tf_act(EDS1)	294.6713111525113	0.00185718	1.0	0.00619782421248991	0.3	0.08839557671266289	24.767154684445774	100.0	2.866044654256361	[1, 1, 1.180164547255977, 162.07207075248738, 4323499.208666375]	826963095.4828464	2.0	8.832200000341572e-05	0.519635665
tf_rep(NRM1)	252.53667559089885	0.00103447	1.0	0.0434981948658505	0.0	0.03856882285532706	66.54264264278136	1.1830096268937718	1.0638725818796781	[1, 8.707867766190631, 82.14327072150067, 2146.136681845592, 4377551.086298065]	6720048652649.264	1.0	9.68430000014564e-05	0.5743957739999992
tf_rep(WHI5)	324.51192990765213	0.000162278	1.0	0.00225501952286583	0.0	0.02696270611835539	69.1253137282556	28.559951023527347	3.9865000819525926	[1, 1, 19.622188416850182, 124.0352432464388, 4320202.039439129]	10514693117.762667	1.0	9.232699999728311e-05	0.4242960550000001
tf_act(CLN3)	550.2987273266123	0.000000143145	1.0	5.51551877268593e-5	0.0	0.006371891422068657	0.8632128977506867	97.60780680766764	3.641511135481041	[1, 1, 1, 34.95856940337274, 4318024.674301245]	150951965.26203606	1.0	0.00010643099999896322	0.4158180309999997
tf_rep(HCM1)	404.2812224162952	0.000000131112	1.0	9.53841496590922e-6	0.0	0.010844068576344021	71.27135750908684	20.389293144241854	7.197341947528898	[1, 1, 21.937906965204657, 46.3080884659087, 4317977.643315749]	4386644440.40155	1.0	0.00011369900000346433	0.48547811500000027
tf_rep(YOX1)	553.4066916799271	0.000000071038	1.0	2.58954984144073e-5	0.0	0.0004634789197475818	30.54256028545721	0.239019946186254	6.694158442883995	[1, 1, 1, 27.413374859172205, 4317820.669279233]	118366036.58163342	1.0	9.159999999752699e-05	0.402783801
tf_rep(RIF1)	553.406691716426	0.0000000374114	1.0	1.36375790620206e-5	0.0	0.00046348285203759324	67.4646108877214	0.23901995223137926	5.1279289436820825	[1, 1, 1, 27.41337485917195, 4317820.669279234]	118366036.58163235	1.0	8.694799999631186e-05	0.37574077099999936
tf_act(YOX1)	522.7594909513125	0.0000000269888	1.0	2.07262655112931e-5	0.3	0.013400801219693313	2.1393795658520403	75.36389349969477	10.0	[1, 1, 2.9147107850805556, 39.116070722791626, 4317862.640046235]	492288298.6945792	2.0	9.266300000376759e-05	0.5873025399999996
tf_rep(CLN3)	553.4066917214076	0.0000000227673	1.0	1.65987338827968e-5	0.0	0.00046347893602128183	68.54160776768892	0.001	2.9045131705637073	[1, 1, 1, 27.41337485917171, 4317820.669279234]	118366036.58163132	2.0	0.0001110740000029864	0.5128248050000002
tf_rep(SWI4)	553.4066917213568	0.0000000227673	1.0	1.65987338826334e-5	0.0	0.0004634789246301867	55.0075530024593	0.001	5.1926938672260805	[1, 1, 1, 27.4133748588431, 4317820.669279236]	118366036.5802125	2.0	0.0001339920000020811	0.471055561
tf_rep(EDS1)	553.4066917213568	0.0000000227673	1.0	1.65987338824714e-5	0.0	0.00046347893042887297	68.28472463641496	0.001	3.8849346314082633	[1, 1, 1, 27.413374859389705, 4317820.6692792345]	118366036.5825726	2.0	8.550300000109701e-05	0.45065686200000066
tf_act(HCM1)	553.4066917213032	0.00000000797074	1.0	1.18145651681018e-5	0.0	0.0004634836242507887	0.0	100.0	1.3864625614101416	[1, 1, 1.0242502800161513, 27.656156654913612, 4317976.507760528]	122314570.06223184	3.0	0.0001103900000032354	0.3871003340000003
tf_act(RIF1)	553.4066917213569	0.00000000679134	1.0	1.13424943269031e-5	0.0	0.00046347892355240434	0.0	100.0	3.9518111557527917	[1, 1, 1.2702733692818902, 28.3125832194523, 4317865.38183343]	155290821.52465892	3.0	9.193000000351503e-05	0.4185836079999996
tf_act(SWI5)	553.4066917213568	0.00000000252144	1.0	6.41966520424153e-6	0.0	0.0004634789232444875	0.0	100.0	1.3634893019791745	[1, 1, 2.4030880659651817, 34.779460888955896, 4317935.126260194]	360884845.7415566	3.0	0.00010013099999639508	0.3407241980000002
tf_rep(ASH1)	523.2071793604449	0.00000000139223	1.0	1.31696865969164e-6	0.3	0.03464363077356568	2.2392690235798143	44.94088721240089	2.2334669756830374	[1, 1.645627885666196, 12.185566194746071, 33.83175054149338, 4318491.079074025]	2929772160.3746853	1.0	9.905600000337245e-05	0.42359809999999953
tf_act(ASH1)	553.4066917213542	0.000000000915862	1.0	3.44875758437784e-6	0.0	0.00046347904932067253	0.0	100.0	1.015791837008749	[1, 1, 4.613555655441168, 39.62696582042151, 4317962.412116455]	789415122.7141535	3.0	9.961699999649909e-05	0.40507216800000023
tf_act(NRM1)	553.4066917213569	0.00000000076943	1.0	2.1299983822884e-6	0.0	0.00046347892210306076	0.0	100.0	5.468362383038564	[1, 1, 3.567763579670842, 27.694796828201586, 4317834.024569876]	426638649.11443	3.0	9.740600000185395e-05	0.5049542680000005
tf_act(WHI5)	553.4066917213129	0.000000000227491	1.0	1.17468807603403e-6	0.0	0.00046348177621973477	0.0	94.90247398183715	1.0	[1, 1, 10.096262151271588, 34.0477526616719, 4318233.516237224]	1484414520.1360147	3.0	9.28439999938746e-05	0.32497956600000055
tf_act(NDD1)	553.4066917213568	0.000000000156601	1.0	9.49040523489857e-7	0.0	0.000463478924776137	0.0	100.0	1.0725609460715373	[1, 1, 15.18568272826122, 31.18146355108602, 4318055.403375439]	2044650240.4829607	3.0	0.00010745000000156324	0.3907891050000005
null_model	553.406691721357				0.0	0.000463478923331231								
