# LEMpy local minima file for target F, replicate 0
# Right-hand side of tf_act():  p0 - p1(tar) + p2(reg^p4) / (p3^p4 + reg^p4)
# Right-hand side of tf_rep():  p0 - p1(tar) + p2(p3^p4) / (p3^p4 + reg^p4)
# Run configuration file:  ../pipeline/src/syn_net/syn_net_6D_simulations_202110_with_G/p270/results1/edge_finding_20211014210310/lempy_20211014210310_config.txt
# Time series data file:   ../pipeline/src/syn_net/time_series_with_G/syn_net_6D_20191104_a_data_p270_transposed_with_G.tsv
# Computed on:  2021-10-14 21:05:21 
 
model	loss	p0	p1	p2	p3	p4
F=tf_act(A)	902.1467779109294	0.2728989371643604	0.004458860029657588	0.0	27.037697958979557	1.0
F=tf_act(A)	902.1467779110677	0.2728985469374492	0.004458860560240919	0.0	26.934202436013976	1.0
F=tf_act(A)	902.146777910904	0.27289901408518324	0.004458861808891446	0.0	26.82343341081385	1.0076804304144678
F=tf_act(A)	902.1467779108539	0.27289907545573466	0.004458866010322227	0.0	26.53718850527423	1.0
F=tf_act(A)	902.1467779107188	0.27289957389737357	0.004458876743587338	0.0	26.208157757305838	1.0
F=tf_act(A)	902.1467779107979	0.27290022993827345	0.004458882912451788	0.0	26.388434295679097	1.023170043834429
F=tf_act(A)	902.1467779108239	0.27289927049292395	0.0044588678215221784	0.0	26.082209346190243	1.0129038708958868
F=tf_act(A)	902.1467779125932	0.27289713240434055	0.00445879885054342	0.0	26.14281018948088	1.0
F=tf_act(A)	902.1467779113134	0.27290015168361437	0.00445887133922032	0.0	26.340718346363015	1.0196799971163892
F=tf_act(A)	902.1467779131145	0.2728982393528466	0.004458812604797816	0.0	26.39821634891558	1.0015998142667133
F=tf_rep(A)	606.5257612529742	0.0	0.01761737940164883	99.82717161327729	9.717695465055078	10.0
F=tf_rep(A)	606.5224775265184	0.0	0.017617163485629105	100.0	9.715948664333803	10.0
F=tf_rep(A)	606.5256777479075	0.0	0.017616947031688247	99.83155133772429	9.717628468783255	10.0
F=tf_rep(A)	606.5226153019307	0.0	0.017617107706013137	99.99273634828437	9.716020429354515	10.0
F=tf_rep(A)	606.5224775264852	0.0	0.017617165404522253	100.0	9.715948717593061	10.0
F=tf_rep(A)	606.5259895947053	0.0	0.017617154183962955	99.81516905813811	9.717803294281456	10.0
F=tf_rep(A)	606.5277765347622	0.0	0.01761687350306757	99.72138789361406	9.718730864931164	10.0
F=tf_rep(A)	606.5224883461337	0.0	0.01761716950142937	99.99942953237604	9.715955011704473	10.0
F=tf_rep(A)	606.5251393672007	0.0	0.017617238765637692	99.85985607971327	9.71736471978765	10.0
F=tf_rep(A)	606.5224775265949	0.0	0.017617160431421707	100.0	9.715948719332644	10.0
F=tf_act(B)	902.1467779108422	0.27289921153141433	0.004458866401865938	0.0	26.121817827715844	1.0
F=tf_act(B)	902.146777910526	0.2729005612516332	0.0044589040821185364	0.0	26.005841401753408	1.0
F=tf_act(B)	902.1467779115382	0.2728986876043959	0.004458878494339378	0.0	25.89507245379494	1.0076841844793942
F=tf_act(B)	902.1467779108016	0.2728993457383584	0.004458869604590086	0.0	25.608017808088892	1.0076935715283077
F=tf_act(B)	902.1467779110864	0.27289859177493525	0.004458850161266385	0.0	25.130494696125183	1.0
F=tf_act(B)	902.1467779109239	0.272898945201703	0.0044588603857732625	0.0	25.310771234498443	1.023170043834429
F=tf_act(B)	902.1467779110637	0.27289873562683287	0.004458868518279932	0.0	25.00454625439564	1.0129024763268557
F=tf_act(B)	902.1467779110656	0.27289854867514957	0.004458851370551344	0.0	25.407904595174365	1.0
F=tf_act(B)	902.1467779104802	0.27290148312961954	0.0044589245280234795	0.0	25.604511826497173	1.0271714000116916
F=tf_act(B)	902.1467779115368	0.2728985112388122	0.0044588370216161995	0.0	25.662009829049737	1.0090912171620157
F=tf_rep(B)	17.741672108807858	0.3	0.10621783694382032	11.239534654176962	1.3459025746669624	9.987912436560679
F=tf_rep(B)	17.735648160160686	0.3	0.10632585774630561	11.256868677183096	1.3438741848531446	10.0
F=tf_rep(B)	17.735641231848362	0.3	0.10633475198136841	11.257818614621101	1.343882160044685	10.0
F=tf_rep(B)	17.73564123221413	0.3	0.10633472582593989	11.257814360318331	1.3438825001154802	10.0
F=tf_rep(B)	17.735641231706662	0.3	0.10633475728235899	11.257817467256473	1.343882793592026	10.0
F=tf_rep(B)	17.735641231787813	0.3	0.1063347499743693	11.25781643512521	1.3438827556470894	10.0
F=tf_rep(B)	17.735641231852483	0.3	0.1063347453144724	11.257816306767857	1.3438826794478087	10.0
F=tf_rep(B)	17.735641231931638	0.3	0.10633473995312268	11.25781555655951	1.3438827224888867	10.0
F=tf_rep(B)	17.735641231933407	0.3	0.10633473989101214	11.257815729991352	1.3438826828995654	10.0
F=tf_rep(B)	17.73564123184524	0.3	0.10633474594066998	11.257815977103949	1.3438827511695137	10.0
F=tf_act(C)	902.1467779107622	0.27290065387928875	0.004458918050604166	0.0	26.375201866277678	2.226412417221858
F=tf_act(C)	902.1467779110285	0.2728986945214878	0.004458853571521862	0.0	26.20953937939268	2.2047032511266784
F=tf_act(C)	902.1467779115598	0.27289877676293506	0.004458881500042172	0.0	26.09877043143421	2.2123874356060726
F=tf_act(C)	902.1467779105018	0.27290116980770346	0.004458920893906244	0.0	25.82280213720261	2.1821073391575614
F=tf_act(C)	902.1467779111069	0.272899331011496	0.004458859215176617	0.0	25.93858911899889	1.914524693349715
F=tf_act(C)	902.1467779109329	0.27289891962800944	0.004458859788242606	0.0	26.11886565737215	1.9376947371841442
F=tf_act(C)	902.1467779110384	0.27289883149577876	0.004458871127345789	0.0	25.812640677269346	1.9274271696765708
F=tf_act(C)	902.1467779110397	0.2728985797321834	0.004458853242000002	0.0	26.157737394674605	1.0
F=tf_act(C)	902.1467779130408	0.27290698402388436	0.0044590685691928604	0.0	26.355345383530718	1.0205038017832362
F=tf_act(C)	902.1467779113715	0.2728987597091304	0.0044588441827381935	0.0	26.41284338608328	1.0024236189335602
F=tf_rep(C)	121.92471362279987	0.0	0.05101210080906855	95.6785249893799	4.3522885460277605	10.0
F=tf_rep(C)	121.92304479851595	0.0	0.05100960776999752	95.93917182422895	4.350973109140063	10.0
F=tf_rep(C)	121.92409067955361	0.0	0.05100969689552234	95.77545054600178	4.351784963362651	10.0
F=tf_rep(C)	121.92298049400432	0.0	0.05100964601274583	95.94925997196799	4.350923393206119	10.0
F=tf_rep(C)	121.92007376780268	0.0	0.051009408533542376	96.40795179036733	4.348658210465072	10.0
F=tf_rep(C)	121.93582129312063	0.0	0.051011801264532336	93.98422642864068	4.360787450304311	10.0
F=tf_rep(C)	121.93632620421417	0.0	0.05101049656240222	93.90885990579406	4.3611581588531285	10.0
F=tf_rep(C)	121.94119842426869	0.0	0.0510117216394586	93.1897363626245	4.364837656334457	10.0
F=tf_rep(C)	121.96129226183618	0.0	0.051013800738365894	90.35900327782308	4.379633279670017	10.0
F=tf_rep(C)	121.9646731747798	0.0	0.0510129383141886	89.90286832569956	4.382058858525238	10.0
F=tf_act(D)	575.8364789558414	0.0	0.023239520941348155	5.553363428434252	100.0	10.0
F=tf_act(D)	576.0540937484272	0.0	0.02365088367185185	5.62117502497685	99.94947935004112	10.0
F=tf_act(D)	575.8364789557278	0.0	0.023239533242967132	5.553364892098663	100.0	10.0
F=tf_act(D)	575.8364789558376	0.0	0.023239521138690693	5.553363563369383	100.0	10.0
F=tf_act(D)	575.8364789557364	0.0	0.02323953103910685	5.553365730477144	100.0	10.0
F=tf_act(D)	575.8364789557633	0.0	0.023239527217329654	5.5533648838955925	100.0	10.0
F=tf_act(D)	575.8364789558339	0.0	0.02323952145358964	5.553363462786835	100.0	10.0
F=tf_act(D)	575.836478955814	0.0	0.023239522779746325	5.553363912859733	100.0	10.0
F=tf_act(D)	575.8364789557693	-1.0842021724855044e-19	0.023239526613721275	5.553364760533103	100.0	10.0
F=tf_act(D)	575.836478955846	0.0	0.023239520604416447	5.553363434712957	100.0	10.0
F=tf_rep(D)	902.1467779111272	0.27289846676399954	0.0044588476781748055	0.0	12.883770458849716	2.4683005691760274
F=tf_rep(D)	902.1467779110801	0.2728985190378482	0.004458850480084557	0.0	12.724714488348457	2.4303949056018985
F=tf_rep(D)	902.1467779116028	0.27289892895456436	0.004458886595099166	0.0	12.613945540389986	2.4380790900812928
F=tf_rep(D)	902.1467779108461	0.27289907508419964	0.0044588679784536775	0.0	12.312249572230135	2.4509518527843093
F=tf_rep(D)	902.1467779111664	0.2728983190139108	0.004458845558226456	0.0	19.473847578227986	1.0
F=tf_rep(D)	902.146777910946	0.2728988816113346	0.004458858885048316	0.0	19.654124116601245	1.023170043834429
F=tf_rep(D)	902.1467779110217	0.27289892231447954	0.004458873817293997	0.0	19.34789913649844	1.0129024763268557
F=tf_rep(D)	902.1467779169683	0.27289423819631253	0.004458710850485275	0.0	19.651578217497953	1.0
F=tf_rep(D)	902.1467779109532	0.2728988669206672	0.0044588583979525195	0.0	19.838827764107997	1.0148760217657824
F=tf_rep(D)	902.1467779121097	0.2728986049015798	0.004458830186690483	0.0	19.89632576666056	1.0
F=tf_act(E)	902.1467779108427	0.27289909037471916	0.004458867683462431	0.0	24.351269375970638	2.1467906516389585
F=tf_act(E)	902.1467779108405	0.2728991816575748	0.004458866456471773	0.0	24.277279629438908	2.0524157085171746
F=tf_act(E)	902.1467779115666	0.27289902954751294	0.0044588889073404235	0.0	24.16651068148044	2.060099892996569
F=tf_act(E)	902.1467779111069	0.27289857144652346	0.004458863857546137	0.0	23.893822512218364	2.0342320713168145
F=tf_act(E)	902.1467779111194	0.2728984304985862	0.004458848173246442	0.0	24.968360957201106	1.0
F=tf_act(E)	902.146777910692	0.27290129298456345	0.004458908234843563	0.0	25.148637495574366	1.023170043834429
F=tf_act(E)	902.1467779109366	0.27289894624382005	0.004458859579644333	0.0	24.842412501360663	1.0129010969174401
F=tf_act(E)	902.1467779112869	0.2728984067996772	0.004458841218265098	0.0	24.904345550049793	1.0
F=tf_act(E)	902.146777912852	0.2729038706287598	0.0044589444945733366	0.0	25.102797661163564	1.021207028393406
F=tf_act(E)	902.146777911919	0.2728986305514354	0.004458833118687936	0.0	25.160295663716127	1.00312684554373
F=tf_rep(E)	525.1252966538171	0.0	0.02118257468589317	98.65552686078428	4.256507685117673	10.0
F=tf_rep(E)	525.1206727151935	0.0	0.021181433214157365	98.91105684844047	4.255339323547945	10.0
F=tf_rep(E)	525.1236941605183	0.0	0.02118117080062168	98.74387715167768	4.256083566448445	10.0
F=tf_rep(E)	525.1207190004714	0.0	0.021181419724548213	98.90849153610303	4.255350573377269	10.0
F=tf_rep(E)	525.1125372987622	0.0	0.02118190759049182	99.36404510968055	4.2533259024521595	10.0
F=tf_rep(E)	525.1261120921461	0.0	0.02118153399727622	98.61050716702223	4.256688929141749	10.0
F=tf_rep(E)	525.127748406307	0.0	0.021180987105393796	98.52044318973456	4.257083303994352	10.0
F=tf_rep(E)	525.125875132038	0.0	0.021181586830305153	98.62356264695313	4.256630743874787	10.0
F=tf_rep(E)	525.1398222330447	0.0	0.021181253289576887	97.86106657127553	4.260063341829607	10.0
F=tf_rep(E)	525.1447258452026	0.0	0.021180300296335684	97.595758062582	4.261250575095784	10.0
F=tf_act(F)	902.1467779109609	0.27289884588418184	0.00445885790981976	0.0	23.98536751085691	2.245104106346186
F=tf_act(F)	902.1467779108383	0.27289965782957004	0.004458892075665905	0.0	23.944085823557884	2.2075552209351113
F=tf_act(F)	902.1468349850662	0.27380181358647343	0.004479525568916901	0.0	23.833317416101988	2.215238094632761
F=tf_act(F)	902.146777910738	0.272899686815228	0.004458876140288853	0.0	23.53676872778447	2.226750950725036
F=tf_act(F)	902.1467779109231	0.27289931133245826	0.00445886382838969	0.0	24.768014067023813	1.5107601294874555
F=tf_act(F)	902.1467790152946	0.27302685468211507	0.0044618170113941	0.0	24.948290607423544	1.533930157519608
F=tf_act(F)	902.1468349525375	0.2738030743786096	0.004479726943217548	0.0	24.64206582067574	1.5236607932830257
F=tf_act(F)	902.1468788603557	0.27170051223070746	0.0044308257964596745	0.0	24.778014275259782	1.5122265379348685
F=tf_act(F)	902.1467779106719	0.2729012923536965	0.004458931462019893	0.0	24.968731813703158	1.5435491084657458
F=tf_act(F)	902.1467779116196	0.27289861247044117	0.004458837249309661	0.0	25.02622981625572	1.5254689256160698
F=tf_rep(F)	786.8086766244177	0.0	0.00847000180643649	99.84177913467136	6.265160953481747	10.0
F=tf_rep(F)	786.8827258727396	0.0	0.008566572651476425	99.99999934406333	6.267228118296584	9.987282760994795
F=tf_rep(F)	786.8087480203096	0.0	0.008469862590135754	99.83155260229505	6.265217557046893	10.0
F=tf_rep(F)	786.8076244173027	0.0	0.0084699584286966	99.99269830356243	6.2641918196534405	10.0
F=tf_rep(F)	786.8075735922929	0.0	0.008469934310849855	100.0	6.2641442254457225	10.0
F=tf_rep(F)	786.808813504704	0.0	0.008469921614125176	99.82217750185906	6.265281692805526	10.0
F=tf_rep(F)	786.8094700899222	0.0	0.008469818568534914	99.72826904209919	6.265877391753283	10.0
F=tf_rep(F)	786.8075735917424	0.0	0.008469950614619899	100.0	6.264145095024111	10.0
F=tf_rep(F)	786.8084497614346	0.0	0.008470031450849081	99.87427963800684	6.264952647533367	10.0
F=tf_rep(F)	786.8098165715221	0.0	0.00846845669186689	99.67914433813303	6.266098837323077	10.0
F=tf_act(G)	902.1467779108992	0.27289902662416043	0.004458862131219859	0.0	28.024183874311788	1.0
F=tf_act(G)	902.1467779105735	0.27290033320377854	0.004458894059993515	0.0	27.910175840075517	1.0
F=tf_act(G)	902.1467779112538	0.2728988081889833	0.0044588474640399845	-2.7755575615628914e-17	27.79940684079355	1.0076805971622866
F=tf_act(G)	902.1467779109788	0.27289879880545276	0.004458856716311238	0.0	27.624465228148882	1.0
F=tf_act(G)	902.1467779109202	0.27289896400386754	0.00445886066320649	0.0	27.631403463507212	1.0
F=tf_act(G)	902.1467790531937	0.2730290013717223	0.004461868411988728	0.0	27.81168000165467	1.0231700050750183
F=tf_act(G)	902.1467779132472	0.27289854670704244	0.00445881745809706	0.0	27.505454980723847	1.0128996512470576
F=tf_act(G)	902.1467779116938	0.27289767953363814	0.004458848891491392	0.0	27.613080076651816	1.0
F=tf_act(G)	902.1467779109764	0.27289879613101337	0.004458856885501758	0.0	27.808764376130163	1.0236889824412312
F=tf_act(G)	902.1467779118072	0.2728986202423946	0.004458834491600546	0.0	27.866262378682727	1.0056087995915552
F=tf_rep(G)	789.0149958546688	0.0	0.020406454582193843	4.940703812096733	6.955505311312373	10.0
F=tf_rep(G)	789.0149958546796	0.0	0.020406453617064838	4.940703810394039	6.9555058980985205	10.0
F=tf_rep(G)	789.0719226484923	0.0	0.02051319460696338	4.975681106017512	6.887856397663147	10.0
F=tf_rep(G)	789.0149958637642	0.0	0.020406417230493946	4.940696935799543	6.955531526009026	10.0
F=tf_rep(G)	789.0149958543769	0.0	0.020406481528801774	4.940709430066535	6.95550805232142	10.0
F=tf_rep(G)	789.0149958559465	0.0	0.02040640823299344	4.940694772501249	6.955505833690969	10.0
F=tf_rep(G)	789.0149958544575	0.0	0.020406474238937534	4.94070792018229	6.955508397962856	10.0
F=tf_rep(G)	789.0149958556156	0.0	0.02040644118331568	4.940705199094988	6.955499717753834	10.0
F=tf_rep(G)	789.014995856035	0.0	0.02040641035973799	4.940694304030835	6.955502885042041	10.0
F=tf_rep(G)	789.0149958595872	0.0	0.020406475106291302	4.940717131132445	6.955487879810616	10.0
