# LEMpy local minima file for target E, replicate 0
# Right-hand side of tf_act():  p0 - p1(tar) + p2(reg^p4) / (p3^p4 + reg^p4)
# Right-hand side of tf_rep():  p0 - p1(tar) + p2(p3^p4) / (p3^p4 + reg^p4)
# Run configuration file:  ../pipeline/src/syn_net/syn_net_6D_simulations_202110_with_G/p1945/results4/edge_finding_20211015121316/lempy_20211015121316_config.txt
# Time series data file:   ../pipeline/src/syn_net/time_series_with_G/syn_net_6D_20191104_a_data_p1945_transposed_with_G.tsv
# Computed on:  2021-10-15 12:16:41 
 
model	loss	p0	p1	p2	p3	p4
E=tf_act(A)	839.812709414633	0.0	0.002348987982270103	0.0	99.50135387523349	1.0500562537858418
E=tf_act(A)	839.8127094146331	0.0	0.00234898797087692	0.0	99.41042399880969	1.0310356627455566
E=tf_act(A)	839.8127094146332	0.0	0.002348987978410271	0.0	99.01110723468703	1.0115078186318238
E=tf_act(A)	839.8127094146331	0.0	0.0023489879781597167	0.0	99.4278664829857	1.0
E=tf_act(A)	839.812709414633	0.0	0.002348987982135996	0.0	99.35733926405763	4.312791367102214
E=tf_act(A)	839.8674103950942	0.0	0.00236936040121672	0.015644841635740946	99.79839856331147	4.464645301811588
E=tf_act(A)	839.8127094146329	0.0	0.0023489879835975314	0.0	100.0	4.649367695968438
E=tf_act(A)	839.8127094146332	0.0	0.00234898796917979	0.0	99.70868578967303	4.676425586953782
E=tf_act(A)	839.8127094146222	0.0	0.0023489888279230133	0.0	99.75466169612962	4.7038058468811705
E=tf_act(A)	839.8127094146333	0.0	0.002348987971218254	0.0	99.96706594110859	4.708833636056652
E=tf_rep(A)	583.8994627898347	0.0	0.039143952817908216	100.0	5.009464077603356	10.0
E=tf_rep(A)	583.9114987857085	0.0	0.03914241009440621	99.53588831245511	5.0121091597076335	10.0
E=tf_rep(A)	583.9093061633831	0.0	0.03914268162177827	99.62005869290816	5.011628301600024	10.0
E=tf_rep(A)	583.899462781077	0.0	0.03914427391626826	100.0	5.009469873904693	10.0
E=tf_rep(A)	583.8994627950499	0.0	0.03914440009036736	100.0	5.009470404292314	10.0
E=tf_rep(A)	583.8994627771768	0.0	0.03914407992981459	100.0	5.009466936430334	10.0
E=tf_rep(A)	583.8994627771725	0.0	0.03914408023059242	100.0	5.009466940694173	10.0
E=tf_rep(A)	583.9045160352588	0.0	0.03914338691937344	99.80452611270447	5.010578053239328	10.0
E=tf_rep(A)	583.91233621182	0.0	0.03914297241496582	99.5037888122614	5.012303102183335	10.0
E=tf_rep(A)	583.9490377311226	0.0	0.03914249266525061	98.12055429338979	5.020341498070091	10.0
E=tf_act(B)	839.8127094146332	0.0	0.0023489879727132397	0.0	99.503509201485	1.0011682231625767
E=tf_act(B)	839.8127094146331	0.0	0.0023489879654376624	0.0	99.4125793250612	1.0
E=tf_act(B)	839.8465835341799	0.0	0.0023513546027163277	0.0008405826023168811	99.00379170992386	1.0
E=tf_act(B)	839.8127094146331	0.0	0.0023489879781597167	0.0	99.42055095822253	1.0
E=tf_act(B)	839.8127094146332	0.0	0.002348987979963101	0.0	98.89334111357941	1.0
E=tf_act(B)	839.812709414633	0.0	0.0023489879771643606	0.0	99.32125787646119	1.0
E=tf_act(B)	840.4186682069561	0.04363988609307453	0.0033444619231063678	-5.551115123125783e-17	99.7731375541894	1.0
E=tf_act(B)	839.8127094146331	0.0	0.0023489879759718067	0.0	99.02994341159597	1.0270540170969893
E=tf_act(B)	839.8127094146221	0.0	0.0023489888453038345	0.0	99.07591931805256	1.0544342770243782
E=tf_act(B)	839.8127094146332	0.0	0.002348987968031165	0.0	99.28832356303153	1.0594620661998597
E=tf_rep(B)	25.079440056780285	0.0	0.1056643098503914	26.800456187672825	22.734622533222655	10.0
E=tf_rep(B)	25.079440056833842	0.0	0.10566430468710408	26.800449256091994	22.7346241045604	10.0
E=tf_rep(B)	25.10630597778821	0.0	0.10572131900220222	27.162258728368684	22.622880316492875	10.0
E=tf_rep(B)	25.096789564847704	0.0	0.10561216196439657	26.518255436844157	22.823994976741023	10.0
E=tf_rep(B)	25.082333993451357	0.0	0.10568093969716198	26.917658569171586	22.697825670923567	10.0
E=tf_rep(B)	25.08259460004724	0.0	0.10568168370003589	26.9228531623761	22.696204223494817	10.0
E=tf_rep(B)	25.080712385771296	0.0	0.10567558226501694	26.878034205807047	22.710238949538777	10.0
E=tf_rep(B)	25.083333871250357	0.0	0.10568817851084619	26.93683604257561	22.692225810033293	10.0
E=tf_rep(B)	25.08265222169927	0.0	0.105627825928644	26.677450380666883	22.772083770765207	10.0
E=tf_rep(B)	25.079440094663624	0.0	0.10566468750695308	26.800214702772784	22.734740492007838	10.0
E=tf_act(C)	839.8127094146331	0.0	0.002348987968672135	0.0	99.50124819246597	1.0073225550776748
E=tf_act(C)	839.8127094146333	0.0	0.002348987965525795	0.0	99.41031831604217	1.0
E=tf_act(C)	839.9970066298561	0.0	0.0023606232653906045	0.00500238484966828	99.00363683071691	1.0
E=tf_act(C)	839.8127094146331	0.0	0.0023489879781597167	0.0	99.42039607901559	1.0
E=tf_act(C)	839.812709414633	0.0	0.0023489879734585615	0.0	99.27032439385177	1.0
E=tf_act(C)	839.8127094146331	0.0	0.002348987975451246	0.0	99.15424211748862	1.0
E=tf_act(C)	839.812709414633	0.0	0.0023489879740250237	0.0	99.58900841193578	1.0
E=tf_act(C)	839.8127094146331	0.0	0.0023489879692929626	0.0	99.29769394801983	1.0270542722340856
E=tf_act(C)	839.8127094146223	0.0	0.0023489888231755197	0.0	99.34366985447642	1.0544345321614745
E=tf_act(C)	839.8127094146332	0.0	0.0023489879664762444	0.0	99.55607409945539	1.059462321336956
E=tf_rep(C)	358.89853169541595	0.0	0.06221147549032396	20.38262151028724	15.08112885972183	10.0
E=tf_rep(C)	358.8934994698884	0.0	0.062106588775154056	19.94914739855235	15.158135917088355	10.0
E=tf_rep(C)	358.8963286736787	0.0	0.06219701514033133	20.348546195085316	15.086631907359118	10.0
E=tf_rep(C)	358.88930207483446	0.0	0.0621512626133829	20.120944982494986	15.127315365052	10.0
E=tf_rep(C)	358.91653418231823	0.0	0.06223357158628598	20.57497959408812	15.046713121114871	10.0
E=tf_rep(C)	358.9108086935461	0.0	0.062222363626424394	20.522989601867575	15.055601652923134	10.0
E=tf_rep(C)	358.9010124337405	0.0	0.062204117240052384	20.415640995796544	15.074452761230832	10.0
E=tf_rep(C)	358.90208749227855	0.0	0.062215243242349644	20.42961861885683	15.072538694338435	10.0
E=tf_rep(C)	358.88950635544194	0.0	0.062160798750132466	20.15937379283912	15.12048268522168	10.0
E=tf_rep(C)	358.9160285797749	0.0	0.06206021711155699	19.69527114966725	15.206269388212483	10.0
E=tf_act(D)	532.6926089347403	0.0	0.06397610778894236	5.202902589395487	38.50711695072089	10.0
E=tf_act(D)	532.7001465293749	0.0	0.06410251096223263	5.2015116615864825	38.36366114506576	10.0
E=tf_act(D)	532.6926088708259	0.0	0.06397524016393555	5.202861897539155	38.50750601536453	10.0
E=tf_act(D)	532.6926088882175	0.0	0.06397555747272614	5.20288098433266	38.507526199357976	10.0
E=tf_act(D)	532.692608870429	0.0	0.06397526331348816	5.202864053608599	38.50750313917342	10.0
E=tf_act(D)	532.6926088705717	-2.710505431213761e-20	0.06397525265776349	5.20286330680227	38.507504730137164	10.0
E=tf_act(D)	532.7756767935161	0.0	0.0635551044333786	5.207173004204923	38.99645384225593	10.0
E=tf_act(D)	532.7032357872845	0.0	0.06382431102280542	5.20441171650715	38.68036708471261	10.0
E=tf_act(D)	532.7060346962486	0.0	0.06380257930982883	5.204349012025029	38.701987895097005	10.0
E=tf_act(D)	532.7445203446617	0.0	0.06363205211045367	5.205386127955473	38.89267337185627	10.0
E=tf_rep(D)	839.8127094152433	0.0	0.002349014570498133	0.0	0.001	1.3193845112357248
E=tf_rep(D)	839.8127094146332	0.0	0.002348987971353645	0.0	0.001	1.3003639201954396
E=tf_rep(D)	839.8127387121557	0.0	0.0023489886728198487	0.08171092382860294	0.001	1.2774605813959008
E=tf_rep(D)	839.8127094146331	0.0	0.0023489879781597167	0.0	0.41775924829867495	1.2342036838822568
E=tf_rep(D)	839.8127140304911	0.0	0.002348964077923909	0.1472286249637363	0.006001535140554583	1.875070902680897
E=tf_rep(D)	840.2947717331729	0.031635369049616745	0.0030739679971246566	0.639597581190827	0.4158228227050453	1.9006187540956787
E=tf_rep(D)	840.3262669972572	0.03334302496708149	0.0031113671796038564	0.5862944905981894	0.42977347134644334	1.862585647607849
E=tf_rep(D)	839.8127096400437	0.0	0.002349002446399538	0.3636321268013656	0.001	1.9327869494049201
E=tf_rep(D)	839.8127925279211	0.0	0.0023489942550399107	0.0929844816743564	0.04687418086280186	1.960180389734525
E=tf_rep(D)	839.8127094146332	0.0	0.0023489879705910323	0.0	0.25927842584177235	1.9652081789100064
E=tf_act(E)	626.3129547937898	0.3	0.08952966904501194	23.601398353271016	87.55952796655508	10.0
E=tf_act(E)	626.3651036307805	0.3	0.08931966072807697	23.334774628068384	87.31913467612522	10.0
E=tf_act(E)	626.2930525666058	0.3	0.08964073680705786	23.881375995660168	87.84286650321302	10.0
E=tf_act(E)	626.293219999988	0.3	0.08965737822790447	23.908792878041528	87.8682665019631	10.0
E=tf_act(E)	626.2936536593346	0.3	0.089657883543548	23.930577027928518	87.89270782448672	10.0
E=tf_act(E)	626.3516307133184	0.3	0.08994909686825642	24.404076610058706	88.31929307984176	10.0
E=tf_act(E)	626.4908083716762	0.3	0.09020025389207821	24.861383688846516	88.7244249904137	10.0
E=tf_act(E)	626.4019996080124	0.3	0.09006116746423475	24.60079355309853	88.49422238191755	10.0
E=tf_act(E)	626.3706486295314	0.3	0.09000249566251266	24.486422761653927	88.39066288126277	10.0
E=tf_act(E)	626.2930525678764	0.3	0.08964089835218994	23.881321662087206	87.84275302421517	10.0
E=tf_rep(E)	810.7506022266695	0.0	0.013842698848170128	100.0	6.940111813349003	10.0
E=tf_rep(E)	810.7521227394762	0.0	0.01384218289925808	99.53605644170312	6.943390179801819	10.0
E=tf_rep(E)	810.7759216807494	0.0	0.014165894494060591	99.62015674131152	6.957905962783131	9.997385642004588
E=tf_rep(E)	810.7547496114097	0.0	0.013841555644649279	98.74448360002914	6.949037540020301	10.0
E=tf_rep(E)	810.7534969935011	0.0	0.01384159680108776	99.12038107379382	6.946334352777931	10.0
E=tf_rep(E)	810.7524414816313	0.0	0.013842178089342762	99.43934081722476	6.9440819388380275	10.0
E=tf_rep(E)	810.7516394981855	0.0	0.013842535258562829	99.68304575187128	6.94236078435907	10.0
E=tf_rep(E)	810.7522791181485	0.0	0.01384206359288372	99.4885827131863	6.943723605977727	10.0
E=tf_rep(E)	810.7531787204452	0.0	0.013841504021691264	99.21634888220719	6.945637875923045	10.0
E=tf_rep(E)	810.7544511816766	0.0	0.013841388543722213	98.83377623950771	6.948383455370044	10.0
E=tf_act(F)	31.001582308490292	0.3	0.43604600617458666	93.80477935479986	100.0	1.6618702005741983
E=tf_act(F)	31.001582315515392	0.3	0.4360451007356161	93.80458069425275	100.0	1.6618703498829877
E=tf_act(F)	31.001582316954998	0.3	0.43604496374299057	93.8045630957855	100.0	1.6618706749689909
E=tf_act(F)	31.00158231691284	0.3	0.4360449666661054	93.80457181835267	100.0	1.6618708232148067
E=tf_act(F)	31.001582317056165	0.3	0.436044952543288	93.80456418387097	100.0	1.6618707596715905
E=tf_act(F)	31.021862466413342	0.3	0.4385383066052713	94.29657483218888	100.0	1.6605873724619244
E=tf_act(F)	31.001582318531206	0.3	0.436044847234065	93.80454213333785	100.0	1.661870777830147
E=tf_act(F)	31.005474683595956	0.3	0.4349552339774103	93.58959485902905	100.0	1.6624377905199668
E=tf_act(F)	31.00158231806685	0.3	0.4360448767266679	93.8045513397608	100.0	1.6618708456987266
E=tf_act(F)	31.0015823255358	0.3	0.4360458711275269	93.80470047592377	100.0	1.6618687375578527
E=tf_rep(F)	839.8127096532456	0.0	0.0023485774822735255	0.0	0.001	1.1481642002240369
E=tf_rep(F)	839.8127094146333	0.0	0.002348987965046458	0.0	0.001	1.1291436091837517
E=tf_rep(F)	840.3452616795288	0.0384108232049034	0.003227851089827812	0.08228822040072084	0.04427488851768606	1.1058316455668797
E=tf_rep(F)	839.8127094146331	0.0	0.0023489879781597167	0.0	0.41775924829867495	1.0858867116701076
E=tf_rep(F)	839.8127094541932	0.0	0.002348988193087903	0.11351521827369462	0.004947998447524684	2.2442570338586765
E=tf_rep(F)	840.251484154118	0.03197964384220358	0.0030826401886986095	0.6062784695901268	0.41615204647253884	2.2692028404634192
E=tf_rep(F)	840.278561080897	0.03380733195274152	0.003124043647495076	0.5531199120897388	0.4303689172046789	2.2310454456557527
E=tf_rep(F)	840.2155001762285	0.029761984938764897	0.0030312814131913343	0.3567822124758706	0.13795148877331315	2.2584157153632582
E=tf_rep(F)	839.8127896808993	0.0	0.0023490208699015105	0.08522469628130597	0.18293511980008098	2.2862018922326213
E=tf_rep(F)	839.812709414633	0.0	0.002348987985418105	0.0	0.39533936477905146	2.291229681408103
E=tf_act(G)	839.8127094146332	0.0	0.002348987983428694	0.0	99.5022311313142	1.0849934416669664
E=tf_act(G)	839.8127094146332	0.0	0.0023489879802367896	0.0	99.4113012548904	1.0659728506266812
E=tf_act(G)	839.812709414633	0.0	0.0023489879733002506	0.0	99.0009378647875	1.0428345540683532
E=tf_act(G)	839.8127094146331	0.0	0.0023489879781597167	0.0	99.41769711308618	1.0
E=tf_act(G)	839.812709414633	0.0	0.002348987978962364	0.0	99.33694848781974	3.582022332529837
E=tf_act(G)	840.0892194511997	0.0	0.00293931304685888	0.14542926233775497	99.75560296807437	3.6598500017965168
E=tf_act(G)	839.8127094146326	0.0	0.0023489879921060708	0.0	100.0	3.716242084061986
E=tf_act(G)	840.371671237361	0.003417193616894016	0.003447550606208548	0.2554921099702746	99.70868553776471	3.7432970760365762
E=tf_act(G)	839.8127094146224	0.0	0.0023489888077968916	0.0	100.0	3.743622343989375
E=tf_act(G)	839.8127094146332	0.0	0.0023489879716120238	0.0	100.0	3.7486501331648565
E=tf_rep(G)	823.3320982921689	0.0	0.013169180560620821	2.330013499682453	6.134563334278979	10.0
E=tf_rep(G)	823.3400226887928	0.0	0.01317233529306269	2.3336454996548346	6.119018533884118	9.981892081351218
E=tf_rep(G)	823.3320981904935	0.0	0.013170029000302255	2.330186783542415	6.134609702848874	10.0
E=tf_rep(G)	823.3320981911879	0.0	0.013169953101574925	2.330167716426881	6.134624713019637	10.0
E=tf_rep(G)	823.3320982750134	0.0	0.013169848769501278	2.3300994869445097	6.134846612082122	10.0
E=tf_rep(G)	823.33209819283	0.0	0.01316991416102852	2.330166030138409	6.134593497042072	10.0
E=tf_rep(G)	823.3320981935417	0.0	0.013169975536039586	2.3301747534607924	6.134580580835451	10.0
E=tf_rep(G)	823.3320981913135	0.0	0.013169945713294447	2.330169883794099	6.134612722371041	10.0
E=tf_rep(G)	823.341102559433	0.0	0.013150753806515529	2.313290671734858	6.214350615798313	10.0
E=tf_rep(G)	823.3320982515328	0.0	0.013169764847916493	2.3301730740514888	6.134430574935178	10.0
