# LEMpy local minima file for target D, replicate 0
# Right-hand side of tf_act():  p0 - p1(tar) + p2(reg^p4) / (p3^p4 + reg^p4)
# Right-hand side of tf_rep():  p0 - p1(tar) + p2(p3^p4) / (p3^p4 + reg^p4)
# Run configuration file:  ../pipeline/src/syn_net/syn_net_6D_simulations_202110_with_G/p1945/results4/edge_finding_20211015121316/lempy_20211015121316_config.txt
# Time series data file:   ../pipeline/src/syn_net/time_series_with_G/syn_net_6D_20191104_a_data_p1945_transposed_with_G.tsv
# Computed on:  2021-10-15 12:16:41 
 
model	loss	p0	p1	p2	p3	p4
D=tf_act(A)	851.7484179838788	0.2299618999903718	0.0	0.0	99.50137120889157	1.0
D=tf_act(A)	851.7484179838783	0.2299619197415578	0.0	0.0	99.41044133246777	1.0
D=tf_act(A)	851.7484179838789	0.22996191741132685	0.0	0.0	99.0000760292071	1.0
D=tf_act(A)	851.7484179838788	0.22996192162205262	0.0	0.0	99.41683527750577	1.0
D=tf_act(A)	851.7484179838787	0.22996190768408536	0.0	0.0	99.26832587561435	1.0
D=tf_act(A)	851.748417983879	0.2299618907462982	0.0	0.0	99.68396646754088	1.0295038995975472
D=tf_act(A)	851.7484179838787	0.22996190934624872	0.0	0.0	100.0	1.0181147362141392
D=tf_act(A)	851.748417983879	0.22996192358366763	0.0	0.0	99.70868553425535	1.045167959722159
D=tf_act(A)	851.7484179838787	0.22996192154618667	0.0	0.0	99.75466144071194	1.072548219649548
D=tf_act(A)	851.7484179838787	0.22996190698019617	0.0	0.0	99.96706568569091	1.0775760088250295
D=tf_rep(A)	138.5583157384095	0.3	0.22905793524795484	25.802994647697243	16.163077593975846	2.191312361137134
D=tf_rep(A)	138.54947817124173	0.3	0.22822753606930868	25.549433502397836	16.306421564233997	2.215878595728431
D=tf_rep(A)	138.56027667015553	0.3	0.22921743263942226	25.844892090031646	16.141954253803334	2.187563698028004
D=tf_rep(A)	138.54712244753478	0.3	0.2273228424636674	25.284698513424342	16.455397052648784	2.242350545165831
D=tf_rep(A)	138.550733431599	0.3	0.22838417599094524	25.599173709220434	16.277422566509067	2.2109094128478954
D=tf_rep(A)	138.5489129984458	0.3	0.22812704838470677	25.521958347701954	16.321048880744744	2.2185109044793334
D=tf_rep(A)	138.54735978517442	0.3	0.2277557643703284	25.41200113007092	16.383125634225426	2.2294451640228954
D=tf_rep(A)	138.54774155794874	0.3	0.2278860767059948	25.44907598288666	16.36266471709051	2.22578238552706
D=tf_rep(A)	138.54741378424217	0.3	0.2271776453498302	25.243271598547015	16.478628027886085	2.2465722905032113
D=tf_rep(A)	138.55649228750684	0.3	0.22603736772859215	24.91459288860711	16.6671065102306	2.2813346946159925
D=tf_act(B)	783.5416229676492	0.0	0.012902298316650398	6.158363509495112	99.52715347060561	10.0
D=tf_act(B)	783.6021483955099	0.0	0.01286986942026772	6.068180824376556	99.3313627369367	9.971500935679547
D=tf_act(B)	783.6629329484681	0.0	0.0127934452279471	5.928376108840186	99.00073282112224	9.990962240253761
D=tf_act(B)	783.6143198067349	0.0	0.012907806583730409	6.0829463875087715	99.35419228553464	9.944551134828147
D=tf_act(B)	783.4419416347472	0.0	0.012908978825222024	6.339928074359021	100.0	10.0
D=tf_act(B)	783.4419416365046	0.0	0.012908951729837335	6.339926816608031	100.0	10.0
D=tf_act(B)	783.4419416345896	0.0	0.012908996904134449	6.3399299564185165	100.0	10.0
D=tf_act(B)	783.5084677711958	0.0	0.012859188781509372	6.203030580949871	99.68702470345144	10.0
D=tf_act(B)	783.4419416327797	0.0	0.012909041309866564	6.339950407717428	100.0	10.0
D=tf_act(B)	783.4419416326288	0.0	0.012909050822012925	6.339953808882268	100.0	10.0
D=tf_rep(B)	851.7484196083991	0.2299619026659773	0.0	5.381329951816056	2.679446021941286	9.752085126263536
D=tf_rep(B)	851.748419084485	0.22996190641084288	0.0	4.916610940836151	2.588516264194409	9.733064535223251
D=tf_rep(B)	851.7484182030511	0.22996190676835956	0.0	4.99876065485921	2.1780937119544124	9.709866141550696
D=tf_rep(B)	851.7484191803238	0.22996190959148738	0.0	4.576316871250997	2.594852960253359	9.666609244036781
D=tf_rep(B)	851.7484186676535	0.22996190522961205	0.0	4.945946330403247	2.443478512688605	9.6941501932756
D=tf_rep(B)	851.7484211949794	0.2299618724852936	0.0	5.438125837684135	2.8527452830872	9.720363215170691
D=tf_rep(B)	851.7484315622744	0.22996187388634198	0.0	5.876901178935407	3.2757773994972794	9.708781953232533
D=tf_rep(B)	851.8158928175511	0.25016795708704803	0.00043258647018627733	5.680752671181971	2.9844629349612	9.735836895482832
D=tf_rep(B)	851.7484232996356	0.22996189366535424	0.0	5.410131048903533	3.0304218982184374	9.763212919744328
D=tf_rep(B)	851.7484276257013	0.22996187942424656	0.0	5.109677026253081	3.242826005518071	9.768240708922658
D=tf_act(C)	851.7484179838788	0.22996190440557207	0.0	0.0	99.29019785614202	1.0
D=tf_act(C)	851.7484179838785	0.229961917605922	0.0	0.0	99.19926797971821	1.0
D=tf_act(C)	851.7484179838785	0.22996190976785585	0.0	0.0	98.78943923546804	1.0
D=tf_act(C)	851.7484179838787	0.22996192569487545	0.0	0.0	99.20619848376671	1.0
D=tf_act(C)	851.7484179838787	0.2299619026896143	0.0	0.0	99.02668757833507	1.0
D=tf_act(C)	851.7484179838789	0.22996192493991732	0.0	0.0	99.43622890016557	1.0262812719773318
D=tf_act(C)	851.7484179838789	0.22996191951007397	0.0	0.0	99.8605864665486	1.0148885876996792
D=tf_act(C)	851.7484179838788	0.2299619200928272	0.0	0.0	99.56927198481097	1.0419373802648542
D=tf_act(C)	851.7484179838785	0.22996192441428068	0.0	0.0	99.61524789126756	1.069317640192243
D=tf_act(C)	851.7484179838787	0.2299619100143119	0.0	0.0	99.82765213624653	1.0743454293677246
D=tf_rep(C)	851.7484181010105	0.22996190728031138	0.0	1.9630789671016167	1.678125879179435	9.340875443805183
D=tf_rep(C)	851.74841803928	0.22996191400145516	0.0	1.4983599561187395	1.5871960027556422	9.321854852764899
D=tf_rep(C)	851.748417987686	0.2299619000058976	0.0	1.580509670141799	1.1767734516181227	9.298656459092344
D=tf_rep(C)	851.7484180352942	0.22996191631388488	0.0	1.158066023466757	1.5935326999167296	9.2553995615787
D=tf_rep(C)	851.7484180091576	0.22996191206222782	0.0	1.5276954826190068	1.442158225960244	9.28294051081752
D=tf_rep(C)	851.748418305919	0.2299619022780389	0.0	2.019874989899895	1.8514249980552948	9.309153533759336
D=tf_rep(C)	851.748420703471	0.2299618754106651	0.0	2.4586503311404218	2.2744571134449525	9.297572268779064
D=tf_rep(C)	851.8158877901486	0.25016778509006454	0.00043258261240602497	2.2625006326037815	1.9831414591240892	9.324626019494032
D=tf_rep(C)	851.7484186694103	0.22996191092201185	0.0	1.9918790103060513	2.0291210343695	9.352006279388823
D=tf_rep(C)	851.7484194471022	0.22996189656032556	0.0	1.6914251253262926	2.241525141677778	9.357034068564303
D=tf_act(D)	809.3468907040254	0.3	0.029739588877851886	11.873782941962	94.97111522783183	10.0
D=tf_act(D)	809.3584857908085	0.3	0.029728972443782278	11.744711498219408	94.75318651235196	10.0
D=tf_act(D)	809.3810769916688	0.3	0.029664241943204762	11.569202293207436	94.48711950748074	10.0
D=tf_act(D)	809.3653851584498	0.3	0.029706203959695796	11.6825224435989	94.65962751267357	10.0
D=tf_act(D)	809.3642465723902	0.3	0.029707174499566794	11.69134207512987	94.67441205303223	10.0
D=tf_act(D)	809.3408005210152	0.3	0.029750022742860517	12.005512338249124	95.18949487283426	10.0
D=tf_act(D)	809.3468948445877	0.3	0.02980476731074129	12.3273506999357	95.6849448004227	10.0
D=tf_act(D)	809.3399700999339	0.3	0.029772805155506985	12.13511390149594	95.39128457645538	10.0
D=tf_act(D)	809.339749469325	0.3	0.029763640435101917	12.082186845135597	95.30924661424756	10.0
D=tf_act(D)	809.3398839087498	0.3	0.029768978505489603	12.125851028211747	95.37855781892333	10.0
D=tf_rep(D)	845.7571558080197	0.0	7.61383164675943e-05	18.65343107720321	10.788416437474355	5.869641013484986
D=tf_rep(D)	845.7585301648407	0.0	7.665884312008277e-05	18.19475353905288	10.755445162795121	5.791315117924437
D=tf_rep(D)	845.7606954775785	0.0	9.14735194845511e-05	18.311888694759194	10.689091352764107	5.734686094204035
D=tf_rep(D)	845.7574339702808	0.0	8.235681627609455e-05	17.840209394943816	10.811859253817744	5.8065715976498025
D=tf_rep(D)	845.7594283361015	0.0	7.736404626352464e-05	18.216731267208814	10.726709406045563	5.765918326731763
D=tf_rep(D)	845.7578043688934	0.0	8.197978427567078e-05	18.66829713585731	10.761000233070819	5.8423305913841945
D=tf_rep(D)	845.7574365109232	0.0	7.737096070681946e-05	19.062797706889906	10.765715378606115	5.887658545639749
D=tf_rep(D)	845.7575288964335	0.0	7.92180515303303e-05	18.89492539254563	10.765182855500242	5.869865166260412
D=tf_rep(D)	845.7566339152144	0.0	7.244741253368602e-05	18.62465550937636	10.81463410915462	5.893764522209627
D=tf_rep(D)	845.7550663797406	0.0	7.10023403374924e-05	18.31268093810492	10.919815703578774	5.966484043107358
D=tf_act(E)	851.7484179838789	0.22996189955145743	0.0	0.0	99.50665984103658	9.989147189263129
D=tf_act(E)	851.7484179838788	0.22996189981123966	0.0	0.0	99.41572996461278	9.970126598222844
D=tf_act(E)	851.7484179838789	0.22996189687070373	0.0	0.0	99.01370431940528	9.946130069708802
D=tf_act(E)	851.7484179838785	0.22996190706485775	0.0	0.0	99.43046356770395	9.902873172195159
D=tf_act(E)	851.7484179838787	0.2299619182848083	0.0	0.0	99.65590547861007	9.975708852236195
D=tf_act(E)	851.9059514531978	0.2733790228623336	0.0009348785395728143	0.0	100.0	10.0
D=tf_act(E)	851.9073782243058	0.27372163144081363	0.0009423027206527151	0.0	100.0	10.0
D=tf_act(E)	851.7484179838789	0.22996191871319818	0.0	0.0	99.70868553745969	10.0
D=tf_act(E)	851.7484179838789	0.22996192966946294	0.0	0.0	99.75466144391628	10.0
D=tf_act(E)	851.7484179838785	0.22996190458556148	0.0	0.0	99.96706568889525	10.0
D=tf_rep(E)	7.50945456406925	0.3	0.13361003756565618	100.0	5.520429698568964	2.387432515976937
D=tf_rep(E)	7.515406104264662	0.3	0.13360258356343727	99.53608838537858	5.5352240533135735	2.3886485799410693
D=tf_rep(E)	7.5143225910416795	0.3	0.13360402305926475	99.62018100880697	5.532538602019971	2.388428794924054
D=tf_rep(E)	7.509454561873737	0.3	0.13361020653749656	100.0	5.52043311141451	2.3874324653137022
D=tf_rep(E)	7.509454564173106	0.3	0.13361003509824523	100.0	5.520429301381154	2.387432331680838
D=tf_rep(E)	7.509454564069956	0.3	0.13361003973196367	100.0	5.520429410946753	2.3874323458899256
D=tf_rep(E)	7.509454563048033	0.3	0.13361015976603316	100.0	5.520425524119029	2.387429158221775
D=tf_rep(E)	7.511952843627103	0.3	0.133606879695586	99.80466540637543	5.526646869448569	2.3879441090118716
D=tf_rep(E)	7.51368532869248	0.3	0.13349663419375607	99.76831688767183	5.537970294301703	2.39448578582591
D=tf_rep(E)	7.5273582599801365	0.3	0.13359350443972295	98.62007002649196	5.56574029215252	2.3915223031113575
D=tf_act(F)	851.7484179838792	0.22996189215261992	-1.3552527156068805e-20	0.0	99.50718908235125	10.0
D=tf_act(F)	851.7484179838787	0.2299619166778952	0.0	0.0	99.9090701235762	9.980979408959715
D=tf_act(F)	851.7484179838789	0.229961923130924	0.0	0.0	99.5050330718884	9.95811744135263
D=tf_act(F)	851.7484179838787	0.22996191432064333	0.0	0.0	99.92179232018708	9.914860543838987
D=tf_act(F)	851.7484179838788	0.22996191893569487	0.0	0.0	99.80511845062645	9.95489143803817
D=tf_act(F)	851.9060285459443	0.27339198501241124	0.0009352474266329367	0.0	100.0	10.0
D=tf_act(F)	851.9073459408653	0.2737162654071482	0.0009421488842127531	0.0	100.0	10.0
D=tf_act(F)	851.748417983879	0.22996189256339905	0.0	0.0	99.70868553745969	10.0
D=tf_act(F)	851.7484179838785	0.22996190899476848	0.0	0.0	99.75466144391628	10.0
D=tf_act(F)	851.7484179838784	0.2299619164987604	0.0	0.0	99.96706568889525	10.0
D=tf_rep(F)	29.095471878713063	0.0	0.08651805600521827	24.426962392125294	14.118177904539357	10.0
D=tf_rep(F)	29.08298637837587	0.0	0.08656363104234767	24.041005855814554	14.177930455878432	10.0
D=tf_rep(F)	29.082437237181196	0.0	0.08657376910051034	23.944140355650564	14.193232631686653	10.0
D=tf_rep(F)	29.08243723497016	0.0	0.08657368076003806	23.94394967580061	14.193259473289707	10.0
D=tf_rep(F)	29.094534342995463	0.0	0.08651725749312648	24.40870182183359	14.120838648015699	10.0
D=tf_rep(F)	29.082437234702734	0.0	0.08657369637280725	23.94396640971154	14.193257485127189	10.0
D=tf_rep(F)	29.082437234860496	0.0	0.08657368613309198	23.943937422077465	14.193261572224227	10.0
D=tf_rep(F)	29.082604767011755	0.0	0.08656769142374454	23.99739816757638	14.184778544749054	10.0
D=tf_rep(F)	29.0852923824344	0.0	0.08659283282271499	23.72640414066778	14.228026790762325	10.0
D=tf_rep(F)	29.082437234164527	0.0	0.08657376755934826	23.944008169406608	14.193253883490003	10.0
D=tf_act(G)	851.7484179838785	0.22996190622452053	0.0	0.0	99.5008342410607	1.0048344832696035
D=tf_act(G)	851.7484179838787	0.22996190922102577	0.0	0.0	99.4099043646369	1.0
D=tf_act(G)	851.7484179838789	0.22996189656704685	0.0	0.0	98.99992951476654	1.0
D=tf_act(G)	851.7484179838787	0.22996190036178943	0.0	0.0	99.41668876306521	1.0
D=tf_act(G)	851.7484179838785	0.22996191434522142	0.0	0.0	99.25576045442676	1.0
D=tf_act(G)	851.7484179838787	0.22996192199239235	0.0	0.0	99.66684882253135	1.0270088649112077
D=tf_act(G)	851.7484179838792	0.2299618947933297	0.0	0.0	100.0	1.0156858222197687
D=tf_act(G)	851.7484179838788	0.22996191241890224	0.0	0.0	99.7086855307774	1.0427378810900234
D=tf_act(G)	851.7484179838788	0.22996191343218728	0.0	0.0	99.75466143723399	1.0701181410174123
D=tf_act(G)	851.7484179838788	0.22996191856065917	0.0	0.0	99.96706568221296	1.0751459301928938
D=tf_rep(G)	740.6109900076649	0.0	0.029283838109901015	7.336056937984029	11.379955684633117	10.0
D=tf_rep(G)	740.611477702122	0.0	0.029305716999552017	7.342567633396194	11.36712994149945	10.0
D=tf_rep(G)	740.6109900035078	0.0	0.029283861801425247	7.336070604833418	11.379926351556884	10.0
D=tf_rep(G)	740.6109900012694	0.0	0.02928393157807806	7.336083445288718	11.379920249466464	10.0
D=tf_rep(G)	740.6109900017191	0.0	0.02928391617195821	7.33607875490867	11.379920378078255	10.0
D=tf_rep(G)	740.6109900011277	0.0	0.029283938507532623	7.336085098872127	11.37991912980165	10.0
D=tf_rep(G)	740.6109900010025	0.0	0.02928394693215298	7.336087668554281	11.379916291218857	10.0
D=tf_rep(G)	740.6109903419416	0.0	0.02928583260229042	7.336486178243258	11.379990332810031	10.0
D=tf_rep(G)	740.6109900008936	0.0	0.02928396192284488	7.336089435437826	11.379913156606293	10.0
D=tf_rep(G)	740.6109900001409	0.0	0.02928407496958491	7.336113517042978	11.379916310836458	10.0
