# LEMpy local minima file for target C, replicate 0
# Right-hand side of tf_act():  p0 - p1(tar) + p2(reg^p4) / (p3^p4 + reg^p4)
# Right-hand side of tf_rep():  p0 - p1(tar) + p2(p3^p4) / (p3^p4 + reg^p4)
# Run configuration file:  ../pipeline/src/syn_net/syn_net_6D_simulations_202110_with_G/p1945/results1/edge_finding_20211014210342/lempy_20211014210342_config.txt
# Time series data file:   ../pipeline/src/syn_net/time_series_with_G/syn_net_6D_20191104_a_data_p1945_transposed_with_G.tsv
# Computed on:  2021-10-14 21:05:46 
 
model	loss	p0	p1	p2	p3	p4
C=tf_act(A)	11.705199238752696	0.3	0.3044560508441006	44.20091444656286	41.34790427293969	1.4372223237755575
C=tf_act(A)	11.70596528929097	0.3	0.30410584577593197	44.26886680923653	41.53757378648581	1.434822902949566
C=tf_act(A)	11.707992472499223	0.3	0.30360222975462897	44.3559657400021	41.79407930214397	1.431694500005716
C=tf_act(A)	11.710329848159107	0.3	0.3032322702157258	44.42536068392404	41.99215434899081	1.429280167625851
C=tf_act(A)	11.713644990163717	0.3	0.3028211853062403	44.50119398687287	42.210958920607844	1.4266603628449346
C=tf_act(A)	11.712707511080419	0.3	0.3029288129278102	44.48149185968181	42.15384736654724	1.4273378942466863
C=tf_act(A)	11.709725654143814	0.3	0.30330924911993495	44.40824274578335	41.94649801701277	1.4298500213829313
C=tf_act(A)	11.714536206899307	0.3	0.30281261774076357	44.52687495577147	42.25511771695624	1.4259879033167853
C=tf_act(A)	11.715583316224707	0.3	0.30262850769841176	44.540231782921886	42.31955177714774	1.4253536153344752
C=tf_act(A)	11.713338415853933	0.3	0.30293594824747755	44.50196834481929	42.18581561598193	1.4268248409774336
C=tf_rep(A)	931.0228734458068	0.0	0.005036820516232438	42.58156855295618	0.20336062883733433	3.471508363065823
C=tf_rep(A)	931.0229129961303	0.0	0.005036155216801737	42.86853173464923	0.15437784507607472	3.4945828660717506
C=tf_rep(A)	931.013201095609	0.0	0.005062579954355236	42.63675909558368	0.6208373632043083	3.735646507981105
C=tf_rep(A)	921.4058428557685	0.0	0.009968926838386332	42.974356181826124	4.555687348718717	10.0
C=tf_rep(A)	921.4047926580004	0.0	0.009970253394471894	43.13933391373451	4.553975869450379	10.0
C=tf_rep(A)	921.4054928227731	0.0	0.009969484981020568	43.0291874923161	4.555131487937706	10.0
C=tf_rep(A)	921.4051812262613	0.0	0.00996973629961919	43.07813143524558	4.554607037618837	10.0
C=tf_rep(A)	921.4168901327911	0.0	0.009966805004792863	41.31494355228408	4.574499188272808	10.0
C=tf_rep(A)	921.4198488802735	0.0	0.00996228967774005	40.891960218283295	4.579048157590146	10.0
C=tf_rep(A)	921.4267873032595	0.0	0.00996024512875098	39.93558745916801	4.59035199492815	10.0
C=tf_act(B)	931.0229505635417	0.0	0.0050357801440109795	0.0	100.0	1.0278358165431565
C=tf_act(B)	931.0229505635394	0.0	0.005035780243064979	0.0	99.94929052747628	1.0
C=tf_act(B)	931.0229505635365	0.0	0.005035780357196853	0.0	100.0	1.0266070619155347
C=tf_act(B)	931.0229505635392	0.0	0.005035780246760377	0.0	100.0	1.1032178034466107
C=tf_act(B)	931.0229505635385	0.0	0.005035780266722471	0.0	100.0	1.0897774297411182
C=tf_act(B)	931.022950563539	0.0	0.0050357802605112785	0.0	100.0	1.1217240865176132
C=tf_act(B)	931.022951005257	0.0	0.005035361192451781	0.0	99.71370402215761	1.0911719414325243
C=tf_act(B)	931.0229505635406	0.0	0.005035780197624604	0.0	100.0	1.0549508159948455
C=tf_act(B)	931.0229505635397	0.0	0.005035780234837168	0.0	99.99999997886884	1.0767125758202218
C=tf_act(B)	931.0229505635419	0.0	0.005035780146519887	0.0	100.0	1.0428658197893272
C=tf_rep(B)	930.9825294109953	-2.7755575615628914e-17	0.005038571601412963	55.67162469142797	0.3369506284629502	2.853240757283087
C=tf_rep(B)	931.0229505609635	-2.7755575615628914e-17	0.005035780238578777	56.19849967987115	0.001	2.850447499928827
C=tf_rep(B)	552.4956898842487	0.0	0.041868933061989175	56.04024699109054	15.515814583369517	6.6296753484458275
C=tf_rep(B)	552.5366294984525	0.0	0.04187057251949874	56.23691051536254	15.474569948300791	6.57516453518528
C=tf_rep(B)	510.1517451866784	0.0	0.04421599263815989	14.785258415676548	22.22068409808486	10.0
C=tf_rep(B)	510.1584292945535	0.0	0.04414998237758978	14.690595073416342	22.258243269527703	10.0
C=tf_rep(B)	510.1641125698276	0.0	0.04428984876358759	14.914033859237977	22.167392195891775	10.0
C=tf_rep(B)	510.15174518686644	0.0	0.04421596234741043	14.785283309886992	22.220665446482275	10.0
C=tf_rep(B)	510.15174518666043	0.0	0.04421595474030859	14.785254809215235	22.220678486669794	10.0
C=tf_rep(B)	510.15174518700553	0.0	0.04421593574527449	14.785251226191452	22.220676571589912	10.0
C=tf_act(C)	861.6861806281753	0.3	0.06076887257215784	7.949425140580637	70.38026723321704	10.0
C=tf_act(C)	861.7222337443538	0.3	0.06112335578649409	8.049291855573685	70.63985622135752	10.0
C=tf_act(C)	861.7610797021612	0.3	0.061081552172607446	8.0729659638856	70.8182900484152	10.0
C=tf_act(C)	861.7692686279474	0.3	0.06039816297736808	7.979431813330302	70.91247698335707	10.0
C=tf_act(C)	861.6876705001598	0.3	0.0604514886847186	7.900006662928298	70.3862463586815	10.0
C=tf_act(C)	861.6857117803988	0.3	0.060701887812135216	7.937345385224677	70.37153257886298	10.0
C=tf_act(C)	861.6961028969299	0.3	0.06083541836413671	7.913973661966174	70.09964346869499	10.0
C=tf_act(C)	861.6857085653218	0.3	0.06090575503386315	7.957832471041149	70.29889967084516	10.0
C=tf_act(C)	861.6849035787892	0.3	0.06073372383494741	7.932865569361003	70.31364468770342	10.0
C=tf_act(C)	861.6995638083331	0.3	0.06047795131936823	7.859487561320163	70.1117965666614	10.0
C=tf_rep(C)	847.4092500675581	0.0	0.020927256654703696	60.63063515877455	10.69488519083398	8.63016880592531
C=tf_rep(C)	847.4183976259945	0.0	0.020929904079329213	60.91893874821069	10.69486169440854	8.646883148076867
C=tf_rep(C)	847.3999238945056	0.0	0.020926886907968605	59.892321454773096	10.746199039290724	8.726118999976643
C=tf_rep(C)	847.4150057687672	0.0	0.020929514839878854	60.19882810441623	10.751539040645326	8.759417006354939
C=tf_rep(C)	847.3989075813304	0.0	0.020932149478304136	60.31886362513202	10.679321784321592	8.568262075890303
C=tf_rep(C)	847.3962795919705	0.0	0.020933703660385387	60.209338181149256	10.693514713656057	8.599521256240704
C=tf_rep(C)	847.3981730593243	0.0	0.02093378240650493	60.27566893631341	10.672317925605322	8.5465395844096
C=tf_rep(C)	847.371525240527	0.0	0.02093219532874789	59.31985918711412	10.703359095517694	8.572059686681694
C=tf_rep(C)	847.3623194107529	0.0	0.020939867793935377	58.950190698084725	10.734605429148464	8.632202608056355
C=tf_rep(C)	847.3398502933152	0.0	0.020939761636544756	58.176841147443106	10.75306145930991	8.633796477187566
C=tf_act(D)	914.9390634874634	0.0	0.015391421525202368	2.6074620828293518	96.92266607647726	1.830027424464485
C=tf_act(D)	915.1210634927708	0.0	0.016217870079748925	2.8775788007265284	96.88048639380739	1.894079786194098
C=tf_act(D)	914.9689020076515	0.0	0.01557368001598761	2.674089505007174	97.35251331789232	1.8370897484110242
C=tf_act(D)	914.9622290814694	0.0	0.015384201686553061	2.61663056674556	97.3810187358678	1.826075699467548
C=tf_act(D)	915.085612094915	0.00020199513128342302	0.01602410282578088	2.831341436125736	97.50206618736753	1.8731360957319907
C=tf_act(D)	915.0234314878709	0.0	0.015383660755864904	2.700864278947772	97.51235116660924	1.911738028542315
C=tf_act(D)	914.954418865904	0.0	0.015385322411953081	2.613229301069785	97.22581994402664	1.8274505315978633
C=tf_act(D)	914.9838207513437	0.0	0.015242143153433136	2.580033229419751	97.72113173727469	1.8138457767287937
C=tf_act(D)	914.995736126061	0.0	0.015344207984063944	2.6334553530635816	98.03814599703331	1.8323291712604908
C=tf_act(D)	915.0078618075717	0.0	0.015378657643335658	2.6369275107386954	98.30207154479028	1.8179253447919017
C=tf_rep(D)	931.0229514563433	0.0	0.005035898547264933	35.34712632493779	0.018008214406808526	3.127819661075771
C=tf_rep(D)	931.0229505636206	0.0	0.005035780267764823	35.63408952706777	0.0010000007807804783	3.150888186280767
C=tf_rep(D)	931.0449607639447	0.0	0.005038187156899681	35.40391880406211	0.4893233964689106	3.1784918754350073
C=tf_rep(D)	931.0453401686877	0.0	0.005038197006401323	35.711040787344565	0.5085482945390368	3.2106099567651656
C=tf_rep(D)	931.0626828126326	0.0	0.005040256187549372	35.9322800369329	0.6253038616824774	3.2393631062146144
C=tf_rep(D)	931.0229510257822	0.0	0.005035618330877303	35.819364561842505	0.039234847551435574	3.656055862856274
C=tf_rep(D)	931.1698158970954	0.01776139489242665	0.0053656843571519945	35.86181218494746	0.001	3.6254674533208235
C=tf_rep(D)	931.028036737767	0.0	0.005036307439052441	35.835555761755124	0.48938546095102264	3.589576118208084
C=tf_rep(D)	931.0853881097361	0.0040062737771792015	0.00511202499203338	35.50388573310278	0.8181881756209156	3.610763909956874
C=tf_rep(D)	931.0229620450222	0.0	0.005034082070027047	35.45326754427126	0.12348048153367876	4.013289950602364
C=tf_act(E)	2.493505989493289	0.3	0.12568720450040477	18.286566385806108	45.542092668277945	4.227048541503816
C=tf_act(E)	2.4925673715754657	0.3	0.12577532453403228	18.252394121070513	45.40875867140911	4.246981581524331
C=tf_act(E)	2.4925673701535853	0.3	0.12577546189102976	18.252351757478763	45.40858127578976	4.247010814323996
C=tf_act(E)	2.4932582062451503	0.3	0.12569083458659788	18.280618142570933	45.523711442595804	4.230513439920795
C=tf_act(E)	2.500160882420406	0.3	0.1256678207420657	18.364196842162446	45.772273617139554	4.177420356282805
C=tf_act(E)	2.498553042511068	0.3	0.12551959056884615	18.33570927277039	45.75069179170061	4.199460639159199
C=tf_act(E)	2.4931807935467143	0.3	0.12569441169979975	18.27885781043946	45.5171459469711	4.231792875287261
C=tf_act(E)	2.492567372024063	0.3	0.12577530832690004	18.252387144161805	45.40874453653583	4.246987507125995
C=tf_act(E)	2.494172883512636	0.3	0.12549412669464696	18.261864354291838	45.546632749517926	4.255050107207862
C=tf_act(E)	2.492568677097396	0.3	0.12577745445798116	18.250984768692813	45.40386551618936	4.247855922612785
C=tf_rep(E)	931.0229548825486	0.0	0.005036147061644657	55.56270017857114	0.024471089645967472	3.3934530994994736
C=tf_rep(E)	931.0229505636012	0.0	0.005035780273264197	55.849663380701124	0.001	3.4165216247044694
C=tf_rep(E)	931.1109315124961	0.0	0.005043943391808504	55.6194826405712	0.4891506094746537	3.446202901849683
C=tf_rep(E)	931.0229509599242	0.0	0.00503571029091241	55.925410720590335	0.021485841645650795	3.6983295252839086
C=tf_rep(E)	931.0229513392594	0.0	0.005035444625188162	56.14651033919713	0.024798098588030615	3.7449798992792513
C=tf_rep(E)	931.022951876242	0.0	0.005035780370857206	56.03679522463389	0.033905825008790656	3.7769265602479485
C=tf_rep(E)	931.1698421786266	0.017764505379165112	0.005365742069369634	56.07924284773885	0.001	3.746338150712498
C=tf_rep(E)	931.0229544495502	0.0	0.005035763825148639	56.05173645948957	0.0559213706123494	3.9287726153307005
C=tf_rep(E)	931.0651080807472	0.004325225857064901	0.0051165941687399755	55.72006193495837	0.3842031417143807	3.950459050870399
C=tf_rep(E)	931.0287458838601	0.0	0.005036316292123838	55.673462999321174	0.3493724966070795	3.8952626697796386
C=tf_act(F)	74.1122143459303	0.0	0.09492098744980364	12.56199242121298	38.45056210229291	10.0
C=tf_act(F)	74.11221434627622	0.0	0.09492097217141497	12.561991629388391	38.450567384693	10.0
C=tf_act(F)	74.11221435508554	0.0	0.09492094616400017	12.561963987644686	38.45048320717519	10.0
C=tf_act(F)	74.11903826797393	0.0	0.09471182138769273	12.565471478122278	38.566626898411876	10.0
C=tf_act(F)	74.1122143466624	0.0	0.0949209571405805	12.561992528254589	38.45057765158753	10.0
C=tf_act(F)	74.11240709933878	0.0	0.09495691666051127	12.561490634259297	38.431127403275454	10.0
C=tf_act(F)	74.1122143459503	0.0	0.09492098915603782	12.561991410207332	38.4505572207146	10.0
C=tf_act(F)	74.11221434625801	0.0	0.09492097418214257	12.561990856681025	38.45056307820788	10.0
C=tf_act(F)	74.12822278142956	0.0	0.09461665769861424	12.569343830808661	38.62815426958759	10.0
C=tf_act(F)	74.11221434602305	0.0	0.09492098417899351	12.561992255626294	38.450565200451344	10.0
C=tf_rep(F)	931.0229516870937	0.0	0.005035677482701236	34.6248865309393	0.015716902173942605	3.23967236452195
C=tf_rep(F)	931.0229505636567	0.0	0.005035780263615296	34.91184973306928	0.001	3.262740889726946
C=tf_rep(F)	931.0863232043438	0.0	0.005039987722454369	34.68167008179065	0.489152610230888	3.291281604944679
C=tf_rep(F)	931.0881504541939	0.0	0.005039912475430061	34.98879175524314	0.5083096675487915	3.3234363102232405
C=tf_rep(F)	931.0229636765134	0.0	0.005035691665605792	35.20648144365088	0.07546626050202272	3.740620609860646
C=tf_rep(F)	931.0229675398217	0.0	0.005035781340553943	35.09676632908764	0.08457373228897172	3.7725672875231426
C=tf_rep(F)	931.1698448509765	0.017764821684404884	0.005365747945726382	35.1392139521926	0.001	3.7419788779876924
C=tf_rep(F)	931.0387717609931	0.0	0.005036810090960308	35.1129537051947	0.4883862078423123	3.706495019474269
C=tf_rep(F)	931.1466154424829	0.003020058557034283	0.005095459287637803	34.781279954889996	0.8166109438275442	3.728136690409488
C=tf_rep(F)	931.1192670670096	0.0	0.005042025922614302	34.734644142875574	0.7789367765337699	3.676455402970317
C=tf_act(G)	895.6275981399996	0.0	0.025595463223213905	5.800162137341371	92.6914777309776	4.965890285767144
C=tf_act(G)	895.6207378230687	0.0	0.02541093021467199	5.844281054839657	92.87984381070267	5.185609599432165
C=tf_act(G)	895.6295087642221	0.0	0.025551824848163894	5.865524673144347	93.07966378063081	5.00328944022985
C=tf_act(G)	895.6281325015543	0.0	0.025517235401897858	5.887558938343618	93.15119125985304	5.066630433672176
C=tf_act(G)	895.6260282450012	0.0	0.02536814468898896	5.945020470598201	93.4448035327751	5.224351553719805
C=tf_act(G)	895.6255215085984	0.0	0.025374475931906015	5.9471674851116285	93.43261803490243	5.2327247227878075
C=tf_act(G)	895.6230104792621	0.0	0.025415078054415778	5.902380095758144	93.16227643137464	5.207619759044336
C=tf_act(G)	895.6482810856287	0.0	0.02494007913269268	5.851579880622265	93.67784397626623	5.191571440714992
C=tf_act(G)	895.6335874182537	0.0	0.02539156141700042	6.027711065460405	93.91941061482325	5.187998387682952
C=tf_act(G)	895.6391503662664	0.0	0.02563161417129401	5.9841028148745385	93.8785103661756	4.8737638444312426
C=tf_rep(G)	931.0229520454903	0.0	0.005035780336112061	12.333756620336917	0.001	3.4533962072876707
C=tf_rep(G)	931.0229519051021	0.0	0.005035780354462128	12.620719822466897	0.001	3.4764647324996076
C=tf_rep(G)	931.022950563539	0.0	0.005035780250939286	28.12753597918999	0.001	6.789924574017725
C=tf_rep(G)	931.0229972119363	0.0	0.005035770478737703	28.43465783681123	0.020198677501538465	6.822057368765516
C=tf_rep(G)	931.0229527113615	0.0	0.0050357617470794605	28.624970910301098	0.013339865537250115	6.915898316941493
C=tf_rep(G)	931.0230227705933	0.0	0.005035640707840512	28.515255778915176	0.02241477878709907	6.947845179845685
C=tf_rep(G)	931.1698111792364	0.01776083637346345	0.005365673953031441	28.55770340202013	0.001	6.917256770310235
C=tf_rep(G)	931.0229505635397	0.0	0.005035780239730617	36.38513347990326	0.001	8.498268840067523
C=tf_rep(G)	931.103738339781	0.00981045326480443	0.0052073081240762206	17.528591296192563	0.001	4.654965617882579
C=tf_rep(G)	931.022956041642	0.0	0.005035632354165782	27.822565859955237	0.014465222650994666	6.766353087788949
