SWI5=a(NRM1)
CLN3=r(SWI4)
NDD1=a(YOX1)
NRM1=a(YOX1)
SWI4=r(NRM1)
WHI5=a(SWI4)
YOX1=r(NDD1)
WHI5=r(SWI5)
NRM1=a(HCM1)
SWI4=r(NDD1)
YOX1=r(SWI5)
YOX1=r(NRM1)
NDD1=a(HCM1)
CLN3=r(YOX1)
YOX1=a(SWI4)
SWI5=a(NDD1)
CLN3=r(HCM1)
HCM1=r(SWI5)
SWI4=r(WHI5)
YOX1=r(WHI5)
WHI5=a(YOX1)
NDD1=a(SWI4)
WHI5=a(HCM1)
HCM1=r(NRM1)
HCM1=r(NDD1)
WHI5=r(ASH1)
CLN3=a(SWI5)
NRM1=a(SWI4)
WHI5=r(NDD1)
SWI4=r(SWI5)
CLN3=a(NRM1)
ASH1=r(SWI4)
WHI5=r(NRM1)
HCM1=r(WHI5)
CLN3=a(CLN3)
SWI5=a(WHI5)
CLN3=r(NDD1)
CLN3=a(NDD1)
CLN3=r(WHI5)
SWI5=r(CLN3)
CLN3=r(ASH1)
CLN3=a(WHI5)
SWI4=r(HCM1)
CLN3=a(ASH1)
CLN3=a(YOX1)
NDD1=r(SWI5)
CLN3=a(HCM1)
SWI4=r(YOX1)
CLN3=a(SWI4)
YOX1=r(HCM1)
HCM1=a(YOX1)
CLN3=r(NRM1)
CLN3=r(SWI5)
YOX1=a(CLN3)
WHI5=a(CLN3)
SWI4=a(CLN3)
WHI5=a(WHI5)
WHI5=r(CLN3)
HCM1=r(ASH1)
NDD1=r(ASH1)
WHI5=a(NDD1)
YOX1=r(ASH1)
YOX1=a(YOX1)
SWI5=a(HCM1)
HCM1=a(CLN3)
HCM1=a(HCM1)
YOX1=r(CLN3)
NRM1=r(SWI5)
SWI4=r(CLN3)
HCM1=r(CLN3)
SWI4=a(ASH1)
SWI4=a(YOX1)
YOX1=a(NRM1)
YOX1=a(ASH1)
SWI4=a(SWI4)