{
    "results_folder": "../annot/results2/network_queries_20211012132914/dsgrn_net_query_results20211012132914/queries20211012132914",
    "pm_fc_value": [1.0,1.0],
    "fc_value": [0.1,0.4],
    "lem_score_file" : "../annot/results2/edge_finding_20211012132914/summaries/ts1/allscores_ts1.tsv",
    "edge_file" : "../annot/results2/seed_network_20211012132914/edge_file.txt",
    "seed_file" : "../annot/results2/seed_network_20211012132914/seed_network_file.txt",
    "avg_rank_nodes" : ["CLN3","WHI5","ASH1","SWI4","SWI5","HCM1","NDD1","NRM1","YOX1"],
    "ground_truth_edges" : [
        "SWI4=tf_rep(WHI5)",
        "SWI4=tf_rep(NRM1)",
        "HCM1=tf_act(SWI4)",
        "NDD1=tf_act(SWI4)",
        "NDD1=tf_act(HCM1)",
        "SWI5=tf_act(NDD1)",
        "WHI5=tf_rep(CLN3)",
        "CLN3=tf_act(SWI5)",
        "NRM1=tf_act(SWI4)",
        "CLN3=tf_rep(SWI4)",
        "SWI4=tf_act(SWI4)",
        "NRM1=tf_act(HCM1)",
        "WHI5=tf_act(HCM1)",
        "YOX1=tf_act(SWI4)",
        "ASH1=tf_rep(YOX1)",
        "HCM1=tf_rep(YOX1)",
        "NRM1=tf_rep(YOX1)",
        "SWI4=tf_rep(YOX1)",
        "SWI5=tf_rep(YOX1)",
        "YOX1=tf_act(YOX1)",
        "CLN3=tf_rep(YOX1)",
        "HCM1=tf_rep(ASH1)",
        "YOX1=tf_act(ASH1)",
        "ASH1=tf_act(SWI5)"
    ]
}
