# Run Manifest for ../pipeline/src/syn_net/syn_net_6D_simulations_202110_with_G/p1945/results5/
run_step	run_input	run_output
lempy	/hpc/group/harerlab/bc187/GIT/pipeline/src/syn_net/syn_net_6D_simulations_202110_with_G	/hpc/group/harerlab/bc187/GIT/pipeline/src/syn_net/syn_net_6D_simulations_202110_with_G/p1945/results5/edge_finding_20211014223536/summaries
netgen	/hpc/group/harerlab/bc187/GIT/pipeline/src/syn_net/syn_net_6D_simulations_202110_with_G/p1945/results5/edge_finding_20211014223536/summaries	/hpc/group/harerlab/bc187/GIT/pipeline/src/syn_net/syn_net_6D_simulations_202110_with_G/p1945/results5/seed_network_20211014223536
netper	/hpc/group/harerlab/bc187/GIT/pipeline/src/syn_net/syn_net_6D_simulations_202110_with_G/p1945/results5/seed_network_20211014223536	/hpc/group/harerlab/bc187/GIT/pipeline/src/syn_net/syn_net_6D_simulations_202110_with_G/p1945/results5/network_finding_20211014223536/dsgrn_net_gen_results20211014223536/networks20211014223536
netquery	/hpc/group/harerlab/bc187/GIT/pipeline/src/syn_net/syn_net_6D_simulations_202110_with_G/p1945/results5/network_finding_20211014223536/dsgrn_net_gen_results20211014223536/networks20211014223536	/hpc/group/harerlab/bc187/GIT/pipeline/src/syn_net/syn_net_6D_simulations_202110_with_G/p1945/results5/network_queries_20211014223536/queries20211014223536
