# Run Manifest for ../pipeline/src/yeast_data/simulations202110_Orlando_2/annot/results4/
run_step	run_input	run_output
lempy	/hpc/group/harerlab/bc187/GIT/pipeline/src/yeast_data/simulations202110_Orlando_2	/hpc/group/harerlab/bc187/GIT/pipeline/src/yeast_data/simulations202110_Orlando_2/annot/results4/edge_finding_20211012144505/summaries
netgen	/hpc/group/harerlab/bc187/GIT/pipeline/src/yeast_data/simulations202110_Orlando_2/annot/results4/edge_finding_20211012144505/summaries	/hpc/group/harerlab/bc187/GIT/pipeline/src/yeast_data/simulations202110_Orlando_2/annot/results4/seed_network_20211012144505
netper	/hpc/group/harerlab/bc187/GIT/pipeline/src/yeast_data/simulations202110_Orlando_2/annot/results4/seed_network_20211012144505	/hpc/group/harerlab/bc187/GIT/pipeline/src/yeast_data/simulations202110_Orlando_2/annot/results4/network_finding_20211012144505/dsgrn_net_gen_results20211012144505/networks20211012144505
netquery	/hpc/group/harerlab/bc187/GIT/pipeline/src/yeast_data/simulations202110_Orlando_2/annot/results4/network_finding_20211012144505/dsgrn_net_gen_results20211012144505/networks20211012144505	/hpc/group/harerlab/bc187/GIT/pipeline/src/yeast_data/simulations202110_Orlando_2/annot/results4/network_queries_20211012144505/queries20211012144505
