# LEMpy local minima file for target YOX1, replicate 1
# Right-hand side of tf_act():  p0 - p1(tar) + p2(reg^p4) / (p3^p4 + reg^p4)
# Right-hand side of tf_rep():  p0 - p1(tar) + p2(p3^p4) / (p3^p4 + reg^p4)
# Run configuration file:  ../pipeline/src/yeast_data/simulations202110_Orlando_2/extra_nodes_annot/results4/edge_finding_20211012001140/lempy_20211012001140_config.txt
# Time series data file:   ../pipeline/src/yeast_data/time_series/orlando2008_WildType_r2_trunc.tsv
# Computed on:  2021-10-12 00:13:52 
 
model	loss	p0	p1	p2	p3	p4
YOX1=tf_act(SWI4)	290.2150482766529	0.0	0.21811238052280646	22.769816946382026	46.693801308658266	2.4573469194516404
YOX1=tf_act(SWI4)	290.2390772434125	0.0	0.21641355648732288	22.43254760023455	46.35052648225812	2.4901086388082567
YOX1=tf_act(SWI4)	290.2208810796852	0.0	0.21727832194402283	22.60298658780759	46.52289659406493	2.4734017748097568
YOX1=tf_act(SWI4)	290.21516579748106	0.0	0.21820001393663951	22.79181978514532	46.721195834352436	2.454889262099029
YOX1=tf_act(SWI4)	290.220031249847	0.0	0.21811280098680252	22.69110183315151	46.526123603790644	2.4725223145196473
YOX1=tf_act(SWI4)	290.21753742628033	0.0	0.2185145199377107	22.870736332247088	46.81941892344759	2.4461488687006683
YOX1=tf_act(SWI4)	290.2285508924333	0.0	0.21934206668854578	23.02581339379074	46.966358854563715	2.432582774871581
YOX1=tf_act(SWI4)	290.24805158813325	0.0	0.21950070403299593	23.135091959194998	47.163447212588935	2.416576485920173
YOX1=tf_act(SWI4)	290.2910407170583	0.0	0.22095466226293745	23.380284613419537	47.36231339670544	2.3985174645614293
YOX1=tf_act(SWI4)	290.2318380577707	0.0	0.21977899270200085	23.065256171131676	46.95330274962263	2.4331931608726776
YOX1=tf_rep(SWI4)	553.4066917213107	0.0	0.0004634820175732217	0.0	0.21116015377400046	1.1539965175639886
YOX1=tf_rep(SWI4)	553.4066917213565	0.0	0.0004634789378134075	0.0	0.001	1.1281785171478258
YOX1=tf_rep(SWI4)	553.406691828812	0.0	0.0004636001872028563	0.012432324281727185	0.001	1.5234359140680593
YOX1=tf_rep(SWI4)	553.6639112144255	0.04964497734565793	0.0013240474676141365	0.04679492432650133	0.44401230373742895	1.5655874231715479
YOX1=tf_rep(SWI4)	553.4954069621289	0.024694849259625982	0.0009296480572251392	0.05066895218583638	0.002395071997886204	1.5483529339959943
YOX1=tf_rep(SWI4)	553.4311189752385	0.0061866368976029856	0.0005847285918073879	0.0883667628532641	0.3779771868929967	1.510287407481044
YOX1=tf_rep(SWI4)	553.4121043986211	0.0	0.0004653945567310459	0.42586347305913086	0.12140413877562449	1.4658596478689738
YOX1=tf_rep(SWI4)	553.4066926025437	0.0	0.0004634815228156503	0.6263999429977221	0.001	1.6731593174297472
YOX1=tf_rep(SWI4)	553.5932550606334	0.04280275050897983	0.0012386939729901391	1.0469372231473333	0.002556395746394863	1.63201324645894
YOX1=tf_rep(SWI4)	553.4139218023917	0.002356102454834274	0.0005091918608430878	0.794570272252228	0.001	1.606433784337677
YOX1=tf_act(HCM1)	553.4066917213568	0.0	0.00046347892900199894	0.0	100.0	1.002453539123564
YOX1=tf_act(HCM1)	553.4066917213565	0.0	0.0004634789378134075	0.0	99.75496021062415	1.0
YOX1=tf_act(HCM1)	553.4066917213568	0.0	0.00046347892656095955	0.0	99.87775146503614	1.0
YOX1=tf_act(HCM1)	553.4066917213569	0.0	0.0004634789182622768	0.0	99.99999997726638	1.042141458257567
YOX1=tf_act(HCM1)	553.4066917213572	0.0	0.00046347891518720046	0.0	99.55839290807508	1.0248969987755947
YOX1=tf_act(HCM1)	553.406691721357	0.0	0.0004634789232749262	0.0	99.93421293030127	1.0
YOX1=tf_act(HCM1)	553.406691721357	0.0	0.0004634789217203776	0.0	99.61616655388451	1.0
YOX1=tf_act(HCM1)	553.4066917213569	0.0	0.0004634789235609711	0.0	99.7403657428507	1.0132097197293586
YOX1=tf_act(HCM1)	553.4066917213567	0.0	0.0004634789293646071	0.0	99.57818496795333	1.0
YOX1=tf_act(HCM1)	553.406691721357	0.0	0.0004634789244292856	0.0	99.1185244167556	1.0
YOX1=tf_act(NDD1)	553.4066917213569	0.0	0.00046347892393316177	0.0	100.0	10.0
YOX1=tf_act(NDD1)	553.4066917213565	0.0	0.0004634789378134075	0.0	99.75496021062415	9.974181999583838
YOX1=tf_act(NDD1)	553.4066917213569	0.0	0.0004634789208611865	0.0	99.89092137226879	10.0
YOX1=tf_act(NDD1)	553.6619360544003	0.05005432109039365	0.0013329529936839347	0.0	100.0	10.0
YOX1=tf_act(NDD1)	553.5002180573995	0.02579647950525747	0.0009495892734713619	-4.336808689942018e-19	99.5583618844928	9.982746705157117
YOX1=tf_act(NDD1)	553.406691721357	0.0	0.00046347892111881975	0.0	100.0	9.961982255961152
YOX1=tf_act(NDD1)	553.406691721357	0.0	0.000463478920478118	0.0	99.77613966732999	9.929975541182703
YOX1=tf_act(NDD1)	553.4066917213569	0.0	0.00046347892325986686	0.0	99.85124784127248	9.952754125962798
YOX1=tf_act(NDD1)	553.4066917213569	0.0	0.0004634789239657055	0.0	99.81622762885463	9.949644399858617
YOX1=tf_act(NDD1)	553.406691721357	0.0	0.00046347892282870996	0.0	99.3565670776569	9.924064507730833
YOX1=tf_act(SWI5)	553.406691721357	0.0	0.0004634789232302842	0.0	100.0	10.0
YOX1=tf_act(SWI5)	553.4066917213565	0.0	0.0004634789378134075	0.0	99.75496021062415	9.974181999583838
YOX1=tf_act(SWI5)	553.4066917213569	0.0	0.000463478923136493	0.0	99.8379836928704	9.996909372469885
YOX1=tf_act(SWI5)	553.4066917653253	0.0	0.0004633410938747648	0.0	100.0	10.0
YOX1=tf_act(SWI5)	553.4066917213569	0.0	0.00046347891899610233	0.0	99.55839904174093	9.98277025836571
YOX1=tf_act(SWI5)	553.406691721357	0.0	0.00046347892400652426	0.0	99.92360394383597	9.936988838628114
YOX1=tf_act(SWI5)	553.4066917213569	0.0	0.00046347892130647563	0.0	99.7084427217955	9.908148376987786
YOX1=tf_act(SWI5)	553.4066917213569	0.0	0.0004634789266920383	0.0	99.89079973493264	10.0
YOX1=tf_act(SWI5)	553.406691721357	0.0	0.0004634789225942584	0.0	99.83763403985063	9.98331696072329
YOX1=tf_act(SWI5)	553.406691721357	0.0	0.0004634789221202763	0.0	99.3779734886529	9.957737068595506
YOX1=tf_rep(NRM1)	181.91334276637562	0.0	0.04233712265345262	6.983787628633365	29.817311208327485	4.147866777672536
YOX1=tf_rep(NRM1)	181.91334276401477	0.0	0.04233724537942151	6.983802206937123	29.817306766864796	4.147857772095281
YOX1=tf_rep(NRM1)	181.92815139756843	0.0	0.042391210041395684	7.022834989955754	29.65566394647717	4.0842598632769525
YOX1=tf_rep(NRM1)	181.91334276459446	0.0	0.042337178640928064	6.983789823952026	29.81732976119546	4.147869629711704
YOX1=tf_rep(NRM1)	181.9133427642557	0.0	0.04233719948792901	6.983793620298173	29.817315725084622	4.147861259850822
YOX1=tf_rep(NRM1)	181.91635626975156	0.0	0.0423182692404003	6.967678358657963	29.889401552093858	4.1777404745972975
YOX1=tf_rep(NRM1)	181.91334277324782	0.0	0.04233715711360075	6.983772066560184	29.81737333622811	4.147894610637737
YOX1=tf_rep(NRM1)	181.91982340984504	0.0	0.04220233442997675	6.9733343853049155	29.826101046817566	4.183102148027141
YOX1=tf_rep(NRM1)	181.91334276450786	0.0	0.04233718158734513	6.983788485509952	29.817333862409217	4.147870472167891
YOX1=tf_rep(NRM1)	181.91334276444528	0.0	0.04233718557064725	6.983789144716181	29.817333734091367	4.14787113101759
YOX1=tf_rep(CLN3)	553.5558996831086	0.036944733224710896	0.0011444096694062864	0.10048675885160185	0.28104945572040196	5.98996195221194
YOX1=tf_rep(CLN3)	553.4575970244786	0.015231563530602168	0.0007548188055643611	0.0	0.03600966634455138	5.964143951795777
YOX1=tf_rep(CLN3)	553.4066917213586	-1.734723475976807e-18	0.00046347884647669936	0.24131114236323759	0.05193643745133436	5.973995057411722
YOX1=tf_rep(CLN3)	553.504646314818	0.026790524171766267	0.0009674989684473345	0.0	0.4790220002654627	6.006295432316487
YOX1=tf_rep(CLN3)	553.4319545588696	0.007944879415569962	0.0006167327528432508	0.0038743257227804584	0.03741453025271957	5.989060712137702
YOX1=tf_rep(CLN3)	553.4066917213577	0.0	0.0004634789270630875	0.04197373710736452	0.4131590465527001	5.950826498763102
YOX1=tf_rep(CLN3)	553.4066917213564	0.0	0.00046347893782207306	0.3795018177764897	0.156746235049824	5.906328440666156
YOX1=tf_rep(CLN3)	553.6262568668759	0.04688157599887937	0.0012973370951827137	0.6370580152423806	0.2739806325697336	5.918405102637552
YOX1=tf_rep(CLN3)	553.4988335455754	0.02548195940294152	0.0009439083724539798	1.0575947479579626	0.10407349848130604	5.877260398191983
YOX1=tf_rep(CLN3)	553.4299924106652	0.007356155586338814	0.0006054666241460726	0.8052275665687958	0.001	5.851680506064199
YOX1=tf_rep(WHI5)	281.1064937963013	0.0	0.025377658984422524	7.733234205854521	66.03148969837622	10.0
YOX1=tf_rep(WHI5)	281.0855281751028	0.0	0.025112332429740855	7.77157668648585	65.84528965287282	10.0
YOX1=tf_rep(WHI5)	281.0855281631399	0.0	0.025112531752469473	7.771563807321171	65.84539323210407	10.0
YOX1=tf_rep(WHI5)	281.08552816350135	0.0	0.02511251651691423	7.771563292373264	65.84538620629209	10.0
YOX1=tf_rep(WHI5)	281.08552816471354	0.0	0.02511247980027127	7.771558241801822	65.84537807348431	10.0
YOX1=tf_rep(WHI5)	281.09351803685007	0.0	0.025175080166203307	7.7329077920493035	65.93481743072276	10.0
YOX1=tf_rep(WHI5)	281.08552816295867	0.0	0.02511254704048399	7.771560463341349	65.8454064272935	10.0
YOX1=tf_rep(WHI5)	281.08759161968186	0.0	0.025029806349541148	7.783738490915755	65.78689511673055	10.0
YOX1=tf_rep(WHI5)	281.08552816308605	0.0	0.025112577945924423	7.771579142275031	65.84538930603253	10.0
YOX1=tf_rep(WHI5)	281.08552816309896	0.0	0.02511253370354675	7.771563744088505	65.84539229836126	10.0
YOX1=tf_act(YOX1)	522.7594909512438	0.3	0.013400803641688433	2.1393809349436723	75.36389954577743	10.0
YOX1=tf_act(YOX1)	522.7594909518455	0.3	0.013400801177396676	2.1393864749030747	75.36398302822056	10.0
YOX1=tf_act(YOX1)	522.759736698891	0.3	0.013398603115385615	2.142336264503313	75.41130740736614	10.0
YOX1=tf_act(YOX1)	522.783892621872	0.3	0.013376809525026715	2.1684911041753927	75.83772179806881	10.0
YOX1=tf_act(YOX1)	522.7598165349801	0.3	0.013399875199256528	2.143284931320415	75.41826591436461	10.0
YOX1=tf_act(YOX1)	522.7804772597685	0.3	0.013389284259829565	2.1697855119799496	75.80207424166824	10.0
YOX1=tf_act(YOX1)	522.7594909521287	0.3	0.013400782797022875	2.139380834752929	75.36396702940363	10.0
YOX1=tf_act(YOX1)	522.7616192858918	0.3	0.013394218393852788	2.148062732852456	75.50349003863543	10.0
YOX1=tf_act(YOX1)	522.7595087505521	0.3	0.013400220861028543	2.1401790573966144	75.37666063801674	10.0
YOX1=tf_act(YOX1)	522.7825907570366	0.3	0.013420951305545116	2.1107240461816086	74.90574514538528	10.0
YOX1=tf_rep(YOX1)	416.3774429758218	0.0	0.004501436474354939	40.68321228218632	7.381820779909188	10.0
YOX1=tf_rep(YOX1)	416.3776416874298	0.0	0.004501841878230814	40.29651233124438	7.390669081864305	9.96894270569271
YOX1=tf_rep(YOX1)	416.37756477828094	0.0	0.004501494033590509	40.53471704371301	7.384662092334718	9.978863576485024
YOX1=tf_rep(YOX1)	416.3774989279872	0.0	0.004501508703660713	40.1853797877846	7.395343069330777	10.0
YOX1=tf_rep(YOX1)	416.37778792038495	0.0	0.004502098727208836	40.19887069094379	7.391909172459582	9.942304433468491
YOX1=tf_rep(YOX1)	416.3779851829442	0.0	0.00450249650865386	39.99037857083752	7.395903829497751	9.908752075910037
YOX1=tf_rep(YOX1)	416.37827322500016	0.0	0.004503136763315213	40.33380858633316	7.382949137321251	9.845589880647319
YOX1=tf_rep(YOX1)	416.3807274163813	0.0008601553907492994	0.004513975852456988	40.58771070463442	7.375386744757618	9.86423435752934
YOX1=tf_rep(YOX1)	416.3783707240433	0.0	0.004503456080536202	41.01213600769209	7.362514073298075	9.811636372560292
YOX1=tf_rep(YOX1)	416.38160348166696	0.0009850946651162075	0.004520130249610267	40.76977109041286	7.363772666602433	9.74125479868321
YOX1=tf_act(ASH1)	553.4066917213569	0.0	0.0004634789212702662	0.0	100.0	1.0023130716848356
YOX1=tf_act(ASH1)	553.4066917213565	0.0	0.0004634789378134075	0.0	99.75496021062415	1.0
YOX1=tf_act(ASH1)	553.4066917213569	0.0	0.000463478923870075	0.0	99.76942299014769	1.0157717112835647
YOX1=tf_act(ASH1)	553.406691721357	0.0	0.00046347891575833366	0.0	99.9999999848944	1.0579144719317322
YOX1=tf_act(ASH1)	553.406691721357	-5.421010862427522e-20	0.00046347892232336354	0.0	99.55839325464179	1.040662538000656
YOX1=tf_act(ASH1)	553.406691721308	0.0	0.00046348237304944174	0.0	100.0	1.0195446243084179
YOX1=tf_act(ASH1)	553.4066917213569	0.0	0.00046347892355083376	0.0	99.70579897643334	1.0
YOX1=tf_act(ASH1)	553.406691721357	0.0	0.00046347892365600283	0.0	99.82515268866926	1.0125632865820855
YOX1=tf_act(ASH1)	553.4066917213038	0.0	0.00046348452210812286	0.0	99.66393179553219	1.0
YOX1=tf_act(ASH1)	553.4066917213569	0.0	0.0004634789217470979	0.0	99.20427124433446	1.0
YOX1=tf_rep(ASH1)	525.6531046286281	0.3	0.026981935624788917	2.134601378048675	27.908684300491746	1.6498848402045174
YOX1=tf_rep(ASH1)	525.7049553627791	0.3	0.019655960471206255	1.3885084115843271	27.578417225534725	2.877613720176331
YOX1=tf_rep(ASH1)	525.8114301368091	0.3	0.020054307314315376	1.451244851082401	27.067404715726475	2.7258446938555623
YOX1=tf_rep(ASH1)	525.7169729147157	0.3	0.019979564323542417	1.4256875436121628	27.524499469618238	2.771678449733412
YOX1=tf_rep(ASH1)	523.2071793581425	0.3	0.034643327492257237	2.2392578135914962	44.94040103328327	2.2334609696026004
YOX1=tf_rep(ASH1)	523.2130109383853	0.3	0.035268254672173587	2.280372142807011	45.31981540152148	2.199056519716255
YOX1=tf_rep(ASH1)	523.212372573776	0.3	0.03423980321241909	2.224871506182743	44.257969660255725	2.213423836372016
YOX1=tf_rep(ASH1)	523.2109506047778	0.3	0.03427221961471229	2.224860424923097	44.35677509146574	2.2158817991624185
YOX1=tf_rep(ASH1)	523.2210145050273	0.3	0.03393905464715621	2.2123291895634085	43.815993466215986	2.201517892719123
YOX1=tf_rep(ASH1)	523.2339832463407	0.3	0.033637311853961294	2.1999225428031806	43.36585128484042	2.1882050859191713
YOX1=tf_act(RIF1)	553.4066917213569	0.0	0.00046347892868619497	0.0	100.0	1.0023965645762913
YOX1=tf_act(RIF1)	553.4066917213565	0.0	0.0004634789378134075	0.0	99.75496021062415	1.0
YOX1=tf_act(RIF1)	553.4066917213569	0.0	0.0004634789243173242	0.0	99.7554567657867	1.0
YOX1=tf_act(RIF1)	553.406691721357	0.0	0.0004634789217288042	0.0	99.99999995729212	1.0421396350749144
YOX1=tf_act(RIF1)	553.406691721357	0.0	0.0004634789167052888	0.0	99.55839283571167	1.0248840925666896
YOX1=tf_act(RIF1)	553.4066917213568	0.0	0.00046347892831342	0.0	99.93415409848764	1.0
YOX1=tf_act(RIF1)	553.4066917213569	0.0	0.0004634789269305503	0.0	99.51350493872587	1.0
YOX1=tf_act(RIF1)	553.406691721357	0.0	0.0004634789196715723	0.0	99.6356272518774	1.0129327354856315
YOX1=tf_act(RIF1)	553.406691721357	0.0	0.00046347891908376187	0.0	99.47631981804969	1.0
YOX1=tf_act(RIF1)	553.4066917213214	0.0	0.0004634809916543121	0.0	99.01665926685196	1.0
YOX1=tf_rep(RIF1)	525.3241514351585	0.0	0.005892918314567017	22.36767869754384	32.784141637672725	10.0
YOX1=tf_rep(RIF1)	521.4628073382547	0.0	0.006487588418950442	100.0	28.39753732295523	10.0
YOX1=tf_rep(RIF1)	521.4628130586245	0.0	0.0064877355297059	99.99956004105422	28.397624367405232	10.0
YOX1=tf_rep(RIF1)	521.4655600208033	0.0	0.006487131206576957	99.78797575133153	28.40342788839857	10.0
YOX1=tf_rep(RIF1)	521.465357638092	0.0	0.006487271351090284	99.80353533382527	28.40305165064504	10.0
YOX1=tf_rep(RIF1)	521.4650233794276	0.0	0.006487356174544624	99.82924379499178	28.402348711943418	10.0
YOX1=tf_rep(RIF1)	521.4628073388492	0.0	0.006487567026105775	100.0	28.397528080104387	10.0
YOX1=tf_rep(RIF1)	521.4628073436335	0.0	0.006487563545441076	100.0	28.39750886668547	10.0
YOX1=tf_rep(RIF1)	521.4628073410328	0.0	0.0064876589279280585	100.0	28.397567857689424	10.0
YOX1=tf_rep(RIF1)	521.4658887754736	0.0	0.006487218694613454	99.76271144074778	28.404205429236885	10.0
YOX1=tf_act(EDS1)	331.7626409604223	0.3	0.022544284839613255	16.61181684798124	100.0	6.804157499073362
YOX1=tf_act(EDS1)	331.7872956224258	0.3	0.02279630866507557	16.49230812989124	99.75070685030587	6.724253091646116
YOX1=tf_act(EDS1)	331.78901677428564	0.3	0.022526632646748555	16.475872086000084	99.7751979942935	6.819635244781511
YOX1=tf_act(EDS1)	331.7812522962548	0.3	0.022562610697268677	16.49225725986158	99.84751408717814	6.79154680336319
YOX1=tf_act(EDS1)	331.8304537348168	0.3	0.022463422036690744	16.26109017967533	99.42249885690707	6.8577871059288835
YOX1=tf_act(EDS1)	331.7816440256125	0.3	0.02285764435586982	16.5417939623756	99.79099270912084	6.708618337747565
YOX1=tf_act(EDS1)	329.71962156477457	0.3	0.019243455545007778	16.70835422685337	100.0	10.0
YOX1=tf_act(EDS1)	329.7196211399122	0.3	0.019242906814768035	16.707609730244624	100.0	10.0
YOX1=tf_act(EDS1)	329.7196211395043	0.3	0.019242919576933196	16.707621921584263	100.0	10.0
YOX1=tf_act(EDS1)	329.7196211394086	0.3	0.019242928010304344	16.707630643062547	100.0	10.0
YOX1=tf_rep(EDS1)	553.5583986427366	0.03691997937044075	0.0011440603629283748	0.10822615403896342	0.28223803424176436	1.4760666683386459
YOX1=tf_rep(EDS1)	553.4575535585778	0.015219828316578048	0.0007545985449920227	0.0	0.03719824486591378	1.450248667922483
YOX1=tf_rep(EDS1)	553.4071515483561	0.0	0.0004636896641830819	0.2412976990328073	0.05303612935389042	1.4601208603123668
YOX1=tf_rep(EDS1)	553.6668723006613	0.04975733684176145	0.001323648680623517	0.0656558763612006	0.4962077006554242	1.5020237911965568
YOX1=tf_rep(EDS1)	553.4960430064245	0.02481452001711568	0.0009318775344297595	0.0694971808888289	0.05453779568606543	1.4848043703981249
YOX1=tf_rep(EDS1)	553.4311875477946	0.006316594716591237	0.0005876432539263457	0.10725167875465894	0.43014946685265365	1.4467467848204674
YOX1=tf_rep(EDS1)	553.4131733100185	0.0	0.0004665293225512272	0.44474125030469275	0.17359848550684778	1.4023401621193952
YOX1=tf_rep(EDS1)	553.4066922326894	0.0	0.0004634779446841971	0.6154233388425829	0.001	1.645722569064469
YOX1=tf_rep(EDS1)	553.5932355077887	0.04280127282144707	0.0012386766016940548	1.035960343859673	0.0022715273575101332	1.6045764971312113
YOX1=tf_rep(EDS1)	553.4139162457817	0.002354598427270462	0.0005091625706556339	0.7835930679110465	0.001	1.5789967821996116
