# LEMpy target file for CLN3, replicate 1 
# Run configuration file:  ../pipeline/src/yeast_data/simulations202110_Orlando_2/extra_nodes_annot/results4/edge_finding_20211012001140/lempy_20211012001140_config.txt 
# Time series data file:   ../pipeline/src/yeast_data/time_series/orlando2008_WildType_r2_trunc.tsv 
# Computed on:  2021-10-12 00:14:01 
 
model	loss	pld	inv_temp	prior	rhs_param_0	rhs_param_1	rhs_param_2	rhs_param_3	rhs_param_4	hess_eigs	hess_det	bnd_params	pld_time	opt_time
tf_rep(YOX1)	69.24549743696673	0.501426	1.0	0.302457479845157	0.3	0.06442396614933982	8.238361261561009	55.21884002141059	2.1056314226766766	[1, 1, 3.0305344734333595, 47.86203926182204, 12214665.171091842]	1771707378.694773	1.0	4.23370000000034e-05	0.222946973
tf_rep(SWI4)	64.24578947341276	0.491541	1.0	0.684070889977842	0.3	0.037117268350920565	98.76120960233575	4.530032426762834	1.6508149191932548	[1, 1, 4.076860083061984, 347.5414191112456, 12275819.32553692]	17393335127.70428	1.0	6.0200000000065756e-05	0.3238649069999999
tf_rep(RIF1)	96.87351304724312	0.00666067	1.0	0.00899529262451513	0.3	0.1501203038866297	15.156082160103443	99.99999999945695	2.6729599261293124	[1, 1, 2.0920051724589293, 16.58733870725657, 12217095.15547856]	423942955.6929043	1.0	4.136799999976404e-05	0.465119144
tf_act(SWI5)	117.34574235979481	0.00023918	1.0	0.0022082390158984	0.3	0.00929414525128293	2.334327812230194	59.58174742943882	10.0	[1, 1, 4.181369303094076, 13.386060502128613, 12213938.32771221]	683639319.1195965	2.0	4.398400000127367e-05	0.3763422049999998
tf_rep(CLN3)	153.36027063745965	0.00004184	1.0	0.000288862504702588	0.10159191393668202	0.0	1.0069526075465787	41.38463588749613	3.4112743138969703	[1, 1, 1, 5.625949283993245, 12213814.853158545]	68714302.92795338	1.0	4.3234999999697266e-05	0.3277069429999999
tf_rep(WHI5)	153.80285398748268	0.0000254245	1.0	0.000301923212850658	0.3	0.0009557471247840475	0.10048675885160185	0.28104945572040196	10.0	[1, 1, 1, 4.015281470537932, 12213781.48962305]	49041770.50048261	2.0	4.709300000094174e-05	0.1509054950000004
tf_rep(EDS1)	149.9966233182816	0.0000200355	1.0	0.000270838227051979	0.24390639648738874	0.023596952350248623	16.970065322186258	6.542730370154294	1.0	[1, 1, 1, 28.28891401818322, 12236757.456035467]	346164579.53514975	1.0	4.117399999969962e-05	0.1814073340000002
tf_act(ASH1)	153.80285398760108	0.00000857177	1.0	0.000147432816201241	0.3	0.000955744465584114	0.0	99.44969217460788	4.248828412615666	[1, 1, 1.4225678925747, 5.921089975062744, 12213812.655713884]	102878806.45369267	2.0	4.1462000000436205e-05	0.15974854600000032
tf_rep(ASH1)	152.44910748562413	0.0000082414	1.0	0.000159793958175662	0.0	0.004715924307086535	0.6555408514396236	97.45975807110341	10.0	[1, 1, 1, 11.939918555661972, 12215388.933353646]	145850748.9899771	2.0	4.124799999871698e-05	0.3466626989999999
tf_act(HCM1)	153.6625260279504	0.00000658857	1.0	5.50126385000262e-5	0.3	0.004267283448246605	0.2641657078011378	5.8802238115556635	9.974181643376097	[1, 1, 1, 8.029300266841839, 12215700.552488467]	98083527.70575564	1.0	4.9138999999698285e-05	0.17429429099999982
tf_act(YOX1)	153.66282397500547	0.00000635204	1.0	0.000392913905457139	0.3	0.004279757838596532	0.2651625969030813	0.001	1.0428686463129915	[1, 1, 7.930900760939113, 13.890288201449547, 12215700.530663067]	1345712076.3180387	2.0	4.480099999959464e-05	0.33323755499999974
tf_act(NDD1)	149.47849555198974	0.00000626421	1.0	0.00014220356556861	0.0384864147023959	0.0	0.7773852431757802	72.228626630607	10.0	[1, 1, 1, 20.846171491375074, 12213888.519388426]	254612814.65170833	2.0	4.581800000025282e-05	0.2886462169999997
tf_act(EDS1)	153.8028539876024	0.00000447002	1.0	0.000120377704395671	0.3	0.0009557444446376617	0.0	100.0	9.322479621934365	[1, 1, 1.0095461615391093, 5.1134744520511415, 12213783.54560286]	63051074.402424164	3.0	4.037600000117436e-05	0.3103838139999997
tf_act(RIF1)	153.802853987578	0.00000282749	1.0	0.000194027058683787	0.3	0.000955744859961972	0.0	100.0	10.0	[1, 1, 1, 8.379752359009963, 12213790.745071677]	102348541.80846845	4.0	4.101400000067201e-05	0.14802377200000016
tf_act(SWI4)	153.80285398760253	0.00000151618	1.0	8.78432826059402e-5	0.3	0.0009557444423426338	0.0	100.0	10.0	[1, 1, 1, 5.973456087585756, 12213784.973354429]	72958508.20154744	4.0	0.00018772600000005468	0.1451712279999997
tf_rep(NRM1)	144.26534842357898	0.000000780481	1.0	0.000106869662394966	0.17205667103236083	0.0	100.0	4.615880596631615	10.0	[1, 1, 3.2390279787191556, 90.00659754399764, 12213803.83172435]	3560737714.842697	3.0	4.254499999944983e-05	0.3730091739999999
null_model	153.80285398745585				0.3	0.0009557504235066975								
