# Run Manifest for ../pipeline/src/yeast_data/simulations202110_Orlando_2/no_annot/results1/
run_step	run_input	run_output
lempy	/hpc/group/harerlab/bc187/GIT/pipeline/src/yeast_data/simulations202110_Orlando_2	/hpc/group/harerlab/bc187/GIT/pipeline/src/yeast_data/simulations202110_Orlando_2/no_annot/results1/edge_finding_20211012195319/summaries
netgen	/hpc/group/harerlab/bc187/GIT/pipeline/src/yeast_data/simulations202110_Orlando_2/no_annot/results1/edge_finding_20211012195319/summaries	/hpc/group/harerlab/bc187/GIT/pipeline/src/yeast_data/simulations202110_Orlando_2/no_annot/results1/seed_network_20211012195319
netper	/hpc/group/harerlab/bc187/GIT/pipeline/src/yeast_data/simulations202110_Orlando_2/no_annot/results1/seed_network_20211012195319	/hpc/group/harerlab/bc187/GIT/pipeline/src/yeast_data/simulations202110_Orlando_2/no_annot/results1/network_finding_20211012195319/dsgrn_net_gen_results20211012195319/networks20211012195319
netquery	/hpc/group/harerlab/bc187/GIT/pipeline/src/yeast_data/simulations202110_Orlando_2/no_annot/results1/network_finding_20211012195319/dsgrn_net_gen_results20211012195319/networks20211012195319	/hpc/group/harerlab/bc187/GIT/pipeline/src/yeast_data/simulations202110_Orlando_2/no_annot/results1/network_queries_20211012195319/queries20211012195319
