# LEMpy target file for CLN3, replicate 0 
# Run configuration file:  ../pipeline/src/yeast_data/simulations202110_Orlando_2/extra_nodes_no_annot/results2/edge_finding_20211012232444/lempy_20211012232444_config.txt 
# Time series data file:   ../pipeline/src/yeast_data/time_series/orlando2008_WildType_r1_trunc.tsv 
# Computed on:  2021-10-12 23:27:25 
 
model	loss	pld	inv_temp	prior	rhs_param_0	rhs_param_1	rhs_param_2	rhs_param_3	rhs_param_4	hess_eigs	hess_det	bnd_params	pld_time	opt_time
tf_rep(SWI4)	12.863136044977152	0.924575	1.0	0.045454545454545456	0.0	0.036299112148583765	6.788112967531157	40.796386932576695	10.0	[1, 2.0728972085553217, 6.172261203906737, 10.833748566478484, 12903833.927065587]	1788626168.971189	2.0	9.921100000020999e-05	0.5344406290000001
tf_rep(HCM1)	34.68812991445166	0.0524967	1.0	0.045454545454545456	0.3	0.1289921161397239	32.038822762622324	22.901646697262144	1.0	[1, 1, 1, 427.9535579893592, 12949711.430552425]	5541875081.640385	2.0	8.455699999920796e-05	0.4086397449999999
tf_rep(RIF1)	77.3568425019695	0.0121579	1.0	0.045454545454545456	0.3	0.020891090005956583	16.068111657453567	41.38639301848535	10.0	[1, 1.3875954886897772, 2.0231692590254395, 8.539246924860354, 12903583.282421844]	309332105.68208915	2.0	6.773199999976498e-05	0.33333606699999985
tf_act(SWI5)	116.53904626014774	0.00446176	1.0	0.045454545454545456	0.0	0.007214077760502702	4.691529498466879	94.21702794300498	5.999273860225695	[1, 1, 2.0672807646589506, 6.307522308438747, 12903423.393945342]	168253151.14742216	1.0	7.452500000049156e-05	0.354233056
tf_rep(YOX1)	181.5201446119206	0.00150204	1.0	0.045454545454545456	0.29966461655416543	0.0033683237651269365	0.1671713533729886	0.5135573222346738	7.111824989327646	[1, 1, 1, 2.17381681837162, 12903388.619724171]	28049603.19554137	0.0	6.656999999954394e-05	0.2046686499999999
tf_rep(NDD1)	175.51624446297674	0.000973018	1.0	0.045454545454545456	0.2969573764752034	0.004439500025715873	20.357889209945938	17.4675263586366	5.363603142984767	[1, 1, 2.162152052590538, 3.7550600992831784, 12903397.41684097]	104762824.29069878	0.0	8.565699999962817e-05	0.3792274120000001
tf_act(EDS1)	175.80697633021651	0.000640218	1.0	0.045454545454545456	0.0	0.0012294653882317375	2.32384233898589	95.72097209161737	5.188215620262059	[1, 1, 1.752687965559495, 2.6169701987675205, 12903397.607897053]	59184428.95699369	1.0	6.720000000015602e-05	0.412739239
tf_rep(WHI5)	160.3964919303286	0.000611227	1.0	0.045454545454545456	0.3	0.007591850280832729	29.246709149040672	25.504061214248395	4.974867559596707	[1, 1, 2.0331293359089995, 8.126739852566608, 12903522.915274817]	213201208.39295807	1.0	6.587699999904828e-05	0.3527929489999999
tf_rep(CLN3)	176.96590649880198	0.000514931	1.0	0.045454545454545456	0.0	0.002400250620193007	31.546590460132798	28.22777927387925	5.11478752656714	[1, 1, 1, 6.497724776298984, 12903463.463382758]	83843154.24609084	1.0	6.902700000033235e-05	0.2921480630000004
tf_act(CLN3)	181.5201352989413	0.000370067	1.0	0.045454545454545456	0.3	0.0033724143369651904	0.0	97.00646563466644	1.0555620654227398	[1, 1, 1, 2.238158100119982, 12903781.32766891]	28880702.700699147	2.0	6.916299999915054e-05	0.4008278709999997
tf_rep(ASH1)	176.70922104589476	0.000319032	1.0	0.045454545454545456	0.0	0.001035275005990033	7.790308972470157	6.1848631484817185	8.890215236192196	[1, 1, 1, 17.257361293915423, 12903425.088460887]	222679068.6805421	1.0	8.965399999993906e-05	0.29605860900000014
tf_act(NRM1)	166.3944264619677	0.000226002	1.0	0.045454545454545456	0.0	0.0024195417353683525	1.3139901683752064	76.61002964371718	10.0	[1, 1, 1, 18.897911511843866, 12903443.499738062]	243848133.4561268	2.0	8.858500000030745e-05	0.34465775200000026
tf_act(ASH1)	168.66129148552207	0.000199267	1.0	0.045454545454545456	0.3	0.006798318643243424	1.4283564751666753	76.75977555486459	10.0	[1, 1, 1.538095934708997, 13.265440370770133, 12903462.979583811]	263276063.76551315	2.0	7.304100000027347e-05	0.3135487389999998
tf_rep(EDS1)	181.5201352989174	0.000187755	1.0	0.045454545454545456	0.3	0.0033724162614784193	0.0	0.38395882234852485	10.0	[1, 1, 1, 2.1738168130117685, 12903388.61972418]	28049603.12638114	3.0	6.675100000030909e-05	0.2856697539999997
tf_act(NDD1)	177.69970834764806	0.000181782	1.0	0.045454545454545456	0.0	0.00123596168045023	0.847681712609345	98.65584671279913	10.0	[1, 1, 1, 12.335780252023326, 12903430.440995976]	159173882.41739482	2.0	8.963199999989513e-05	0.3650036860000001
tf_act(YOX1)	181.52013529902737	0.000151038	1.0	0.045454545454545456	0.3	0.0033724121351320097	0.0	98.61778707311649	1.056409205143237	[1, 1, 2.0000159446357246, 6.718168394021795, 12903556.396016287]	173377911.71319184	2.0	7.264400000117632e-05	0.32820892599999985
tf_act(WHI5)	180.44277004696184	0.000129373	1.0	0.045454545454545456	0.0	0.0007730515022907504	0.8567281625782022	100.0	10.0	[1, 1, 1, 4.960163152642533, 12903408.613194065]	64003011.94665549	3.0	6.689199999954099e-05	0.3339463829999998
tf_act(RIF1)	181.52013529894018	0.000103529	1.0	0.045454545454545456	0.3	0.0033724143828480053	0.0	98.77129336955169	1.0	[1, 1, 1.5806018938179882, 4.523238727079933, 12903663.603908075]	92253964.8221719	3.0	7.291599999881271e-05	0.32120317499999995
tf_rep(NRM1)	156.3543499707823	0.0000721971	1.0	0.045454545454545456	0.05185095525820682	0.0013691852975912882	100.0	4.982148044149757	10.0	[1, 1, 2.167372019442659, 188.3439986587358, 12903439.370907465]	5267332504.926229	2.0	6.971100000008335e-05	0.3990596789999996
tf_rep(SWI5)	175.8121692714305	0.0000570186	1.0	0.045454545454545456	0.01380374854244564	0.0006058313969407662	100.0	4.230369936956443	10.0	[1, 1, 2.1368598898366002, 67.62673886943416, 12903427.813039731]	1864659717.8145094	2.0	7.142599999987453e-05	0.392713289
tf_act(HCM1)	181.52013529893415	0.0000372574	1.0	0.045454545454545456	0.3	0.0033724146511962426	0.0	100.0	1.0	[1, 1, 1.9976020797515504, 6.908828132128482, 12903607.134331662]	178083836.22903058	4.0	8.979399999908821e-05	0.29158858799999976
tf_act(SWI4)	181.5201352989796	0.0000329262	1.0	0.045454545454545456	0.3	0.0033724131568585616	0.0	100.0	1.0	[1, 1, 2.117879915867176, 8.343612091266275, 12903575.9350871]	228016102.83404565	4.0	0.00031892599999849836	0.35778978399999994
null_model	181.52013529892625				0.3	0.003372415089238469								
