# LEMpy local minima file for target HCM1, replicate 0
# Right-hand side of tf_act():  p0 - p1(tar) + p2(reg^p4) / (p3^p4 + reg^p4)
# Right-hand side of tf_rep():  p0 - p1(tar) + p2(p3^p4) / (p3^p4 + reg^p4)
# Run configuration file:  ../pipeline/src/yeast_data/simulations202110_Orlando_2/no_annot/results4/edge_finding_20211012213636/lempy_20211012213636_config.txt
# Time series data file:   ../pipeline/src/yeast_data/time_series/orlando2008_WildType_r1_trunc.tsv
# Computed on:  2021-10-12 21:40:50 
 
model	loss	p0	p1	p2	p3	p4
HCM1=tf_act(SWI4)	38.71101320696987	0.0	0.236201582491335	49.02819625767415	100.0	1.3888405368493035
HCM1=tf_act(SWI4)	38.71860662486066	0.0	0.23587021422265492	48.87356356103061	99.73564212621572	1.3904492178582128
HCM1=tf_act(SWI4)	38.7341829044967	0.0	0.23580330992076412	48.69682822160731	99.24588202724605	1.393297018488213
HCM1=tf_act(SWI4)	38.71053015867493	0.0	0.2359127844983784	48.97019596625199	100.0	1.3889273861566644
HCM1=tf_act(SWI4)	38.71053016589686	0.0	0.23591250494557572	48.97014293982768	100.0	1.3889277145960781
HCM1=tf_act(SWI4)	38.720549728667415	0.0	0.23586294328225127	48.85128265221958	99.67313596060087	1.3908105047397825
HCM1=tf_act(SWI4)	38.71053016247454	0.0	0.2359126230338661	48.9701631264104	100.0	1.388927467940334
HCM1=tf_act(SWI4)	38.71053017138852	0.0	0.2359122947596149	48.97008994415037	100.0	1.388927278170822
HCM1=tf_act(SWI4)	38.71053016742652	0.0	0.23591243229252792	48.97011848134547	100.0	1.3889272565736068
HCM1=tf_act(SWI4)	38.711408310894164	0.0	0.2358941769259602	48.95677696096956	99.97094091150105	1.3890982400835123
HCM1=tf_rep(SWI4)	403.5149780546473	0.0	0.00042951170705751224	0.7566652526159747	0.48125705326564083	3.008875605984433
HCM1=tf_rep(SWI4)	403.5147706818803	0.0	0.0004294764721242277	0.30396602262602473	0.21984489469893057	2.989984077295588
HCM1=tf_rep(SWI4)	403.5147616959602	0.0	0.0004294750447892246	0.13644627457380826	0.001	2.9673008129473573
HCM1=tf_rep(SWI4)	403.68259390683323	0.06144809863754376	0.0014713441371945032	0.35383229207819583	0.0722206606877582	2.958405926492825
HCM1=tf_rep(SWI4)	403.5465131076799	0.016288857624143043	0.0007163604757525631	0.43713700868420824	0.334836687762386	2.993330942125483
HCM1=tf_rep(SWI4)	403.5147616964031	0.0	0.0004294750448419694	0.271374278642726	0.0076014354823258625	2.9580050468112353
HCM1=tf_rep(SWI4)	403.54517673774023	0.015679073001357267	0.0007057147201522647	0.4539852028529927	0.20735695935057927	2.9882518617543057
HCM1=tf_rep(SWI4)	403.5396266374092	0.01302520506043059	0.000659304371691945	0.11463630609924699	0.3870252483681243	2.9799805656810507
HCM1=tf_rep(SWI4)	403.57299343764834	0.02760499445077243	0.0009123619544507971	0.35109362481849865	0.8008451150384392	3.0058630264163093
HCM1=tf_rep(SWI4)	403.51535083588305	0.0	0.0004295667620603852	0.5067432576870327	0.7667517783528349	3.008510468748688
HCM1=tf_act(HCM1)	396.5056929702886	0.3	0.009561513127287364	2.6504229962933574	99.99999939816897	6.383108651523834
HCM1=tf_act(HCM1)	396.48754635525466	0.3	0.009629600881524003	2.5946451887878124	99.70514686148529	6.199487971902408
HCM1=tf_act(HCM1)	396.46807647758243	0.3	0.009674146371539209	2.548986767899445	99.19862916250933	6.141319435387122
HCM1=tf_act(HCM1)	396.4712238538531	0.3	0.009662811402329727	2.5595869151421105	99.29367097298794	6.162828694469137
HCM1=tf_act(HCM1)	396.4818788561716	0.3	0.009609578321247684	2.59328401502414	99.56501823350118	6.270548335366391
HCM1=tf_act(HCM1)	396.47153559335896	0.3	0.009669997961273446	2.5264705201581195	99.20723558481225	6.089037957932562
HCM1=tf_act(HCM1)	396.4764793589431	0.3	0.009656070118665743	2.568822448120221	99.42300072406115	6.163470673212246
HCM1=tf_act(HCM1)	396.48682885717614	0.3	0.009708161316035347	2.574330217119715	99.5700324064812	6.0490108566620915
HCM1=tf_act(HCM1)	394.1013107889358	0.3	0.009806133296552378	1.258220520325692	76.42350500231393	10.0
HCM1=tf_act(HCM1)	394.1014939038687	0.3	0.00980015995172783	1.2620906235123994	76.52339475504894	10.0
HCM1=tf_rep(HCM1)	403.71321017826546	0.0	0.0015949305566534274	0.10655972957112282	99.9962494962324	1.0
HCM1=tf_rep(HCM1)	403.51476169595946	0.0	0.0004294750533300277	0.0	99.73858791460735	1.0
HCM1=tf_rep(HCM1)	403.5147616959595	0.0	0.00042947504426886263	0.0	99.24660450887718	1.0
HCM1=tf_rep(HCM1)	403.80787446380015	0.000410129644698407	0.001632725012625722	0.11557303977780974	99.3177025050264	1.0004224382889209
HCM1=tf_rep(HCM1)	403.5147616959598	0.0	0.0004294750419998894	0.0	99.50895765324758	1.0306729969579482
HCM1=tf_rep(HCM1)	403.51476169595946	0.0	0.0004294750533300277	0.0	99.18172240096854	1.0
HCM1=tf_rep(HCM1)	403.66007753118276	2.663540650238146e-05	0.0014644931282523613	0.09256869562816941	99.38068263366387	1.0120179373415403
HCM1=tf_rep(HCM1)	403.56984528622144	0.00016026207824948503	0.001031066832381426	0.051623356883967804	99.56034810226282	1.0037479109310872
HCM1=tf_rep(HCM1)	403.75597311005794	0.0	0.0016220976309502398	0.11150722320921927	99.97165201506202	1.0100662658205326
HCM1=tf_rep(HCM1)	403.769637314079	0.0	0.001639344412933454	0.11389466254103486	99.92739675067715	1.0026287963339844
HCM1=tf_act(NDD1)	403.5147616959597	0.0	0.0004294750462648847	0.0	100.0	4.442719601917288
HCM1=tf_act(NDD1)	403.51476169595946	0.0	0.0004294750533300277	0.0	99.73858791460735	4.4238280512762165
HCM1=tf_act(NDD1)	403.51476169595946	0.0	0.0004294750504482849	0.0	99.24660450888344	4.401144786927985
HCM1=tf_act(NDD1)	403.51476169595963	0.0	0.00042947504598725775	0.0	99.4142488067824	5.100353903418386
HCM1=tf_act(NDD1)	403.51476169595963	0.0	0.00042947504605370145	0.0	99.69727603655885	5.158243483233652
HCM1=tf_act(NDD1)	403.51476169595946	0.0	0.0004294750533300277	0.0	99.37004078427981	5.122917587919405
HCM1=tf_act(NDD1)	406.63794085844296	0.18561407516692457	0.004161225679585013	0.06946377887930881	99.56372753133654	4.7640803206386275
HCM1=tf_act(NDD1)	403.5149726087221	0.00011959749386807186	0.00043160068215275684	0.0	99.54970625647118	5.114647856534739
HCM1=tf_act(NDD1)	406.4393039436773	0.22571073702934327	0.004851407741294364	0.058479153455461896	99.97072272409532	4.58315901827305
HCM1=tf_act(NDD1)	403.5147616959595	0.0	0.0004294750461791908	0.0	99.52245337634827	5.126492947003518
HCM1=tf_rep(NDD1)	191.2339881089766	0.0	0.02666819939732729	19.862858203745898	24.847374687867667	3.0910759815688205
HCM1=tf_rep(NDD1)	191.23407744806016	0.0	0.026663234485672788	19.666269154054664	24.980787728251048	3.098123135116963
HCM1=tf_rep(NDD1)	191.23403148360094	0.0	0.02666472229703592	19.725790540012742	24.94013699874583	3.095968356604119
HCM1=tf_rep(NDD1)	191.2339881209662	0.0	0.026668493690564194	19.863410601035625	24.847135175891562	3.0910592363611804
HCM1=tf_rep(NDD1)	191.23400370841614	0.0	0.026666163525122008	19.780956688719932	24.902704541604756	3.0939921031005406
HCM1=tf_rep(NDD1)	191.23398902044522	0.0	0.02666765380320342	19.8440781835342	24.86005070123231	3.0917498937367003
HCM1=tf_rep(NDD1)	191.23399247345648	0.0	0.026669484581243134	19.90875776756016	24.816563439152638	3.0894537927540187
HCM1=tf_rep(NDD1)	191.23935096344965	0.0	0.026684487178542386	19.5635604449104	24.98463967036321	3.0883773938562196
HCM1=tf_rep(NDD1)	191.23413380493383	0.0	0.0266618456528317	19.612244932235285	25.017790095680386	3.1000823279097536
HCM1=tf_rep(NDD1)	191.23747968715574	0.0	0.026602877319552083	19.7589110943457	24.96579629890218	3.10753609813686
HCM1=tf_act(SWI5)	403.51476169595935	0.0	0.00042947505374725027	-2.7755575615628914e-17	100.0	9.974594855691413
HCM1=tf_act(SWI5)	403.51476169595946	0.0	0.0004294750533300277	0.0	99.73858791460735	9.98110844935893
HCM1=tf_act(SWI5)	403.5147616959597	0.0	0.0004294750425563533	0.0	99.24660450888344	9.958425185010698
HCM1=tf_act(SWI5)	403.5147616959595	0.0	0.00042947504833933944	0.0	99.4075749759921	10.0
HCM1=tf_act(SWI5)	403.5147616959597	0.0	0.0004294750436130396	0.0	99.69468474783578	10.0
HCM1=tf_act(SWI5)	403.51476169595946	0.0	0.0004294750533300277	0.0	99.36744949555674	9.964674104685752
HCM1=tf_act(SWI5)	403.53560230916764	0.011058669381520676	0.0006248205599344524	0.0	99.59602635655938	9.993029123594594
HCM1=tf_act(SWI5)	403.51476169595975	0.0	0.00042947504483563273	0.0	99.77569182875075	9.984759392209929
HCM1=tf_act(SWI5)	403.5844945010079	0.032300289622177576	0.0009926149501876817	0.0	100.0	9.999213640685621
HCM1=tf_act(SWI5)	403.5147616959545	0.0	0.0004294752350722268	0.0	99.96797469266996	10.0
HCM1=tf_rep(SWI5)	120.52027548911818	0.0	0.07615984755094418	7.286253411904424	48.76420146623936	2.5557424245359917
HCM1=tf_rep(SWI5)	120.52625611260581	0.0	0.0761463065736847	7.298814374751079	48.61648541726067	2.5294111206185024
HCM1=tf_rep(SWI5)	120.62896051241579	0.0	0.07544776516660494	7.279321849508336	48.14657501972537	2.5044597531561137
HCM1=tf_rep(SWI5)	120.62089980742822	0.0	0.07557212625318675	7.287075548153807	48.18302438724486	2.4989382521579486
HCM1=tf_rep(SWI5)	120.51967978825505	0.0	0.07618089282042217	7.2914512457153275	48.73077395650104	2.550304289398722
HCM1=tf_rep(SWI5)	120.52974518093792	0.0	0.07607621076487728	7.298308832898257	48.56159806542429	2.5359235091230805
HCM1=tf_rep(SWI5)	120.51968262600907	0.0	0.07618743195991474	7.291731658312036	48.734063990267614	2.5502693965882957
HCM1=tf_rep(SWI5)	120.5404185389258	0.0	0.07679007338324627	7.320907476439882	48.997701418956346	2.5359334783478404
HCM1=tf_rep(SWI5)	120.60965502332957	0.0	0.07710956772937226	7.3213199766106625	49.29360370886533	2.550304434950458
HCM1=tf_rep(SWI5)	120.5363244889302	0.0	0.07618709777963427	7.272483649148923	48.92988811317269	2.5727994133066288
HCM1=tf_act(NRM1)	403.5147616959597	0.0	0.000429475046428505	0.0	100.0	1.0
HCM1=tf_act(NRM1)	403.51476169595946	0.0	0.0004294750533300277	0.0	99.73858791460735	1.0
HCM1=tf_act(NRM1)	403.51476169595963	0.0	0.00042947504274383144	0.0	99.24660450888344	1.0
HCM1=tf_act(NRM1)	403.5147790024752	7.6905236423765e-06	0.00042846073018636886	0.0	99.3181678987688	1.0
HCM1=tf_act(NRM1)	403.51476169595963	0.0	0.0004294750474294658	0.0	99.59993409077121	1.0
HCM1=tf_act(NRM1)	403.51476169595946	0.0	0.0004294750533300277	0.0	99.27269883849218	1.0
HCM1=tf_act(NRM1)	403.51476169595975	0.0	0.00042947504292170126	0.0	99.49446388190795	1.0609024475774504
HCM1=tf_act(NRM1)	403.5149729078097	0.00011976696777554117	0.00043160369060932555	0.0	99.67412935409932	1.0526327161927849
HCM1=tf_act(NRM1)	407.3067231833646	0.18838315442194906	0.0045067938925582585	0.09847618568972986	99.98970614943732	1.0292703024071599
HCM1=tf_act(NRM1)	403.5147616959598	0.0	0.00042947504489508783	0.0	99.64444082407816	1.0866795297635183
HCM1=tf_rep(NRM1)	185.4489440605461	0.0	0.031401171455592396	5.400402583073929	30.53064357728946	3.828144998271827
HCM1=tf_rep(NRM1)	185.45299231623673	0.0	0.03135358881469025	5.418501589215858	30.367990827141426	3.789920233841878
HCM1=tf_rep(NRM1)	185.49731248469627	0.0	0.03129355250103136	5.468656016864861	29.96481022294516	3.684044746836993
HCM1=tf_rep(NRM1)	185.49652843911454	0.0	0.03131835472348484	5.469979737930654	29.972591531817372	3.6812711699887206
HCM1=tf_rep(NRM1)	185.47661901520763	0.0	0.031435757874587585	5.461115035735688	30.128441548867215	3.706159239891513
HCM1=tf_rep(NRM1)	185.48347408329738	0.0	0.031442091622592906	5.4702406772489205	30.078295225758353	3.694312551054982
HCM1=tf_rep(NRM1)	185.46413339437007	0.0	0.03135383135028018	5.439070661155771	30.217359325611017	3.7443332824014437
HCM1=tf_rep(NRM1)	185.45003371233386	0.0	0.031383061549713355	5.410354009860911	30.44609940648719	3.806563728001466
HCM1=tf_rep(NRM1)	185.4601233569668	0.0	0.03139696420339735	5.3689785920157185	30.772101272384518	3.9098026921270908
HCM1=tf_rep(NRM1)	185.45118110899895	0.0	0.03139469270774526	5.3836917505986115	30.64372550795758	3.862652353786692
HCM1=tf_act(CLN3)	345.42638753879606	0.0	0.021259866705539705	3.7562428203125235	92.66742168148475	10.0
HCM1=tf_act(CLN3)	345.43845755627797	0.0	0.02132517726104105	3.7046080338099414	92.34024134044677	10.0
HCM1=tf_act(CLN3)	345.50596271872246	0.0	0.021414512298042993	3.625311075006977	91.8354037840591	10.0
HCM1=tf_act(CLN3)	345.48501856598733	0.0	0.02138921991408979	3.6425111742783898	91.95172464235327	10.0
HCM1=tf_act(CLN3)	345.4426618096268	0.0	0.0212551638105826	3.6844365723577366	92.2994839192957	10.0
HCM1=tf_act(CLN3)	345.42638740409103	0.0	0.021259957441419574	3.756440774777967	92.66841194749671	10.0
HCM1=tf_act(CLN3)	345.4321692212422	0.0	0.021212304315681742	3.7931786298841605	92.8985664423394	10.0
HCM1=tf_act(CLN3)	345.43924346237293	0.0	0.02118666324533141	3.8112379397074654	93.01260814740999	10.0
HCM1=tf_act(CLN3)	345.4263874064274	0.0	0.021259883734822505	3.7564499272643936	92.66852259621903	10.0
HCM1=tf_act(CLN3)	345.4302711120486	0.0	0.021254740682551756	3.7916965869379764	92.85216141124339	10.0
HCM1=tf_rep(CLN3)	403.54790012787123	0.0	0.00045293278539500144	0.20979987766197128	0.48117172334375957	1.000196556036789
HCM1=tf_rep(CLN3)	403.51476169595946	0.0	0.0004294750533300277	0.0	0.21975963795111653	1.0
HCM1=tf_rep(CLN3)	403.51476169595963	0.0	0.00042947504458129625	0.0	0.001	1.0
HCM1=tf_rep(CLN3)	403.51476169595975	0.0	0.00042947504330973293	0.0	0.001	1.030485929796617
HCM1=tf_rep(CLN3)	403.5200829997984	0.0	0.0004330055737450647	0.08324367093162964	0.263592531199612	1.0654502996660191
HCM1=tf_rep(CLN3)	403.51476169595946	0.0	0.0004294750533300277	0.0	0.001	1.0301244043517719
HCM1=tf_rep(CLN3)	403.5237221016335	0.0	0.00043544035411120953	0.1825179791885516	0.20066229244696934	1.0603898938703742
HCM1=tf_rep(CLN3)	403.5151886345967	0.00023975278584345894	0.00043373597943796	3.824711875495857e-05	0.38032776476374447	1.0521201622926222
HCM1=tf_rep(CLN3)	403.51476169595975	0.0	0.0004294750443227317	0.0	0.6652082208939731	1.0996133520577283
HCM1=tf_rep(CLN3)	403.5364683431697	0.0	0.0004434158993195896	0.15559652205525143	0.6311035612778563	1.1023434166405737
HCM1=tf_act(WHI5)	403.51476169595975	0.0	0.0004294750426902561	0.0	100.0	1.0
HCM1=tf_act(WHI5)	403.51476169595946	0.0	0.0004294750533300277	0.0	99.73858791460735	1.0
HCM1=tf_act(WHI5)	403.51476169595963	0.0	0.0004294750459200998	0.0	99.24660450888344	1.0
HCM1=tf_act(WHI5)	403.5147616959594	0.0	0.0004294750513167625	0.0	99.31816376757185	1.0
HCM1=tf_act(WHI5)	403.51476169595975	0.0	0.000429475042839478	0.0	99.58085168811766	1.0339300125043156
HCM1=tf_act(WHI5)	403.51476169595946	0.0	0.0004294750533300277	0.0	99.25361643583862	1.0
HCM1=tf_act(WHI5)	403.51476169595935	0.0	0.00042947505078554164	0.0	99.45976513465025	1.0357567357799478
HCM1=tf_act(WHI5)	403.5147616959597	0.0	0.0004294750438762268	0.0	99.63943060678334	1.0274869840071816
HCM1=tf_act(WHI5)	403.5147616959597	0.0	0.00042947504680565193	0.0	100.0	1.0779253273162135
HCM1=tf_act(WHI5)	403.5147616959597	0.0	0.0004294750451885407	0.0	99.96941882930211	1.0056806992721838
HCM1=tf_rep(WHI5)	262.3595736734002	0.0	0.020164346971198996	32.4250155320058	29.864340324947836	4.4954167712807935
HCM1=tf_rep(WHI5)	262.33188582285885	0.0	0.02034238736454825	32.01265415370712	29.894844533021175	4.46604129577245
HCM1=tf_rep(WHI5)	262.3608082608871	0.0	0.02072383966428864	31.914346827091777	29.71060954903211	4.387653787107213
HCM1=tf_rep(WHI5)	262.37016567033595	0.0	0.020767863011060796	32.10579150978117	29.668667622691046	4.38455632963133
HCM1=tf_rep(WHI5)	262.3413236578236	0.0	0.020436116121852983	32.141294260225514	29.802130261225503	4.4436701041305335
HCM1=tf_rep(WHI5)	262.33851178810147	0.0	0.020350080076580727	32.13302802866162	29.849588574992218	4.461269287937059
HCM1=tf_rep(WHI5)	262.34493461154216	0.0	0.020352575389121698	32.254068606586635	29.817942138109117	4.460061254951128
HCM1=tf_rep(WHI5)	262.32268953994645	0.0	0.020376340437717806	31.82619818523757	29.915819123818643	4.458239499393791
HCM1=tf_rep(WHI5)	262.32878210881006	0.0	0.020350885159483224	31.954182174756067	29.905655829375092	4.464757192281492
HCM1=tf_rep(WHI5)	262.3371358004847	0.0	0.020329011959055194	32.11001596794386	29.87242912835578	4.46708473589388
HCM1=tf_act(YOX1)	206.1283396726852	0.3	0.414843553712533	83.60940789511893	100.0	1.2722788773598062
HCM1=tf_act(YOX1)	206.12827757706322	0.3	0.4150759377093057	83.65588288228706	100.0	1.2722542972351136
HCM1=tf_act(YOX1)	206.5293224552097	0.3	0.41435478652509566	83.25186504562522	99.50944704355133	1.2746552601985857
HCM1=tf_act(YOX1)	206.12863780720912	0.3	0.4156713566359811	83.77502057817732	100.0	1.2721930995648112
HCM1=tf_act(YOX1)	206.53888781273753	0.3	0.41805241835312323	83.94330832275833	99.52770715193215	1.272846490355135
HCM1=tf_act(YOX1)	206.12854588514438	0.3	0.4145828896813946	83.557123907214	100.0	1.2723018715004526
HCM1=tf_act(YOX1)	206.12842675697374	0.3	0.4154639751722968	83.73337053899027	100.0	1.2722107242866652
HCM1=tf_act(YOX1)	206.13038406986476	0.3	0.41366985166862524	83.37505643121025	100.0	1.2724122338654533
HCM1=tf_act(YOX1)	206.1283344972666	0.3	0.4148535467091146	83.61146962710137	100.0	1.272279303057362
HCM1=tf_act(YOX1)	206.12859810319324	0.3	0.4156393640020484	83.76843365836555	100.0	1.2721921072118456
HCM1=tf_rep(YOX1)	333.0775589084702	0.0022284569758469898	0.003030434239474446	97.14042698608378	6.845497984478081	9.975901670466468
HCM1=tf_rep(YOX1)	333.08043080835466	0.0014125462105277079	0.003015508268027722	96.68960276976784	6.839341917250864	9.913069162047586
HCM1=tf_rep(YOX1)	333.0846902558164	0.00406640675264736	0.0030651590016068982	96.52543945158499	6.8270551808802455	9.825610061716846
HCM1=tf_rep(YOX1)	333.0846808927391	0.004675922664557329	0.0030764629086172824	96.74223232180998	6.8254072735678095	9.8260692332741
HCM1=tf_rep(YOX1)	333.0827714159162	0.0058840590491931926	0.003098734155028611	96.77192172725239	6.831543124390629	9.866589026544112
HCM1=tf_rep(YOX1)	333.08729247065645	0.0054511331560650475	0.003091064119397101	96.60845781158503	6.818532616895852	9.775739574831668
HCM1=tf_rep(YOX1)	333.08667458688996	0.013900348626504636	0.00324772515713919	96.7847326000733	6.82290905834219	9.811390128327158
HCM1=tf_rep(YOX1)	333.08669654091847	0.013211972822880691	0.0032348402313826154	96.43279868476897	6.825222810389929	9.808531781927853
HCM1=tf_rep(YOX1)	333.0835972480171	0.001483137453215091	0.003017238609486217	96.5899450817744	6.829844801205095	9.846722563057691
HCM1=tf_rep(YOX1)	333.0835276926977	2.2705186087671758e-05	0.002990168536764053	96.74631790283195	6.828864068873767	9.848486628496234
HCM1=tf_act(ASH1)	403.51476169595986	0.0	0.0004294750433845483	0.0	100.0	4.345339941825823
HCM1=tf_act(ASH1)	403.51476169595946	0.0	0.0004294750533300277	0.0	99.73858791460735	4.326448391184751
HCM1=tf_act(ASH1)	403.51476169595963	0.0	0.0004294750461519388	0.0	99.24660450888344	4.30376512683652
HCM1=tf_act(ASH1)	403.51476169595963	0.0	0.00042947504630838255	0.0	99.32839153407707	4.349855755660878
HCM1=tf_act(ASH1)	403.51476169594827	0.0	0.00042947547321380166	0.0	99.59150691705419	4.386551225933607
HCM1=tf_act(ASH1)	403.51476169595946	0.0	0.0004294750533300277	0.0	99.26427166477515	4.35122533061936
HCM1=tf_act(ASH1)	403.51476169595946	0.0	0.0004294750486324684	0.0	99.47381488353165	4.4401573106455485
HCM1=tf_act(ASH1)	403.5149723059685	0.00011942594294580957	0.0004315976390865341	0.0	99.65348035572302	4.4318875792608825
HCM1=tf_act(ASH1)	403.5147616959597	0.0	0.0004294750434085091	0.0	100.0	4.537001300976919
HCM1=tf_act(ASH1)	403.51476169595975	0.0	0.0004294750379003411	0.0	99.96748260453032	4.549496959517757
HCM1=tf_rep(ASH1)	372.371847046386	0.0	0.04488484558158183	3.2964543913909203	62.7188927649871	2.9543410065213087
HCM1=tf_rep(ASH1)	372.3738222938793	0.0013345069325971023	0.044644950226502216	3.2816347151643654	62.492691172463566	2.9672930827505986
HCM1=tf_rep(ASH1)	372.3844784428492	0.033521873045118514	0.04482857751727766	3.2624609262205606	62.01056965047777	2.9617443603961955
HCM1=tf_rep(ASH1)	372.38327554098345	0.02015648480406026	0.04462468979256957	3.264132901866104	62.077284365247365	2.961633063586235
HCM1=tf_rep(ASH1)	372.3800644613565	0.019703008678819373	0.044935874573182204	3.2846897574499505	62.217586544454065	2.960007902740581
HCM1=tf_rep(ASH1)	372.38233124696706	0.022144463631292167	0.044510518679862755	3.252336740807205	62.0390081317842	3.0065298387695707
HCM1=tf_rep(ASH1)	372.37853757467303	0.02221730757744352	0.04473575267118484	3.265459544445085	62.22123471254295	2.9835863990245737
HCM1=tf_rep(ASH1)	372.3783590341396	0.022354757753443776	0.04485904555831581	3.2690677371019383	62.42774265784468	3.0001313957863687
HCM1=tf_rep(ASH1)	372.37345630556104	0.0	0.04514241350633368	3.316155893697946	62.74775668584677	2.9202132403449945
HCM1=tf_rep(ASH1)	372.3781080286072	0.019144017830231688	0.04522490554460522	3.300247545516988	62.53875976020013	2.9367561718717554
