# LEMpy target file for ASH1, replicate 0 
# Run configuration file:  ../pipeline/src/yeast_data/simulations202110_Orlando_2/no_annot/results4/edge_finding_20211012213636/lempy_20211012213636_config.txt 
# Time series data file:   ../pipeline/src/yeast_data/time_series/orlando2008_WildType_r1_trunc.tsv 
# Computed on:  2021-10-12 21:41:00 
 
model	loss	pld	inv_temp	prior	rhs_param_0	rhs_param_1	rhs_param_2	rhs_param_3	rhs_param_4	hess_eigs	hess_det	bnd_params	pld_time	opt_time
tf_act(SWI5)	72.88166821330384	0.99788	1.0	0.05555555555555555	0.0	0.06613840117792098	9.243767736007902	56.459969784431244	10.0	[1, 4.557784936350571, 11.36549127246948, 106.84801664538936, 3694092.758849782]	20446374113.415936	2.0	7.027500000234e-05	0.4197277079999999
tf_rep(SWI4)	198.66680965799614	0.00187306	1.0	0.05555555555555555	0.019946424579919412	0.02301567161698868	100.0	18.932014723637757	10.0	[1, 1, 74.97517776995552, 311.6451948833552, 3694965.3484402844]	86335281458.07973	2.0	9.927199999992808e-05	0.44500840099999994
tf_rep(YOX1)	317.0766134877035	0.000106401	1.0	0.05555555555555555	0.0	0.03422170462887425	5.138927751377097	37.04171223129918	10.0	[1, 3.0666075756243076, 11.797358574528417, 119.53242470145882, 3694102.0918784933]	15974880084.542124	2.0	7.21380000001659e-05	0.4184587200000003
tf_act(NRM1)	358.1313965960391	0.0000612001	1.0	0.05555555555555555	0.0	0.007921123859860619	4.525281096403419	74.58260922827662	10.0	[1, 1, 11.47167033124773, 121.86606804219208, 3693855.5084775593]	5164037177.083809	2.0	6.654799999950001e-05	0.39842837300000067
tf_rep(HCM1)	302.3498306294135	0.0000413472	1.0	0.05555555555555555	0.3	0.025098171183696626	100.0	19.674091808160227	10.0	[1, 1.0660716860731856, 73.47985962314907, 211.01164877847566, 3694558.006569143]	61069399212.880264	3.0	7.152499999918405e-05	0.40856607999999994
tf_act(NDD1)	407.9198569014735	0.0000132479	1.0	0.05555555555555555	0.0	0.0067412902785323825	5.597402756378247	100.0	10.0	[1, 1, 5.039246568750038, 116.11007830132861, 3693836.0366567653]	2161290480.572528	3.0	6.991800000122339e-05	0.36379061700000026
tf_rep(CLN3)	439.62513369424556	0.00000870099	1.0	0.05555555555555555	0.0	0.005309560144673153	48.30640007319978	45.813657224559115	10.0	[1, 1, 8.319961618594434, 139.74179608279024, 3693901.9103981485]	4294701683.912345	2.0	6.686100000052875e-05	0.3637043499999999
tf_act(HCM1)	550.1749693843759	0.00000453952	1.0	0.05555555555555555	0.3	0.003018747838914437	4.9799418304904775	98.12800219134755	8.74896003801557	[1, 1, 1.0804882701447, 109.01152598116056, 3693807.3507199483]	435077592.61659324	1.0	7.925299999911317e-05	0.3923596180000004
tf_act(WHI5)	474.9628142254075	0.00000388641	1.0	0.05555555555555555	0.0	0.0074503146732799045	7.732469080318693	100.0	10.0	[1, 1, 2.5371088555882046, 109.97478695661572, 3693833.7346155522]	1030646122.6812172	3.0	6.536500000109413e-05	0.38967766599999987
tf_act(ASH1)	563.0890225935793	0.00000206671	1.0	0.05555555555555555	0.03924413159531026	0.01983784714589648	1.2684369396938302	0.001	1.998800694197317	[1, 1, 1.5769673321942321, 208.3511705150711, 3695620.698504671]	1214244184.8574357	1.0	6.707000000005792e-05	0.404887789
tf_act(SWI4)	570.1773917343396	0.00000115812	1.0	0.05555555555555555	0.3	0.001416691632898651	3.015756673430249	99.28294133589719	10.0	[1, 1, 1.7220823840157344, 112.83522024741048, 3693808.22751216]	717749583.9340996	2.0	0.00030800700000099823	0.33238886300000026
tf_act(YOX1)	557.7669693607625	0.00000100633	1.0	0.05555555555555555	0.3	0.0021619860627539586	4.9860044673755874	100.0	10.0	[1, 1, 1, 108.4992219113381, 3693805.392443037]	400775010.9719744	3.0	6.809799999984989e-05	0.2226495049999997
tf_rep(NRM1)	601.3361038271526	0.000000725667	1.0	0.05555555555555555	0.3	0.004633588971139839	3.417213088333285	3.8182198562402596	1.0	[1, 1, 1.090503010923953, 125.21474397940412, 3694473.066865757]	504469418.24552447	2.0	7.002699999958395e-05	0.36205751500000005
tf_act(CLN3)	550.1517408787388	0.000000666057	1.0	0.05555555555555555	0.3	0.01982694820161902	5.021252334414449	100.0	10.0	[1, 1, 3.189599551395902, 107.31335486048147, 3693887.5689525167]	1264368322.1152744	3.0	6.605099999745789e-05	0.40541300699999994
tf_rep(ASH1)	445.69414689574063	0.000000626053	1.0	0.05555555555555555	0.0	0.0024417521673016367	100.0	5.750082295517166	10.0	[1, 1, 34.67354213345602, 1213.0473393900609, 3695182.733323882]	155421780361.06506	3.0	6.891399999986447e-05	0.31253690700000014
tf_rep(WHI5)	569.0358134086414	0.000000405782	1.0	0.05555555555555555	0.3	0.01879921804893714	1.6380511911446418	100.0	1.0	[1, 1, 2.947191941468906, 140.81468700540108, 3694461.27744353]	1533230656.2197359	3.0	6.984499999873606e-05	0.466699502
tf_rep(SWI5)	578.9642062509146	0.000000338221	1.0	0.05555555555555555	0.3	0.00066434354896526	0.9084001702426228	16.56937979929472	10.0	[1, 1, 8.509726488318485, 185.5589675693854, 3693847.3658359786]	5832792073.169143	2.0	6.684400000267487e-05	0.3868563389999995
tf_rep(NDD1)	602.4547350738361	0.00000021951	1.0	0.05555555555555555	0.3	0.0	24.999024268378765	22.694899419889353	10.0	[1, 1, 3.2589063099563877, 109.39418344878466, 3693804.1539485073]	1316861107.8987794	3.0	7.653099999771484e-05	0.26702516400000054
null_model	627.8299997598039				0.3	0.0								
