# LEMpy target file for SWI5, replicate 0 
# Run configuration file:  ../pipeline/src/yeast_data/simulations202110_Orlando_2/no_annot/results4/edge_finding_20211012213636/lempy_20211012213636_config.txt 
# Time series data file:   ../pipeline/src/yeast_data/time_series/orlando2008_WildType_r1_trunc.tsv 
# Computed on:  2021-10-12 21:40:54 
 
model	loss	pld	inv_temp	prior	rhs_param_0	rhs_param_1	rhs_param_2	rhs_param_3	rhs_param_4	hess_eigs	hess_det	bnd_params	pld_time	opt_time
tf_act(NRM1)	63.12938926131617	0.776503	1.0	0.05555555555555555	0.0	0.0687959981061897	9.189708990169427	50.563330525644126	5.5265962447884345	[1, 3.7396236928680637, 17.92111540177471, 66.22943264864217, 4804068.108491476]	21323236789.432796	1.0	9.857499999910146e-05	0.5450940829999995
tf_act(NDD1)	76.9993102338755	0.206398	1.0	0.05555555555555555	0.0	0.062361829584983805	8.024050744214918	71.06274564083517	10.0	[1, 3.2656312773311647, 13.505007332054783, 67.77651958588243, 4804095.390659604]	14359947659.388762	2.0	0.00010532099999949196	0.4515694269999999
tf_act(WHI5)	162.54294252998292	0.0136263	1.0	0.05555555555555555	0.0	0.04493881593749084	16.876699582998913	99.19385153176367	6.616865222871031	[1, 2.1263090413923904, 6.954706237971134, 65.51197311840981, 4804011.776476109]	4654037942.003782	1.0	9.185999999949956e-05	0.4123441010000004
tf_rep(CLN3)	189.54213751378538	0.00337241	1.0	0.05555555555555555	0.0	0.03491734539895649	45.669900625337704	44.17611606751675	5.805772473672126	[1, 1, 15.408626387418291, 133.91644154169418, 4805173.96813662]	9915324711.102186	1.0	9.15849999998386e-05	0.44702840700000035
tf_act(HCM1)	334.1633558818896	0.0000454309	1.0	0.05555555555555555	0.0	0.02065219701980643	5.298780470041639	66.9287661406747	6.04275254629646	[1, 1.3599034150432414, 12.440903932867823, 80.88173602201852, 4803856.405482252]	6573557746.021315	1.0	0.00011597499999993488	0.35955624799999963
tf_rep(ASH1)	223.04350515876655	0.0000358566	1.0	0.05555555555555555	0.3	0.019479670899935988	100.0	6.13513077244548	10.0	[1, 1, 52.07693097251646, 2120.697425200368, 4808172.7757758275]	531011781006.3567	3.0	9.27009999998063e-05	0.3362574510000007
tf_act(YOX1)	376.83578996767943	0.0000156137	1.0	0.05555555555555555	0.0	0.011512967563592144	10.055511758296824	99.28191330064648	3.710926972227735	[1, 2.3740915863064718, 7.570425049885499, 66.97793833834486, 4803858.308183288]	5782820308.693249	1.0	9.870699999936505e-05	0.3883209169999997
tf_act(SWI4)	436.21068267531183	0.00000284399	1.0	0.05555555555555555	0.0	0.0035599457285949657	5.834948615443825	90.77359726255803	10.0	[1, 1, 6.667338848249447, 71.43767945190957, 4803725.507874917]	2288010690.5827713	2.0	0.00037760100000028274	0.3584497390000001
tf_rep(SWI5)	501.78490160165876	0.000000354811	1.0	0.05555555555555555	0.0	0.001142306017814499	2.4096738259224946	17.618020592343175	10.0	[1, 1, 11.405138333479929, 129.66270392191274, 4803764.801412115]	7103908627.298966	2.0	9.50590000012852e-05	0.3401352949999996
tf_rep(SWI4)	663.0732345649266	0.0000000772627	1.0	0.05555555555555555	0.3	0.023619021579358346	15.766235128649734	15.470150634167378	2.8477924748429366	[1, 1, 2.0993360567328185, 73.1765853273456, 4804914.463192655]	738141742.4782904	1.0	0.00013116999999951418	0.38243335499999986
tf_rep(NRM1)	645.2648499757804	0.0000000380057	1.0	0.05555555555555555	0.3	0.0013287954005575602	3.0170503254957537	11.8180626328213	10.0	[1, 1.0252530563163846, 4.531833784146116, 68.55424273142097, 4803712.192949591]	1530087836.0499763	2.0	9.441899999984571e-05	0.4072910690000002
tf_act(CLN3)	623.6096656103365	0.0000000277955	1.0	0.05555555555555555	0.3	0.03181743524399989	1.6746339234725274	0.001	1.0008266378977286	[1, 1, 11.86504707574224, 118.53486558408702, 4805573.371963597]	6758662960.913154	2.0	9.255700000032618e-05	0.4042807349999995
tf_rep(WHI5)	675.7078909808159	0.0000000201171	1.0	0.05555555555555555	0.3	0.0012168766236962498	34.64951802024354	31.833477174356656	10.0	[1, 1, 5.396316199228395, 64.43611965679415, 4803714.690374525]	1670336509.8382876	2.0	9.384400000023163e-05	0.2293681870000004
tf_act(SWI5)	673.1097912007473	0.0000000156704	1.0	0.05555555555555555	0.3	0.008882130950891303	4.989714285125255	100.0	10.0	[1, 1, 2.655724418480771, 59.62130221164539, 4803729.775865095]	760611755.4079888	3.0	0.00010017399999995291	0.3439490540000003
tf_rep(NDD1)	635.0496020363004	0.0000000135359	1.0	0.05555555555555555	0.3	0.0018791952977536656	100.0	20.99041809429565	10.0	[1, 1, 10.067735913070596, 93.37108148041594, 4803722.9303362295]	4515669559.532135	3.0	0.00010992400000020552	0.2496488560000003
tf_rep(HCM1)	671.9798519432973	0.00000000771202	1.0	0.05555555555555555	0.3	0.02181813540062037	1.757791403025314	100.0	1.0	[1, 1, 7.990179003671098, 85.44566597304157, 4804646.561507561]	3280257926.944083	3.0	0.0001007430000008469	0.4328673890000001
tf_rep(YOX1)	673.7347336006221	0.00000000585081	1.0	0.05555555555555555	0.3	0.00017646933727720213	91.06445773099269	6.580906527008734	10.0	[1, 1, 26.14486059548762, 169.63974487085295, 4803726.93113334]	21305525622.136322	2.0	9.614100000021608e-05	0.40440063100000057
tf_act(ASH1)	710.0794860704037	0.00000000202456	1.0	0.05555555555555555	0.3	0.0	0.0	100.0	1.734086087045355	[1, 1, 9.800319511272964, 59.31941880070856, 4803781.283317089]	2792674682.1044636	4.0	9.329699999938157e-05	0.18377698299999956
null_model	710.0794860704037				0.3	0.0								
