# LEMpy local minima file for target YOX1, replicate 1
# Right-hand side of tf_act():  p0 - p1(tar) + p2(reg^p4) / (p3^p4 + reg^p4)
# Right-hand side of tf_rep():  p0 - p1(tar) + p2(p3^p4) / (p3^p4 + reg^p4)
# Run configuration file:  ../pipeline/src/yeast_data/simulations202110_Orlando_2/annot/results3/edge_finding_20211012134845/lempy_20211012134845_config.txt
# Time series data file:   ../pipeline/src/yeast_data/time_series/orlando2008_WildType_r2_trunc.tsv
# Computed on:  2021-10-12 13:51:38 
 
model	loss	p0	p1	p2	p3	p4
YOX1=tf_act(SWI4)	290.2150484348286	0.0	0.21811836881076288	22.771071510373176	46.69513618358654	2.4572247229807065
YOX1=tf_act(SWI4)	290.2151795417291	0.0	0.21798970317055597	22.74500967411716	46.66810330783967	2.459738154191289
YOX1=tf_act(SWI4)	290.21579907687925	0.0	0.2179043584467678	22.71608962341498	46.625554882558035	2.463499986186231
YOX1=tf_act(SWI4)	290.22564816525244	0.0	0.21729727549423153	22.566125062436953	46.44086265691859	2.480503633659224
YOX1=tf_act(SWI4)	290.2399588483614	0.0	0.2168298504147316	22.456329806487574	46.310558887893116	2.4928445031107698
YOX1=tf_act(SWI4)	290.3454655425228	0.0	0.2145161994949632	22.01625701670307	45.881700573191935	2.5366502847423056
YOX1=tf_act(SWI4)	290.3114869346206	0.0	0.21560337477191294	22.162029536471493	45.955549025621764	2.527411383512585
YOX1=tf_act(SWI4)	290.31006385869443	0.0	0.21473892938317432	22.106236597278937	46.02351613860917	2.5228743097072153
YOX1=tf_act(SWI4)	290.229515173007	0.0	0.2171612946297303	22.532284156984787	46.39896758866215	2.4844136627079147
YOX1=tf_act(SWI4)	290.23825688445675	0.0	0.21687536443803535	22.467162285243045	46.323549719835114	2.4916101056634012
YOX1=tf_rep(SWI4)	553.4066917213569	0.0	0.000463478918940672	0.0	99.64076071803092	1.0
YOX1=tf_rep(SWI4)	553.4066917213569	0.0	0.0004634789229974752	0.0	99.71682500097138	1.0
YOX1=tf_rep(SWI4)	553.4066917213569	0.0	0.0004634789195877646	0.0	99.66093635879902	1.0
YOX1=tf_rep(SWI4)	553.4066917213569	0.0	0.0004634789184048017	0.0	99.51813382585276	1.0332055257879373
YOX1=tf_rep(SWI4)	553.4066917213567	0.0	0.0004634789351459739	0.0	99.55122495040455	1.042047281270046
YOX1=tf_rep(SWI4)	553.4066917213565	0.0	0.0004634789378134075	0.0	99.08801424070568	1.009223257600859
YOX1=tf_rep(SWI4)	553.4066917213565	0.0	0.0004634789378134075	0.0	99.38700208492963	1.0203287077253607
YOX1=tf_rep(SWI4)	553.4066917213569	0.0	0.0004634789211610209	0.0	99.09617022044603	1.0465211223861588
YOX1=tf_rep(SWI4)	553.4066917213569	0.0	0.00046347892476862514	0.0	99.50408243855848	1.0
YOX1=tf_rep(SWI4)	553.406691721357	0.0	0.0004634789198477	0.0	99.5377991280797	1.0038306617768282
YOX1=tf_act(HCM1)	553.406691721357	0.0	0.0004634789208626405	0.0	99.64815121167551	2.022862134072487
YOX1=tf_act(HCM1)	553.4066917213569	0.0	0.0004634789233103544	0.0	99.72421549461598	1.9933497800117759
YOX1=tf_act(HCM1)	553.4066917213569	0.0	0.0004634789194224295	0.0	99.66832685244361	1.978885025959922
YOX1=tf_act(HCM1)	553.4066917213569	-1.0842021724855044e-19	0.00046347892659946894	0.0	99.52552431949735	2.0120905517478596
YOX1=tf_act(HCM1)	553.4066917213567	0.0	0.0004634789387797111	0.0	99.7014179769954	1.9877267814420307
YOX1=tf_act(HCM1)	553.4066917213565	0.0	0.0004634789378134075	0.0	99.23820726729653	1.9549027577728437
YOX1=tf_act(HCM1)	553.4066917213565	0.0	0.0004634789378134075	0.0	99.53719511152049	1.9660082078973453
YOX1=tf_act(HCM1)	553.406691721357	0.0	0.00046347892267249957	0.0	99.24730887223865	2.0075804459342774
YOX1=tf_act(HCM1)	553.406691721357	0.0	0.00046347891920179267	0.0	99.68972244710457	2.094917809116974
YOX1=tf_act(HCM1)	553.4078122501783	0.00024037861612469008	0.0004550257442768769	0.0	99.7234392714901	2.0987313270936228
YOX1=tf_act(NDD1)	553.4066917213596	0.0	0.00046347880365080603	0.0	99.6512463063842	9.97212301037027
YOX1=tf_act(NDD1)	553.4066917213569	0.0	0.00046347892334203165	0.0	99.72731058932466	9.942610656309558
YOX1=tf_act(NDD1)	553.406691721357	0.0	0.00046347892237836734	0.0	99.6714219471523	9.928145902257704
YOX1=tf_act(NDD1)	553.406691721357	0.0	0.00046347891899184695	0.0	99.52861941420603	9.961351428045642
YOX1=tf_act(NDD1)	553.4066917213564	0.0	0.000463478940992148	0.0	99.56171053875782	9.970193183527751
YOX1=tf_act(NDD1)	553.4066917213565	0.0	0.0004634789378134075	0.0	99.09849982905895	9.937369159858564
YOX1=tf_act(NDD1)	553.4066917213565	0.0	0.0004634789378134075	0.0	99.39748767328291	9.948474609983066
YOX1=tf_act(NDD1)	553.4066917213569	0.0	0.0004634789177052552	0.0	99.13114235291145	9.989032967516119
YOX1=tf_act(NDD1)	553.4066917213569	0.0	0.0004634789246783208	0.0	99.6389231257654	9.986711756381535
YOX1=tf_act(NDD1)	553.6528253753885	0.049372370975310755	0.0013267392643656266	0.0	99.67263997297617	9.990529864380916
YOX1=tf_act(SWI5)	553.4066917213569	0.0	0.00046347892340578204	0.0	99.65113702752949	9.972260164740923
YOX1=tf_act(SWI5)	553.4066917213569	0.0	0.0004634789233404793	0.0	99.72720131046995	9.942747810680212
YOX1=tf_act(SWI5)	553.4066917213571	0.0	0.0004634789203256988	0.0	99.67131266829759	9.928283056628358
YOX1=tf_act(SWI5)	553.4066917213571	0.0	0.00046347892161113476	0.0	99.52851013535133	9.961488582416296
YOX1=tf_act(SWI5)	553.4066917213565	0.0	0.0004634789383514799	0.0	99.56160125990311	9.970330337898405
YOX1=tf_act(SWI5)	553.4066917213565	0.0	0.0004634789378134075	0.0	99.09839055020424	9.937506314229218
YOX1=tf_act(SWI5)	553.4066917213565	0.0	0.0004634789378134075	0.0	99.3973783944282	9.94861176435372
YOX1=tf_act(SWI5)	553.4066917213569	0.0	0.0004634789238761384	0.0	99.10242940446811	9.987177303001479
YOX1=tf_act(SWI5)	553.406691721357	0.0	0.00046347891729590695	0.0	99.58124190926586	9.986769216051291
YOX1=tf_act(SWI5)	553.406691721357	0.0	0.00046347892232282247	0.0	99.614959000931	9.990587521850248
YOX1=tf_rep(NRM1)	181.9133427645638	0.0	0.0423371779023357	6.983788955284165	29.817329646346657	4.147869447240953
YOX1=tf_rep(NRM1)	181.91334277513684	0.0	0.04233727974584496	6.983823806568988	29.817195033104298	4.147807608519934
YOX1=tf_rep(NRM1)	181.91445824791404	0.0	0.042310692670622235	6.991476314791385	29.767326279759484	4.134451911993169
YOX1=tf_rep(NRM1)	181.92297664743094	0.0	0.04217213373739623	6.995304830828867	29.69880840794013	4.13963462972653
YOX1=tf_rep(NRM1)	181.91945212222805	0.0	0.042492878891465066	6.988725118939676	29.848661382820104	4.125551540410553
YOX1=tf_rep(NRM1)	181.9139980574003	0.0	0.04228633437593948	6.981807646703019	29.80882833968677	4.155814105936685
YOX1=tf_rep(NRM1)	181.91334276459858	0.0	0.042337175980183266	6.983789141601511	29.81732654860186	4.147868037454347
YOX1=tf_rep(NRM1)	181.91334276440628	0.0	0.04233719021672701	6.983788189119419	29.817341238933437	4.147872486078027
YOX1=tf_rep(NRM1)	181.93526230418615	0.0	0.04251799445691558	6.955933772814825	30.010301276290928	4.173535133659401
YOX1=tf_rep(NRM1)	181.91334276492378	0.0	0.04233716213379009	6.98378929164742	29.81731923188522	4.147867703511738
YOX1=tf_rep(CLN3)	553.406691721357	0.0	0.00046347892292041546	0.0	47.26155697006039	9.895136050154651
YOX1=tf_rep(CLN3)	553.406691721357	0.0	0.00046347892071051366	0.0	47.33762125300086	9.86562369609394
YOX1=tf_rep(CLN3)	553.406691721357	0.0	0.0004634789203434604	0.0	47.281732610828506	9.851158942042085
YOX1=tf_rep(CLN3)	553.4066917213569	0.0	0.00046347892426724805	0.0	47.138930077882236	9.884364467830023
YOX1=tf_rep(CLN3)	553.4066917213567	0.0	0.0004634789409829619	0.0	47.172021202434024	9.893206223312133
YOX1=tf_rep(CLN3)	553.4066917213565	0.0	0.0004634789378134075	0.0	46.708810492735154	9.860382199642945
YOX1=tf_rep(CLN3)	553.4066917213565	0.0	0.0004634789378134075	0.0	47.007798336959105	9.871487649767447
YOX1=tf_rep(CLN3)	553.6375851568716	0.04803298873758092	0.0013118826143936706	0.0	46.69032495823259	9.90464190495869
YOX1=tf_rep(CLN3)	556.8111339200726	0.1702638442555498	0.004309497448239308	0.13935574281796914	47.38212679471867	9.660743898657103
YOX1=tf_rep(CLN3)	553.4066917213569	0.0	0.00046347892328945587	-5.551115123125783e-17	47.04151429994502	9.875305464447687
YOX1=tf_rep(WHI5)	281.08552816594744	0.0	0.025112763187908543	7.771563939029627	65.8454895943842	10.0
YOX1=tf_rep(WHI5)	281.0855281632252	0.0	0.02511252768534081	7.771563651919314	65.84539040967559	10.0
YOX1=tf_rep(WHI5)	281.08650206849813	0.0	0.02505426591312173	7.779619994100326	65.8050204796466	10.0
YOX1=tf_rep(WHI5)	281.0897380899821	0.0	0.02498367014267801	7.786499295878779	65.76040007591968	10.0
YOX1=tf_rep(WHI5)	281.0855281630565	0.0	0.025112535957427132	7.771562806235933	65.84539641873113	10.0
YOX1=tf_rep(WHI5)	281.0855281630931	0.0	0.0251126113638339	7.771582425774937	65.84540039953097	10.0
YOX1=tf_rep(WHI5)	281.08552816328773	0.0	0.02511252549135184	7.771565648312823	65.84538632670706	10.0
YOX1=tf_rep(WHI5)	281.15157509543985	0.0	0.024645695962294083	7.8412911424440335	65.51319668139985	10.0
YOX1=tf_rep(WHI5)	281.11709878977024	0.0	0.02481106738752795	7.824016655055031	65.61980660771866	10.0
YOX1=tf_rep(WHI5)	281.08897700204864	0.0	0.0249998390496881	7.786015238242683	65.76892813107395	10.0
YOX1=tf_act(YOX1)	534.2474633237875	0.3	0.014383728691512682	4.06847294070691	99.99998977349995	4.392685719870038
YOX1=tf_act(YOX1)	534.25439747927	0.3	0.014456275961107176	4.031721851000974	99.99974145042337	4.3074387188634455
YOX1=tf_act(YOX1)	534.2491793638217	0.3	0.014625259995733176	4.074627105423768	99.93308393200977	4.266118280936
YOX1=tf_act(YOX1)	534.2616098552755	0.3	0.014772302156858727	4.031622447824177	99.76911608882567	4.158516504958037
YOX1=tf_act(YOX1)	534.3259572968343	0.3	0.015307392895718412	4.090352107893875	99.75270837816456	3.9502743223635792
YOX1=tf_act(YOX1)	534.1819142390551	0.3	0.014306244980176857	3.9951133065872515	99.26233803914099	4.459895274194135
YOX1=tf_act(YOX1)	534.2655746787234	0.3	0.014497652850108964	3.908216247200037	99.53899375161501	4.203884197291067
YOX1=tf_act(YOX1)	534.1767134779196	0.3	0.014255712779158323	3.989760622289126	99.2025175521564	4.495176528453961
YOX1=tf_act(YOX1)	534.2248421412737	0.3	0.014136983833710705	4.023162080269882	99.67617654985811	4.543897652283787
YOX1=tf_act(YOX1)	534.2233219106955	0.3	0.014166668997623064	4.022199277506694	99.68060126805597	4.522229847357765
YOX1=tf_rep(YOX1)	553.40558025062	0.0	0.0006134916907337756	0.01034489626997669	99.64046514069373	1.0
YOX1=tf_rep(YOX1)	553.4056097922497	0.0	0.0006116915464139944	0.010218311982060307	99.71649938301451	1.0
YOX1=tf_rep(YOX1)	553.4055881211506	0.0	0.000612983836918813	0.010309113508261206	99.66061036822562	1.0
YOX1=tf_rep(YOX1)	553.4055315312211	0.0	0.0006167455556680645	0.010573827913567056	99.5175099044252	1.0
YOX1=tf_rep(YOX1)	553.4055447254743	0.0	0.0006158476453219609	0.010510099186050545	99.55051829008791	1.0
YOX1=tf_rep(YOX1)	553.4053517806811	0.0	0.0006281139177260825	0.011371790379093112	99.0873071078304	1.0
YOX1=tf_rep(YOX1)	553.4054782010332	0.0	0.0006201210579468947	0.010809836545330178	99.38618351552759	1.0
YOX1=tf_rep(YOX1)	553.4056382430296	0.0	0.0006024926215497945	0.009587390514607434	99.09494068671128	1.0064209565230189
YOX1=tf_rep(YOX1)	553.4055305646904	0.0	0.0006167978004840308	0.010576649504598313	99.51510042247013	1.0
YOX1=tf_rep(YOX1)	553.4055440325267	-1.0842021724855044e-19	0.0006159271445947289	0.010515705897654277	99.54878126107036	1.0
YOX1=tf_act(ASH1)	553.406691721357	0.0	0.00046347891947243533	0.0	99.64677599725934	5.956771008668302
YOX1=tf_act(ASH1)	553.4066917213569	0.0	0.0004634789259711887	0.0	99.7228402801998	5.927258654607591
YOX1=tf_act(ASH1)	553.4066917213551	0.0	0.00046347900535609115	0.0	99.66695163802744	5.912793900555737
YOX1=tf_act(ASH1)	553.4066917213569	-1.0842021724855044e-19	0.000463478924221817	0.0	99.52414910508118	5.945999426343675
YOX1=tf_act(ASH1)	553.4066917213565	0.0	0.000463478937786671	0.0	99.70004276257923	5.9216356560378465
YOX1=tf_act(ASH1)	553.4066917213565	0.0	0.0004634789378134075	0.0	99.23683205288036	5.888811632368659
YOX1=tf_act(ASH1)	553.4066917213565	0.0	0.0004634789378134075	0.0	99.53581989710432	5.899917082493161
YOX1=tf_act(ASH1)	553.4066917213565	0.0	0.00046347894068619417	0.0	99.25097964518152	5.961088001013726
YOX1=tf_act(ASH1)	553.4066917213567	0.0	0.00046347892971232587	0.0	99.70259486620584	5.9831269645224365
YOX1=tf_act(ASH1)	553.4066917213569	0.0	0.00046347892414358205	0.0	99.73631166289103	5.986945072425758
YOX1=tf_rep(ASH1)	523.2225938450471	0.3	0.03484606412724019	2.2747739497558475	44.29245638227993	2.141858255371149
YOX1=tf_rep(ASH1)	523.2096934103487	0.3	0.034346422308669716	2.227962680629537	44.464897814333085	2.2197076209569917
YOX1=tf_rep(ASH1)	523.2105788383117	0.3	0.03438361654874998	2.232718760184412	44.40931615834614	2.2056448394734103
YOX1=tf_rep(ASH1)	523.213868755823	0.3	0.0340086734940839	2.205162449490385	44.27141660913761	2.245198900076263
YOX1=tf_rep(ASH1)	523.217673149831	0.3	0.03385444313595082	2.1907701268432302	44.32263918057138	2.2753432241942053
YOX1=tf_rep(ASH1)	523.2264841399884	0.3	0.03354466922201762	2.1774107997959007	43.876696139406214	2.2656393017613135
YOX1=tf_rep(ASH1)	523.213416635332	0.3	0.03416366649360293	2.2205797980569586	44.18828300120543	2.2110363533498485
YOX1=tf_rep(ASH1)	523.2210198509857	0.3	0.034098968055894234	2.2250259807236077	43.8433339406571	2.1830229768615483
YOX1=tf_rep(ASH1)	523.2147065530253	0.3	0.034120078597582974	2.2190327439347293	44.1136058703921	2.209632355496418
YOX1=tf_rep(ASH1)	523.2145834048666	0.3	0.03400383977565097	2.207721571623824	44.16781586215196	2.232345715096154
