# LEMpy target file for WHI5, replicate 1 
# Run configuration file:  ../pipeline/src/yeast_data/simulations202110_Orlando_2/annot/results3/edge_finding_20211012134845/lempy_20211012134845_config.txt 
# Time series data file:   ../pipeline/src/yeast_data/time_series/orlando2008_WildType_r2_trunc.tsv 
# Computed on:  2021-10-12 13:51:47 
 
model	loss	pld	inv_temp	prior	rhs_param_0	rhs_param_1	rhs_param_2	rhs_param_3	rhs_param_4	hess_eigs	hess_det	bnd_params	pld_time	opt_time
tf_act(SWI4)	33.722459512233385	0.99494	1.0	0.941438217242199	0.0	0.05709152386235421	6.71553932553265	28.548346481527744	4.415720922582244	[1, 1.7007693462976183, 5.060296581820471, 8.308284898186091, 13556260.14504226]	969332258.6869371	1.0	0.00011851300000031983	0.43273794899999984
tf_act(YOX1)	41.08964445571345	0.00279128	1.0	0.021657709548978	0.3	0.1273889706396971	16.508841243315697	22.126487212778365	1.0	[1, 1, 2.894225010814672, 124.26371610937198, 13564091.236156616]	4878286824.607601	2.0	5.226100000044198e-05	0.3920944679999998
tf_act(HCM1)	78.88905665718106	0.00223656	1.0	0.0360874435625512	0.3	0.1065217579339093	11.02717637460066	30.268069958764446	3.3790042528882482	[1, 1, 3.7965313404688756, 11.687020908487296, 13557044.905063905]	601527996.0930291	1.0	6.051099999915266e-05	0.42070956299999995
tf_rep(NRM1)	76.45166425784525	0.0000208418	1.0	0.000426068756627741	0.0	0.001104601578019142	3.1675263188691307	21.234855343317836	10.0	[1, 1, 1.0592187322894175, 22.169536581010824, 13555130.179341432]	318306832.1282235	2.0	5.167800000016598e-05	0.34804620799999997
tf_rep(WHI5)	90.8141625103113	0.00000814418	1.0	0.000234263876026438	0.0	0.0007729408870447847	4.956437198957535	57.32116103709402	10.0	[1, 1, 1, 9.65331105494651, 13555111.802650789]	130851710.61556478	2.0	5.773499999861542e-05	0.41149971900000004
tf_rep(ASH1)	56.28711986838345	0.00000316793	1.0	7.14604050627484e-6	0.3	0.06833593374029083	6.396272147392858	97.29857870508847	6.4175372685358765	[1, 1, 1.7980684158326627, 7.612470500394249, 13556636.50896712]	185559753.40474123	1.0	7.470999999981132e-05	0.4497989149999997
tf_rep(CLN3)	117.10839233451455	0.000000205051	1.0	9.85102418475183e-5	0.3	0.05614367680450906	8.356615051952245	100.0	1.0	[1, 1, 2.9104088094214093, 17.45509586117689, 13556162.003391845]	688672886.345837	3.0	5.106400000087774e-05	0.4084970079999999
tf_rep(YOX1)	114.81621081600004	0.00000000961001	1.0	1.03270515284541e-5	0.3	0.0016801498654227353	100.0	6.2302133020513395	10.0	[1, 1, 1.3129682825561568, 239.5318061847239, 13555149.448621104]	4263062839.2554398	3.0	5.0510999999531236e-05	0.40848894000000024
tf_act(NDD1)	168.24043270085411	0.00000000809821	1.0	1.18799159446427e-5	0.3	0.00037959775281982863	0.0	99.56914631314477	1.0037778881683197	[1, 1, 3.1622464395391234, 8.145132691564108, 13555349.186392248]	349144001.9136887	2.0	5.4846999999469404e-05	0.3573883659999999
tf_act(SWI5)	168.24043270079238	0.00000000758613	1.0	1.40877584805555e-5	0.3	0.00037959876514399675	0.0	99.19005513921444	10.0	[1, 1, 2.772095978432728, 3.7224431111175407, 13555111.676055277]	139874785.01531497	3.0	5.217600000051448e-05	0.16049179600000008
tf_act(ASH1)	168.24043270079292	0.00000000455735	1.0	7.90417112968369e-6	0.3	0.00037959875565440486	0.0	97.9477905416895	10.0	[1, 1, 2.4012927856669113, 3.7483119153834226, 13555111.149107616]	122006767.99144094	3.0	4.9159999999659476e-05	0.1621227759999999
tf_rep(SWI4)	167.5846197323237	0.00000000374178	1.0	6.44183418077549e-6	0.3	0.006516681025937423	0.5391907654093759	100.0	10.0	[1, 1, 1.3909649079834714, 6.705996601726414, 13556854.239164425]	126455705.58191755	3.0	6.79959999985158e-05	0.4069885580000001
null_model	168.24043270085414				0.3	0.000379597751402185								
