# LEMpy local minima file for target WHI5, replicate 0
# Right-hand side of tf_act():  p0 - p1(tar) + p2(reg^p4) / (p3^p4 + reg^p4)
# Right-hand side of tf_rep():  p0 - p1(tar) + p2(p3^p4) / (p3^p4 + reg^p4)
# Run configuration file:  ../pipeline/src/yeast_data/simulations202110_Orlando_2/extra_nodes_annot/results5/edge_finding_20211012100236/lempy_20211012100236_config.txt
# Time series data file:   ../pipeline/src/yeast_data/time_series/orlando2008_WildType_r1_trunc.tsv
# Computed on:  2021-10-12 10:05:28 
 
model	loss	p0	p1	p2	p3	p4
WHI5=tf_act(SWI4)	15.901124302665314	0.3	0.0656784111604987	10.68548269959576	50.93547705630393	2.348527320413981
WHI5=tf_act(SWI4)	15.900422716450448	0.3	0.06598452488222968	10.80323504481411	51.35044927090267	2.3029536016147474
WHI5=tf_act(SWI4)	15.901576254650994	0.3	0.06603964276006644	10.826119818915798	51.43497660226159	2.2942851527059425
WHI5=tf_act(SWI4)	15.901602949844557	0.3	0.06612869761844722	10.83758908902674	51.42664432447746	2.2916400412638023
WHI5=tf_act(SWI4)	15.906362566213186	0.3	0.0661924672734728	10.88665208718824	51.65316210747756	2.2720337264324786
WHI5=tf_act(SWI4)	15.908636336984113	0.3	0.06596006790215626	10.85856851727117	51.700775814845294	2.2732857985475423
WHI5=tf_act(SWI4)	15.899533899403425	0.3	0.06580620319049064	10.731882183940742	51.092786308961266	2.33047926611354
WHI5=tf_act(SWI4)	15.899419607502763	0.3	0.0658308229698343	10.740936745258907	51.12375602694759	2.3269959958066657
WHI5=tf_act(SWI4)	15.904294361773923	0.3	0.06631790324787147	10.885513934330863	51.542352583937245	2.275940681445957
WHI5=tf_act(SWI4)	15.899382594015204	0.3	0.06583286580529733	10.744757708756973	51.143697126203946	2.3252847059565958
WHI5=tf_rep(SWI4)	246.9930296254572	0.3	0.0027135504769048744	0.0	63.511919258940786	1.0055850967619615
WHI5=tf_rep(SWI4)	246.9930296254586	0.3	0.002713550449883639	0.0	63.903563017439716	1.0
WHI5=tf_rep(SWI4)	246.9930296254585	0.3	0.0027135504509290293	0.0	63.901100849968586	1.027312938122393
WHI5=tf_rep(SWI4)	246.99302962545852	0.3	0.0027135504511652405	0.0	63.70041605372699	1.0
WHI5=tf_rep(SWI4)	246.99302962545852	0.3	0.002713550451193406	0.0	63.98113647959583	1.0378094495535393
WHI5=tf_rep(SWI4)	246.99302962547245	0.3	0.0027135501805272398	0.0	64.04635395376519	1.0467754319601998
WHI5=tf_rep(SWI4)	246.99302962545855	0.3	0.0027135504502971775	0.0	63.58594537263829	1.0169237604471977
WHI5=tf_rep(SWI4)	246.99302962545855	0.3	0.0027135504510672186	0.0	63.541376676381574	1.0
WHI5=tf_rep(SWI4)	246.99302962545838	0.3	0.0027135504528031135	0.0	63.89345741376428	1.0
WHI5=tf_rep(SWI4)	246.99302962548418	0.3	0.0027135499627171634	0.0	63.43122951840798	1.0
WHI5=tf_act(HCM1)	39.94314900250159	0.3	0.1495814775570438	28.59735137668814	83.53913427641977	1.0740777614407677
WHI5=tf_act(HCM1)	39.89771886971689	0.3	0.15011567008160906	28.770507906804223	83.96883159835413	1.0708436421108403
WHI5=tf_act(HCM1)	39.882144730391	0.3	0.15007921214923892	28.795470181915842	84.1409192360452	1.0700987023992208
WHI5=tf_act(HCM1)	38.79779631898243	0.3	0.1504006499517638	31.582129569780026	100.0	1.0078229732380157
WHI5=tf_act(HCM1)	38.79779640281158	0.3	0.1503967453634862	31.58136504165456	100.0	1.0078291463096956
WHI5=tf_act(HCM1)	38.797810510624984	0.3	0.15035385815717714	31.573041632208838	100.0	1.0078943669538492
WHI5=tf_act(HCM1)	38.8279854393749	0.3	0.15009589280865737	31.42921272852856	99.42305223032783	1.0101461634446631
WHI5=tf_act(HCM1)	38.79811580270502	0.3	0.15016783133765788	31.539757543309165	100.0	1.0083913480015338
WHI5=tf_act(HCM1)	38.79779640168705	0.3	0.15039675807859113	31.581373510721782	100.0	1.0078295914583493
WHI5=tf_act(HCM1)	38.82564642799988	0.29867042961050483	0.1497292426567062	31.38258322593782	99.53834708525856	1.0105132410255702
WHI5=tf_act(NDD1)	242.43254745151927	0.3	0.004860404517468185	1.0944911581650532	99.90367055777355	9.993648637910391
WHI5=tf_act(NDD1)	242.41975433097898	0.3	0.004865020888828879	1.1030659078699911	100.0	10.0
WHI5=tf_act(NDD1)	242.41975433105944	0.3	0.004865019274840463	1.1030650325399771	100.0	10.0
WHI5=tf_act(NDD1)	242.43701551634715	0.3	0.004859634191008203	1.089123873908629	99.81936174748803	10.0
WHI5=tf_act(NDD1)	242.42094742417953	0.3	0.004862092479418216	1.1011855417978438	99.99437114025045	9.998852726154302
WHI5=tf_act(NDD1)	242.41975433132828	0.3	0.004865044982918933	1.103082879882439	100.0	10.0
WHI5=tf_act(NDD1)	242.48551500705352	0.3	0.00485863111894877	1.0697385869535694	99.52536635589453	9.965276133164128
WHI5=tf_act(NDD1)	242.41975433106762	0.3	0.004865019126847873	1.103064879080307	100.0	10.0
WHI5=tf_act(NDD1)	242.41975433085514	0.3	0.0048650240980867175	1.103066138384845	100.0	10.0
WHI5=tf_act(NDD1)	242.46674436444135	0.3	0.0048571115139353326	1.069338744763895	99.51372475087393	10.0
WHI5=tf_act(SWI5)	251.18474380116692	0.3	0.0028028327367522923	0.10638983852012728	86.10707930239101	5.536853798243007
WHI5=tf_act(SWI5)	246.99302962537982	0.3	0.0027135524120747594	0.0	86.5873439124429	5.310005324879886
WHI5=tf_act(SWI5)	246.99302962545764	0.3	0.0027135504675263964	0.0	86.61462122574572	5.424252080849282
WHI5=tf_act(SWI5)	246.99302962545855	0.3	0.0027135504510062917	0.0	86.41654709704636	5.381152024187336
WHI5=tf_act(SWI5)	246.99302962545843	0.3	0.002713550451038418	0.0	86.6972675120574	5.418962669082788
WHI5=tf_act(SWI5)	246.99302962547398	0.3	0.0027135501516621745	0.0	86.76248498622675	5.427928651489449
WHI5=tf_act(SWI5)	246.9930296254585	0.3	0.0027135504502195902	0.0	86.30207637265546	5.398080993171181
WHI5=tf_act(SWI5)	249.87833118723128	0.29903553463472116	0.0027649345465795877	0.07417453352463725	86.27266172130626	5.397371560055401
WHI5=tf_act(SWI5)	246.99302962545852	0.3	0.0027135504506376174	0.0	86.71856690077546	5.469106504272669
WHI5=tf_act(SWI5)	246.9930296254841	0.3	0.0027135499619657475	0.0	86.25633900541916	5.435715801111673
WHI5=tf_rep(NRM1)	132.73851306955385	0.0	0.008494260414960163	2.9599109357513864	29.593711520480152	10.0
WHI5=tf_rep(NRM1)	132.76632693733322	0.0	0.00862647534737662	2.9586116718529283	29.940649812628912	10.0
WHI5=tf_rep(NRM1)	132.7570254078329	0.0	0.008603558616631214	2.9588276859358285	29.881390823570598	10.0
WHI5=tf_rep(NRM1)	132.73978560094164	0.0	0.008481902039618003	2.9620339453842264	29.543210795645347	10.0
WHI5=tf_rep(NRM1)	132.75088154756418	0.0	0.008585669710334514	2.9591844709565893	29.83339568820813	10.0
WHI5=tf_rep(NRM1)	132.76993420784345	0.0	0.008588623173113005	2.9465875395622043	29.94833711326379	10.0
WHI5=tf_rep(NRM1)	132.73978012180075	0.0	0.008474837246693534	2.960095074192383	29.54177179900911	10.0
WHI5=tf_rep(NRM1)	132.74380328934114	0.0	0.00844845455377193	2.9604354611762	29.470003795994938	10.0
WHI5=tf_rep(NRM1)	132.73839547167367	0.0	0.008502148124535397	2.959805514118698	29.614993251206837	10.0
WHI5=tf_rep(NRM1)	132.73935267087919	0.0	0.00851098212729884	2.9561000693265735	29.669826279323843	10.0
WHI5=tf_rep(CLN3)	204.79880823056857	0.3	0.09583705088443277	99.66503601453327	7.99220726730284	1.1451960703206538
WHI5=tf_rep(CLN3)	204.79783103657218	0.3	0.09583831828027364	99.93156056888874	7.968428198414448	1.1449524910395945
WHI5=tf_rep(CLN3)	204.7975810215937	0.3	0.0958386536531411	100.0	7.962433770999212	1.1448957962428252
WHI5=tf_rep(CLN3)	204.81365673005212	0.29897326519877676	0.09513787678923	99.72405768665051	7.734451952144798	1.1326616708029786
WHI5=tf_rep(CLN3)	204.79893924461908	0.3	0.09583689288024867	99.62942107988292	7.995401280895894	1.1452290180303366
WHI5=tf_rep(CLN3)	204.8000739685344	0.3	0.09603676137908151	99.59503256149812	8.06561257619756	1.1484620367349836
WHI5=tf_rep(CLN3)	204.80102070994062	0.29936489345371586	0.09583026518292313	99.17772440415084	8.037017786969974	1.145684146943693
WHI5=tf_rep(CLN3)	204.80299709156404	0.2972757580279782	0.09566563257507618	99.25565915766384	7.962386862814577	1.1420575870928742
WHI5=tf_rep(CLN3)	204.8233025919023	0.3	0.09677046819440517	99.45818449823962	8.33413842631494	1.1608523344705208
WHI5=tf_rep(CLN3)	204.80662110070654	0.3	0.09536254142467201	99.24837910072655	7.863283206365183	1.1375109017589877
WHI5=tf_rep(WHI5)	170.53088347589076	0.0	0.003271674437462729	7.341852621985432	42.93952275033073	10.0
WHI5=tf_rep(WHI5)	170.5323495812933	0.0	0.0032777102352252565	7.317880682343998	42.9683893294665	10.0
WHI5=tf_rep(WHI5)	170.52805062818263	0.0	0.0032244489724062198	7.514404419484191	42.729944817656985	10.0
WHI5=tf_rep(WHI5)	170.53432776888135	0.0	0.003190200225089105	7.646752747414915	42.57527936143258	10.0
WHI5=tf_rep(WHI5)	170.5275744399486	0.0	0.0032331876683014257	7.481408874950159	42.76922657327917	10.0
WHI5=tf_rep(WHI5)	170.52786211598604	0.0	0.0032357338278677966	7.4315881113235776	42.81453165277302	10.0
WHI5=tf_rep(WHI5)	170.5276099678127	0.0	0.003243768527850042	7.44250872996766	42.81615043846168	10.0
WHI5=tf_rep(WHI5)	170.53012307561366	0.0	0.003208406776286953	7.575884467787667	42.657551749204096	10.0
WHI5=tf_rep(WHI5)	170.53471281613864	0.0	0.0031943783750318262	7.654566026214402	42.574519969354405	10.0
WHI5=tf_rep(WHI5)	170.52750889008334	0.0	0.0032378267136067554	7.463997549714387	42.79007442656828	10.0
WHI5=tf_act(YOX1)	36.45140364182766	0.3	0.1167754599504994	24.038090912691533	82.67543850292559	1.0
WHI5=tf_act(YOX1)	36.45314530205093	0.3	0.11649565293528266	24.06383249182314	83.14159256206621	1.0
WHI5=tf_act(YOX1)	36.45403683342932	0.3	0.11641787318170352	24.07218488908698	83.27822172874905	1.0
WHI5=tf_act(YOX1)	36.45313436314843	0.3	0.11650643045485155	24.06562928562985	83.13894773808154	1.0
WHI5=tf_act(YOX1)	36.45478814965042	0.3	0.11636001847331916	24.07790092957416	83.37722534455919	1.0
WHI5=tf_act(YOX1)	36.4551950769283	0.3	0.11633116069525065	24.08072387559564	83.42651168266839	1.0
WHI5=tf_act(YOX1)	36.45170185100558	0.3	0.11669239632490984	24.045299421943298	82.81119345189367	1.0
WHI5=tf_act(YOX1)	36.451767820264244	0.3	0.11667717682699305	24.046189822225433	82.83372644294005	1.0
WHI5=tf_act(YOX1)	36.45434691601646	0.3	0.11640760760302772	24.07743095525937	83.3190900409148	1.0
WHI5=tf_act(YOX1)	36.451583609351836	0.3	0.11672555556878876	24.043975205375354	82.76552169535742	1.0
WHI5=tf_rep(YOX1)	248.2818005811578	0.3	0.00385975332606237	0.13952386163825148	68.87691097127204	1.0056084937085235
WHI5=tf_rep(YOX1)	246.99302962534242	0.3	0.002713554129237868	0.0	69.25924618373138	1.0
WHI5=tf_rep(YOX1)	248.11650679909198	0.3	0.0036905284563893814	0.11831403834721732	69.25710654597637	1.0275016606321052
WHI5=tf_rep(YOX1)	246.99302962545852	0.3	0.002713550451362333	0.0	69.05847012559664	1.0
WHI5=tf_rep(YOX1)	246.9930296254582	0.3	0.0027135504543911127	0.0	69.33919054998636	1.0378090861211275
WHI5=tf_rep(YOX1)	246.9930296254708	0.3	0.0027135502110699878	0.0	69.40440802415571	1.0467750685277881
WHI5=tf_rep(YOX1)	246.99302962545858	0.3	0.0027135504499155457	-2.7755575615628914e-17	68.94399943935035	1.0169220200186169
WHI5=tf_rep(YOX1)	246.99302962545852	0.3	0.0027135504497338187	0.0	69.35997307057883	1.003463854827487
WHI5=tf_rep(YOX1)	246.99302962540963	0.3	0.0027135515508997727	0.0	69.7120733623779	1.0
WHI5=tf_rep(YOX1)	246.9930296254841	0.3	0.002713549961571353	0.0	69.2498454670216	1.0
WHI5=tf_act(ASH1)	254.73720528644546	0.3	0.002968165249644143	0.2470547216082538	84.9136615467268	3.9418060031889532
WHI5=tf_act(ASH1)	246.99302962545852	0.3	0.0027135504509267433	0.0	85.38605167508265	3.979523495481005
WHI5=tf_act(ASH1)	246.99302962545758	0.3	0.0027135504695139827	0.0	85.40067715876965	4.0541199046595215
WHI5=tf_act(ASH1)	246.9930296254586	0.3	0.002713550449904539	0.0	85.22038473664773	4.0603477604244
WHI5=tf_act(ASH1)	246.99302962545855	0.3	0.002713550450957502	0.0	85.50110515165876	4.098158405319852
WHI5=tf_act(ASH1)	246.99302962547023	0.3	0.0027135502214298704	0.0	85.56632262582812	4.107124387726513
WHI5=tf_act(ASH1)	246.9930296254586	0.3	0.0027135504499877705	0.0	85.10591401209278	4.07727675289357
WHI5=tf_act(ASH1)	246.99302962545818	0.3	0.002713550456215965	0.0	85.06992207852267	4.0617390210060496
WHI5=tf_act(ASH1)	246.99302962545843	0.3	0.0027135504501816844	0.0	85.45438218697545	4.1167468301428976
WHI5=tf_act(ASH1)	246.99302962548413	0.3	0.0027135499616420034	0.0	84.99215429161916	4.083356126981902
WHI5=tf_rep(ASH1)	131.6227108255677	0.2886206930478639	0.06372505377302788	6.12146055601914	90.41722038573712	1.033501083106785
WHI5=tf_rep(ASH1)	131.62355279198417	0.2742391718847929	0.0635319588018444	6.095869304517204	90.72638330385358	1.0519673974558152
WHI5=tf_rep(ASH1)	131.6219316885428	0.2740601415571438	0.06369700095653978	6.138128095259216	90.68008437559335	1.0302222220726107
WHI5=tf_rep(ASH1)	131.6233664625345	0.26767246130633127	0.06356210868750273	6.141506524027572	90.44106745374222	1.0268388627028167
WHI5=tf_rep(ASH1)	131.62765078293248	0.26707317722957497	0.06331151510772062	6.067690743341849	90.72237486345483	1.0666071734681983
WHI5=tf_rep(ASH1)	131.63457004470243	0.26785175324591226	0.06295322143225554	6.020407467944352	90.78399373393917	1.0754637677762895
WHI5=tf_rep(ASH1)	131.63758943212048	0.2666073490773825	0.06300269727416241	6.023103183019215	90.36703710788305	1.0857965972536359
WHI5=tf_rep(ASH1)	131.62453750719075	0.2655885911954317	0.06339985540061996	6.120796977872403	90.3185263343153	1.035044147106595
WHI5=tf_rep(ASH1)	131.62333535995927	0.2771157499578547	0.06367253789395932	6.14332738573562	90.37262988137586	1.0245171928028904
WHI5=tf_rep(ASH1)	131.62475727673478	0.2868624364563435	0.06354957047276358	6.116366093225701	89.97681554288528	1.0313565210631361
WHI5=tf_act(RIF1)	91.549434049158	0.0	0.12370838858483171	22.13112611463999	83.67040077487633	1.1377744033601862
WHI5=tf_act(RIF1)	32.42472725060078	0.3	0.18958075972337413	17.19856702530631	46.761227945562396	8.411171410858758
WHI5=tf_act(RIF1)	32.42472726618676	0.3	0.1895804400915246	17.198543737714406	46.76125196442645	8.411193053096827
WHI5=tf_act(RIF1)	32.43241897192531	0.29915754741584866	0.19014417060390737	17.246588858076862	46.71235436921693	8.345608914937392
WHI5=tf_act(RIF1)	32.42474101704403	0.3	0.18957414671963674	17.197475715191906	46.76067900414155	8.41182844251595
WHI5=tf_act(RIF1)	32.425414148814255	0.3	0.18931222677678453	17.175587669996663	46.77461167694317	8.42804149726841
WHI5=tf_act(RIF1)	32.48895648891793	0.09778124888924995	0.18968075976308316	17.41202891633886	46.517701959844885	8.185104040471808
WHI5=tf_act(RIF1)	32.42472724330808	0.3	0.1895810040598804	17.198585248590405	46.76120331782626	8.411138575652771
WHI5=tf_act(RIF1)	32.42472719159105	0.3	0.18958267666368253	17.198748349442607	46.7612768633217	8.411239127403414
WHI5=tf_act(RIF1)	32.424727207897924	0.3	0.18958251788694327	17.198723973344453	46.761131443566015	8.41102663278064
WHI5=tf_rep(RIF1)	246.99302962543536	0.3	0.0027135509383954775	0.0	99.91830572549785	8.29570560714129
WHI5=tf_rep(RIF1)	246.99302962545863	0.3	0.0027135504509818737	0.0	100.0	8.328690614764389
WHI5=tf_rep(RIF1)	250.34656190387042	0.3	0.005303341082750862	0.21290493275573874	100.0	8.351641923350595
WHI5=tf_rep(RIF1)	247.56364466640235	0.3	0.003193637750538939	0.03920853515645649	99.80054520653366	8.283287330301148
WHI5=tf_rep(RIF1)	246.99302962545838	0.3	0.0027135504525597548	0.0	100.0	8.32109811818942
WHI5=tf_rep(RIF1)	246.99302962547176	0.3	0.0027135501926048703	0.0	100.0	8.330064100596081
WHI5=tf_rep(RIF1)	246.99302962545826	0.3	0.0027135504555056747	0.0	99.53959168483676	8.300216693443758
WHI5=tf_rep(RIF1)	246.99302962545852	0.3	0.0027135504519847447	0.0	99.4943252133185	8.260608838566903
WHI5=tf_rep(RIF1)	248.07820747230147	0.3	0.0036123633906522345	0.07349564929540281	99.86404345566444	8.275099888197863
WHI5=tf_rep(RIF1)	246.99302962548413	0.3	0.0027135499624118932	0.0	99.40181556030815	8.241709185036868
WHI5=tf_act(EDS1)	139.69820179616286	0.2603442583038897	0.011127662711103227	7.749731075554952	85.48233320044335	5.1211972830326795
WHI5=tf_act(EDS1)	139.6431263684116	0.2595478604202466	0.010800232202421569	7.802292315781522	85.94531320387293	5.195199991652448
WHI5=tf_act(EDS1)	139.54673140526316	0.04309143703644266	0.0071901831428170405	7.8550607848879075	86.12124426559105	5.437784961542207
WHI5=tf_act(EDS1)	137.31844165283647	0.0	0.002041753445045933	11.975122530771007	100.0	10.0
WHI5=tf_act(EDS1)	137.31844165464355	0.0	0.0020417511702379384	11.975121801440709	99.99999985776923	10.0
WHI5=tf_act(EDS1)	137.3201056519349	0.0	0.0020282785932812467	11.929096479589187	99.99998336090883	10.0
WHI5=tf_act(EDS1)	137.33306647432462	0.0	0.0020487765918166113	11.637200810088075	99.46279963554477	9.924899321423963
WHI5=tf_act(EDS1)	137.32799043078464	0.0	0.0020427193339440514	11.675729948683404	99.53356298652946	9.96598211157668
WHI5=tf_act(EDS1)	137.3207470289239	0.0	0.002044278750784261	11.917986854836014	99.90313270001229	9.988463636087417
WHI5=tf_act(EDS1)	137.32950927157123	0.0	0.002050692045330283	11.649214831444068	99.45139983286059	9.957196361661602
WHI5=tf_rep(EDS1)	246.99302962545858	0.3	0.002713550450337514	0.0	66.88322553384731	1.0055744209252753
WHI5=tf_rep(EDS1)	246.9930296258811	0.3	0.0027135659223644863	0.0	67.28215559317005	1.0
WHI5=tf_rep(EDS1)	246.99302962545863	0.3	0.0027135504493082468	0.0	67.28021935270164	1.0271658639835652
WHI5=tf_rep(EDS1)	246.9930296254124	0.3	0.002713551480213425	1.3365635611965342e-17	67.07945238860451	1.0
WHI5=tf_rep(EDS1)	246.9930296254584	0.3	0.0027135504520622183	0.0	67.36017281951968	1.037808869822271
WHI5=tf_rep(EDS1)	246.99302962547168	0.3	0.0027135501928915264	0.0	67.42539029368903	1.0467748522289315
WHI5=tf_rep(EDS1)	246.99302962545843	0.3	0.00271355045269028	0.0	66.96498174260303	1.0169196232933266
WHI5=tf_rep(EDS1)	246.99302962545852	0.3	0.00271355045100589	0.0	66.92045546444608	1.0
WHI5=tf_rep(EDS1)	246.99302962545855	0.3	0.0027135504496069995	0.0	67.27599431420828	1.0
WHI5=tf_rep(EDS1)	246.99302962548404	0.3	0.002713549963087646	0.0	66.81376641885198	1.0
