# LEMpy local minima file for target EDS1, replicate 0
# Right-hand side of tf_act():  p0 - p1(tar) + p2(reg^p4) / (p3^p4 + reg^p4)
# Right-hand side of tf_rep():  p0 - p1(tar) + p2(p3^p4) / (p3^p4 + reg^p4)
# Run configuration file:  ../pipeline/src/yeast_data/simulations202110_Orlando_2/extra_nodes_annot/results5/edge_finding_20211012100236/lempy_20211012100236_config.txt
# Time series data file:   ../pipeline/src/yeast_data/time_series/orlando2008_WildType_r1_trunc.tsv
# Computed on:  2021-10-12 10:05:28 
 
model	loss	p0	p1	p2	p3	p4
EDS1=tf_act(SWI4)	123.92329320891191	0.3	0.011322702485333284	0.07740663888078397	90.29986886274041	6.561192667973199
EDS1=tf_act(SWI4)	122.93718753094859	0.3	0.01120945135570123	0.027613954774326235	90.69782193306867	6.0191963777637305
EDS1=tf_act(SWI4)	122.41929671462006	0.3	0.011226877659190766	0.0	90.70606492446849	6.10309361872038
EDS1=tf_act(SWI4)	122.41929671462006	0.3	0.011226877658988573	0.0	90.50707897984435	6.056951835668114
EDS1=tf_act(SWI4)	122.41929671462007	0.3	0.011226877659396905	0.0	90.78779939485538	6.094762480563566
EDS1=tf_act(SWI4)	122.41929671462005	0.3	0.011226877658812135	0.0	90.85301686902474	6.103728462970227
EDS1=tf_act(SWI4)	122.41929671462	0.3	0.011226877661171659	0.0	90.39260828256413	6.073880595306869
EDS1=tf_act(SWI4)	122.41929671462007	0.3	0.011226877659082148	0.0	90.35867691660643	6.046045941101247
EDS1=tf_act(SWI4)	122.41929671462007	0.3	0.01122687765923935	0.0	90.74553252259723	6.069228074052477
EDS1=tf_act(SWI4)	122.41929671462007	0.3	0.011226877658691582	0.0	90.28330462724094	6.035837370891481
EDS1=tf_rep(SWI4)	106.81892679932137	0.0	0.01941366346601476	0.8502454641096566	75.204133494227	10.0
EDS1=tf_rep(SWI4)	106.82383679626037	0.0	0.01944542298839784	0.8513718043337302	75.50336799468162	9.958410194717713
EDS1=tf_rep(SWI4)	106.83244171130704	0.0	0.019452410819031544	0.8523334927329946	75.3345452303426	9.88227331471896
EDS1=tf_rep(SWI4)	106.81900873886518	0.0	0.019408170958511384	0.8501656200385359	75.11337101026668	10.0
EDS1=tf_rep(SWI4)	106.81895080378474	0.0	0.01942571531750564	0.8504467525648358	75.3945942601083	10.0
EDS1=tf_rep(SWI4)	106.81890458996061	0.0	0.019418505484903266	0.8503246503349682	75.28115634237845	10.0
EDS1=tf_rep(SWI4)	106.82299219448173	0.0	0.01939563457315335	0.8502433951297171	74.82518933805423	9.970355520520656
EDS1=tf_rep(SWI4)	106.81982251183084	0.0	0.019387869468669404	0.8498572071748934	74.78205601321879	10.0
EDS1=tf_rep(SWI4)	106.8192765389689	0.0	0.019399766252118814	0.8500770871872505	74.96351595863965	10.0
EDS1=tf_rep(SWI4)	106.82105190902097	0.0	0.01937307973126831	0.8497145873080018	74.5183103104946	10.0
EDS1=tf_act(HCM1)	126.66553069057422	0.3	0.011514910007341797	0.34026662666549695	91.11829721510601	9.079971855514774
EDS1=tf_act(HCM1)	122.41929671462012	0.3	0.011226877659106009	0.0	91.59250519697697	9.126810146344171
EDS1=tf_act(HCM1)	128.30240516202187	0.3	0.011559341266540974	0.45941825083514104	91.60322462193622	9.171916986380573
EDS1=tf_act(HCM1)	122.41929671462005	0.3	0.011226877659496825	0.0	91.3939530728406	9.082959896170083
EDS1=tf_act(HCM1)	122.4192967146201	0.3	0.011226877659267227	0.0	91.67467348785163	9.120770541065534
EDS1=tf_act(HCM1)	122.4192967146201	0.3	0.011226877659392606	0.0	91.739890962021	9.129736523472195
EDS1=tf_act(HCM1)	122.41929671462005	0.3	0.011226877658789533	0.0	91.2794824290958	9.099888894233855
EDS1=tf_act(HCM1)	127.24265810657991	0.29903943794886495	0.011517210455293867	0.38111392257554505	91.24073209757633	9.069413390886968
EDS1=tf_act(HCM1)	122.41929671462002	0.3	0.011226877661121376	0.0	91.71991160231711	9.181148495450262
EDS1=tf_act(HCM1)	122.41929671462007	0.3	0.011226877658962844	0.0	91.25768370696082	9.147757792289267
EDS1=tf_act(NDD1)	122.41929671461955	0.3	0.011226877678459249	0.0	92.90596190529033	7.28867492061342
EDS1=tf_act(NDD1)	122.41929671462006	0.3	0.011226877660506078	0.0	93.29943947802327	7.343905451850163
EDS1=tf_act(NDD1)	122.41929671462006	0.3	0.011226877658643743	0.0	93.3062559606483	7.387630481366311
EDS1=tf_act(NDD1)	122.41929671462003	0.3	0.011226877659665577	0.0	93.10773903826296	7.341398591743588
EDS1=tf_act(NDD1)	122.41929671461999	0.3	0.011226877661202058	0.0	93.38845944434532	7.379209137809389
EDS1=tf_act(NDD1)	122.41929671462007	0.3	0.01122687765884412	0.0	93.45367691851467	7.38817512021605
EDS1=tf_act(NDD1)	122.4192967146199	0.3	0.011226877664515963	0.0	92.99326825045908	7.358327059824483
EDS1=tf_act(NDD1)	122.41929671462006	0.3	0.011226877660685768	0.0	92.95156649681078	7.324070156457326
EDS1=tf_act(NDD1)	122.41929671462005	0.3	0.011226877659917945	0.0	93.38760917951898	7.370434888111189
EDS1=tf_act(NDD1)	122.4192967146201	0.3	0.011226877658324134	0.0	92.92538128416268	7.3370441849501935
EDS1=tf_act(SWI5)	122.41929671462003	0.3	0.011226877659567168	0.0	85.93703481503931	5.183708856960759
EDS1=tf_act(SWI5)	122.64711587609214	0.2996010033020769	0.01137251275651545	0.05626944071732331	86.32767272135817	5.22953123513539
EDS1=tf_act(SWI5)	125.07140697671908	0.29975598119223323	0.011900256011266843	0.3668836148237542	86.33147179805593	5.271257212665398
EDS1=tf_act(SWI5)	122.41929671462007	0.3	0.01122687765899807	0.0	86.13085789321435	5.17220655244057
EDS1=tf_act(SWI5)	122.41929671462006	0.3	0.011226877659901064	0.0	86.41157829118016	5.2100169138949655
EDS1=tf_act(SWI5)	122.41929671462007	0.3	0.011226877659074872	0.0	86.47679576534952	5.218982896301626
EDS1=tf_act(SWI5)	122.41929671461999	0.3	0.011226877660448354	0.0	86.01638713389463	5.189134946923746
EDS1=tf_act(SWI5)	122.41929671462007	0.3	0.011226877657861218	0.0	85.97500980789707	5.158541844544001
EDS1=tf_act(SWI5)	122.41929671462003	0.3	0.011226877659231943	0.0	86.3691783797078	5.187201838506178
EDS1=tf_act(SWI5)	122.41929671462012	0.3	0.011226877658786409	0.0	85.90695048435151	5.153811135345182
EDS1=tf_rep(NRM1)	113.32107722117783	0.3	0.026188937309768602	1.0052143590879712	72.99929877488793	3.5912350115132785
EDS1=tf_rep(NRM1)	113.34011629189425	0.23964704867544923	0.026198113225514234	1.0920484504443577	73.24086194650187	3.3473355514818253
EDS1=tf_rep(NRM1)	110.93349407862387	0.3	0.04148618812036674	2.969237768573829	45.96064178350499	1.0
EDS1=tf_rep(NRM1)	110.93363189618567	0.3	0.04148872903940952	2.97743885128991	45.683621876864166	1.0
EDS1=tf_rep(NRM1)	110.93349421065048	0.3	0.041485900499972306	2.9690301268634736	45.967083861990986	1.0
EDS1=tf_rep(NRM1)	110.93351113262102	0.3	0.04148545069122061	2.966470978352102	46.05548959671316	1.0
EDS1=tf_rep(NRM1)	110.933690183304	0.3	0.04148555600141919	2.9786504108995246	45.63086733603808	1.0
EDS1=tf_rep(NRM1)	110.93375653684394	0.3	0.041485279280784194	2.98009961964204	45.57982952932241	1.0
EDS1=tf_rep(NRM1)	110.93411052651538	0.3	0.04150703863129201	2.9879745511247426	45.38300819937795	1.0
EDS1=tf_rep(NRM1)	110.93496039116816	0.3	0.04149346059974168	2.9957920914029508	45.07170411875456	1.0
EDS1=tf_rep(CLN3)	115.05382235500122	0.2999989509310698	0.028127883595095396	1.0804580532506547	99.91785615456112	10.0
EDS1=tf_rep(CLN3)	115.02242473154521	0.13613178033945686	0.02719205859170031	1.2239789596575925	100.0	10.0
EDS1=tf_rep(CLN3)	115.03496109714979	0.045564371487183286	0.02671433376029357	1.3080837539795571	99.92502437451324	10.0
EDS1=tf_rep(CLN3)	115.02242473820831	0.1360420721025893	0.027190871837144408	1.2240157858788434	100.0	10.0
EDS1=tf_rep(CLN3)	115.02242504870374	0.13558239148881857	0.027188161428174477	1.2244164717400108	100.0	10.0
EDS1=tf_rep(CLN3)	115.0225735609384	0.14723515242848637	0.0272473209014251	1.2136409182642007	100.0	10.0
EDS1=tf_rep(CLN3)	115.03804062892603	0.14648463078772733	0.027127486404735158	1.21602249290043	99.54155859328421	9.970284073564494
EDS1=tf_rep(CLN3)	115.03283881283542	0.17383351601369731	0.027271911753457893	1.1911936145533735	99.50201885791896	10.0
EDS1=tf_rep(CLN3)	115.02242473648855	0.13612734754363406	0.027191345148903513	1.2239399353386409	100.0	10.0
EDS1=tf_rep(CLN3)	115.03087748394967	0.18751476202949766	0.027373885460319127	1.178218179093314	99.62689694247507	10.0
EDS1=tf_rep(WHI5)	104.59234356144668	0.3	0.04524595663044167	99.66505570555542	4.533049193579887	1.4909517336229823
EDS1=tf_rep(WHI5)	104.60776069998987	0.3	0.044902440007925364	99.93170484061996	4.786117478485448	1.5269899019666688
EDS1=tf_rep(WHI5)	104.59169451514178	0.3	0.04529135965927719	99.999999997183	4.488075824101512	1.4861645190186832
EDS1=tf_rep(WHI5)	104.59913595194068	0.3	0.0453366117314198	99.98908212337382	4.279125269038533	1.459616631970088
EDS1=tf_rep(WHI5)	104.59302356449577	0.3	0.04518797994204772	99.89453955464543	4.572088941133642	1.4973003978431956
EDS1=tf_rep(WHI5)	104.59542534835562	0.3	0.04524919011249482	99.85646544530407	4.638135369361853	1.5045857184532831
EDS1=tf_rep(WHI5)	104.59399030870152	0.3	0.04540322856465629	99.43665807148153	4.41441371510029	1.4736483823382678
EDS1=tf_rep(WHI5)	104.5921310236479	0.3	0.04529033065535433	99.66488967090345	4.499170764242688	1.4862679825780347
EDS1=tf_rep(WHI5)	104.61381398220661	0.3	0.045167885091978735	99.82530539805076	4.855821430804943	1.5319926002322364
EDS1=tf_rep(WHI5)	104.59358601220264	0.3	0.0453144691263562	99.67093419682584	4.405817541365755	1.4744581605853255
EDS1=tf_act(YOX1)	125.35301590779719	0.2999999999998242	0.011364615900137617	0.1946911173049945	90.87924730176557	10.0
EDS1=tf_act(YOX1)	122.41929671462007	0.3	0.011226877658665767	0.0	91.41340947471313	10.0
EDS1=tf_act(YOX1)	122.41929671461934	0.3	0.011226877688032525	0.0	91.42491234362384	10.0
EDS1=tf_act(YOX1)	122.41929671461108	0.3	0.011226878031350113	0.0	91.22648905717021	9.955592788714117
EDS1=tf_act(YOX1)	122.41929671462007	0.3	0.011226877659644939	0.0	91.50720947218124	9.993403433609569
EDS1=tf_act(YOX1)	122.41929671462003	0.3	0.011226877659103348	0.0	91.5724269463506	10.0
EDS1=tf_act(YOX1)	122.41929671462012	0.3	0.011226877656815437	0.0	91.11201845874584	9.9701524003571
EDS1=tf_act(YOX1)	122.41929671462006	0.3	0.011226877657498345	0.0	91.07428919032047	9.931969645071126
EDS1=tf_act(YOX1)	122.41929671462006	0.3	0.011226877659115073	0.0	91.46642528106648	9.955166232115603
EDS1=tf_act(YOX1)	122.41929671462005	0.3	0.011226877659291026	0.0	91.00419738571019	9.921775528954608
EDS1=tf_rep(YOX1)	108.88176535854026	1.1065913166423557e-05	0.022267825001933368	1.086676334091831	74.08729315691932	3.4387192352536062
EDS1=tf_rep(YOX1)	106.90065352413156	0.0	0.017273795800398305	0.7683080664883292	62.589881288493814	10.0
EDS1=tf_rep(YOX1)	106.91756328191455	0.0	0.017271016062723916	0.770621552862662	62.28854646951811	9.782793000319634
EDS1=tf_rep(YOX1)	106.92388090374467	0.0	0.017240987271490576	0.770620670481283	62.02138663105194	9.70505343656017
EDS1=tf_rep(YOX1)	106.9206734047772	0.0	0.01726907444866851	0.7705183513249853	62.3031173576585	9.743115571633995
EDS1=tf_rep(YOX1)	106.91971201048288	0.0	0.017279568384068814	0.7706858005940999	62.37793293451175	9.75565090932985
EDS1=tf_rep(YOX1)	106.90065352361218	0.0	0.017273775354328228	0.7683060493294193	62.59007434664411	10.0
EDS1=tf_rep(YOX1)	106.90540079963618	0.0	0.01728263863945902	0.7691001013572731	62.58079250509558	9.938663962279984
EDS1=tf_rep(YOX1)	106.92007867515323	0.0	0.017315109691195197	0.7721789669822327	62.50612381982115	9.753756631748043
EDS1=tf_rep(YOX1)	106.92219742330305	0.0	0.01724044150534198	0.7701424586204134	62.07928228217913	9.725548316988718
EDS1=tf_act(ASH1)	113.31385411196025	0.0	0.012721460606914608	1.3983049571883135	81.54502956714092	1.264682958864159
EDS1=tf_act(ASH1)	113.31834810691933	0.0	0.012596664556859694	1.3994359492739006	81.9377372110198	1.3035574804740349
EDS1=tf_act(ASH1)	113.32265821807353	0.0	0.012508061758453237	1.3973121058111482	81.94416836429689	1.3337074334548302
EDS1=tf_act(ASH1)	113.31500171431351	0.0	0.01272586518110183	1.4006857320382433	81.7441408256692	1.2625751550213555
EDS1=tf_act(ASH1)	113.31853467780802	0.0	0.012606961554806326	1.4006292414016122	82.0236566894268	1.2996920124691147
EDS1=tf_act(ASH1)	113.31694601479467	0.0	0.012732551143236256	1.4047320940838757	82.08486156309851	1.2592777397853063
EDS1=tf_act(ASH1)	113.3158190728775	0.0	0.012840096919022156	1.4028162207931092	81.62003704903603	1.2285263780625573
EDS1=tf_act(ASH1)	113.31404321772162	0.0	0.012721809225395798	1.3986816001697433	81.57773796001864	1.2644415938256666
EDS1=tf_act(ASH1)	113.31620977438806	0.0	0.012731391617117113	1.4032443259433274	81.95528585254918	1.2601194798300392
EDS1=tf_act(ASH1)	113.31352291692346	0.0	0.012721116488150998	1.397667745612205	81.48782726100882	1.2650336307314443
EDS1=tf_rep(ASH1)	122.41929671462012	0.3	0.011226877658567226	0.0	74.7240297430056	3.6936752678388727
EDS1=tf_rep(ASH1)	122.4192967146201	0.3	0.011226877658055445	0.0	75.11152685304941	3.750820614314686
EDS1=tf_rep(ASH1)	123.04671815723182	0.3	0.015116800998021294	0.25268617432354107	75.10589295513391	3.7848106826141805
EDS1=tf_rep(ASH1)	122.41929671461396	0.3	0.011226877909662617	0.0	74.91231199205602	3.711010116865743
EDS1=tf_rep(ASH1)	122.41929674728135	0.3	0.011226768198572927	0.0	75.19303261558076	3.7488215564429628
EDS1=tf_rep(ASH1)	122.41929671462	0.3	0.011226877659564982	0.0	75.25825008975012	3.7577875388496236
EDS1=tf_rep(ASH1)	122.41929671461995	0.3	0.01122687766192786	0.0	74.79784210172082	3.727942166981988
EDS1=tf_rep(ASH1)	122.41929671462005	0.3	0.011226877659424277	0.0	74.75163118244947	3.682613491299557
EDS1=tf_rep(ASH1)	122.41929671467949	0.3	0.011226875673845782	0.0	75.2579395650025	3.9103361255515483
EDS1=tf_rep(ASH1)	122.41929671462007	0.3	0.01122687765865644	0.0	74.79571166964621	3.876945422390553
EDS1=tf_act(RIF1)	126.9648465144757	0.3	0.011623272851257357	0.3781863024477128	95.95282330744148	8.719752391638622
EDS1=tf_act(RIF1)	122.41929671462007	0.3	0.01122687765855039	0.0	96.43050793283598	8.768663524360376
EDS1=tf_act(RIF1)	128.02937683265827	0.3	0.011660413255704539	0.4626850718114807	96.44097760100395	8.813202341065757
EDS1=tf_act(RIF1)	122.41929671462012	0.3	0.011226877656901783	0.0	96.232096748132	8.725176372632326
EDS1=tf_act(RIF1)	122.41929671462012	0.3	0.011226877658584487	0.0	96.51281716314303	8.762987017527777
EDS1=tf_act(RIF1)	122.41929671462003	0.3	0.011226877659069823	0.0	96.57803463731238	8.771952999934438
EDS1=tf_act(RIF1)	122.4192967146201	0.3	0.011226877659970746	0.0	96.11762608363607	8.742105364221501
EDS1=tf_act(RIF1)	127.19439189421846	0.29904477219931797	0.011613203635338722	0.39561141511285197	96.07843750268053	8.710989168952377
EDS1=tf_act(RIF1)	122.41929671462003	0.3	0.011226877659096416	0.0	96.57623570285408	8.85444671963571
EDS1=tf_act(RIF1)	122.4192967146201	0.3	0.011226877658873929	0.0	96.11400780749779	8.821056016474715
EDS1=tf_rep(RIF1)	88.13159917783256	0.3	0.027391598662667577	99.66502447283465	25.32337883997597	6.522207658144735
EDS1=tf_rep(RIF1)	88.13047163740019	0.3	0.02739000407742662	99.93139630213598	25.315818550194315	6.523580107410589
EDS1=tf_rep(RIF1)	88.13109581388007	0.3	0.027360851581555084	100.0	25.364043546867308	6.546881588402572
EDS1=tf_rep(RIF1)	88.13268871241708	0.3	0.027422906994199657	100.0	25.22456572888907	6.48511851659626
EDS1=tf_rep(RIF1)	88.13579736069653	0.3	0.027363448548080805	99.90450233802858	25.44481559411723	6.5776981349467185
EDS1=tf_rep(RIF1)	88.13858524803985	0.3	0.027311270644492795	99.86347088695746	25.46917722682508	6.592121973228585
EDS1=tf_rep(RIF1)	88.13267994801161	0.3	0.027377210946274277	99.44510391327775	25.358029363296367	6.533990244116227
EDS1=tf_rep(RIF1)	88.13261194710788	0.3	0.027419788740132203	99.67146961596633	25.27171325056866	6.498950558902874
EDS1=tf_rep(RIF1)	88.13253965668568	0.3	0.027355744183672655	99.81673998217437	25.389059437190888	6.5545296911755075
EDS1=tf_rep(RIF1)	88.13499923810825	0.3	0.02743759064709766	99.67408424855697	25.22490503792416	6.478679237806561
EDS1=tf_act(EDS1)	122.41929671462012	0.3	0.011226877657245806	0.0	89.69924118961843	9.768310213586458
EDS1=tf_act(EDS1)	123.35333245034498	0.29970255393340184	0.01116558881258042	0.1670957452631849	90.09532222355433	9.830492197336044
EDS1=tf_act(EDS1)	122.41929671461992	0.3	0.011226877666541664	0.0	89.71307509542333	9.820557471448783
EDS1=tf_act(EDS1)	122.41929671462015	0.3	0.011226877656858373	-1.3877787807814457e-17	89.51370025042952	9.775605158480857
EDS1=tf_act(EDS1)	122.41929671462003	0.3	0.011226877659557764	0.0	89.99379551043437	9.858368116344234
EDS1=tf_act(EDS1)	122.41929671462006	0.3	0.011226877658461974	0.0	90.05901298460373	9.867334098750895
EDS1=tf_act(EDS1)	122.41929671462002	0.3	0.011226877660892297	0.0	89.59860445828112	9.837486375514109
EDS1=tf_act(EDS1)	122.94157277159057	0.2990289625557338	0.011187733108171286	0.09639006826366617	89.56039258468573	9.808301693866238
EDS1=tf_act(EDS1)	122.41929671462013	0.3	0.011226877659575652	0.0	89.97692314249791	9.842060441412034
EDS1=tf_act(EDS1)	122.41929671462005	0.3	0.011226877659448558	0.0	89.51469524714162	9.808669738251039
EDS1=tf_rep(EDS1)	115.09627648597689	0.0008437388003469161	0.012311864032877262	1.6805721582811939	41.728328113503956	9.970230120905036
EDS1=tf_rep(EDS1)	115.09350048956425	0.0	0.012343663105406364	1.618879241568835	42.01050897799334	10.0
EDS1=tf_rep(EDS1)	115.09310263173344	0.0	0.012330980654508212	1.6473651878972115	41.891931910011955	10.0
EDS1=tf_rep(EDS1)	115.09674361380517	0.0	0.01231184672688985	1.7189385021265045	41.59875336582104	9.956770878028998
EDS1=tf_rep(EDS1)	115.09402270222446	0.0002708215783187106	0.012327660900347285	1.6462067759117716	41.88526004402434	9.992215109507862
EDS1=tf_rep(EDS1)	115.09348282319131	0.0	0.012338955825248877	1.6192068367058339	42.005086426821265	10.0
EDS1=tf_rep(EDS1)	115.09943143612233	0.0	0.012322296493284243	1.7041904950530429	41.64601672346496	9.926181251627364
EDS1=tf_rep(EDS1)	115.10028177004865	0.0	0.012311851826662999	1.7311996759841786	41.5380804270553	9.916716435965977
EDS1=tf_rep(EDS1)	115.10070710021161	0.0	0.012272538694369103	1.8824174102169557	41.02518870295039	9.9391147924431
EDS1=tf_rep(EDS1)	115.10828235098536	0.008028466637666844	0.012401118130706677	1.8097658881040246	41.21031325678885	9.900847028769562
