node	tf_act	tf_rep	target
SWI4	1	1	1
HCM1	1	1	1
NDD1	1	1	1
SWI5	1	1	1
NRM1	1	1	1
CLB2	1	1	1
CDC20	1	1	1
CDC14	1	1	1
CLN2	1	1	1
CLN3	1	1	1
WHI5	1	1	1
YOX1	1	1	1
YHP1	1	1	1
ASH1	1	1	1
RIF1	1	1	1
EDS1	1	1	1