gene	0.0	0.5	1.0	1.5	2.0	2.5	3.0	3.5	4.0	4.5	5.0	5.5	6.0	6.5	7.0	7.5	8.0	8.5	9.0	9.5	10.0	10.5	11.0	11.5	12.0	12.5	13.0	13.5	14.0	14.5	15.0
A	1.2212080496249005	0.8863727450239064	0.6246739239440532	0.4557443852119837	0.3513459393053884	0.2875614637498074	0.2487330132382257	0.22512940919000032	0.210789748519131	0.2020807951280397	0.19679270271778432	0.1935851064118735	0.19168019461966312	0.1922690197372296	0.25158218958549955	0.5173811390263682	0.8357382615954542	1.0824432226849523	1.2520845434458914	1.363927370628507	1.432642809133702	1.3545909518020458	1.0484759018279075	0.7399684778621115	0.5285952153638273	0.3961293525868456	0.3148793037423655	0.2653530355315151	0.2352301597114719	0.21692550184584114	0.20580700552135794
B	0.14563745958658025	0.34018694966561625	0.5275427549358487	0.5201434227972817	0.357578724119749	0.22270870320335828	0.13622576883968984	0.08317280826054242	0.050907031275217	0.03132112949787523	0.01943808104442796	0.012229604247176038	0.007857072037812341	0.00520484276597364	0.003596113284851595	0.0026203565376180685	0.002028555306811386	0.00166972679700942	0.0014541880784439756	0.0015140459349020938	0.009752342266689628	0.07610532031084777	0.2393266122916764	0.4450002001720497	0.5588823287995485	0.4398357281346544	0.2821098623441117	0.17343166191929574	0.10589625670255748	0.06471371942838358	0.03970007303997082
C	2.3767145594572345	2.7243343046160198	2.755472560183917	2.0428478398235788	1.3419293814817264	0.8844482538678163	0.599393122336346	0.423293317355702	0.3147383107267682	0.2478425487551777	0.20660587721095847	0.1811758598113901	0.16548964313862494	0.1558322074438641	0.15079769424792314	0.15211374897779936	0.1563150007687639	0.17732258124338252	0.2998068933418873	0.7502492215342379	1.4850196121275934	2.1345780187833885	2.5778450778758586	2.81333389017928	2.4470356138579343	1.6527423837431792	1.082103234815018	0.7220282878377791	0.4989753545752806	0.36138039165699104	0.27658639895561743
D	0.5132836192083551	0.5612422370193537	1.0031980871777908	1.7623636985343554	2.433611134160035	2.897858467412148	3.1954270892265075	3.3812791562893527	3.4961589225881298	3.566832017675139	3.6102043424384345	3.636786566328349	3.6530647709374433	3.6629998072862433	3.667250938666255	3.5816782441817887	2.933342249434028	2.0725666128845184	1.4268490209453188	0.9987233213087882	0.7244085009386294	0.5575876423957751	0.5055654152334592	0.7253894799097726	1.380467793291005	2.1301214364704	2.694957921826219	3.0668032817060062	3.3012809227907915	3.4468014636872017	3.5364952772310265
E	0.14637496776431996	0.09565051908803364	0.06327606579979818	0.04338582276493462	0.03129787604803373	0.023965235113395853	0.0195157684043154	0.016815949905173558	0.015177910479144437	0.014184130145452244	0.013581239092355023	0.01321556168760742	0.012994679247233906	0.012900145734601643	0.014418795579588022	0.027635943326341623	0.06219739443176585	0.1101051880176168	0.15845987196177722	0.1999674363452705	0.22693737108635825	0.17793784859612902	0.11791113433399672	0.07720508538246879	0.05190544625799195	0.03646749365763002	0.02710163785409548	0.02141896993467873	0.01797072756110945	0.015878532869069692	0.014609184585590722
F	0.5983220199281282	0.4050529746119105	0.28782918123160023	0.21672936778190624	0.1736051551374449	0.1474490081996603	0.13158453101691678	0.12196248711040004	0.11612911949368104	0.11262181542474875	0.11083206666684536	0.11318328170334385	0.1438394193545561	0.3002443339946834	0.5914324930292547	0.8488607853225062	1.0226927631452338	1.1320060920922363	1.1993535057274078	1.2404754886496188	1.138755715179803	0.7346078489095773	0.4877161296735214	0.3379670080142469	0.2471395182693796	0.1920498570149395	0.15863629078471267	0.13836994398971594	0.12607785703495927	0.1186231824230341	0.11411104553289175
G	2.0	3.31304195	3.98087549	3.67533757	2.5465647999999996	1.14921857	0.16993312	0.08991411	0.94848164	2.32374896	3.53993106	3.99941497	3.47641741	2.22793127	0.86744325	0.06347602	0.21108659999999999	1.23774143	2.63895829	3.72620097	3.9652152999999997	3.23855336	1.90328554	0.6155417	0.00809916	0.37944576	1.54710754	2.93731364	3.86693838	3.87917859	2.96801964
