# LEMpy local minima file for target NDD1, replicate 0
# Right-hand side of tf_act():  p0 - p1(tar) + p2(reg^p4) / (p3^p4 + reg^p4)
# Right-hand side of tf_rep():  p0 - p1(tar) + p2(p3^p4) / (p3^p4 + reg^p4)
# Run configuration file:  ../pipeline/src/yeast_data/simulations202110_Orlando_2/annot/results4/edge_finding_20211012144505/lempy_20211012144505_config.txt
# Time series data file:   ../pipeline/src/yeast_data/time_series/orlando2008_WildType_r1_trunc.tsv
# Computed on:  2021-10-12 14:47:16 
 
model	loss	p0	p1	p2	p3	p4
NDD1=tf_act(SWI4)	45.91905448666929	0.0	0.05388223251690537	9.799401602037914	50.42775941559211	4.136558591096794
NDD1=tf_act(SWI4)	45.929892969045405	0.0	0.053846262833976116	9.832088236510561	50.63307365391226	4.075576975755929
NDD1=tf_act(SWI4)	45.982782935850366	0.0	0.053836229986774634	9.887533401459548	50.93808585908567	3.9888435744962103
NDD1=tf_act(SWI4)	45.9208303723632	0.0	0.05383605842587061	9.779496105202664	50.35580000076171	4.163473443416382
NDD1=tf_act(SWI4)	45.91905451930859	0.0	0.05388185201499834	9.799396631832387	50.42801224477074	4.1365105695027236
NDD1=tf_act(SWI4)	45.91905448268375	0.0	0.05388227748534926	9.799418876351112	50.42782537604096	4.136530701182698
NDD1=tf_act(SWI4)	45.91905447888687	0.0	0.05388240516642142	9.799439973365407	50.427816150632154	4.136533583175942
NDD1=tf_act(SWI4)	45.922077069539036	0.0	0.05390371200963229	9.782772624746997	50.322307487750756	4.168292054699111
NDD1=tf_act(SWI4)	45.99451575192789	0.0	0.05388852834132038	9.706843213785127	49.92880699604325	4.3027225933185855
NDD1=tf_act(SWI4)	45.91905448314536	0.0	0.05388226795336795	9.799418004201755	50.42782905504206	4.136528978491977
NDD1=tf_rep(SWI4)	437.8847035689187	0.3	0.002719228355691226	0.12619779296574477	0.001	1.030609511461457
NDD1=tf_rep(SWI4)	437.8845159609078	0.3	0.0027192035121431477	0.0	0.28378932291284786	1.0204776063817171
NDD1=tf_rep(SWI4)	437.8845159607953	0.3	0.0027192076694012965	0.0	0.001	1.0700184454429391
NDD1=tf_rep(SWI4)	437.88451596090783	0.3	0.002719203509847754	0.0	0.001	1.106093535468952
NDD1=tf_rep(SWI4)	437.88481578651596	0.3	0.0027192529168872095	0.35307849505303457	0.001	1.0881631249614394
NDD1=tf_rep(SWI4)	437.8851244991523	0.3	0.002719303593376459	0.7663973440702063	0.001	1.095044816926228
NDD1=tf_rep(SWI4)	437.8851715944465	0.3	0.0027193061667884757	1.0608234899940407	0.001	1.1206870982310433
NDD1=tf_rep(SWI4)	437.8851214658143	0.3	0.0027193033390643306	0.7257116136007599	0.001	1.0899672637973983
NDD1=tf_rep(SWI4)	437.8848706050944	0.3	0.002719237496091431	0.5338750768901193	0.001	1.1133095018286108
NDD1=tf_rep(SWI4)	437.88451682485857	0.3	0.002719554109599715	0.5695524150521356	0.001	1.8270331551887842
NDD1=tf_act(HCM1)	21.79574808719131	0.0	0.11582038105251184	30.040575843741966	99.70526170983476	1.5407602416888395
NDD1=tf_act(HCM1)	14.418609180482036	0.3	0.11332304531160077	17.818973916122903	57.38765922462045	2.49665540142259
NDD1=tf_act(HCM1)	14.425115994294776	0.3	0.11349156512291858	17.962816774862898	57.75788896779396	2.469315428003711
NDD1=tf_act(HCM1)	14.42094797521678	0.3	0.11315689478054779	17.72764415337557	57.181581080389776	2.5134082822274415
NDD1=tf_act(HCM1)	14.419142141754776	0.3	0.11340257895924229	17.86329046954949	57.48837357669009	2.4886432824729003
NDD1=tf_act(HCM1)	14.428804588608406	0.3	0.11366104064079284	18.013894772835695	57.83729250879235	2.4618360036099807
NDD1=tf_act(HCM1)	14.440227730966907	0.3	0.1138035724303098	18.103887305132822	58.052092783797725	2.4461721929653355
NDD1=tf_act(HCM1)	14.41860915356688	0.3	0.1133244400165492	17.819336136738134	57.388120390285096	2.4966064651508213
NDD1=tf_act(HCM1)	14.427910844938765	0.3	0.11309480974629008	17.649195047542317	56.96733208252722	2.529679681929807
NDD1=tf_act(HCM1)	14.450332563876838	0.3	0.11297170761614202	17.518747477314264	56.62215713008218	2.5571519340741653
NDD1=tf_act(NDD1)	437.88451596090783	0.3	0.0027192035117215626	0.0	99.63550356695045	1.7527855516610464
NDD1=tf_act(NDD1)	437.884515960908	0.3	0.0027192035104277	0.0	99.9182928898633	1.7426536465813065
NDD1=tf_act(NDD1)	437.88451598352134	0.3	0.0027191384521783437	0.0	100.0	1.791675063450611
NDD1=tf_act(NDD1)	437.88451596090783	0.3	0.002719203510517577	0.0	99.6968734043124	1.8277501534766238
NDD1=tf_act(NDD1)	437.88451596079983	0.3	0.0027192072092702517	0.0	99.52071513650047	1.3626771251742316
NDD1=tf_act(NDD1)	437.8845159609077	0.3	0.0027192035128793565	0.0	99.31981304860723	1.0
NDD1=tf_act(NDD1)	437.8845159609078	0.3	0.002719203513214009	0.0	99.14488716532477	1.0
NDD1=tf_act(NDD1)	437.88451596090783	0.3	0.0027192035113199446	0.0	99.0921357120134	1.0
NDD1=tf_act(NDD1)	437.8845159609006	0.3	0.0027192036674412684	0.0	98.68135225565143	1.0065440186634884
NDD1=tf_act(NDD1)	437.88451596090766	0.3	0.0027192035137052505	0.0	98.23641955808114	1.0437840972547683
NDD1=tf_act(SWI5)	437.8845159609079	0.3	0.0027192035132797645	0.0	99.63532651215216	1.030590650932078
NDD1=tf_act(SWI5)	437.8845159609078	0.3	0.002719203513289128	0.0	99.91811583506501	1.020458745852338
NDD1=tf_act(SWI5)	437.88451596090783	0.3	0.0027192035121483384	0.0	100.0	1.076249953644084
NDD1=tf_act(SWI5)	437.88451596090783	0.3	0.0027192035123431613	0.0	99.6968734043124	1.1123250436700969
NDD1=tf_act(SWI5)	437.8845159609078	0.3	0.0027192035133903865	0.0	99.50324826593723	1.0
NDD1=tf_act(SWI5)	437.8845159608837	0.3	0.002719204066204229	0.0	99.0819161072681	1.0
NDD1=tf_act(SWI5)	437.88451596090783	0.3	0.0027192035120194797	0.0	98.89107491551702	1.0
NDD1=tf_act(SWI5)	437.8845159609077	0.3	0.0027192035138837176	0.0	98.83832346220565	1.0
NDD1=tf_act(SWI5)	437.88451596090124	0.3	0.002719203655836987	0.0	98.42754001340467	1.0065938990008807
NDD1=tf_act(SWI5)	437.88451596090783	0.3	0.002719203513555933	0.0	97.9829083277689	1.0449755509594778
NDD1=tf_rep(NRM1)	343.54670718723895	0.0	0.001399596508348325	3.9133437008475505	12.965959379936514	10.0
NDD1=tf_rep(NRM1)	343.60382615086615	0.0	0.0014264180897157232	3.8838635100885988	13.336490530027937	9.991901502773617
NDD1=tf_rep(NRM1)	343.5467071900221	0.0	0.0013995803092310885	3.913330257352178	12.965923943463224	10.0
NDD1=tf_rep(NRM1)	343.56634222843775	0.0	0.0013847500365435257	3.931693051613496	12.745485527641094	10.0
NDD1=tf_rep(NRM1)	343.5467071873912	0.0	0.001399592146941615	3.9133419557237183	12.965964399206335	10.0
NDD1=tf_rep(NRM1)	343.6079972847814	0.0	0.001380959720283759	3.955250852889641	12.582893140051862	10.0
NDD1=tf_rep(NRM1)	343.5467071873726	0.0	0.0013995924656027327	3.9133430776480385	12.965963427063672	10.0
NDD1=tf_rep(NRM1)	343.55888724142227	0.0	0.001404139763457125	3.9106413783096734	13.012230554814282	9.97493702380589
NDD1=tf_rep(NRM1)	343.5987489029712	0.0	0.0013776491722078334	3.9410722124928297	12.638734307339972	9.981718513546248
NDD1=tf_rep(NRM1)	343.5467071874028	0.0	0.001399592746884249	3.9133407565305363	12.965971027716972	10.0
NDD1=tf_rep(CLN3)	325.0222438558661	0.0	0.11166743836081304	39.08764555215047	42.87877090913059	2.26254912549982
NDD1=tf_rep(CLN3)	324.9999028898204	0.0	0.1115248065788901	38.76491046843364	43.08737582781736	2.2658424376725566
NDD1=tf_rep(CLN3)	325.01140441866875	0.0	0.11167940452876	38.95398023106767	42.99412532775285	2.2651630249099948
NDD1=tf_rep(CLN3)	325.00089797491313	0.0	0.11189267452881468	38.854746985195064	43.14121222070087	2.2686354354981715
NDD1=tf_rep(CLN3)	325.0235539744154	0.0	0.11191268642756089	39.140666212567695	42.915090125338615	2.264044155037048
NDD1=tf_rep(CLN3)	325.0595885170529	0.0	0.1126068415373633	39.58922228756264	42.77749075794668	2.2632766083721885
NDD1=tf_rep(CLN3)	325.0698119429052	0.0	0.11170220554263309	39.700477121636226	42.38508239830674	2.251522062298842
NDD1=tf_rep(CLN3)	325.08793046083065	4.701402272745847e-05	0.11009958267516826	39.258350847725815	42.21730785236925	2.2430598925421794
NDD1=tf_rep(CLN3)	325.068678764426	0.0	0.11161810838040087	39.67266656472049	42.38300683245839	2.251427031543836
NDD1=tf_rep(CLN3)	325.0932228532658	0.0	0.1115919980377891	39.9897525820759	42.11939782064489	2.245548951515988
NDD1=tf_rep(WHI5)	383.2199941694213	0.0	0.0017216449815247938	12.594487690947538	37.91798095806835	10.0
NDD1=tf_rep(WHI5)	383.1787696917171	0.0	0.0017360278614772665	12.280477349030278	38.058157781115234	10.0
NDD1=tf_rep(WHI5)	383.2267844910089	0.0	0.001718478422731078	12.645599111528282	37.89446947928747	10.0
NDD1=tf_rep(WHI5)	382.9028021787252	0.0	0.0019294027474168291	9.255358734986936	39.753692759393196	10.0
NDD1=tf_rep(WHI5)	382.9082227670746	0.0	0.0019044388469982077	9.57400113507975	39.53964838149435	10.0
NDD1=tf_rep(WHI5)	382.92657313289874	0.0	0.0018764818426361546	9.952924946464632	39.29817478706018	10.0
NDD1=tf_rep(WHI5)	382.94763273867204	0.0	0.0018561476608381254	10.245681592150989	39.12062473819983	10.0
NDD1=tf_rep(WHI5)	382.9301981559755	0.0	0.0018725947849731529	10.009137734936933	39.26367821592125	10.0
NDD1=tf_rep(WHI5)	382.93126700933055	0.0	0.0018714154105209557	10.025057591827334	39.25378894584537	10.0
NDD1=tf_rep(WHI5)	382.9516528673945	0.0	0.0018527646262131647	10.29477969510215	39.0914661087131	10.0
NDD1=tf_act(YOX1)	18.509865654276336	0.3	0.07878978873911549	11.820353953191761	45.546208708649594	3.384074972118029
NDD1=tf_act(YOX1)	18.50072974449402	0.3	0.07919917991587422	11.922379799676827	45.70773590227534	3.3184420500354577
NDD1=tf_act(YOX1)	18.50991152968348	0.3	0.07980457917645171	12.083329286144473	45.9841305717145	3.219415554535162
NDD1=tf_act(YOX1)	18.507628625604536	0.3	0.07875673877419621	11.82592478438339	45.5844068228683	3.37495265614625
NDD1=tf_act(YOX1)	18.50023997581664	0.3	0.07930644662336946	11.950867962712403	45.756559391433306	3.300221133550785
NDD1=tf_act(YOX1)	18.518325827382764	0.3	0.08018270759170536	12.153825126957708	46.04430584336961	3.188015380554884
NDD1=tf_act(YOX1)	18.54679341675604	0.3	0.08070086008781499	12.27881001443821	46.23280084898159	3.1229567551350454
NDD1=tf_act(YOX1)	18.52556463238262	0.3	0.08007172525927356	12.161862309170417	46.13425467417062	3.172324063058395
NDD1=tf_act(YOX1)	18.50027005432531	0.3	0.07933596632272753	11.95851939544259	45.76929431671191	3.2954533233867243
NDD1=tf_act(YOX1)	18.522343324740927	0.3	0.07858432267016449	11.762218386785745	45.43917474021182	3.4267229409700195
NDD1=tf_rep(YOX1)	437.8845583209744	0.3	0.002719299914954568	0.12819298625543263	0.001	1.115431147005746
NDD1=tf_rep(YOX1)	437.8845159609079	0.3	0.00271920351166552	0.0	0.28378932291284786	1.1052992419260061
NDD1=tf_rep(YOX1)	437.8845265992404	0.3	0.0027191913534011973	0.05675634913377377	0.001	1.1674211506413155
NDD1=tf_rep(YOX1)	437.88451596090783	0.3	0.002719203509847754	0.0	0.001	1.2034962406673284
NDD1=tf_rep(YOX1)	437.8845701384366	0.3	0.002719223817239973	0.35307855270783517	0.001	1.1855660924520712
NDD1=tf_rep(YOX1)	437.88462500245134	0.3	0.002719243718434636	0.766404129383908	0.001	1.1923945869962667
NDD1=tf_rep(YOX1)	437.8846294906644	0.3	0.0027192458529134585	1.060834925038785	0.001	1.2179852427827988
NDD1=tf_rep(YOX1)	437.88462526063984	0.3	0.0027192444394666007	0.7257246944084087	0.001	1.1872534027175516
NDD1=tf_rep(YOX1)	437.8845895620697	0.3	0.002719231349985132	0.5365178749739445	0.001	1.1956836504827288
NDD1=tf_rep(YOX1)	437.8845761891654	0.3	0.002719227172697365	0.6667886314549446	0.001	1.2331131626530427
NDD1=tf_act(ASH1)	437.88451596090783	0.3	0.0027192035129371883	0.0	99.67006943877027	10.0
NDD1=tf_act(ASH1)	437.88451596090783	0.3	0.0027192035115843746	0.0	99.95285876168312	9.98986809492026
NDD1=tf_act(ASH1)	437.88451596093273	0.3	0.0027192140260199793	0.0	100.0	10.0
NDD1=tf_act(ASH1)	437.88451596090783	0.3	0.0027192035110751053	0.0	99.6968734043124	10.0
NDD1=tf_act(ASH1)	437.8845159609079	0.3	0.0027192035116094444	0.0	99.599232793364	9.988860363215345
NDD1=tf_act(ASH1)	437.88451596090744	0.3	0.002719203519228904	0.0	99.54483843362567	10.0
NDD1=tf_act(ASH1)	437.8845159609077	0.3	0.002719203512970128	0.0	98.49944160203611	10.0
NDD1=tf_act(ASH1)	437.8845159609078	0.3	0.0027192035122732714	0.0	98.44669014872474	9.969261990450287
NDD1=tf_act(ASH1)	437.8845159607921	0.3	0.0027192083501802887	0.0	98.03590685454115	9.975866353453307
NDD1=tf_act(ASH1)	437.8845159609078	0.3	0.002719203511926063	0.0	97.65432115849339	10.0
NDD1=tf_rep(ASH1)	197.4260978314721	0.00028667220989142875	0.04766224370095577	4.954671575225971	56.8018736903427	3.940790133177456
NDD1=tf_rep(ASH1)	197.41302415545763	0.0	0.047998138970584	4.975748550519762	57.0935860240821	3.93203321742263
NDD1=tf_rep(ASH1)	197.4252003187881	0.0	0.048223375525608354	4.997388807386424	57.09357002925633	3.846092960959989
NDD1=tf_rep(ASH1)	197.433624280557	0.000901700150246891	0.04758779753741276	4.946361838768131	56.793479486773855	3.9127015891639987
NDD1=tf_rep(ASH1)	197.4120256651278	0.0	0.04815732041172681	4.987116110737353	57.19024830130059	3.9058220274309488
NDD1=tf_rep(ASH1)	197.41202855184545	0.0	0.04815981695072045	4.987199518970336	57.194658910095825	3.905634024458356
NDD1=tf_rep(ASH1)	197.41202633375744	0.0	0.04815752644059845	4.98707945759921	57.19149555740402	3.9052902659949997
NDD1=tf_rep(ASH1)	197.41646585990034	0.0016003739344473493	0.04821858967074556	4.991571899663885	57.16784706653406	3.8718573719958647
NDD1=tf_rep(ASH1)	197.422663087584	0.0	0.04763801756378619	4.951814880658449	56.82900609700411	3.9693103582397646
NDD1=tf_rep(ASH1)	197.46860572018787	2.645130739393953e-07	0.047045570182071866	4.912949256795739	56.37492140724537	4.010231316364226
