# LEMpy target file for YOX1, replicate 1 
# Run configuration file:  ../pipeline/src/yeast_data/simulations202110_Orlando_2/no_annot/results4/edge_finding_20211012213636/lempy_20211012213636_config.txt 
# Time series data file:   ../pipeline/src/yeast_data/time_series/orlando2008_WildType_r2_trunc.tsv 
# Computed on:  2021-10-12 21:41:09 
 
model	loss	pld	inv_temp	prior	rhs_param_0	rhs_param_1	rhs_param_2	rhs_param_3	rhs_param_4	hess_eigs	hess_det	bnd_params	pld_time	opt_time
tf_rep(NDD1)	153.98074278952257	0.537949	1.0	0.0618058060437585	0.0	0.04247550463039283	7.2413402041289405	44.984362653936195	10.0	[1, 1.7993749603032334, 15.454779664664763, 34.559372180564175, 4318023.504984933]	4149878071.7762194	2.0	7.048400000186916e-05	0.4221951139999991
tf_rep(SWI5)	199.7791571769723	0.213201	1.0	0.133288836448523	0.0	0.10066738610241363	8.995755609298504	42.15825545616182	1.9656701060120156	[1, 2.2852129609972347, 18.342014518096068, 86.12827749710868, 4318371.048198638]	15589759976.178854	1.0	6.981699999997204e-05	0.47003974400000104
tf_rep(NRM1)	181.913342764109	0.180793	1.0	0.0423186482793834	0.0	0.04233720318977349	6.983792578638576	29.817325732824948	4.147864450258376	[1, 2.5570814815733525, 20.196103001284346, 35.73051047916448, 4318025.280166813]	7967765532.512604	1.0	6.914300000104845e-05	0.4347336930000001
tf_act(SWI4)	290.2150486268933	0.0673461	1.0	0.758791923377064	0.0	0.21810884835934363	22.768914826334125	46.69268286005331	2.457450094538361	[1, 1, 7.745513832770505, 457.0519968659334, 4318524.518320964]	15288019720.093302	1.0	0.0002798280000000375	0.46224250099999953
tf_rep(WHI5)	281.0855281625168	0.000710324	1.0	0.00354991707057181	0.0	0.025112574851046864	7.771561900234394	65.84541611511506	10.0	[1, 1.1172170212328476, 9.17978335917925, 29.144188643133717, 4317900.893516178]	1290608779.456707	2.0	7.00459999976033e-05	0.4422150939999989
tf_rep(HCM1)	395.39471001109166	0.000000185303	1.0	1.82817691545485e-5	0.0	0.013865934961994555	13.296172667139743	30.52336860179016	10.0	[1, 1.7677378130403094, 4.11834089015021, 31.26552689060287, 4317885.5306449905]	982826867.8503923	2.0	8.496099999888429e-05	0.38769890699999987
tf_act(CLN3)	550.3559035501664	0.0000000782216	1.0	5.36600023700168e-5	0.0	0.006389972043916171	0.8800669547074325	99.2349021836446	3.4612289904998708	[1, 1, 1, 34.53884535252971, 4318018.639474058]	149139378.01813522	1.0	6.957199999746422e-05	0.3928353370000002
tf_rep(CLN3)	553.4067326599459	0.0000000495252	1.0	3.22973930605562e-5	0.0	0.00046348149862714236	9.702646673126825	7.931049888619486	8.968581128529094	[1, 1, 1, 27.413374859179928, 4317820.6692792345]	118366036.58166681	1.0	7.236400000110166e-05	0.38097977500000013
tf_act(YOX1)	522.7594909512761	0.0000000330548	1.0	4.54130064379445e-5	0.3	0.013400823082093385	2.1393829856735596	75.36386454388422	10.0	[1, 1, 2.914713941412798, 39.116090912647735, 4317862.640134692]	492289085.89839184	2.0	8.203200000167499e-05	0.3510051830000007
tf_rep(ASH1)	523.2071793696516	0.0000000172624	1.0	2.92121631868414e-5	0.3	0.03464365189971664	2.2392629038684357	44.94116073683021	2.233503796496712	[1, 1.6455730305144074, 12.185570131279853, 33.831413808844395, 4318491.083706064]	2929646289.777443	1.0	6.91590000023723e-05	0.3326237110000001
tf_rep(YOX1)	416.37604893849544	0.0000000101497	1.0	1.11702069309967e-5	0.0	0.004499645418966664	64.88897274066454	6.929202370521449	10.0	[1, 1, 27.412839015512688, 364.6432328053304, 4317914.407497116]	43161467565.31935	2.0	7.274000000023761e-05	0.4721212079999999
tf_act(HCM1)	553.4066917213033	0.00000000732598	1.0	9.57293920989906e-6	0.0	0.0004634835074291751	0.0	97.92145791430508	2.215033941298553	[1, 1, 1, 27.51510061731148, 4317902.279878885]	118807515.68658614	2.0	8.082899999806159e-05	0.24413964299999957
tf_act(NRM1)	553.4066917213565	0.00000000567273	1.0	1.15931307188212e-5	0.0	0.0004634789378134075	0.0	99.73858791460735	9.98110844935893	[1, 1, 2.422881873485412, 27.778239142282246, 4317827.451486806]	290604433.96674234	2.0	6.93490000003294e-05	0.3303687350000004
tf_act(ASH1)	553.4066917213565	0.00000000508425	1.0	8.42868323894905e-6	0.0	0.0004634789378134075	0.0	99.73858791460735	9.961276102846195	[1, 1, 1.5351163348232966, 28.849899362745198, 4317830.339812367]	191227861.8396095	2.0	6.97910000013735e-05	0.211151686
tf_act(NDD1)	553.4066917213565	0.00000000406865	1.0	8.61583036459881e-6	0.0	0.0004634789378134075	0.0	99.73858791460735	9.936737568255989	[1, 1, 2.6037330353821946, 27.75338523349636, 4317828.757905323]	312016694.6392191	2.0	7.369700000126045e-05	0.3377971360000007
tf_act(SWI5)	553.4066917213565	0.00000000309397	1.0	7.40647040022618e-6	0.0	0.0004634789378134075	0.0	99.73858791460735	9.957317281893756	[1, 1, 3.285897207250239, 28.103133119221738, 4317832.721307091]	398725973.44979787	2.0	7.074400000206538e-05	0.32574471200000055
tf_rep(SWI4)	553.4066917213565	0.00000000147146	1.0	8.07434826507504e-6	0.0	0.0004634789378134075	0.0	0.001	1.0	[1, 1, 1.1062630284909878, 27.41337490628867, 4317820.669280433]	130943970.32436788	4.0	9.59440000016798e-05	0.29790589
tf_act(WHI5)	553.4066917213565	0.000000000125589	1.0	1.14283736148296e-6	0.0	0.0004634789378134075	0.0	99.73858791460735	1.0	[1, 1, 9.90693324652654, 33.67028621535307, 4318212.0891092485]	1440422888.4995794	3.0	7.583700000068916e-05	0.29957422500000064
null_model	553.4066917213213				1.7339547541786173e-18	0.0004634810009263704								
