# LEMpy target file for EDS1, replicate 1 
# Run configuration file:  ../pipeline/src/yeast_data/simulations202110_Orlando_2/extra_nodes_no_annot/results1/edge_finding_20211012222949/lempy_20211012222949_config.txt 
# Time series data file:   ../pipeline/src/yeast_data/time_series/orlando2008_WildType_r2_trunc.tsv 
# Computed on:  2021-10-12 22:34:03 
 
model	loss	pld	inv_temp	prior	rhs_param_0	rhs_param_1	rhs_param_2	rhs_param_3	rhs_param_4	hess_eigs	hess_det	bnd_params	pld_time	opt_time
tf_rep(HCM1)	88.9174941645061	0.265229	1.0	0.0672655226483771	0.24993842763316787	0.021071630082237718	4.510281880888401	36.05724937997867	9.913127697153067	[1, 1, 3.577903403785681, 12.629299240611143, 5784674.571749228]	261388692.76801813	0.0	8.989899999534146e-05	0.3885600399999998
tf_rep(WHI5)	82.92279347995931	0.258404	1.0	0.0997434374840509	0.3	0.04143817763166041	8.488110028562295	52.6566203450553	3.1114424406424175	[1, 1, 1.9810135059520733, 25.22073765463084, 5785262.917583564]	289046903.881573	1.0	8.431599999880746e-05	0.5493077509999997
tf_rep(NDD1)	76.78873934518505	0.113152	1.0	0.0820622343281829	0.3	0.038462062541682995	21.74551740020546	11.590753709850883	1.7000774864209216	[1, 1, 4.6374564027047835, 75.46756977319683, 5792760.458881429]	2027336197.9496355	1.0	0.00010746399999561618	0.6542743709999996
tf_act(CLN3)	118.35385553241441	0.0759744	1.0	0.0973761851682256	0.0	0.009226200505023903	0.9866105677571472	99.02040220800122	4.281746396392296	[1, 1, 1, 15.892593408409624, 5784767.292039715]	91934954.53465396	1.0	6.372299999668485e-05	0.32831990499999986
tf_rep(EDS1)	120.773448739271	0.0634522	1.0	0.0999523058833698	0.0	0.005840249333255565	0.16879303205486054	88.32438295861445	1.0000000442705952	[1, 1, 1, 19.238511415799426, 5785334.498867167]	111301223.80067424	1.0	0.0001220750000001658	0.3032229960000006
tf_rep(CLN3)	120.79158232835132	0.0358301	1.0	0.0615228279064973	0.12692411588729874	0.006245290539904216	0.0	88.41537795624203	1.0132304277535875	[1, 1, 1.6911506253327633, 13.4949373079467, 5785139.284602138]	132028284.84376715	1.0	7.366799999886098e-05	0.2884374300000001
tf_act(WHI5)	120.79158232882392	0.0195113	1.0	0.0358190340389924	0.12691919094371856	0.006245214994262071	0.0	99.40841158090852	3.110566755161759	[1, 1, 1.7248928822966256, 15.124893847683335, 5784860.964837096]	150920206.52176237	1.0	6.827300000367131e-05	0.2994919300000003
tf_rep(YOX1)	116.50491690715486	0.017331	1.0	0.0307824618477344	0.0	0.015038805923058828	0.8389251968697725	87.7165214183005	1.503802691538482	[1, 1, 1.4830198136995691, 24.404768386019036, 5785626.215458899]	209397752.51499125	1.0	0.00011477000000326143	0.3448276330000004
tf_rep(NRM1)	75.37131864221112	0.0166697	1.0	0.0299276465444595	0.3	0.044584090061921926	7.502955487974169	13.480131752078135	1.0	[1, 1, 3.3418919111427936, 188.90369571493056, 5788110.126921738]	3654009223.492707	2.0	7.557699999694023e-05	0.3630956669999996
tf_rep(RIF1)	108.95606630814727	0.0158712	1.0	0.0623613974434986	0.0	0.01220004842647222	0.9886175244616511	55.62402644983264	10.0	[1, 1, 2.716497884550907, 33.1946494727494, 5785004.616091482]	521652349.7342199	2.0	8.912100000202372e-05	0.2909364889999999
tf_act(NDD1)	120.7915823283439	0.0142463	1.0	0.0273679903329392	0.12692431661111017	0.006245294211889668	0.0	99.25521240938116	4.699765166775138	[1, 1, 2.476588848638132, 11.535718667689263, 5784627.150284367]	165262356.32456252	1.0	0.00013302899999700912	0.4454093720000003
tf_act(YOX1)	120.79158232835654	0.0138775	1.0	0.0202150651672295	0.12692396901040226	0.00624528786949217	0.0	99.5579200434543	2.1937425577575946	[1, 1, 1.3602273405318943, 12.07614042645541, 5784658.014602443]	95020506.9826303	1.0	8.683300000456029e-05	0.394700877
tf_act(EDS1)	120.04297202757265	0.012288	1.0	0.0308587318873373	0.3	0.01006802816451312	1.0524130252214874	99.95775785674778	10.0	[1, 1, 1, 13.067048706754134, 5784601.425129369]	75587668.57132484	2.0	8.446700000064311e-05	0.4632881089999996
tf_act(NRM1)	120.79158232831153	0.0121018	1.0	0.0241178364154255	0.12692863320464712	0.006245372673302456	0.0	99.59201389460532	4.231453910044859	[1, 1, 2.6332511817206847, 11.676120130359532, 5784619.661546994]	177854825.05804822	1.0	7.58659999959832e-05	0.4392624490000001
tf_act(SWI5)	120.79158232836413	0.0119664	1.0	0.0246762136157291	0.12692376631175478	0.006245284184382362	0.0	99.6763814820794	9.451193166932715	[1, 1, 2.845979695560392, 11.566861351641414, 5784611.98619722]	190423945.94419035	1.0	9.507100000405444e-05	0.378363373
tf_act(RIF1)	120.79158232835121	0.0111591	1.0	0.0267511287446651	0.1269241170997554	0.006245290561954381	0.0	99.07168732136466	1.7516193224822698	[1, 1, 3.880230761458272, 11.46506726896923, 5784768.522530854]	257347614.49225116	1.0	0.00010594199999758303	0.28637274400000035
tf_rep(SWI5)	113.40764996779913	0.00997966	1.0	0.06712211087136	0.3	0.04149263029115452	3.0628794307950375	52.52283314802325	1.0	[1, 1, 5.290503787670287, 32.74077489715737, 5785280.846076873]	1002098541.8106024	2.0	8.345799999887049e-05	0.39639542200000033
tf_rep(SWI4)	116.7066196448703	0.00962851	1.0	0.039246476692636	0.0	0.01191005341545154	0.48384315226746993	83.05749076728502	10.0	[1, 1, 1, 46.76598159157128, 5786169.077590145]	270595876.5682997	2.0	0.0001131619999981126	0.44226680399999996
tf_act(SWI4)	120.79158232836002	0.00917609	1.0	0.0210487535646142	0.12692387487394544	0.00624528615751847	0.0	99.28091350325958	1.0132304277535875	[1, 1, 3.551034114026112, 11.470620489996328, 5784778.230330779]	235628853.36290997	1.0	0.00030291899999923544	0.33952763100000016
tf_rep(ASH1)	120.79158232834945	0.00607336	1.0	0.0145012539468735	0.12692416962367312	0.006245291517242479	0.0	38.29961973560142	1.0132304277535875	[1, 1, 3.2869599640624942, 13.425700296281876, 5785138.172343711]	255296639.72667137	1.0	9.545000000343862e-05	0.31100455500000024
tf_act(HCM1)	120.79158233226194	0.0052562	1.0	0.0142281697860752	0.1269534340995639	0.006245823602639335	0.0	99.09096436107652	1.0132304277535875	[1, 1, 4.780335465771062, 11.865809849507528, 5784817.107686826]	328129587.19795275	1.0	8.939399999974285e-05	0.3435553840000001
tf_act(ASH1)	119.90588606969413	0.00282212	1.0	0.0230532156817269	0.0	0.005202129390636974	0.12288247046726969	26.224610875247215	10.0	[1, 1, 1, 139.98729227989224, 5785211.427423504]	809856082.9917067	2.0	9.926500000290162e-05	0.33990088899999993
null_model	120.7915823282881				0.12693041029986932	0.0062454099337242355								
