# LEMpy target file for YOX1, replicate 1 
# Run configuration file:  ../pipeline/src/yeast_data/simulations202110_Orlando_2/extra_nodes_no_annot/results1/edge_finding_20211012222949/lempy_20211012222949_config.txt 
# Time series data file:   ../pipeline/src/yeast_data/time_series/orlando2008_WildType_r2_trunc.tsv 
# Computed on:  2021-10-12 22:33:59 
 
model	loss	pld	inv_temp	prior	rhs_param_0	rhs_param_1	rhs_param_2	rhs_param_3	rhs_param_4	hess_eigs	hess_det	bnd_params	pld_time	opt_time
tf_rep(NDD1)	153.98074278945737	0.342741	1.0	0.0284478375133287	0.0	0.04247550734294543	7.241339767123881	44.98436381223336	10.0	[1, 1.7993748960117897, 15.454779302648625, 34.559372541161316, 4318023.505008189]	4149877869.6166778	2.0	0.00010827299999505158	0.48294148599999964
tf_rep(SWI5)	199.77915717514566	0.301898	1.0	0.136352294147346	0.0	0.10066754691836796	8.995762637202953	42.158318046650024	1.9656706078641288	[1, 2.2852555574073747, 18.342049131630468, 86.12799864467229, 4318371.048984747]	15590029517.593744	1.0	0.00012014400000026626	0.4679780359999999
tf_rep(NRM1)	181.91334276395705	0.256012	1.0	0.043291818861987	0.0	0.04233727617520412	6.9838048347504555	29.81732559449615	4.14786400496648	[1, 2.5570672892582373, 20.19612089821764, 35.73054058644628, 4318025.280359995]	7967735084.606229	1.0	0.00011165400000123782	0.5694570410000006
tf_act(SWI4)	290.2150482661566	0.095357	1.0	0.776220565466144	0.0	0.2181125547753229	22.76987531562499	46.693871446995466	2.4573426341451987	[1, 1, 7.744921777573709, 457.1440790764507, 4318524.6193589885]	15289931325.092672	1.0	0.0004161740000014902	0.43269654599999985
tf_rep(WHI5)	281.08552816308855	0.00256176	1.0	0.00924901397068708	0.0	0.0251125336530045	7.7715646133023935	65.84539189232332	10.0	[1, 1.1172138639617646, 9.179780986209517, 29.144183752479982, 4317900.893275947]	1290604581.9104855	2.0	0.00016467799999730914	0.4326954230000002
tf_act(EDS1)	294.6713111512531	0.00143018	1.0	0.00616845311991768	0.3	0.08839506191446572	24.767065779771627	100.0	2.8660502262106626	[1, 1, 1.1801587804620326, 162.0712129185643, 4323499.13756361]	826954663.9588585	2.0	0.00010386200000311874	0.5062116660000004
tf_act(CLN3)	550.3485011619508	0.000000110806	1.0	5.48940578538735e-5	0.0	0.006336941567477579	0.8815081468449437	99.1324934412075	3.5698297917860438	[1, 1, 1, 34.52483152094241, 4318014.432520066]	149078720.78775305	1.0	0.00015036899999643083	0.4525206320000006
tf_act(YOX1)	522.7594909513756	0.0000000475894	1.0	4.72334869312802e-5	0.3	0.013400796904192519	2.139380327773737	75.36391506721804	10.0	[1, 1, 2.914707932045802, 39.1160558527135, 4317862.639981192]	492287629.6712916	2.0	0.00011128999999954203	0.42707325399999974
tf_rep(HCM1)	553.0033766257473	0.0000000331237	1.0	2.1163404004021e-5	0.0	0.003159886279735054	0.18327298271822368	88.18029889828294	1.6170217467456425	[1, 1, 1, 51.278663050516926, 4318755.585854253]	221460012.48455805	1.0	0.00010471100000586375	0.39961893599999954
tf_act(HCM1)	553.4066917213565	0.0000000309964	1.0	3.23808715660265e-5	0.0	0.0004634789345400265	0.0	99.23291141315862	4.221961233801157	[1, 1, 1.1735737529685777, 28.712627234721655, 4317840.3725767275]	145495614.59159517	2.0	0.00013780200000468312	0.39944442
tf_rep(ASH1)	523.2071804296503	0.0000000244521	1.0	2.99021143271498e-5	0.3	0.034639567080065034	2.238872401240609	44.94193950278166	2.2340058254970905	[1, 1.6466981861324903, 12.185675973988731, 33.827809578075296, 4318491.1011029845]	2931362576.389235	1.0	9.580999999769801e-05	0.4152787379999996
tf_rep(YOX1)	416.3753752638345	0.00000000718996	1.0	6.58534234788367e-6	0.0	0.0044988908832701525	99.99999999980776	6.579292505978884	10.0	[1, 1, 27.412833902244692, 483.9196156848096, 4317944.91574232]	57280164819.93539	2.0	0.00010051000000288468	0.3935161540000003
tf_act(ASH1)	553.4066917213567	0.00000000524271	1.0	8.87967792260143e-6	0.0	0.0004634789347801807	0.0	99.02426677146944	4.070620425245088	[1, 1, 2.742841437373836, 32.29309523972827, 4317851.032842212]	382452963.3613531	2.0	0.00011117899999391057	0.3560370580000001
tf_rep(RIF1)	547.8645886788512	0.00000000504027	1.0	9.4692071322068e-6	0.0	0.006843412917899788	0.4125574234548631	69.22756974504179	10.0	[1, 1, 1.51608403888358, 91.0109473104551, 4318852.934218335]	595916384.1730548	2.0	0.00012635000000216223	0.3940713820000008
tf_act(WHI5)	553.4066917213297	0.00000000451633	1.0	1.00910134438969e-5	0.0	0.0004634803934644341	0.0	99.9892312300558	3.1395933504239735	[1, 1, 5.013914427056056, 30.741511540967004, 4318075.330126482]	665567871.946798	2.0	0.00012258799999642633	0.390489895
tf_act(RIF1)	553.4066917213567	0.00000000417781	1.0	1.64259082697498e-5	0.0	0.0004634789320291192	0.0	98.78916962901296	1.0	[1, 1, 4.095779376803596, 29.131878811750518, 4318092.322278881]	515225053.47070265	3.0	0.00010420000000266327	0.2897274550000004
tf_act(NDD1)	553.4066917213565	0.00000000338277	1.0	4.44199540533319e-6	0.0	0.00046347894017427206	0.0	99.75245834747571	2.80948392426899	[1, 1, 1.9315022590367583, 27.56376629492064, 4317893.753002826]	229882404.57370552	2.0	9.896999999625677e-05	0.42662135099999965
tf_rep(CLN3)	553.4066917213394	0.00000000288749	1.0	5.70213946474738e-6	0.0	0.0004634798127934875	0.0	83.38020706168767	1.0369213272464468	[1, 1, 3.6655067196444535, 32.84583819455227, 4318328.761723524]	519912275.98042464	2.0	0.0001255879999959575	0.33695591599999997
tf_act(SWI5)	553.40669172134	0.00000000246124	1.0	6.17982862006359e-6	0.0	0.00046347977578394824	0.0	99.9892312300558	2.783302845691975	[1, 1, 6.360095946556993, 30.605919516876444, 4317864.059949936]	840500670.9357374	2.0	9.281999999899426e-05	0.3642576970000002
tf_act(NRM1)	553.4066917213032	0.0000000016524	1.0	7.2501802376682e-6	0.0	0.00046348363414961	0.0	100.0	2.9616181090151588	[1, 1, 5.419574306721629, 27.419965821429045, 4317859.838994919]	641653584.9037328	3.0	0.00010874800000237883	0.36712865299999997
tf_rep(EDS1)	553.4066917213398	0.00000000146562	1.0	4.68723629619902e-6	0.0	0.0004634797868608883	0.0	89.16726843571833	1.0369213272464468	[1, 1, 7.392446040891952, 42.71272933662108, 4318564.215756231]	1363593331.426482	2.0	9.913600000288625e-05	0.35710482300000024
tf_rep(SWI4)	553.4066917213069	0.000000000778168	1.0	4.73045676732682e-6	0.0	0.0004634852631216879	0.0	88.66245744001888	1.0	[1, 1, 5.883429235084967, 48.47462802729042, 4318663.805433024]	1231670150.024816	3.0	0.00018877800000183242	0.3163291130000001
null_model	553.4066917213565				0.0	0.0004634789378134075								
