# Run Manifest for ../pipeline/src/yeast_data/simulations202110_Orlando_2/annot/results3/
run_step	run_input	run_output
lempy	/hpc/group/harerlab/bc187/GIT/pipeline/src/yeast_data/simulations202110_Orlando_2	/hpc/group/harerlab/bc187/GIT/pipeline/src/yeast_data/simulations202110_Orlando_2/annot/results3/edge_finding_20211012134845/summaries
netgen	/hpc/group/harerlab/bc187/GIT/pipeline/src/yeast_data/simulations202110_Orlando_2/annot/results3/edge_finding_20211012134845/summaries	/hpc/group/harerlab/bc187/GIT/pipeline/src/yeast_data/simulations202110_Orlando_2/annot/results3/seed_network_20211012134845
netper	/hpc/group/harerlab/bc187/GIT/pipeline/src/yeast_data/simulations202110_Orlando_2/annot/results3/seed_network_20211012134845	/hpc/group/harerlab/bc187/GIT/pipeline/src/yeast_data/simulations202110_Orlando_2/annot/results3/network_finding_20211012134845/dsgrn_net_gen_results20211012134845/networks20211012134845
netquery	/hpc/group/harerlab/bc187/GIT/pipeline/src/yeast_data/simulations202110_Orlando_2/annot/results3/network_finding_20211012134845/dsgrn_net_gen_results20211012134845/networks20211012134845	/hpc/group/harerlab/bc187/GIT/pipeline/src/yeast_data/simulations202110_Orlando_2/annot/results3/network_queries_20211012134845/queries20211012134845
