# LEMpy target file for B, replicate 0 
# Run configuration file:  ../pipeline/src/syn_net/syn_net_6D_simulations_202110_with_G/p1945/results5/edge_finding_20211014223536/lempy_20211014223536_config.txt 
# Time series data file:   ../pipeline/src/syn_net/time_series_with_G/syn_net_6D_20191104_a_data_p1945_transposed_with_G.tsv 
# Computed on:  2021-10-14 22:37:36 
 
model	loss	pld	inv_temp	prior	rhs_param_0	rhs_param_1	rhs_param_2	rhs_param_3	rhs_param_4	hess_eigs	hess_det	bnd_params	pld_time	opt_time
tf_act(C)	1.1750923634952324	0.967651	1.0	0.07142857142857142	0.3	0.150971165315035	17.59582474888515	46.04449960469476	4.493869377297638	[1, 1, 11.553497178930254, 17.641989993511817, 6762496.309340026]	1378377182.2053773	1.0	4.926699999963091e-05	0.686785392
tf_act(A)	15.745646876397757	0.0278682	1.0	0.07142857142857142	0.0	0.12122949006197128	13.392556448535341	16.84498271370604	10.0	[1, 1.2891281393046599, 9.888338812443243, 15.063683322376926, 6762569.214227872]	1298560915.3927102	2.0	0.0002154840000003766	0.6910802299999999
tf_rep(D)	25.27289566844585	0.00448034	1.0	0.07142857142857142	0.3	0.3475798814429773	42.86871379718724	36.979098968588595	2.0567908469445166	[1, 1, 4.063062518880132, 879.4034392230773, 6762747.08686805]	24163776530.322086	1.0	4.461900000007901e-05	0.6695045570000002
tf_act(E)	218.95555533938668	0.000000262529	1.0	0.07142857142857142	0.0	0.09150511557437517	9.207294936391275	19.08298248735347	10.0	[1, 5.077533735138977, 7.570163590649385, 22.102554096441725, 6762650.575178627]	5745363254.986074	2.0	4.637000000018432e-05	0.36463858300000007
tf_act(F)	470.32172495543347	0.000000000509818	1.0	0.07142857142857142	0.0	0.04479682707484156	6.2110344417968335	34.614971416441755	10.0	[1, 1.9204269830747334, 4.14603621253116, 29.33260593578967, 6762299.631855976]	1579341139.8083408	2.0	4.904700000007978e-05	0.6272678070000004
tf_rep(B)	818.629483785024	0.00000000000300865	1.0	0.07142857142857142	0.0	0.011341905907602192	14.641421547721786	15.726943432368342	7.156330915335379	[1, 1, 1.1591258592838527, 22.367038441599078, 6762057.723323126]	175314546.50845057	1.0	5.0566999999723805e-05	0.6095332189999998
tf_act(G)	779.9176725888138	0.00000000000191878	1.0	0.07142857142857142	0.0	0.024362960837978974	4.696193611481432	79.70158399720069	10.0	[1, 1, 3.914351735059563, 16.011388842846262, 6762125.747445893]	423810873.57344687	2.0	4.462100000024449e-05	0.506981707
tf_act(B)	825.8388556467829	0.00000000000166586	1.0	0.07142857142857142	0.3	0.0369968438591709	3.8404143265975597	67.1363756002599	10.0	[1, 1, 1, 16.44125763355517, 6762369.151969407]	111181853.44073501	2.0	5.3578000000165105e-05	0.6010294730000001
tf_rep(C)	844.6247641515405	0.000000000000954624	1.0	0.07142857142857142	0.09553242197619473	0.004925349028657114	0.0	1.2898283921890574	1.1617644208855744	[1, 1, 7.45983280132224, 14.015150021623539, 6761988.693302331]	706970487.952904	1.0	7.622499999992982e-05	0.5977162669999996
tf_rep(F)	844.6247641508069	0.000000000000766805	1.0	0.07142857142857142	0.09552339146216993	0.004925209595215196	0.0	1.5611482566187918	1.2971607499543716	[1, 1, 11.597301943173346, 13.97218088215102, 6761989.212935786]	1095710030.615205	1.0	4.6209000000185796e-05	0.4714202799999998
tf_act(D)	844.6247641526039	0.000000000000432217	1.0	0.07142857142857142	0.09551236822096659	0.004925030378169165	0.0	100.0	1.3757725826797544	[1, 1, 6.853384548095855, 18.604393624984844, 6762093.579545645]	862187649.0684406	2.0	5.0993999999970896e-05	0.5533982089999996
tf_rep(E)	844.6247641539676	0.000000000000205928	1.0	0.07142857142857142	0.09550459802722182	0.0049249150905441245	0.0	0.001	1.0	[1, 1, 10.056164832225479, 13.963905152171922, 6761987.749921092]	949540850.1907184	3.0	4.481999999983444e-05	0.5296053130000002
tf_rep(A)	844.6247641497907	0.000000000000182427	1.0	0.07142857142857142	0.09552950296394645	0.004925327745115036	0.0	0.001	1.0	[1, 1, 12.814107262481011, 13.963906230665817, 6761987.749924522]	1209956225.5798612	3.0	6.22039999997881e-05	0.4857363669999999
tf_rep(G)	829.463143549979	0.000000000000135925	1.0	0.07142857142857142	0.3	0.01058638833882238	4.99971013220922	0.2482208997973066	9.999999977770369	[1, 1, 12.962304192936775, 671.8143451496552, 6762803.958773998]	58892268071.70633	1.0	4.448000000012442e-05	0.3402495179999998
null_model	844.6247641575361				0.09549561989036642	0.0049247704554580525								
