# LEMpy all scores file for replicate 1 
# Run configuration file:  ../pipeline/src/yeast_data/simulations202110_Orlando_2/extra_nodes_annot/results2/edge_finding_20211011155829/lempy_20211011155829_config.txt 
# Time series data file:   ../pipeline/src/yeast_data/time_series/orlando2008_WildType_r2_trunc.tsv 
# Ground truth edge list:   
# Computed on:  2021-10-11 16:01:12 
 
model	pld	loss	norm_loss
NDD1=tf_act(YOX1)	1.0	22.411184270026446	0.06254177552639639
ASH1=tf_act(SWI5)	0.999962	55.65457340772362	0.08584979663148712
NRM1=tf_act(YOX1)	0.999956	28.930722512644557	0.05008055354848531
HCM1=tf_rep(NRM1)	0.99917	131.13581632530355	0.4037880814723278
SWI4=tf_rep(NRM1)	0.996892	85.10445936722135	0.21940181034315256
YOX1=tf_rep(NRM1)	0.994923	553.4066846714364	0.9999999872608695
WHI5=tf_act(SWI4)	0.992083	122.7043011812191	0.7293389538494461
CLN3=tf_rep(YOX1)	0.855883	69.24549742404038	0.45022244795073413
RIF1=tf_rep(NRM1)	0.854806	143.61744833761898	0.5481048978857901
SWI5=tf_rep(ASH1)	0.513788	275.13514187796403	0.44388324492015213
SWI5=tf_act(YOX1)	0.482308	348.40442711251126	0.5620906387881319
CLN3=tf_rep(SWI4)	0.141831	64.68226154353647	0.4205530643066817
EDS1=tf_act(SWI4)	0.14079	120.79159240079025	1.0000000833875784
EDS1=tf_rep(RIF1)	0.109275	120.79156439926378	0.9999998515707089
EDS1=tf_rep(WHI5)	0.109275	120.79157776407848	0.9999999622143022
EDS1=tf_rep(CLN3)	0.109275	120.7915830828101	1.0000000062466057
EDS1=tf_rep(EDS1)	0.109275	120.79158032349702	0.9999999834030182
RIF1=tf_act(YOX1)	0.0827255	160.36739294463172	0.6120297676330725
EDS1=tf_act(RIF1)	0.0703949	120.79158234616206	1.0000000001481009
EDS1=tf_act(EDS1)	0.0703949	120.79158234152928	1.0000000001097475
EDS1=tf_act(HCM1)	0.0703948	120.79158269340128	1.0000000030227982
EDS1=tf_act(NDD1)	0.0703948	120.79158315130935	1.000000006813692
EDS1=tf_rep(ASH1)	0.0546373	120.7915850573119	1.0000000225929584
EDS1=tf_rep(NRM1)	0.037032	75.37131864844277	0.6239782375199601
EDS1=tf_rep(SWI4)	0.015868	116.37780677065292	0.9634595766315524
EDS1=tf_act(ASH1)	0.0127966	120.32690531202536	0.9961530678935515
RIF1=tf_rep(ASH1)	0.0126278	193.38482279709157	0.7380382382416778
EDS1=tf_rep(YOX1)	0.0103014	120.79158179327767	0.9999999955709244
RIF1=tf_rep(WHI5)	0.00926369	262.02546693438336	0.999999954461854
RIF1=tf_rep(CLN3)	0.00926368	262.02547932656506	1.0000000017556583
RIF1=tf_rep(RIF1)	0.00926368	262.0254741327337	0.999999981933802
RIF1=tf_rep(EDS1)	0.00926367	262.0254831547211	1.00000001636552
EDS1=tf_act(SWI5)	0.00873178	120.79158232977333	1.0000000000124232
WHI5=tf_rep(ASH1)	0.00762086	56.28711986344638	0.33456357047969376
RIF1=tf_rep(YOX1)	0.00633549	262.02547883944607	0.9999999998966063
SWI4=tf_rep(YOX1)	0.00143402	264.10266649687475	0.6808644761591189
EDS1=tf_act(YOX1)	0.00116522	120.79158233673331	1.000000000070043
RIF1=tf_act(RIF1)	0.00115796	262.0254788665385	1.0000000000000024
RIF1=tf_act(HCM1)	0.00115796	262.02547886653855	1.0000000000000027
RIF1=tf_act(NDD1)	0.00115796	262.02547886653855	1.0000000000000027
RIF1=tf_act(SWI4)	0.00115795	262.02547886653844	1.0000000000000022
SWI5=tf_act(HCM1)	0.00110617	543.8216959869167	0.8773628022396458
SWI5=tf_act(SWI4)	0.00110615	543.8218779692119	0.8773630958367892
YOX1=tf_rep(YOX1)	0.00108791	416.37753085267866	0.7523897652150675
CLN3=tf_act(SWI5)	0.000996675	123.45474028578181	0.802681725892116
RIF1=tf_rep(SWI4)	0.000899216	252.76404090862366	0.9646544374311343
YOX1=tf_rep(RIF1)	0.000759319	553.4066653937718	0.9999999524263348
YOX1=tf_rep(WHI5)	0.000759319	553.4066773558868	0.9999999740417491
YOX1=tf_rep(EDS1)	0.000759318	553.4066943740133	1.0000000047933226
YOX1=tf_rep(CLN3)	0.000759318	553.4066939062574	1.0000000039480925
RIF1=tf_act(EDS1)	0.00057898	262.0254788665385	1.0000000000000024
SWI5=tf_act(NDD1)	0.00055308	543.8216916158971	0.8773627951877572
SWI5=tf_act(EDS1)	0.000553079	543.8217154077191	0.8773628335717714
SWI5=tf_act(RIF1)	0.000553079	543.8217153050798	0.8773628334061804
HCM1=tf_act(YOX1)	0.000451922	238.89307402158096	0.7355898543911983
SWI4=tf_rep(RIF1)	0.000304532	387.89312290321385	0.9999999297028933
SWI4=tf_rep(WHI5)	0.000304532	387.8931350850038	0.9999999611079077
SWI4=tf_rep(EDS1)	0.000304531	387.89315367803925	1.0000000090413024
SWI4=tf_rep(CLN3)	0.000304531	387.8931522196572	1.0000000052815505
YOX1=tf_act(YOX1)	0.000225028	522.7594909514229	0.9446208344994775
YOX1=tf_rep(ASH1)	0.000189829	553.4066928154881	1.000000001977084
RIF1=tf_act(SWI5)	0.000178948	262.02547886653855	1.0000000000000027
RIF1=tf_act(ASH1)	0.00016183	262.02547886653855	1.0000000000000027
CLN3=tf_act(HCM1)	0.000160644	153.6625275304576	0.9990876212413667
CLN3=tf_rep(RIF1)	0.000159737	153.8028430502816	0.9999999288883722
CLN3=tf_rep(WHI5)	0.000159737	153.80285002788267	0.9999999742555477
CLN3=tf_rep(CLN3)	0.000159737	153.8028537544469	0.9999999984850344
SWI4=tf_rep(ASH1)	0.000152266	387.89315017092815	0.9999999999998663
WHI5=tf_act(HCM1)	0.000116853	122.70719892222463	0.7293561776580101
CLN3=tf_rep(ASH1)	0.000104284	153.01092907952827	0.9948510389281251
SWI4=tf_act(YOX1)	0.000100802	387.07219235315637	0.997883546493508
YOX1=tf_act(SWI4)	0.0000949153	553.4066917213565	1.0
YOX1=tf_act(HCM1)	0.0000949148	553.4066917213565	1.0
YOX1=tf_act(EDS1)	0.0000949147	553.4066917213565	1.0
YOX1=tf_act(RIF1)	0.0000949147	553.4066917213565	1.0
YOX1=tf_act(NDD1)	0.0000949147	553.4066917213565	1.0
CLN3=tf_act(RIF1)	0.0000803223	153.66252531257288	0.9990876068210576
CLN3=tf_act(EDS1)	0.0000803223	153.66252527898902	0.999087606602701
CLN3=tf_act(NDD1)	0.0000803223	153.66252978261542	0.9990876358845139
CLN3=tf_act(SWI4)	0.0000803222	153.66276892746345	0.9990891907636453
CLN3=tf_act(YOX1)	0.0000803217	153.66252539694545	0.9990876073696336
CLN3=tf_rep(EDS1)	0.0000798685	153.80285361088204	0.9999999975516002
SWI4=tf_act(SWI4)	0.0000761329	387.8931501709281	0.9999999999998662
HCM1=tf_rep(WHI5)	0.0000633885	324.76394691940123	0.9999999598329596
HCM1=tf_rep(EDS1)	0.0000633884	324.76396392264627	1.0000000121886614
HCM1=tf_rep(RIF1)	0.0000633884	324.76394674198593	0.9999999592866696
HCM1=tf_rep(ASH1)	0.0000633884	324.76395996419575	0.9999999999999614
HCM1=tf_rep(CLN3)	0.0000633884	324.76396144845756	1.00000000457024
CLN3=tf_act(ASH1)	0.0000602782	153.66252563040717	0.999087608887562
WHI5=tf_act(EDS1)	0.0000584257	122.70718218994594	0.7293560782034472
WHI5=tf_act(NDD1)	0.0000584255	122.70723274070187	0.729356378670791
NRM1=tf_act(SWI4)	0.0000434916	124.05227017070752	0.21474079523523765
ASH1=tf_rep(SWI4)	0.0000383539	132.0169885004406	0.20364241284600956
SWI4=tf_act(NDD1)	0.0000380664	387.8931501709276	0.9999999999998649
WHI5=tf_act(RIF1)	0.0000292128	122.70718280342922	0.7293560818499147
YOX1=tf_rep(SWI4)	0.0000272884	536.6227541269981	0.9696716034601018
HCM1=tf_rep(YOX1)	0.0000201567	243.09987974963522	0.7485432797913502
YOX1=tf_act(SWI5)	0.0000191431	553.4066917213565	1.0
SWI4=tf_act(HCM1)	0.0000190332	387.89315017092764	0.999999999999865
SWI4=tf_act(EDS1)	0.0000190332	387.8931501709282	0.9999999999998666
SWI4=tf_act(RIF1)	0.0000190332	387.89315017092764	0.999999999999865
YOX1=tf_act(ASH1)	0.0000156674	553.4066917213565	1.0
SWI4=tf_rep(SWI4)	0.0000142229	356.91789463865064	0.9201448761890337
SWI4=tf_act(SWI5)	0.0000104283	387.8931501709281	0.9999999999998662
HCM1=tf_act(SWI4)	0.00000792357	324.7639599641586	0.9999999999998469
HCM1=tf_act(HCM1)	0.00000792356	324.7639599641506	0.9999999999998224
HCM1=tf_act(NDD1)	0.00000792355	324.7639599641506	0.9999999999998224
SWI4=tf_act(ASH1)	0.00000715164	387.89315017092747	0.9999999999998646
WHI5=tf_rep(WHI5)	0.00000641197	168.24042199584594	0.999999936370776
WHI5=tf_rep(RIF1)	0.00000641197	168.24042719505968	0.9999999672742494
WHI5=tf_rep(EDS1)	0.00000641196	168.2404350476872	1.000000013949281
HCM1=tf_rep(SWI4)	0.00000589063	317.28751958725655	0.9769788483371871
WHI5=tf_rep(NRM1)	0.00000571728	168.24041952834116	0.9999999217042376
SWI5=tf_rep(EDS1)	0.0000053522	619.8367295411974	0.9999999889199083
SWI5=tf_rep(RIF1)	0.0000053522	619.8367210213707	0.9999999751746328
SWI5=tf_rep(WHI5)	0.0000053522	619.8367278237273	0.9999999861490655
SWI5=tf_rep(CLN3)	0.0000053522	619.8367076063798	0.9999999535318516
SWI5=tf_rep(SWI4)	0.00000451702	538.0956067109727	0.8681247417317813
HCM1=tf_act(EDS1)	0.00000396177	324.76395996414976	0.9999999999998197
HCM1=tf_act(RIF1)	0.00000396177	324.7639599641497	0.9999999999998196
CLN3=tf_rep(NRM1)	0.00000394917	144.279288502918	0.9380793968536382
WHI5=tf_rep(CLN3)	0.00000320598	168.24043235166295	0.9999999979244516
SWI5=tf_rep(NRM1)	0.00000281088	582.0094565964494	0.9389721880123723
SWI5=tf_act(SWI5)	0.00000260347	612.6536060266559	0.988411254189282
WHI5=tf_act(ASH1)	0.00000214886	122.70718456716791	0.729356092333356
HCM1=tf_act(SWI5)	0.00000184841	324.7639599641498	0.9999999999998199
HCM1=tf_act(ASH1)	0.00000125224	324.7639599641549	0.9999999999998355
WHI5=tf_act(YOX1)	0.000000966259	150.40181658303663	0.8939695064293132
WHI5=tf_rep(YOX1)	0.000000757436	155.73143112097958	0.9256480658123567
WHI5=tf_rep(SWI4)	0.000000734473	161.07127062669196	0.9573874011195065
SWI5=tf_act(ASH1)	0.000000602434	543.8217163455989	0.8773628350848791
SWI5=tf_rep(YOX1)	0.000000360343	593.3191578364934	0.9572184463828677
NRM1=tf_act(HCM1)	0.000000140855	561.0127120515695	0.9711415660289833
NDD1=tf_rep(ASH1)	0.0000000554351	138.16859246905867	0.3855802081175701
WHI5=tf_act(SWI5)	0.0000000163679	168.24043270085414	1.0000000000000002
ASH1=tf_act(RIF1)	0.0000000000160853	524.5438244166675	0.8091335157772308
ASH1=tf_act(NDD1)	0.0000000000160853	524.5437715459135	0.8091334342216066
ASH1=tf_act(SWI4)	0.0000000000160852	524.5441036639558	0.8091339465293046
ASH1=tf_act(HCM1)	0.0000000000160852	524.5437996988466	0.8091334776488297
ASH1=tf_rep(YOX1)	0.00000000000852717	311.8232024574434	0.4810019532417344
ASH1=tf_act(EDS1)	0.00000000000402133	524.5438241986449	0.8091335154409207
NDD1=tf_act(SWI4)	0.00000000000289276	351.11641229983087	0.979843080896847
NDD1=tf_act(HCM1)	0.0000000000028927	351.11632454081234	0.9798428359921257
NDD1=tf_act(RIF1)	0.00000000000289266	351.1163115289286	0.9798427996805099
NDD1=tf_act(EDS1)	0.00000000000289266	351.11631114760564	0.9798427986163709
NDD1=tf_rep(WHI5)	0.00000000000212316	358.3394204261156	0.9999999698598105
NDD1=tf_rep(RIF1)	0.00000000000212316	358.33943205053237	1.0000000022994913
NDD1=tf_rep(CLN3)	0.00000000000212316	358.3394239496969	0.9999999796928932
NDD1=tf_rep(EDS1)	0.00000000000212316	358.33943549748426	1.0000000119187282
NRM1=tf_rep(ASH1)	0.00000000000202622	577.683759343659	0.999999997623836
NDD1=tf_rep(NRM1)	0.0000000000017854	268.01609027743166	0.7479391518819429
NDD1=tf_act(NDD1)	0.00000000000144633	351.1163453443135	0.9798428940474201
NDD1=tf_rep(YOX1)	0.000000000000407686	305.05254964887706	0.8512949540739485
ASH1=tf_act(YOX1)	0.000000000000320903	550.1779263591974	0.8486753234643525
ASH1=tf_rep(ASH1)	0.0000000000002555	467.5697875666884	0.7212483847384442
NDD1=tf_rep(SWI4)	0.000000000000224131	355.0067345040222	0.9906996092751932
ASH1=tf_act(ASH1)	0.000000000000170402	524.5438377682291	0.8091335363726424
ASH1=tf_rep(EDS1)	0.0000000000000412971	648.2783874383366	0.9999998978421061
ASH1=tf_rep(WHI5)	0.000000000000041297	648.2784445957524	0.9999999860101076
ASH1=tf_rep(RIF1)	0.0000000000000314799	648.2783667812647	0.9999998659776013
NRM1=tf_act(EDS1)	0.0000000000000217962	561.0126982620144	0.9711415421585614
ASH1=tf_rep(CLN3)	0.0000000000000206485	648.2784208019236	0.999999949307008
NRM1=tf_rep(NRM1)	0.00000000000001306	408.1061016542441	0.706452438871037
NRM1=tf_act(RIF1)	0.0000000000000108981	561.0126985871096	0.9711415427213178
ASH1=tf_rep(NRM1)	0.0000000000000064739	545.2126283653694	0.8410161178162914
NRM1=tf_rep(CLN3)	0.00000000000000601057	577.6837512577526	0.9999999836267205
NRM1=tf_rep(WHI5)	0.00000000000000601057	577.683747586909	0.9999999772723033
NRM1=tf_rep(EDS1)	0.00000000000000601056	577.683765768875	1.000000008746212
NRM1=tf_act(NDD1)	0.00000000000000544904	561.0127359854947	0.9711416074598264
NRM1=tf_rep(RIF1)	0.00000000000000300528	577.6837620404606	1.000000002292137
NDD1=tf_act(SWI5)	0.00000000000000187333	358.33943122661043	1.0000000000002134
NDD1=tf_act(ASH1)	0.00000000000000143011	358.33943122661606	1.0000000000002292
NRM1=tf_rep(SWI4)	0.00000000000000116947	574.191199233749	0.9939541982654133
NRM1=tf_rep(YOX1)	0.000000000000000369945	502.7062552673838	0.8702101209215678
NRM1=tf_act(SWI5)	0.00000000000000011053	577.683760716344	1.0000000000000235
NRM1=tf_act(ASH1)	0.0000000000000000530975	577.6837607163408	1.0000000000000182
