# LEMpy local minima file for target SWI4, replicate 0
# Right-hand side of tf_act():  p0 - p1(tar) + p2(reg^p4) / (p3^p4 + reg^p4)
# Right-hand side of tf_rep():  p0 - p1(tar) + p2(p3^p4) / (p3^p4 + reg^p4)
# Run configuration file:  ../pipeline/src/yeast_data/simulations202110_Orlando_2/annot/results3/edge_finding_20211012134845/lempy_20211012134845_config.txt
# Time series data file:   ../pipeline/src/yeast_data/time_series/orlando2008_WildType_r1_trunc.tsv
# Computed on:  2021-10-12 13:51:38 
 
model	loss	p0	p1	p2	p3	p4
SWI4=tf_act(SWI4)	507.60362230736274	0.3	0.011855185848483735	2.007602030720945	100.0	10.0
SWI4=tf_act(SWI4)	507.60802512396447	0.3	0.011865548351880615	2.0139709111552984	100.0	9.982088045153287
SWI4=tf_act(SWI4)	507.603622307444	0.3	0.011855181047212195	2.0075985553242655	100.0	10.0
SWI4=tf_act(SWI4)	507.6215838241322	0.3	0.01185059260797699	1.988281911140046	99.84577733549149	10.0
SWI4=tf_act(SWI4)	507.6200685842212	0.3	0.011850950205772702	1.9898940306664827	99.85877886239976	10.0
SWI4=tf_act(SWI4)	507.6913328306919	0.3	0.011835375162210712	1.9221216776091596	99.29939100823692	9.97326944720006
SWI4=tf_act(SWI4)	507.60362230740606	0.3	0.011855182899077134	2.0075998680504585	100.0	10.0
SWI4=tf_act(SWI4)	507.60362230751736	0.3	0.011855178053478322	2.007596922417601	100.0	10.0
SWI4=tf_act(SWI4)	507.60547546098195	0.3	0.011854270001260152	2.006824453606947	100.0	9.99227742867225
SWI4=tf_act(SWI4)	507.6079010060106	0.3	0.011850256927581381	2.0018675636872802	99.97800853907349	9.99289937621405
SWI4=tf_rep(SWI4)	512.9510305064239	0.0	0.0029488408772936365	0.01953826360946504	47.995195082253055	9.117471358012194
SWI4=tf_rep(SWI4)	509.2963346830191	0.0	0.007703816320100154	0.6323498666517521	38.99213130133968	10.0
SWI4=tf_rep(SWI4)	509.3122678784898	0.0	0.0076841204771751406	0.6319174461514236	38.93652634895137	9.985562705750569
SWI4=tf_rep(SWI4)	509.2963346843399	0.0	0.0077037856894042476	0.6323445542131791	38.99216341650612	10.0
SWI4=tf_rep(SWI4)	509.29662394302443	0.0	0.007710819939209741	0.6316459161051038	39.03118736360038	10.0
SWI4=tf_rep(SWI4)	509.2963349354181	0.0	0.007703889757131978	0.6322995700957916	38.99309759507449	10.0
SWI4=tf_rep(SWI4)	509.31888152200025	0.0	0.007739438233557325	0.6228119023655111	39.33892911999629	10.0
SWI4=tf_rep(SWI4)	509.29636624191807	0.0	0.007705406697485996	0.6320259671919688	39.00499405164475	10.0
SWI4=tf_rep(SWI4)	509.31761507909624	0.0	0.0077309675789092635	0.6221620905241241	39.32872000809931	10.0
SWI4=tf_rep(SWI4)	509.32377646196284	0.0	0.007748788870088538	0.6225222123713673	39.375157711705455	10.0
SWI4=tf_act(HCM1)	512.9598228373461	0.0	0.0027064287066186164	0.0	100.0	4.734660066372839
SWI4=tf_act(HCM1)	512.9598228373463	0.0	0.002706428706315699	0.0	100.0	4.705147712312128
SWI4=tf_act(HCM1)	512.9598228373463	0.0	0.0027064287017660445	0.0	99.94411135782764	4.690682958260274
SWI4=tf_act(HCM1)	512.9598228373462	0.0	0.0027064287043815955	0.0	99.80130882488137	4.723888484048211
SWI4=tf_act(HCM1)	512.9598228373459	0.0	0.0027064287225369143	0.0	99.83439994943316	4.73273023953032
SWI4=tf_act(HCM1)	512.959822837345	0.0	0.0027064287561318645	0.0	99.37118923973429	4.699906215861133
SWI4=tf_act(HCM1)	512.9598228373444	0.0	0.0027064287855150535	0.0	99.67017708395825	4.711011665985635
SWI4=tf_act(HCM1)	512.9598228373462	0.0	0.002706428709124358	0.0	99.38600384559766	4.765312219804335
SWI4=tf_act(HCM1)	512.9598228373462	0.0	0.0027064287079948414	0.0	99.96145593156075	6.416941173093596
SWI4=tf_act(HCM1)	512.9598228373463	0.0	0.002706428708099458	0.0	99.99517286225182	6.420758882718553
SWI4=tf_act(NDD1)	512.9598228373462	0.0	0.002706428706473004	0.0	99.39030109197545	8.405020841389693
SWI4=tf_act(NDD1)	512.9598228373462	0.0	0.0027064287038344598	0.0	99.46636537491591	8.37550848732898
SWI4=tf_act(NDD1)	512.9598228373463	0.0	0.002706428707100011	0.0	99.41047673274355	8.361043733277127
SWI4=tf_act(NDD1)	512.9598228373462	0.0	0.0027064287039151873	0.0	99.26767419979728	8.394249259065065
SWI4=tf_act(NDD1)	512.959822837346	0.0	0.0027064287171362205	0.0	99.30076532434907	8.403091014547174
SWI4=tf_act(NDD1)	512.9598228373451	0.0	0.002706428755833391	0.0	98.8375546146502	8.370266990877987
SWI4=tf_act(NDD1)	512.9598228373444	0.0	0.0027064287855150535	0.0	99.13654245887416	8.381372441002489
SWI4=tf_act(NDD1)	518.0543654528907	0.11822984064622802	0.005600024420433709	0.07580176836104478	98.96566421948411	8.417025783825599
SWI4=tf_act(NDD1)	519.1915132321127	0.22993111152981294	0.0076576181858448705	0.07493799170937973	99.8274292984318	8.11862723729267
SWI4=tf_act(NDD1)	512.9598228373463	0.0	0.0027064287069038504	0.0	99.17025931473745	8.38519053171705
SWI4=tf_act(SWI5)	512.9598228373463	0.0	0.002706428707041033	0.0	99.65419232079257	9.971330044133866
SWI4=tf_act(SWI5)	512.9598228373462	0.0	0.0027064287063231756	0.0	99.73025660373304	9.941817690073155
SWI4=tf_act(SWI5)	512.959822837346	0.0	0.002706428711655865	0.0	99.67436796156068	9.9273529360213
SWI4=tf_act(SWI5)	512.9598228373463	0.0	0.0027064287034074875	0.0	99.53156542861441	9.960558461809239
SWI4=tf_act(SWI5)	512.9598228373459	0.0	0.00270642872154842	0.0	99.5646565531662	9.969400217291348
SWI4=tf_act(SWI5)	512.959822837345	0.0	0.002706428757741029	0.0	99.10144584346733	9.93657619362216
SWI4=tf_act(SWI5)	512.9598228373444	0.0	0.0027064287855150535	0.0	99.40043368769129	9.947681643746662
SWI4=tf_act(SWI5)	512.9598228373461	0.0	0.0027064287101797478	0.0	99.12890435556082	9.985563530552009
SWI4=tf_act(SWI5)	512.9598228373463	0.0	0.0027064287058235657	0.0	99.57283579332847	9.955186554561575
SWI4=tf_act(SWI5)	513.6447753096344	0.0011394532416276117	0.0027396007458074245	0.03318302841856098	99.60655201145705	9.959004936536399
SWI4=tf_rep(NRM1)	173.17753736785875	0.0	0.05616051768241659	7.794293765496658	32.113480819044135	3.749496883199822
SWI4=tf_rep(NRM1)	173.17956774656096	0.0	0.05612544368287755	7.776177141389172	32.185113664059564	3.771687338467506
SWI4=tf_rep(NRM1)	173.17767692967246	0.0	0.05616422537108398	7.790735976319305	32.13381033702162	3.754902739143419
SWI4=tf_rep(NRM1)	173.17805298964453	0.0	0.05615495288060314	7.801349665937432	32.07450622750098	3.7391805340373017
SWI4=tf_rep(NRM1)	173.18013613301903	0.0	0.056172599745037605	7.778493676864652	32.200759875134544	3.772838769906779
SWI4=tf_rep(NRM1)	173.19322259632128	0.0	0.05613211555370147	7.833561120612662	31.897421667046377	3.6922490879528604
SWI4=tf_rep(NRM1)	173.18823698712896	0.0	0.0561246407896843	7.756500671556484	32.284721116577295	3.799551178724923
SWI4=tf_rep(NRM1)	173.1810854002945	0.0	0.05614895457857164	7.813213204017219	32.011129422676376	3.722347774219466
SWI4=tf_rep(NRM1)	173.17753736842965	0.0	0.05616060575552669	7.794312036994342	32.11344144591325	3.749483063444057
SWI4=tf_rep(NRM1)	173.18481421926654	0.0	0.05616088761544615	7.765674204816941	32.2580813198898	3.7891562487680375
SWI4=tf_rep(CLN3)	512.9598228373462	0.0	0.002706428709255869	0.0	47.829432071318266	9.975588037505862
SWI4=tf_rep(CLN3)	512.9598228373463	0.0	0.0027064287038585585	0.0	47.90549635425874	9.94607568344515
SWI4=tf_rep(CLN3)	512.9598228373462	0.0	0.0027064287060621015	0.0	47.84960771208638	9.931610929393296
SWI4=tf_rep(CLN3)	512.9598228373465	0.0	0.002706428702821491	0.0	47.70680517914011	9.964816455181234
SWI4=tf_rep(CLN3)	512.9598228373459	0.0	0.0027064287234424417	0.0	47.7398963036919	9.973658210663343
SWI4=tf_rep(CLN3)	512.9598228373451	0.0	0.0027064287529044574	0.0	47.27668559399303	9.940834186994156
SWI4=tf_rep(CLN3)	512.9598228373444	0.0	0.0027064287855150535	0.0	47.57567343821698	9.951939637118658
SWI4=tf_rep(CLN3)	512.9598228373462	0.0	0.002706428706766369	0.0	47.263233693115986	9.994598489570265
SWI4=tf_rep(CLN3)	512.9598228373462	0.0	0.00270642870238026	0.0	47.607858903430355	9.972120032014812
SWI4=tf_rep(CLN3)	512.9598228373463	0.0	0.0027064287077351785	0.0	47.64157430031336	9.975939565988083
SWI4=tf_rep(WHI5)	250.63572150694614	0.0	0.04055863173044162	9.698560285154624	52.709164544533685	7.011553724144528
SWI4=tf_rep(WHI5)	250.62089131403397	0.0	0.04048426388256496	9.563911953065402	52.97444315404752	7.107615854752628
SWI4=tf_rep(WHI5)	250.62251542412972	0.0	0.04046976055183275	9.572102728857258	52.92943871540568	7.081586723582778
SWI4=tf_rep(WHI5)	250.62152551080314	0.0	0.04048318771095328	9.589850451620993	52.917616398474905	7.088720093271829
SWI4=tf_rep(WHI5)	250.62374477709508	0.0	0.04048523886402381	9.509484715639505	53.09386165919456	7.147926704294646
SWI4=tf_rep(WHI5)	250.62128922476404	0.0	0.04048415844058128	9.584555677419294	52.92952575257643	7.0926176781343555
SWI4=tf_rep(WHI5)	250.64031238653607	0.0	0.04039439883937869	9.415333922313886	53.26797464144805	7.217868098241052
SWI4=tf_rep(WHI5)	250.62147401719167	0.0	0.040485626555289325	9.539407158017454	53.028674038025606	7.12577806790771
SWI4=tf_rep(WHI5)	250.63352453400884	0.0	0.04049056828823287	9.450540262589987	53.22456050228989	7.191594002666788
SWI4=tf_rep(WHI5)	250.64677971325202	0.0	0.04047908559055078	9.403520119794655	53.329043837086694	7.231983392136907
SWI4=tf_act(YOX1)	512.9598228373462	0.0	0.002706428707222006	0.0	99.64340288798223	1.0
SWI4=tf_act(YOX1)	512.9598228373462	0.0	0.002706428708691716	0.0	99.7194671709227	1.0
SWI4=tf_act(YOX1)	512.9598228373462	0.0	0.00270642870584251	0.0	99.66357852875034	1.0
SWI4=tf_act(YOX1)	512.9598228373462	0.0	0.0027064287048007714	0.0	99.52077599580407	1.0332055257879373
SWI4=tf_act(YOX1)	512.959822837346	0.0	0.002706428718013813	0.0	99.55386712035586	1.042047281270046
SWI4=tf_act(YOX1)	512.959822837345	0.0	0.002706428758083392	0.0	99.09065641065699	1.009223257600859
SWI4=tf_act(YOX1)	512.9598228373444	0.0	0.0027064287855150535	0.0	99.38964425488095	1.0203287077253607
SWI4=tf_act(YOX1)	512.9598228373462	0.0	0.002706428709520449	0.0	99.09966700410206	1.0602402945187526
SWI4=tf_act(YOX1)	512.9598228373462	0.0	0.0027064287055443923	0.0	99.53205552681436	1.0108956442223922
SWI4=tf_act(YOX1)	512.959822837346	0.0	0.0027064287140490372	0.0	99.56577236210138	1.014707305505221
SWI4=tf_rep(YOX1)	449.987186683562	0.0	0.01391628498819229	3.6490007259422184	23.925088632717276	10.0
SWI4=tf_rep(YOX1)	450.00600014743395	-6.776263578034403e-21	0.013795997616339047	3.5807313786966204	24.01495491765641	10.0
SWI4=tf_rep(YOX1)	449.98718668355417	0.0	0.013916284919502185	3.649000997739815	23.925087280318895	10.0
SWI4=tf_rep(YOX1)	449.9896950167998	0.0	0.013920675428701014	3.6654876258654556	23.87980486931777	10.0
SWI4=tf_rep(YOX1)	449.98718668357304	0.0	0.013916284715643854	3.6490000288019426	23.925087427788167	10.0
SWI4=tf_rep(YOX1)	449.98718668362795	0.0	0.013916284555210143	3.6489991309764696	23.92509308173729	10.0
SWI4=tf_rep(YOX1)	449.98718668388625	0.0	0.013916273934341724	3.6489998672088664	23.925085163367026	10.0
SWI4=tf_rep(YOX1)	449.98718668364637	0.0	0.01391629270733087	3.6489992733644026	23.925100148171243	10.0
SWI4=tf_rep(YOX1)	450.1078465324992	0.0	0.013899736559498999	3.54359380820187	24.237942821577985	10.0
SWI4=tf_rep(YOX1)	450.2090289028619	0.0007392668716440394	0.013793820948740456	3.492045887690312	24.325561843489044	10.0
SWI4=tf_act(ASH1)	511.38826264264566	0.0	0.004187784375307889	1.0444625914207692	99.69226761195448	10.0
SWI4=tf_act(ASH1)	511.3833924239112	0.0	0.004197473161823936	1.0559154132677109	99.76764999708267	10.0
SWI4=tf_act(ASH1)	511.3686285922192	0.0	0.004204498835502884	1.0755361052950931	100.0	10.0
SWI4=tf_act(ASH1)	511.368628592569	0.0	0.004204473232376536	1.0755222517880054	100.0	10.0
SWI4=tf_act(ASH1)	511.3689723159746	0.0	0.004203871134208017	1.0747449948833372	99.99456447501846	10.0
SWI4=tf_act(ASH1)	511.40284755424995	0.0	0.004194941543819223	1.0365476345720281	99.48284562031247	9.995738273457766
SWI4=tf_act(ASH1)	511.38427553268684	0.0	0.004194554318984651	1.053037134674945	99.75393175531303	10.0
SWI4=tf_act(ASH1)	511.40263657882144	0.0	0.004188509344219162	1.031393041297384	99.4684271567715	10.0
SWI4=tf_act(ASH1)	511.37374721062014	0.0	0.004195158071004034	1.06400476172545	99.92371875804461	9.999055954057093
SWI4=tf_act(ASH1)	511.37392999139917	0.0	0.004197038554680835	1.0664774464837827	99.94580429549822	9.99309990995612
SWI4=tf_rep(ASH1)	512.9598228373444	0.0	0.0027064287848753868	0.1570314524078632	0.001	9.97048609854434
SWI4=tf_rep(ASH1)	512.9598228373463	0.0	0.0027064287088048185	0.08021497158829338	0.07706428294046963	9.940973744483628
SWI4=tf_rep(ASH1)	512.9598228373461	0.0	0.0027064287085816407	0.07322669601075615	0.02117564076811318	9.926508990431774
SWI4=tf_rep(ASH1)	512.9598228373462	0.0	0.0027064287058122046	0.0	0.001	9.959714516219712
SWI4=tf_rep(ASH1)	512.9598228373459	0.0	0.002706428716561995	0.0	0.03409112455179075	9.968556271701821
SWI4=tf_rep(ASH1)	512.9598228373451	0.0	0.002706428755179248	0.0	0.001	9.935732248032634
SWI4=tf_rep(ASH1)	512.9598228373444	0.0	0.0027064287855150535	0.0	0.2999878442239544	9.946837698157136
SWI4=tf_rep(ASH1)	512.9598228373462	0.0	0.002706428709801673	0.12548205668844825	0.009717538851036434	9.98551995490287
SWI4=tf_rep(ASH1)	512.959822837356	0.0	0.0027064287058057098	0.4481065593811888	0.4435421648363702	9.97447328461218
SWI4=tf_rep(ASH1)	512.9598228373553	0.0	0.0027064287078249587	0.19852875485213828	0.4772590120471437	9.978291392611562
