# LEMpy local minima file for target HCM1, replicate 0
# Right-hand side of tf_act():  p0 - p1(tar) + p2(reg^p4) / (p3^p4 + reg^p4)
# Right-hand side of tf_rep():  p0 - p1(tar) + p2(p3^p4) / (p3^p4 + reg^p4)
# Run configuration file:  ../pipeline/src/yeast_data/simulations202110_Orlando_2/annot/results3/edge_finding_20211012134845/lempy_20211012134845_config.txt
# Time series data file:   ../pipeline/src/yeast_data/time_series/orlando2008_WildType_r1_trunc.tsv
# Computed on:  2021-10-12 13:51:38 
 
model	loss	p0	p1	p2	p3	p4
HCM1=tf_act(SWI4)	38.966749730614474	0.0	0.23478586385954833	46.68184510344749	93.86107326084738	1.4274332676582422
HCM1=tf_act(SWI4)	38.71053016731502	0.0	0.23591243596253567	48.97011916801564	100.0	1.3889272669170534
HCM1=tf_act(SWI4)	38.7127933334325	0.0	0.23559274086494017	48.88740875948891	99.9442055831443	1.3893438741830295
HCM1=tf_act(SWI4)	38.72079159630131	0.0	0.2355016804091952	48.78534094354594	99.69032232717369	1.3908524502704016
HCM1=tf_act(SWI4)	38.72582167070333	0.0	0.23557344335983466	48.74243707552838	99.51890412007418	1.3918091270377424
HCM1=tf_act(SWI4)	38.740698179337485	0.0	0.2357597804680911	48.62211143512333	99.0483256308894	1.394459891194479
HCM1=tf_act(SWI4)	38.735741954630306	0.0	0.2355661852198767	48.63716483959328	99.20763524696628	1.3936126227147483
HCM1=tf_act(SWI4)	38.74001325484651	0.0	0.23539255467256356	48.56515335464321	99.09504579439599	1.3943316811407573
HCM1=tf_act(SWI4)	38.723728469254795	0.0	0.23563921510323413	48.77591395269678	99.58012488253654	1.3914322711599758
HCM1=tf_act(SWI4)	38.729706363789056	0.0	0.2353311738497248	48.66438669677021	99.42878306874944	1.392423291187892
HCM1=tf_rep(SWI4)	403.5147619004055	0.0	0.00042920889656086216	0.0	43.372406395615215	9.97418212273481
HCM1=tf_rep(SWI4)	403.5147616959597	0.0	0.0004294750453531562	0.0	43.44847067855569	9.944669768674098
HCM1=tf_rep(SWI4)	403.5147616959597	0.0	0.0004294750429907121	0.0	43.39258203638333	9.930205014622244
HCM1=tf_rep(SWI4)	403.51476169596	0.0	0.0004294750330314884	0.0	43.24977950343706	9.963410540410182
HCM1=tf_rep(SWI4)	403.51476169595946	0.0	0.0004294750533300277	0.0	43.28287062798885	9.972252295892291
HCM1=tf_rep(SWI4)	403.51476169595946	0.0	0.0004294750533300277	0.0	42.81965991828998	9.939428272223104
HCM1=tf_rep(SWI4)	403.51476169595946	0.0	0.0004294750533300277	0.0	43.11864776251393	9.950533722347606
HCM1=tf_rep(SWI4)	403.51476169595907	0.0	0.0004294750652668529	0.0	42.821348249511274	9.989961089657863
HCM1=tf_rep(SWI4)	403.5147616959597	0.0	0.00042947504634548075	0.0	43.166438351237076	9.983640240824213
HCM1=tf_rep(SWI4)	403.51476169595975	0.0	0.0004294750476716495	0.0	43.20015518885839	9.987458693257658
HCM1=tf_act(HCM1)	403.51476169595963	0.0	0.000429475043153468	0.0	100.0	1.56800497981992
HCM1=tf_act(HCM1)	403.5147616959597	0.0	0.0004294750424349333	0.0	100.0	1.538492625759209
HCM1=tf_act(HCM1)	403.5147616959597	0.0	0.00042947504480936175	0.0	99.94411135407941	1.524027583237089
HCM1=tf_act(HCM1)	403.51476169596	0.0	0.0004294750338457595	0.0	99.80130882113315	1.5572331090250264
HCM1=tf_act(HCM1)	403.51476169595946	0.0	0.0004294750533300277	0.0	99.83439994568494	1.5660748645071352
HCM1=tf_act(HCM1)	403.51476169595946	0.0	0.0004294750533300277	0.0	99.37118923598607	1.5332508408379482
HCM1=tf_act(HCM1)	403.51476169595946	0.0	0.0004294750533300277	0.0	99.67017708021002	1.5443562909624498
HCM1=tf_act(HCM1)	403.5147616959598	0.0	0.0004294750414999548	0.0	99.38084973036037	1.646623415972827
HCM1=tf_act(HCM1)	403.51476169595963	0.0	0.00042947504976579724	0.0	99.81578559216345	1.64230323225697
HCM1=tf_act(HCM1)	403.51476169595963	0.0	0.00042947504492212653	0.0	99.84950308436692	1.6461734569620188
HCM1=tf_act(NDD1)	403.5147616959597	0.0	0.00042947504360895045	0.0	73.43878061057164	8.855661991940565
HCM1=tf_act(NDD1)	403.51476169595963	0.0	0.000429475047478116	0.0	73.5148448935121	8.826149637879853
HCM1=tf_act(NDD1)	403.5147616959597	0.0	0.00042947504632792	0.0	73.45895625133974	8.811684883827999
HCM1=tf_act(NDD1)	403.51476169596	0.0	0.0004294750348999875	0.0	73.31615371839348	8.844890409615937
HCM1=tf_act(NDD1)	403.51476169595946	0.0	0.0004294750533300277	0.0	73.34924484294527	8.853732165098046
HCM1=tf_act(NDD1)	403.51476169595946	0.0	0.0004294750533300277	0.0	72.8860341332464	8.820908141428859
HCM1=tf_act(NDD1)	403.51476169595946	0.0	0.0004294750533300277	0.0	73.18502197747036	8.83201359155336
HCM1=tf_act(NDD1)	403.51476169595963	0.0	0.0004294750450575919	0.0	72.897998828171	8.868110595224723
HCM1=tf_act(NDD1)	403.5147616959595	0.0	0.00042947504558145145	0.0	73.44438937088708	8.605417676915152
HCM1=tf_act(NDD1)	403.51476169595975	0.0	0.00042947504418954175	0.0	73.47810607968535	8.6092355779838
HCM1=tf_act(SWI5)	403.51476169595963	0.0	0.00042947504827334676	0.0	99.6477468239361	1.0315212837985501
HCM1=tf_act(SWI5)	403.51476169595975	0.0	0.000429475044462681	0.0	99.72381110687657	1.0020089297378392
HCM1=tf_act(SWI5)	403.51476169595975	0.0	0.00042947504166825166	0.0	99.6679224647042	1.0
HCM1=tf_act(SWI5)	403.51476169596	0.0	0.000429475031637046	0.0	99.52511993175794	1.0332055257879373
HCM1=tf_act(SWI5)	403.51476169595946	0.0	0.0004294750533300277	0.0	99.55821105630973	1.042047281270046
HCM1=tf_act(SWI5)	403.51476169595946	0.0	0.0004294750533300277	0.0	99.09500034661086	1.009223257600859
HCM1=tf_act(SWI5)	403.51476169595946	0.0	0.0004294750533300277	0.0	99.39398819083482	1.0203287077253607
HCM1=tf_act(SWI5)	403.5147616959595	0.0	0.0004294750454463114	0.0	99.10427655844555	1.0544682963708922
HCM1=tf_act(SWI5)	403.55875649425144	0.021827427086221485	0.0008126459775084464	0.0	99.54314182966644	1.0196635174865347
HCM1=tf_act(SWI5)	403.5147616959597	0.0	0.00042947504188572575	0.0	99.57685866502858	1.0234755912100444
HCM1=tf_rep(NRM1)	185.4674512616663	0.0	0.03142676677846873	5.450073145695465	30.200721360168696	3.728677098142007
HCM1=tf_rep(NRM1)	185.4489441005518	0.0	0.03140205469701441	5.400484304995648	30.53080859736717	3.8280594730701663
HCM1=tf_rep(NRM1)	185.4495390549479	0.0	0.03140559516821587	5.407200377178548	30.478238270145408	3.8089801357329107
HCM1=tf_rep(NRM1)	185.44894396425207	0.0	0.03140157076258192	5.4005292756380445	30.530130020073862	3.8279447997130225
HCM1=tf_rep(NRM1)	185.4504876424909	0.0	0.031421058742025484	5.38878760470068	30.628928129133122	3.8538237993394366
HCM1=tf_rep(NRM1)	185.4586139991346	0.0	0.03135422668686985	5.430510018971494	30.279728744165496	3.7627828671766426
HCM1=tf_rep(NRM1)	185.45126023557683	0.0	0.031405652328857295	5.384305389784445	30.64833531633655	3.8622274868036177
HCM1=tf_rep(NRM1)	185.45251628634097	0.0	0.03137105262966366	5.418614429757492	30.378064594273006	3.7887509902764416
HCM1=tf_rep(NRM1)	185.45453438408347	0.0	0.031440816967206284	5.378604219186558	30.717877276905025	3.877293248236145
HCM1=tf_rep(NRM1)	185.4704993198661	0.0	0.03160250947979597	5.372551046151884	30.85200497129911	3.873727090829515
HCM1=tf_rep(CLN3)	403.51481391508025	0.0	0.00042951193571092984	0.15703106290531307	0.001	1.0000006562879964
HCM1=tf_rep(CLN3)	403.5168115323501	0.0	0.0004309104421271723	0.08018394421818563	0.07703244392552218	1.0000160569262597
HCM1=tf_rep(CLN3)	403.51527603625044	0.0	0.0004297862386645869	0.07319506800186902	0.021141722624061	1.000000319133626
HCM1=tf_rep(CLN3)	403.5147616959601	0.0	0.0004294750335336615	0.0	0.001	1.0332058449215633
HCM1=tf_rep(CLN3)	403.51476169595946	0.0	0.0004294750533300277	0.0	0.03409112455179075	1.042047600403672
HCM1=tf_rep(CLN3)	403.51476169595946	0.0	0.0004294750533300277	0.0	0.001	1.009223576734485
HCM1=tf_rep(CLN3)	403.51476169595946	0.0	0.0004294750533300277	0.0	0.2999878442239544	1.0203290268589866
HCM1=tf_rep(CLN3)	403.5255024492694	0.0057451551999628	0.0005313122609664908	0.1254908688341851	0.009837859928310913	1.0590002979554927
HCM1=tf_rep(CLN3)	403.56293281324804	0.0	0.0004620914366547436	0.42708009828111604	0.4214866741257927	1.048897536241068
HCM1=tf_rep(CLN3)	403.51476169595963	0.0	0.0004294750469074831	0.0	0.2630467629167708	1.0744727847682047
HCM1=tf_rep(WHI5)	259.1341661433044	0.0	0.0193396947665592	8.942389772996362	45.91929829787142	6.3850309845051445
HCM1=tf_rep(WHI5)	259.14210042091446	0.0	0.01947490818064522	8.8719128317369	46.019918800868396	6.353067197032748
HCM1=tf_rep(WHI5)	259.14872174079034	0.0	0.019382719079484974	8.86204844619434	45.96177300057815	6.3420317306695875
HCM1=tf_rep(WHI5)	259.1342675688548	0.0	0.01933372939618276	8.916641106637014	45.96530955987584	6.396352932649016
HCM1=tf_rep(WHI5)	259.1364463029834	0.0	0.01931262232182522	8.822073999826062	46.13625976390877	6.438786685650067
HCM1=tf_rep(WHI5)	259.2951947616744	0.0	0.01808683000392553	8.80669105857438	45.83882578037184	6.661669183481504
HCM1=tf_rep(WHI5)	259.17025937522607	0.0	0.018964390148257234	8.643653979559215	46.467383598827524	6.630013161762331
HCM1=tf_rep(WHI5)	259.13912387421993	0.0	0.019295855088456316	8.765826287731574	46.23692208238646	6.464741676566921
HCM1=tf_rep(WHI5)	259.14356291972695	0.0	0.019279656300146046	8.701633974556042	46.35366016726713	6.494506733712691
HCM1=tf_rep(WHI5)	259.15082734998106	0.0	0.01924742792929648	8.62642465325828	46.49181575166801	6.534658319468573
HCM1=tf_act(YOX1)	206.4190617618619	0.3	0.4153111550221755	83.51424463995039	99.64466468493534	1.2739076483739558
HCM1=tf_act(YOX1)	206.1289452317603	0.3	0.4142900115368026	83.49873493261155	100.0	1.2723380654920942
HCM1=tf_act(YOX1)	206.12827746547845	0.3	0.4150835229833223	83.65736897796432	100.0	1.2722530354481618
HCM1=tf_act(YOX1)	206.13027613493017	0.3	0.4137060649712696	83.3824066562672	100.0	1.2724115583032976
HCM1=tf_act(YOX1)	206.1397728262113	0.3	0.4117752294618832	82.99699123728934	100.0	1.2726335241494517
HCM1=tf_act(YOX1)	206.12827766463082	0.3	0.41507255413434857	83.65519360065828	100.0	1.2722544616897793
HCM1=tf_act(YOX1)	206.12827772526995	0.3	0.415070678686859	83.65484649113387	100.0	1.2722552663939857
HCM1=tf_act(YOX1)	206.1283605956623	0.3	0.41536839385141683	83.71425502493446	100.0	1.2722207731807302
HCM1=tf_act(YOX1)	206.1313008660747	0.3	0.41678411257065084	83.99704101761225	100.0	1.2720647284424036
HCM1=tf_act(YOX1)	206.12844222394028	0.3	0.4154832574149515	83.73717858673568	100.0	1.2722075315728592
HCM1=tf_rep(YOX1)	394.9037990685757	0.0	0.004078696056276728	1.2861415758744756	24.175553993812585	10.0
HCM1=tf_rep(YOX1)	394.9690501741379	1.4513313430155397e-05	0.003874281923640131	1.2054711756310261	24.23436192658379	9.97059280525431
HCM1=tf_rep(YOX1)	394.90384857499015	0.0	0.004079033599366445	1.2851169979675985	24.18570155022856	10.0
HCM1=tf_rep(YOX1)	394.9091452943476	0.0	0.004074563545995224	1.2967706339000182	24.069770821423475	10.0
HCM1=tf_rep(YOX1)	394.9046530233344	0.0	0.00407692880524315	1.2903100761576938	24.133370722229785	10.0
HCM1=tf_rep(YOX1)	394.90379906885846	0.0	0.004078686651457548	1.2861387168938776	24.175551666460695	10.0
HCM1=tf_rep(YOX1)	394.9037990687046	0.0	0.0040786917442109435	1.2861392523246022	24.175555656828777	10.0
HCM1=tf_rep(YOX1)	394.9037990886776	0.0	0.004078621345389692	1.2860909795149373	24.175709203594565	10.0
HCM1=tf_rep(YOX1)	394.9037990697804	0.0	0.004078672650890124	1.2861340545955737	24.17553884436352	10.0
HCM1=tf_rep(YOX1)	394.9052897757845	0.0	0.0040804624233429215	1.2804866931649284	24.231117942294315	10.0
HCM1=tf_act(ASH1)	403.51476169595963	0.0	0.0004294750444797858	0.0	99.64686630470152	6.468111340079547
HCM1=tf_act(ASH1)	403.51476169595986	0.0	0.00042947504249788554	0.0	99.72293058764198	6.438598986018836
HCM1=tf_act(ASH1)	403.51476169595963	0.0	0.000429475044875555	0.0	99.66704194546962	6.424134231966982
HCM1=tf_act(ASH1)	403.5147616959599	0.0	0.0004294750365349724	0.0	99.52423941252336	6.457339757754919
HCM1=tf_act(ASH1)	403.51476169595946	0.0	0.0004294750533300277	0.0	99.55733053707515	6.466181513237029
HCM1=tf_act(ASH1)	403.51476169595946	0.0	0.0004294750533300277	0.0	99.09411982737628	6.433357489567841
HCM1=tf_act(ASH1)	403.51476169595946	0.0	0.0004294750533300277	0.0	99.39310767160023	6.444462939692343
HCM1=tf_act(ASH1)	403.6947872482482	0.06407399672373544	0.0015116654628766412	0.0	99.1114855931094	6.501927745790745
HCM1=tf_act(ASH1)	403.51476169595975	0.0	0.0004294750455638876	0.0	99.85267819463282	6.480957194553212
HCM1=tf_act(ASH1)	403.5147616959597	0.0	0.0004294750451734634	0.0	99.88639491118427	6.484775226198305
HCM1=tf_rep(ASH1)	372.4149368825143	0.003938266599562956	0.04534104102836418	3.3425596352866918	62.11252836320998	2.8670090186885178
HCM1=tf_rep(ASH1)	372.3881295862639	0.03314245045435916	0.045494477470312406	3.30805004086307	62.279198544132605	2.9116216454322097
HCM1=tf_rep(ASH1)	372.3910641007015	0.0326424778984803	0.04525055036332039	3.2924555397132225	62.223098117693034	2.8967242234947888
HCM1=tf_rep(ASH1)	372.3851185443752	0.03405747585957	0.044986797700091646	3.272348754573665	62.08787751804429	2.9426812786183634
HCM1=tf_rep(ASH1)	372.3809586398171	0.03358755273028294	0.04490155658252924	3.2639870755191245	62.14901634113669	2.9788942796577804
HCM1=tf_rep(ASH1)	372.3935870191982	0.03443662873873151	0.04449974456382189	3.2431888061925385	61.71301643083972	2.975880807424775
HCM1=tf_rep(ASH1)	372.3823319668991	0.03508953458242767	0.04472928881549529	3.2515838894610702	62.01757994447351	2.997179542113379
HCM1=tf_rep(ASH1)	372.3929454430755	0.05779610311053462	0.04506876070995281	3.2543175862056297	61.67214731647542	2.9773836523585038
HCM1=tf_rep(ASH1)	372.3836024824987	0.03586512125897927	0.044643412491887274	3.245395392424839	61.94487552660696	3.011301779765061
HCM1=tf_rep(ASH1)	372.38371107548886	0.03730752185181712	0.04462754100105331	3.2401040491623627	62.00761474176736	3.032689329155613
