# LEMpy local minima file for target ASH1, replicate 0
# Right-hand side of tf_act():  p0 - p1(tar) + p2(reg^p4) / (p3^p4 + reg^p4)
# Right-hand side of tf_rep():  p0 - p1(tar) + p2(p3^p4) / (p3^p4 + reg^p4)
# Run configuration file:  ../pipeline/src/yeast_data/simulations202110_Orlando_2/no_annot/results1/edge_finding_20211012195319/lempy_20211012195319_config.txt
# Time series data file:   ../pipeline/src/yeast_data/time_series/orlando2008_WildType_r1_trunc.tsv
# Computed on:  2021-10-12 19:55:49 
 
model	loss	p0	p1	p2	p3	p4
ASH1=tf_act(SWI4)	563.1581727637256	0.17981511171263448	0.01982445695366662	1.127515893955228	2.188601572753675	3.0204316022813518
ASH1=tf_act(SWI4)	563.227048637177	0.07974353833524567	0.019829041977057163	1.2280631678940113	2.5400162551777132	2.9476236482054445
ASH1=tf_act(SWI4)	563.2237384920077	0.08195312426742926	0.019813903855941516	1.2251574336326239	2.4853829851753773	2.9283764987364473
ASH1=tf_act(SWI4)	563.2546174884181	0.08136784256474239	0.019808750168046823	1.2256228187905776	2.7069474136348846	2.9494005920778803
ASH1=tf_act(SWI4)	563.0890337447455	0.3	0.01983789672212323	1.007693036805629	1.5424159166652944	5.7806243864214855
ASH1=tf_act(SWI4)	563.0890256977865	0.1925488726831514	0.019837845195276874	1.1151321632463123	1.278928090621892	5.8252837946640055
ASH1=tf_act(SWI4)	563.0890221216114	0.19397825250024206	0.019837849327554388	1.1137029608451934	0.8404705805659737	5.842714253832216
ASH1=tf_act(SWI4)	563.0890218908978	0.06986386023973588	0.01983784899614346	1.2378173382074358	0.6684750142223406	5.859842754805712
ASH1=tf_act(SWI4)	563.0890218040951	0.07204649846838015	0.019837843992906272	1.235634474193231	0.25428738650913557	5.856800325388809
ASH1=tf_act(SWI4)	563.0890218038028	0.07437537692689548	0.01983784414996416	1.2333056029451706	0.15428757720506342	5.8498355047402795
ASH1=tf_rep(SWI4)	198.66819730978514	0.020639342419501733	0.023027426596989836	99.76821128493951	18.936474858789797	10.0
ASH1=tf_rep(SWI4)	198.66747616023622	0.019916959267077927	0.023015162790140445	99.88668312110731	18.934316673251868	10.0
ASH1=tf_rep(SWI4)	198.67026683499518	0.019823005000355817	0.023012910554932712	99.41509100352143	18.943880148737644	10.0
ASH1=tf_rep(SWI4)	198.67241879629273	0.018409538394416426	0.02298788598491318	99.06732919206463	18.95137891557686	10.0
ASH1=tf_rep(SWI4)	198.67390615587283	0.01969401406222592	0.02301006553886334	98.80698816558731	18.95630522512981	10.0
ASH1=tf_rep(SWI4)	198.6718464620361	0.01977531485099865	0.023011671414179962	99.1501936565759	18.949269829847154	10.0
ASH1=tf_rep(SWI4)	198.6907804374134	0.0039682137942582	0.02275802719897488	98.6641196685528	18.962062670536493	9.993795179200982
ASH1=tf_rep(SWI4)	198.67177430444534	0.019776334683056333	0.02301172200325879	99.16226225760806	18.949024866633618	10.0
ASH1=tf_rep(SWI4)	198.71951168887315	0.02250072853562789	0.02305387605747486	98.80955830924086	18.9304611744198	9.953271922119606
ASH1=tf_rep(SWI4)	198.67588068502593	0.019634884140777183	0.02300841884942125	98.48027280478554	18.962996901060542	10.0
ASH1=tf_act(HCM1)	563.1235429370656	0.17981687709802377	0.019830493044614313	1.127723028892738	2.188753118080019	3.020176667241304
ASH1=tf_act(HCM1)	563.1575114012737	0.07966142927503217	0.0198324584540482	1.228150616850979	2.5395780885587866	2.9499390132660817
ASH1=tf_act(HCM1)	563.1030967512979	0.2544559904519469	0.019820447730003566	1.0523799556539675	2.2279525612044693	3.404357365935385
ASH1=tf_act(HCM1)	563.0890233865157	0.29999952850753725	0.019838202973731855	1.0076975623717443	1.1003828243394516	5.573214866852296
ASH1=tf_act(HCM1)	563.0890273946845	0.3	0.01983785858072084	1.0076816461818312	1.353663904301482	5.534413992455585
ASH1=tf_act(HCM1)	563.0890234295481	0.19255198952408256	0.01983785599374605	1.1151295280098108	1.0901763171936614	5.579073432761992
ASH1=tf_act(HCM1)	563.0890218900746	0.19398135329201127	0.01983785168724276	1.113699967224215	0.651718807137743	5.596503892128329
ASH1=tf_act(HCM1)	563.0890218199951	0.0698663056677883	0.019837841995470968	1.2378145772553846	0.47972324079410994	5.61363239310297
ASH1=tf_act(HCM1)	563.0890218037816	0.07204893567124168	0.019837844381464916	1.2356320548614204	0.06553561308090494	5.610589963397093
ASH1=tf_act(HCM1)	563.0890218038322	0.07437780563628715	0.01983784172980439	1.2333030651037291	0.001	5.603625142509791
ASH1=tf_rep(HCM1)	302.3673517547083	0.3	0.025096160907573103	99.76812264803138	19.67893609099152	10.0
ASH1=tf_rep(HCM1)	302.3545551831573	0.3	0.025098977145411937	99.9373768666385	19.675508897399524	10.0
ASH1=tf_rep(HCM1)	302.39045720014917	0.3	0.025094465646253308	99.46403486359881	19.68538291027854	10.0
ASH1=tf_rep(HCM1)	302.41547159563095	0.3	0.02509119140794448	99.13695238495875	19.692228942168164	10.0
ASH1=tf_rep(HCM1)	302.43240394256856	0.3	0.025090727737395086	98.9168368041867	19.696992048360478	10.0
ASH1=tf_rep(HCM1)	302.4060691335622	0.3	0.025091459941062582	99.25963018027727	19.689581136131988	10.0
ASH1=tf_rep(HCM1)	302.4435060694708	0.3	0.025086799502763928	98.77299561156991	19.699823817519622	10.0
ASH1=tf_rep(HCM1)	302.40490575197776	0.3	0.025091703298750087	99.27483195911861	19.689270819672196	10.0
ASH1=tf_rep(HCM1)	302.43194481644105	0.3	0.025088145196856076	98.92275452857908	19.696673420138275	10.0
ASH1=tf_rep(HCM1)	302.4574795259273	0.3	0.02508507595466387	98.59261257314577	19.703635252709702	10.0
ASH1=tf_act(NDD1)	563.0823339595921	0.17981255729151446	0.019840293164705713	1.1280423733536926	2.1889739600875306	3.019795975561204
ASH1=tf_act(NDD1)	563.0757799835569	0.07958963708907565	0.0198410705784191	1.2283748480772754	2.5341738079107894	2.9616790061574845
ASH1=tf_act(NDD1)	563.0719479314032	0.04337003016526608	0.019656473201145164	1.2568766534869433	2.538328387098312	2.808727853503504
ASH1=tf_act(NDD1)	563.0641297073686	0.0429190404533444	0.01984674531266626	1.26541093154078	2.7609438715696633	2.827739811176399
ASH1=tf_act(NDD1)	561.8879333163889	0.0	0.019772661563033523	1.3288942348766797	3.531531245284435	1.4519555662252426
ASH1=tf_act(NDD1)	407.9198569016912	0.0	0.006741284842772418	5.597399605337414	100.0	10.0
ASH1=tf_act(NDD1)	407.9280090277183	0.0	0.006788740466467783	5.445769509971025	99.46541441999182	10.0
ASH1=tf_act(NDD1)	407.9304541643473	0.0	0.006799237925134196	5.416473334327572	99.35817875752906	10.0
ASH1=tf_act(NDD1)	407.9448545738918	0.0	0.006843973950527421	5.288554784423239	98.88125780704216	10.0
ASH1=tf_act(NDD1)	407.9516960930472	0.0	0.006860967573065733	5.242738470450656	98.70513278514493	10.0
ASH1=tf_rep(NDD1)	595.9358113103373	0.3	0.010360205124297967	4.909559142423527	8.484694036184294	1.0
ASH1=tf_rep(NDD1)	595.9106909016945	0.3	0.010347057436779973	4.858227488398076	8.577612810451004	1.0
ASH1=tf_rep(NDD1)	581.359933810683	0.3	0.01582007017866825	1.375202038260778	100.0	1.0
ASH1=tf_rep(NDD1)	581.35993381032	0.3	0.015820096004430816	1.3752035692590712	100.0	1.0
ASH1=tf_rep(NDD1)	581.3599338107842	0.3	0.015820064642679387	1.3752016343514992	100.0	1.0
ASH1=tf_rep(NDD1)	581.8929132310959	0.29225544195356845	0.017661492615791148	1.5257583881959118	99.68200300265494	1.0
ASH1=tf_rep(NDD1)	581.4294914879862	0.3	0.015800611373209945	1.377804407300998	99.24681722896496	1.0
ASH1=tf_rep(NDD1)	581.5150287441385	0.3	0.01582663873873568	1.384804340890965	98.33107535225292	1.0
ASH1=tf_rep(NDD1)	581.553131337724	0.3	0.015764383778090637	1.3823795663577456	97.9215803259798	1.0
ASH1=tf_rep(NDD1)	581.3599338106019	0.3	0.015820074856866807	1.3752023543217062	100.0	1.0
ASH1=tf_act(SWI5)	72.88166821515294	0.0	0.06613840616870226	9.243773121313371	56.45998921370185	10.0
ASH1=tf_act(SWI5)	72.8816682136081	0.0	0.06613837833230392	9.24376849336263	56.45997801063663	10.0
ASH1=tf_act(SWI5)	72.88166821359137	0.0	0.06613838542095869	9.243769906226158	56.459980861887395	10.0
ASH1=tf_act(SWI5)	72.88166821377419	0.0	0.06613836923990002	9.243767021950115	56.45997720534784	10.0
ASH1=tf_act(SWI5)	72.88166821354123	0.0	0.0661383818286233	9.243768431544426	56.45997688313294	10.0
ASH1=tf_act(SWI5)	72.8816682138399	0.0	0.06613836590824956	9.243767306148014	56.45997901660493	10.0
ASH1=tf_act(SWI5)	72.88166821370568	0.0	0.06613837278290179	9.243767615522474	56.45997765227269	10.0
ASH1=tf_act(SWI5)	72.88166821360527	0.0	0.06613837844687206	9.24376757498909	56.45997591493948	10.0
ASH1=tf_act(SWI5)	72.88166821366937	0.0	0.06613837908239623	9.243766193062077	56.45997221893898	10.0
ASH1=tf_act(SWI5)	72.88166821422975	0.0	0.06613834722791093	9.243766272732966	56.45998184931827	10.0
ASH1=tf_rep(SWI5)	590.7143709679509	0.3	1.1154013757281755e-05	2.386521632253466	6.090621958285254	2.770345376026487
ASH1=tf_rep(SWI5)	578.9642062512165	0.3	0.0006643467788404108	0.9083979402810353	16.56935470482002	10.0
ASH1=tf_rep(SWI5)	578.9646061623097	0.3	0.0006630678661370124	0.9087249138550726	16.519237305071343	10.0
ASH1=tf_rep(SWI5)	578.9690028003605	0.3	0.0006686930648866179	0.9072560624168052	16.743831480616034	10.0
ASH1=tf_rep(SWI5)	578.9642062510317	0.3	0.0006643412859469302	0.9084003141942286	16.569317069148152	10.0
ASH1=tf_rep(SWI5)	578.9715524422023	0.3	0.0006581179340851045	0.9097004045176894	16.3555491926755	10.0
ASH1=tf_rep(SWI5)	578.9642062510089	0.3	0.0006643416479677573	0.9084003748979836	16.569318538900742	10.0
ASH1=tf_rep(SWI5)	578.9933118647733	0.3	0.0006552076404398021	0.9120337006597656	16.146869964299718	10.0
ASH1=tf_rep(SWI5)	579.0819200494713	0.3	0.0006381588473119818	0.914282497278848	15.737031134451524	9.996977256972258
ASH1=tf_rep(SWI5)	578.9642062519589	0.3	0.000664329559093471	0.9083980673958046	16.56941605638156	10.0
ASH1=tf_act(NRM1)	562.8818474698718	0.17985163606250545	0.019987836942966915	1.1357479759176243	2.1886293423582672	3.020872450026917
ASH1=tf_act(NRM1)	358.1313965958781	0.0	0.007921129713480345	4.525278383141685	74.58258274058807	10.0
ASH1=tf_act(NRM1)	358.15491573369366	0.0	0.007944799815003982	4.478813337981766	74.19260283088579	10.0
ASH1=tf_act(NRM1)	358.137834723365	0.0	0.007938574491296577	4.502074515564026	74.37773872163781	10.0
ASH1=tf_act(NRM1)	358.1314331389618	0.0	0.007922272725553094	4.523475684264865	74.56714062230792	10.0
ASH1=tf_act(NRM1)	358.13848243520357	0.0	0.007938925948489215	4.500814022928462	74.36771616460591	10.0
ASH1=tf_act(NRM1)	358.1313965959429	0.0	0.00792112689656591	4.525280849915676	74.58259680869348	10.0
ASH1=tf_act(NRM1)	358.13139659592247	0.0	0.007921126225242114	4.525278782862753	74.58258628370736	10.0
ASH1=tf_act(NRM1)	358.1625896089843	0.0	0.007959087483681727	4.474543984992301	74.13249127178364	10.0
ASH1=tf_act(NRM1)	358.1844677608688	0.0	0.007970497491020712	4.459317455842181	73.99606579756865	10.0
ASH1=tf_rep(NRM1)	598.1410121705367	0.3	0.0017391035066628112	1.0273726096189064	24.618351215418194	9.999838083568106
ASH1=tf_rep(NRM1)	598.1835642572933	0.3	0.001779551178481406	1.0073845254480298	25.161671494942404	10.0
ASH1=tf_rep(NRM1)	598.1888212842371	0.3	0.0017658882153977849	1.0065862364389844	25.116803827864402	9.978280008679594
ASH1=tf_rep(NRM1)	598.1409255139762	0.3	0.001739307286333567	1.0271284240050433	24.624414296946266	10.0
ASH1=tf_rep(NRM1)	598.1718139166214	0.3	0.001754631737605024	1.0140365154445679	24.926267286475873	9.96756351164099
ASH1=tf_rep(NRM1)	598.1409291460456	0.3	0.0017396247571611703	1.0269083811406785	24.6294743072443	10.0
ASH1=tf_rep(NRM1)	598.1659104072271	0.3	0.001708534007821742	1.0453158751971245	24.20756981119423	10.0
ASH1=tf_rep(NRM1)	598.1409255138097	0.3	0.0017393082660648671	1.027119814801304	24.6245289641597	10.0
ASH1=tf_rep(NRM1)	598.1651685113045	0.3	0.0017100193258548122	1.0445198120516443	24.225564298364404	9.996982711956653
ASH1=tf_rep(NRM1)	598.1788542979315	0.3	0.0017025300645455734	1.0483166640578498	24.140574477453587	9.990079516270969
ASH1=tf_act(CLN3)	563.0907838152699	0.17981432210895942	0.01983763255856643	1.1278808456749	2.1889448836548677	3.0202906632269633
ASH1=tf_act(CLN3)	563.0890398525974	0.3	0.019837198588338233	1.0076499287650638	1.9828618622732879	4.3167766097025675
ASH1=tf_act(CLN3)	563.0890390081055	0.3	0.019837855602834412	1.0076816387646788	1.9296888821570044	4.294562413767819
ASH1=tf_act(CLN3)	563.0890478112091	0.29876310301146747	0.019837854883746207	1.0089185754681078	2.152636893603507	4.312642928596585
ASH1=tf_act(CLN3)	563.0890691201164	0.2991997848737049	0.01983784872074348	1.008481800823464	2.4059177917328536	4.273842368144187
ASH1=tf_act(CLN3)	563.0890494676744	0.1918481499502405	0.019837876207988867	1.1158345005439951	2.142452934665538	4.318449514251737
ASH1=tf_act(CLN3)	563.0890314875584	0.19328100019397734	0.019837845539127194	1.1144001203865017	1.7039948096221489	4.335880872897021
ASH1=tf_act(CLN3)	563.0890281911936	0.069287795963666	0.01983785094283987	1.238393543621696	1.532013635284855	4.3529842004478185
ASH1=tf_act(CLN3)	563.0890234397065	0.07147250494913182	0.019837845406449093	1.2362085446813207	1.117825997226042	4.3499417864348615
ASH1=tf_act(CLN3)	563.0890229200626	0.07380329454488897	0.019837848796608683	1.2338779034437328	1.0178261731817397	4.34297696554758
ASH1=tf_rep(CLN3)	439.6283844206614	0.0	0.0053136010556700235	47.26321533047619	45.922099284312864	10.0
ASH1=tf_rep(CLN3)	439.6273067635049	0.0	0.00531226499531244	47.603127093333505	45.886455251350306	10.0
ASH1=tf_rep(CLN3)	439.62881567088533	0.0	0.005314132470086931	47.128788084871644	45.93627982600025	10.0
ASH1=tf_rep(CLN3)	439.62983834461835	0.0	0.005315407192442459	46.81358129691383	45.96972294898963	10.0
ASH1=tf_rep(CLN3)	439.63034603548687	0.0	0.005316070902824033	46.65894247156241	45.98623430463626	10.0
ASH1=tf_rep(CLN3)	439.69185121749575	0.0	0.005289421799854623	47.015989354300785	45.884552785004914	9.961796829413622
ASH1=tf_rep(CLN3)	439.63060669323437	0.0	0.005316360489657144	46.58001464209128	45.99467726015548	10.0
ASH1=tf_rep(CLN3)	439.628949750839	0.0	0.005314306322489858	47.08717704301907	45.94068099301198	10.0
ASH1=tf_rep(CLN3)	439.6299623065633	0.0	0.005315563213636512	46.77571162441762	45.973759307106135	10.0
ASH1=tf_rep(CLN3)	439.63101212443104	0.0	0.005316810961307899	46.45787433874133	46.00776184121719	10.0
ASH1=tf_act(WHI5)	563.0879775487522	0.1798136785431234	0.019838305193412713	1.1279275468136596	2.18898392155315	3.0197741555102424
ASH1=tf_act(WHI5)	563.0870301003581	0.07956742269696591	0.019838391944939054	1.2282109996560604	2.52719294544343	2.9763819254845774
ASH1=tf_act(WHI5)	563.0870321429783	0.08177739339663877	0.019838667876705872	1.226017212343652	2.4738721162782036	2.954563784349959
ASH1=tf_act(WHI5)	563.0865858203321	0.08119118564276348	0.019838881197168343	1.2266296326654877	2.696676986969256	2.9730497250844286
ASH1=tf_act(WHI5)	563.0854829423772	0.0819375274733589	0.019839546222733852	1.2259568780698948	2.949947829766838	2.9342811296192184
ASH1=tf_act(WHI5)	474.9628142255401	0.0	0.0074503011328439965	7.732463728364098	100.0	10.0
ASH1=tf_act(WHI5)	474.96281422573344	0.0	0.007450296193696519	7.7324648171884744	100.0	10.0
ASH1=tf_act(WHI5)	474.9628142254581	0.0	0.0074503080939948615	7.732467011160858	100.0	10.0
ASH1=tf_act(WHI5)	474.9628142256042	0.0	0.007450321780031757	7.732474968604962	100.0	10.0
ASH1=tf_act(WHI5)	474.96281422637185	0.0	0.007450363846673474	7.732486382908735	100.0	10.0
ASH1=tf_rep(WHI5)	569.0358134085906	0.3	0.018799204734121267	1.638050741014434	100.0	1.0
ASH1=tf_rep(WHI5)	569.040535775387	0.3	0.018802654562278347	1.6393258529666375	99.84965183720051	1.0
ASH1=tf_rep(WHI5)	569.0422004490591	0.3	0.018797509644796002	1.6392883187047174	99.79662025868195	1.0
ASH1=tf_rep(WHI5)	569.0358134085233	0.3	0.018799204814929586	1.6380513602661928	100.0	1.0
ASH1=tf_rep(WHI5)	569.0358134086716	0.3	0.0187991957690951	1.6380505284114488	100.0	1.0
ASH1=tf_rep(WHI5)	569.0476691325377	0.3	0.018801528318260475	1.640763832970086	99.6229168051865	1.0
ASH1=tf_rep(WHI5)	569.0613612342177	0.3	0.018793320284194965	1.643075790338253	99.18912921409081	1.0
ASH1=tf_rep(WHI5)	569.0924401228018	0.3	0.018804876304786868	1.6506729299313907	98.21328788660291	1.0
ASH1=tf_rep(WHI5)	569.1054805975316	0.3	0.018782686883966584	1.6518064856894632	97.80520204655909	1.0
ASH1=tf_rep(WHI5)	569.1085063003369	0.3	0.01878196375957602	1.6524100265585067	97.71104403326336	1.0
ASH1=tf_act(YOX1)	563.1065781534103	0.2632524114635803	0.020091474266068554	1.054976995418234	2.0513946929359115	3.320416736430995
ASH1=tf_act(YOX1)	563.1201218487427	0.14986295382275186	0.019867185336742924	1.1596399076670785	2.4364271821041896	3.235325507126527
ASH1=tf_act(YOX1)	563.1198973454881	0.15173095780263507	0.01985937145553376	1.1574015301012925	2.3818690331023653	3.215085961194637
ASH1=tf_act(YOX1)	563.1278680473528	0.15093725534759686	0.019866044365779597	1.158631724337351	2.603495540217343	3.2351615745308306
ASH1=tf_act(YOX1)	563.0844954165534	0.29999966025817004	0.019846821896402196	1.0081698132913823	2.472685930516103	4.230529695423748
ASH1=tf_act(YOX1)	563.0837890087085	0.10122492121971333	0.019740748864489933	1.2024550913901877	2.547320744659405	4.3266978545093036
ASH1=tf_act(YOX1)	563.0861740971335	0.10311418642710345	0.01984257791258051	1.2048219773748623	2.1085389613789114	4.344403674937905
ASH1=tf_act(YOX1)	563.0867628479799	0.0	0.01984153324649753	1.3078802931920313	1.9607574940838772	4.343698098148882
ASH1=tf_act(YOX1)	563.0882140090215	0.0024334024800433647	0.019839156075394975	1.3053186353295931	1.546493572669893	4.3407123729300885
ASH1=tf_act(YOX1)	563.0884168888368	0.004993982912913957	0.019838839211438	1.3027408801258706	1.4464358457308808	4.333789138803782
ASH1=tf_rep(YOX1)	317.0806152470735	0.0	0.03444783875949588	5.146892921214398	37.093336797303884	10.0
ASH1=tf_rep(YOX1)	317.07661348787815	0.0	0.034221694738731684	5.13892748823415	37.04170940567106	10.0
ASH1=tf_rep(YOX1)	317.07661350421955	0.0	0.03422152662311562	5.138900040133088	37.04171856203792	10.0
ASH1=tf_rep(YOX1)	317.0766134916456	0.0	0.034221953334790216	5.138931783220527	37.041780721418235	10.0
ASH1=tf_rep(YOX1)	317.07661348790145	0.0	0.034221693575188505	5.138927655198803	37.041708778379636	10.0
ASH1=tf_rep(YOX1)	317.07661348874973	0.0	0.034221659283151185	5.138924928287196	37.04170829780728	10.0
ASH1=tf_rep(YOX1)	317.098332205023	0.0	0.03376044752981434	5.127003146706274	36.92357699507457	10.0
ASH1=tf_rep(YOX1)	317.07661349074135	0.0	0.03422158285793153	5.138921606153837	37.041693964919546	10.0
ASH1=tf_rep(YOX1)	317.07661350206735	0.0	0.034221832538352655	5.1389221799358795	37.04178415447677	10.0
ASH1=tf_rep(YOX1)	317.07661348778674	0.0	0.034221714818168686	5.1389307546923275	37.04171013371388	10.0
ASH1=tf_act(ASH1)	563.0896407396043	0.3	0.01983775684501843	1.0076828262125441	0.6511480018873578	4.443910022355037
ASH1=tf_act(ASH1)	563.0890257750103	0.2677250234819503	0.01983785321856929	1.0399551844048927	0.26212589509316003	4.750871533916198
ASH1=tf_act(ASH1)	563.0890232666491	0.26901960759318577	0.019837853510118963	1.0386617984674251	0.20895323442679137	4.728656666174739
ASH1=tf_act(ASH1)	563.0890648793443	0.26787508912877467	0.019837848054574923	1.0398062034641475	0.43189858811746346	4.746737227013465
ASH1=tf_act(ASH1)	563.0894445572454	0.268356173490607	0.019837800337436165	1.0393257372071827	0.6851732815144349	4.707938580880733
ASH1=tf_act(ASH1)	563.0890633837291	0.16470304992486623	0.01983784303458162	1.1429780116397394	0.4217405326077966	4.75258466788964
ASH1=tf_act(ASH1)	563.0890218036519	0.16627040443810864	0.019837851520985494	1.1414109047450114	0.001	4.77001512705757
ASH1=tf_act(ASH1)	563.0890218035298	0.046969835712815045	0.019837858884678664	1.260711808187067	0.001	4.787143729450743
ASH1=tf_act(ASH1)	563.0890218038002	0.049234774995649315	0.019837843395155527	1.2584461708036276	0.001	4.784101299827339
ASH1=tf_act(ASH1)	563.0890218037428	0.05163959929434727	0.019837846458837096	1.2560414844353063	0.001	4.7771364886843735
ASH1=tf_rep(ASH1)	445.69466417942084	0.0	0.0024417115293165143	99.7679956165934	5.751496756597458	10.0
ASH1=tf_rep(ASH1)	445.6951854154643	0.0	0.002441780139379257	99.53537693663543	5.7529221332424685	10.0
ASH1=tf_rep(ASH1)	445.6962745260494	0.0	0.0024415135835784583	99.05302094442952	5.755877670157462	10.0
ASH1=tf_rep(ASH1)	445.6973571033923	0.0	0.0024415423043720047	98.57845955548602	5.758808917106864	10.0
ASH1=tf_rep(ASH1)	445.6984294168205	0.0	0.0024414703246437874	98.11314705298139	5.761701182834012	10.0
ASH1=tf_rep(ASH1)	445.6976343657076	0.0	0.002441481713616552	98.45769480141392	5.759557000126349	10.0
ASH1=tf_rep(ASH1)	445.74620819954737	0.0	0.00243721843958769	97.97319320242612	5.755522302874298	9.95886558665193
ASH1=tf_rep(ASH1)	445.74381237182826	0.0	0.002437864491069767	98.46975920443593	5.7526076043263235	9.959926541668889
ASH1=tf_rep(ASH1)	445.7933521723743	0.0	0.0024349521739704927	98.11941141242079	5.747673585286495	9.918319540743548
ASH1=tf_rep(ASH1)	445.6991817076381	0.0	0.002441356699780535	97.7894770587409	5.7637156027380385	10.0
