# LEMpy local minima file for target NRM1, replicate 0
# Right-hand side of tf_act():  p0 - p1(tar) + p2(reg^p4) / (p3^p4 + reg^p4)
# Right-hand side of tf_rep():  p0 - p1(tar) + p2(p3^p4) / (p3^p4 + reg^p4)
# Run configuration file:  ../pipeline/src/yeast_data/simulations202110_Orlando_2/no_annot/results1/edge_finding_20211012195319/lempy_20211012195319_config.txt
# Time series data file:   ../pipeline/src/yeast_data/time_series/orlando2008_WildType_r1_trunc.tsv
# Computed on:  2021-10-12 19:55:49 
 
model	loss	p0	p1	p2	p3	p4
NRM1=tf_act(SWI4)	592.1516918447941	0.17968230925223572	0.02130703738834728	1.0207718468837153	2.1913253071306404	3.012283537655
NRM1=tf_act(SWI4)	592.0837096060587	0.07278268952918328	0.021254771269814832	1.1254451167849588	2.5797578631165714	2.8700674398234134
NRM1=tf_act(SWI4)	592.0849541572923	0.0750306427739174	0.021340094613055437	1.1274276065549262	2.525999831515107	2.849193429436766
NRM1=tf_act(SWI4)	592.0607489244451	0.07446265461797229	0.02135181827495994	1.128702701189435	2.7481950198175205	2.8690515034546484
NRM1=tf_act(SWI4)	592.006036358665	0.07529037072923399	0.021385355052840983	1.1298410244193635	3.00172262750605	2.8297009541692524
NRM1=tf_act(SWI4)	591.9377699196885	0.292557134030785	0.020392770939630364	0.8645360363708182	2.9116322100173395	2.4843929527120383
NRM1=tf_act(SWI4)	592.0067836691697	0.29348813346244157	0.021408468059193303	0.9128336218073021	2.4708309598184823	2.5077846913458335
NRM1=tf_act(SWI4)	104.4569856242234	0.0	0.05643619691176162	8.965361074569621	54.693415536127446	4.930797298388448
NRM1=tf_act(SWI4)	104.49201622071044	0.0	0.056696406674203455	8.922695829091206	54.24359038411027	5.053601728382081
NRM1=tf_act(SWI4)	104.45698562696428	0.0	0.05643616210769307	8.965347850700757	54.693342738588264	4.930823303699784
NRM1=tf_rep(SWI4)	604.216520601132	0.3	0.0031515903098447173	0.0	0.001	3.2528955240243542
NRM1=tf_rep(SWI4)	604.2165412979218	0.3	0.003151598137709278	0.3781723825292763	0.33149628989959956	3.2299839944381343
NRM1=tf_rep(SWI4)	604.2165206011321	0.3	0.0031515903108478888	0.0	0.2783236686714641	3.2077691166965536
NRM1=tf_rep(SWI4)	604.2165206011321	0.3	0.0031515903092463426	0.0	0.501272221991778	3.225848754302653
NRM1=tf_rep(SWI4)	604.216520601132	0.3	0.003151590318359728	0.0	0.7545533183731328	3.187047831020208
NRM1=tf_rep(SWI4)	604.2165864873656	0.3	0.003151482093511916	0.34023771806929143	0.49113758011818776	3.231659140848614
NRM1=tf_rep(SWI4)	604.2165206010741	0.3	0.0031515957988426033	0.0	0.05268007006226938	3.249089600016544
NRM1=tf_rep(SWI4)	604.2165206011321	0.3	0.003151590315759108	0.49490143561607536	0.001	3.266218100991185
NRM1=tf_rep(SWI4)	604.2165206010743	0.3	0.003151594913988602	0.13638799471423158	0.001	3.2631756712853077
NRM1=tf_rep(SWI4)	604.216520601074	0.3	0.0031515955799698934	0.0	0.001	3.256210850398006
NRM1=tf_act(HCM1)	592.1695319915153	0.1796804690416722	0.021299425733351755	1.0203271698777685	2.1913540562674383	3.0122182354998484
NRM1=tf_act(HCM1)	28.142470893862303	0.0	0.10244398312551936	10.709145118976242	52.33859603471967	9.236491847784492
NRM1=tf_act(HCM1)	28.142530737465755	0.0	0.10244425035921136	10.707509709616476	52.33575487335162	9.251800311974481
NRM1=tf_act(HCM1)	28.14263606966738	0.0	0.1024440082498385	10.706380702413993	52.33386372678791	9.261919663700182
NRM1=tf_act(HCM1)	28.143015247974866	0.0	0.10244329118196266	10.714162477453748	52.34733167955414	9.19033376271675
NRM1=tf_act(HCM1)	28.14332820619205	0.0	0.1024483768611198	10.715776828456727	52.34913542589051	9.178568422032765
NRM1=tf_act(HCM1)	28.143404774285028	0.0	0.10244426107892364	10.702665848144315	52.32750052382615	9.29699360309363
NRM1=tf_act(HCM1)	28.142885298425934	0.0	0.10244940695556654	10.713896529356921	52.34571142233828	9.19625095648497
NRM1=tf_act(HCM1)	28.143007888641044	0.0	0.10244408290653878	10.704203193420812	52.33014345739468	9.282360926072949
NRM1=tf_act(HCM1)	28.1443222896275	0.0	0.1024443782847907	10.700043537089394	52.32301279023237	9.321686672851465
NRM1=tf_rep(HCM1)	604.216520601132	0.3	0.0031515903109925573	0.0	0.3471903069473211	3.228721847243459
NRM1=tf_rep(HCM1)	604.2166304591293	0.3	0.003151613203908138	0.3782740619009587	0.677865466230376	3.20564892291027
NRM1=tf_rep(HCM1)	604.2165206011321	0.3	0.003151590303520937	0.0	0.6246928450022405	3.1834340451686893
NRM1=tf_rep(HCM1)	604.2165206011321	0.3	0.0031515903146692864	0.0	0.8476413983225545	3.2015136827747885
NRM1=tf_rep(HCM1)	604.2165206011321	0.3	0.0031515903128294313	0.0	1.1009224947039091	3.1627127594923437
NRM1=tf_rep(HCM1)	604.2167146315035	0.3	0.003151505557793349	0.34045978308940766	0.837759376869836	3.2070631684461315
NRM1=tf_rep(HCM1)	604.2165206012207	0.3	0.0031515957980038935	2.9792246781108865e-06	0.39930186681391766	3.2244936276140614
NRM1=tf_rep(HCM1)	604.2165242460791	0.3	0.0031515908831068235	0.4949042936334856	0.22730572597169765	3.2416221497425735
NRM1=tf_rep(HCM1)	604.2165206010741	0.3	0.0031515949148777397	0.1363908527316418	0.001	3.238579720036696
NRM1=tf_rep(HCM1)	604.2165206010739	0.3	0.0031515955798977	0.0	0.001	3.2316148991493945
NRM1=tf_act(NDD1)	592.2123447933553	0.17969299012281606	0.021271613103304603	1.0188313011328933	2.1913510059221197	3.0121890087951555
NRM1=tf_act(NDD1)	592.1968247115649	0.2999999786156799	0.021275371500184735	0.8986927867378485	1.476882610753276	4.991526930259346
NRM1=tf_act(NDD1)	592.196820767547	0.3	0.02127970839209255	0.8988631989365164	1.423709933499826	4.969312075597418
NRM1=tf_act(NDD1)	592.1968325764427	0.29876308994987094	0.0212796984276875	0.9000996584250608	1.6466583249712092	4.987391874308322
NRM1=tf_act(NDD1)	592.1968630337822	0.2992003452038394	0.021279736620893233	0.8996643234490562	1.8999391561437073	4.948591218811437
NRM1=tf_act(NDD1)	592.1968343362826	0.1859067349808213	0.021279762273271576	1.0129591591726046	1.6364503869010778	4.993251720482914
NRM1=tf_act(NDD1)	592.1968136251152	0.18736838691233723	0.021279791990893446	1.0114989452787007	1.1979928622210327	5.010682194426403
NRM1=tf_act(NDD1)	592.1968110029875	0.056753106037058076	0.021279757806597948	1.1421125254225524	1.0259975240113663	5.02781185944751
NRM1=tf_act(NDD1)	592.196808665164	0.058981906370730135	0.021279709966037973	1.1398813501552265	0.6118098966334511	5.024769429741633
NRM1=tf_act(NDD1)	592.1968085537753	0.06135339075284732	0.021279757212254113	1.1375122089135874	0.5118100873293789	5.017804609113459
NRM1=tf_rep(NDD1)	428.49658599279275	0.005648742924927462	0.0033380212643008386	20.27228381248972	26.98479923355047	10.0
NRM1=tf_rep(NDD1)	428.38682605405745	0.0	0.0032482661603149563	20.567357002385428	26.936536846422637	10.0
NRM1=tf_rep(NDD1)	428.4369852994068	0.0	0.0032504019657312107	20.111973579184497	27.028173044967613	10.0
NRM1=tf_rep(NDD1)	428.47785947127505	0.0	0.0032536257264092687	19.762670175432703	27.101788677158147	10.0
NRM1=tf_rep(NDD1)	427.1383502054099	0.0	0.0031812701780545125	100.0	22.207672639855783	10.0
NRM1=tf_rep(NDD1)	427.1850484982705	0.0	0.0031795253047265898	100.0	22.18033034623713	9.957835978667607
NRM1=tf_rep(NDD1)	427.1394823091497	0.0	0.0031814164096431235	99.51107506255644	22.219408231367478	10.0
NRM1=tf_rep(NDD1)	427.13835128789714	0.0	0.0031813469531279206	99.99952260549463	22.207682696218935	10.0
NRM1=tf_rep(NDD1)	427.1391699644876	0.0	0.0031813995998423604	99.64545178788711	22.216176341161635	10.0
NRM1=tf_rep(NDD1)	427.1399376529995	0.0	0.003181444657505403	99.31587441817611	22.224112955524603	10.0
NRM1=tf_act(SWI5)	592.1968084742456	0.29943363334912515	0.02127976292947472	0.8994322483790066	0.001	3.7173122302466384
NRM1=tf_act(SWI5)	592.1968088967611	0.19240612796086887	0.021279719175079433	1.0064575849768806	0.04039914209196839	3.775068748348192
NRM1=tf_act(SWI5)	592.1968084751625	0.19406663015046502	0.021279720607564598	1.004797154038853	0.001	3.7528538711501525
NRM1=tf_act(SWI5)	592.1970829696859	0.193145315007178	0.02127945705643595	1.0057056199996295	0.22393131449877743	3.770937016005265
NRM1=tf_act(SWI5)	592.196813912947	0.24288327661636155	0.021278786528349025	0.9559144955254537	0.08804368648419568	3.869445127742734
NRM1=tf_act(SWI5)	592.1968084750695	0.13642971964704073	0.02127972462668188	1.0624342643631182	0.001	3.9141050117992755
NRM1=tf_act(SWI5)	592.1968084746992	0.13813625940384386	0.02127974122284337	1.0607285471731582	0.001	3.9315354709672055
NRM1=tf_act(SWI5)	592.1968084753098	0.016209539309347303	0.0212797143126607	1.1826539326236747	0.001	3.9486639719418464
NRM1=tf_act(SWI5)	592.1968084753715	0.01858393626423954	0.021279711719079195	1.1802794070651954	0.001	3.945621547379486
NRM1=tf_act(SWI5)	592.1968084751996	0.021089763796811045	0.021279719021515084	1.1777739658720556	0.001	3.9386567217732527
NRM1=tf_rep(SWI5)	227.8854366204792	0.0	0.027799012050543345	4.214744763791363	32.044680392482725	3.977255631468286
NRM1=tf_rep(SWI5)	227.8921771890861	0.0	0.02794961278466384	4.217139065860618	32.206818852080744	3.9921534261541574
NRM1=tf_rep(SWI5)	227.89745450012384	0.0	0.02798795373916995	4.217596550857595	32.25973296977296	4.00324300549606
NRM1=tf_rep(SWI5)	227.8857278048841	0.0	0.027823607849772336	4.216016625171017	32.044875397857446	3.966348557692949
NRM1=tf_rep(SWI5)	227.89779095237688	0.0	0.027977646231972256	4.217140770937239	32.25952067223608	4.0082008830698435
NRM1=tf_rep(SWI5)	227.88544006134063	0.0	0.02779206978746435	4.214626174371463	32.03683780907244	3.976277384233102
NRM1=tf_rep(SWI5)	227.91272651585572	0.0	0.027417311619711712	4.205230444343389	31.716185790623925	3.978570409793406
NRM1=tf_rep(SWI5)	227.9280737287038	0.0	0.02774754743244994	4.222196215101993	31.759973647076006	3.8622611877061734
NRM1=tf_rep(SWI5)	227.88543422342585	0.0	0.02779592435688554	4.21468139958569	32.041515860536414	3.9769878715192575
NRM1=tf_rep(SWI5)	227.88639704566586	0.0	0.02778508368503192	4.215462096473786	31.99872297441193	3.959736223272422
NRM1=tf_act(NRM1)	592.1979797117425	0.3	0.021279447771976802	0.8988530958178409	0.7150204616429594	4.382129357526591
NRM1=tf_act(NRM1)	592.1968144147185	0.2891176078278949	0.021279752285022685	0.9097476593836192	0.27681669098711775	4.7254182706160055
NRM1=tf_act(NRM1)	592.1968108170175	0.29030813406885964	0.021279704776235676	0.9085548674996966	0.22364404735715093	4.703203412843235
NRM1=tf_act(NRM1)	592.1968660794616	0.2891000941486213	0.021279673591920806	0.9097614160259875	0.4465904273352031	4.721283601642653
NRM1=tf_act(NRM1)	592.1973351280686	0.2895559601789039	0.02127939195507643	0.9092920523576091	0.6998650128715029	4.682484961392703
NRM1=tf_act(NRM1)	592.1968651846029	0.17747215340996628	0.021280367568413474	1.021423731590111	0.43591223983074995	4.727287169307883
NRM1=tf_act(NRM1)	592.1968084755129	0.1789755111001871	0.02127970584266343	1.0198875409629713	0.001	4.744717628475812
NRM1=tf_act(NRM1)	592.1968084751949	0.049841880603276024	0.02127971919736696	1.1490218330375055	0.001	4.761849396866083
NRM1=tf_act(NRM1)	592.1968084749935	0.05209550619374854	0.021279727991101463	1.1467686702276234	0.001	4.758806967160206
NRM1=tf_act(NRM1)	592.1968084753789	0.05448988462858082	0.021279711401832043	1.144373443167048	0.001	4.751842146272904
NRM1=tf_rep(NRM1)	455.6551306243701	0.0	0.0021139460684187613	4.910543632174603	12.704326914036326	10.0
NRM1=tf_rep(NRM1)	455.6885324996797	0.0	0.0021347622712376566	4.887668013763783	12.897631720145487	9.97503576362918
NRM1=tf_rep(NRM1)	455.6550972881165	0.0	0.002114893557918273	4.909702465357108	12.712223363533237	10.0
NRM1=tf_rep(NRM1)	455.6896761497299	0.0	0.0021449220655996243	4.882659021890553	12.969406170186296	10.0
NRM1=tf_rep(NRM1)	455.6550972878967	0.0	0.002114889646965008	4.909698140779163	12.712241529581924	10.0
NRM1=tf_rep(NRM1)	455.72916822969165	0.0	0.0020844942181473597	4.963728833327822	12.34693243541542	10.0
NRM1=tf_rep(NRM1)	455.6550972881091	0.0	0.002114885633947533	4.909696239308183	12.712234104398341	10.0
NRM1=tf_rep(NRM1)	455.65509728786344	0.0	0.002114891580057909	4.909697809741861	12.71225166068753	10.0
NRM1=tf_rep(NRM1)	455.71429573196644	0.0	0.00208439504826154	4.953724579996331	12.387780482962878	9.99768602041384
NRM1=tf_rep(NRM1)	455.7188035297205	0.0	0.0020831002103801916	4.95625430137157	12.372024621379783	10.0
NRM1=tf_act(CLN3)	592.1989508840244	0.17969151176959053	0.02127799842051536	1.0191098298722314	2.1914171264663422	3.012927880333459
NRM1=tf_act(CLN3)	592.1968440868025	0.2888780162788543	0.021277060000373646	0.9098553883718963	2.0458572081152813	4.184581091296698
NRM1=tf_act(CLN3)	592.1968424473187	0.29006972128231734	0.021279702218265195	0.9087934025824597	1.9926838996157374	4.1623671602085635
NRM1=tf_act(CLN3)	592.1968584094258	0.2888623921548668	0.021279674574653764	0.9099994775553641	2.215631478396283	4.180448590536772
NRM1=tf_act(CLN3)	592.1968968938694	0.2893186954993333	0.021279705837865384	0.9095450135041583	2.4689122216134303	4.141648353492599
NRM1=tf_act(CLN3)	592.1968624557765	0.17722142913723465	0.02127971945599071	1.0216426955763822	2.2054499948025827	4.186254736941217
NRM1=tf_act(CLN3)	592.1968285564004	0.17872606786666062	0.021279691474223372	1.020136418823321	1.7669916876509761	4.203686317780594
NRM1=tf_act(CLN3)	592.1968223298447	0.049635969479332805	0.021279699962312347	1.1492268922098456	1.5950481729276293	4.2207382878612
NRM1=tf_act(CLN3)	592.1968124076783	0.051890334367208475	0.021279712369685833	1.1469730707059214	1.1808604951132584	4.2176958917853495
NRM1=tf_act(CLN3)	592.1968112506557	0.05428540233889535	0.021279760373902355	1.1445803737113938	1.0808606718023264	4.210731090246273
NRM1=tf_rep(CLN3)	310.9143782862141	0.0	0.1343038590730033	17.6873112397676	72.95024345670625	5.793876940090761
NRM1=tf_rep(CLN3)	310.91705298923796	0.0	0.13443468365591285	17.853558199693765	72.67550738587309	5.7283716875349775
NRM1=tf_rep(CLN3)	310.91350919234674	0.0	0.1343102492678945	17.72411407554064	72.88406051673545	5.77808710668121
NRM1=tf_rep(CLN3)	310.9227420170283	0.0	0.13432502490254444	17.581751583299194	73.1498606211594	5.842057702965683
NRM1=tf_rep(CLN3)	310.9381092444747	0.0	0.1339682567754583	17.457681829534316	73.2989516425983	5.882251388439923
NRM1=tf_rep(CLN3)	310.9156689562324	0.0	0.13431271291077454	17.660770330218483	73.00112748539453	5.806004164925175
NRM1=tf_rep(CLN3)	310.9140765749556	0.0	0.13431418390805522	17.784088498511327	72.77493710935123	5.752359417430053
NRM1=tf_rep(CLN3)	310.95296315998246	0.0	0.13470277042006393	18.125079644624826	72.24469229286257	5.629674218376035
NRM1=tf_rep(CLN3)	310.9816723039624	0.0	0.13422365538031808	18.206782019617425	71.98884886590197	5.578045286522828
NRM1=tf_rep(CLN3)	310.98024419059027	0.0	0.13423051022893068	18.20247452322374	71.99873475435696	5.580551328439231
NRM1=tf_act(WHI5)	592.1987445472963	0.17969203075067897	0.021279453742573392	1.0191951869295377	2.1914026954563632	3.0121026968910893
NRM1=tf_act(WHI5)	592.2003996828298	0.07318732216933542	0.02128015102739788	1.1257681387612628	2.527830951213334	2.9727508783640135
NRM1=tf_act(WHI5)	592.2003425481533	0.0754272263078144	0.02127928393511948	1.123485666223951	2.4745236870970184	2.9508868060819173
NRM1=tf_act(WHI5)	592.2011890287368	0.07485957798318288	0.021279163423616066	1.1240614374843607	2.697324680304745	2.9693735702709456
NRM1=tf_act(WHI5)	592.202998900097	0.07572774394892946	0.021278457857305193	1.1231997879950046	2.950578116619764	2.9306445715757663
NRM1=tf_act(WHI5)	592.2009703261969	0.2701483339726806	0.021374722016327577	0.9334309303844313	2.6979097920789843	2.943241142381127
NRM1=tf_act(WHI5)	592.1989870914234	0.27119191348258026	0.021279116112966946	0.9276843196126392	2.259291659415474	2.9610690275763862
NRM1=tf_act(WHI5)	592.1989449772606	0.12580347224950675	0.02128011112734006	1.0731228404117696	2.102723083689706	2.941394539485374
NRM1=tf_act(WHI5)	592.1979355374795	0.1277842785833562	0.02127953552004676	1.0710931564249062	1.6884545921426706	2.9385159601035595
NRM1=tf_act(WHI5)	592.1977658546217	0.1299272784128278	0.02127963751035408	1.068951647048937	1.5883832435279364	2.931689627758076
NRM1=tf_rep(WHI5)	507.0948544522947	0.0	0.0027297238986106116	22.153824476664337	36.36646121381002	10.0
NRM1=tf_rep(WHI5)	507.1019140472443	0.0	0.0027204095492416496	22.46104230842923	36.300449108694465	10.0
NRM1=tf_rep(WHI5)	507.0915394385778	0.0	0.002734336605437925	22.005138496684502	36.3988555986398	10.0
NRM1=tf_rep(WHI5)	507.0846325510046	0.0	0.002744584569945135	21.684026539478193	36.46991629370162	10.0
NRM1=tf_rep(WHI5)	507.08104119378675	0.0	0.002750142535553795	21.50968487830637	36.50902372758092	10.0
NRM1=tf_rep(WHI5)	507.0889198804578	0.0	0.0027380890613348855	21.88529284660612	36.42516736755888	10.0
NRM1=tf_rep(WHI5)	507.0808126020175	0.0	0.0027505211903189474	21.49838877088991	36.511576410622794	10.0
NRM1=tf_rep(WHI5)	507.09153348831535	0.0	0.0027343706844704272	22.004869772767687	36.39892004159258	10.0
NRM1=tf_rep(WHI5)	507.08586727229147	0.0	0.002742615824777497	21.742692299887246	36.45678258632569	10.0
NRM1=tf_rep(WHI5)	507.0797239406632	0.0	0.0027523059264602124	21.444239112912094	36.52385381064792	10.0
NRM1=tf_act(YOX1)	592.3466627452334	0.1797010418672136	0.021212292499655575	1.0163394603984506	2.190690106946345	3.0127673271002253
NRM1=tf_act(YOX1)	592.4841823973576	0.07460708356894953	0.021278360421724887	1.125373897073157	2.5630653138169937	2.878240844267365
NRM1=tf_act(YOX1)	592.4694467020255	0.0768351133603161	0.02117828343337391	1.118143597360258	2.5071182153129867	2.859729034845599
NRM1=tf_act(YOX1)	592.5358593923477	0.07627097370904941	0.021153770381421317	1.1177391920168247	2.7271789065562846	2.881912593856266
NRM1=tf_act(YOX1)	592.6347529894681	0.07713726879840002	0.021116165673480364	1.1155232015354357	2.979569784241244	2.84381945468992
NRM1=tf_act(YOX1)	592.5186178130406	0.3	0.021163184554631276	0.8951460444968345	2.803637312133	2.592317541634712
NRM1=tf_act(YOX1)	592.4079598800788	0.3	0.021177997243730998	0.8950829035919308	2.3610041193264424	2.61681055663329
NRM1=tf_act(YOX1)	592.4898252714385	0.15112110868803266	0.021315578864549975	1.052607122878769	2.548934833804022	2.3530718555408003
NRM1=tf_act(YOX1)	592.3964352154718	0.15300749071072214	0.021221811952578263	1.0449859184273362	2.130069217079522	2.358548874792947
NRM1=tf_act(YOX1)	592.3753325864367	0.15507190312290467	0.021227888157168993	1.0429959774933923	2.025796147675914	2.359164527157103
NRM1=tf_rep(YOX1)	526.6780536818486	0.07925550551313959	0.0013043268074028921	99.7678214981565	6.874433377854511	9.999773736892505
NRM1=tf_rep(YOX1)	526.6823183687918	0.0908070447250793	0.0015315632005167966	99.94839560953649	6.868029636502474	9.977945849746021
NRM1=tf_rep(YOX1)	526.6856490480674	0.09268001298598336	0.0015682805758076004	99.46371373756715	6.867960108076807	9.955174548564115
NRM1=tf_rep(YOX1)	526.6822913552691	0.08874448566033016	0.0014909819730299007	99.14778401865802	6.873966790454889	9.97464539530616
NRM1=tf_rep(YOX1)	526.6845675108776	0.07488205998611155	0.0012190625082190893	98.97253179585151	6.8731872657845345	9.946493507679769
NRM1=tf_rep(YOX1)	526.6822684620787	0.07529682414130276	0.0012265592550065002	99.3146346545131	6.873237221398119	9.965067149806321
NRM1=tf_rep(YOX1)	526.6852669583026	0.07848865221437651	0.0012893963702582181	98.82381435090744	6.872703266836507	9.939654090281065
NRM1=tf_rep(YOX1)	526.6863436061677	0.07922428341711607	0.001303804216260899	99.31994433967654	6.8672582676018274	9.930100476160913
NRM1=tf_rep(YOX1)	526.6924368730845	0.08176036583823204	0.0013540122578028517	98.96428332578486	6.862347531443965	9.882268906571635
NRM1=tf_rep(YOX1)	526.6955937270507	0.08381477805489301	0.001394331417026565	98.63279163587035	6.861090124228022	9.859516530895357
NRM1=tf_act(ASH1)	592.196809245321	0.2192359511408187	0.02127970808081256	0.9796272138366191	0.22615821943453032	5.130674272770972
NRM1=tf_act(ASH1)	592.1969011581141	0.10738627969285917	0.021280465370080607	1.0915146299479734	0.5564810252033129	5.107815081925497
NRM1=tf_act(ASH1)	592.196867476219	0.1094598730170954	0.02127974396116108	1.0894052044514564	0.5033050803320448	5.085601240135998
NRM1=tf_act(ASH1)	592.1971727969512	0.10879048297193922	0.021279463144329536	1.0900613779455528	0.7262401227856117	5.1036855741832285
NRM1=tf_act(ASH1)	592.198632732436	0.10959264429415357	0.021278580092179287	1.0892187772972148	0.9795001520435476	5.064893544254339
NRM1=tf_act(ASH1)	592.1971692738218	0.019301131339582903	0.021280171031115333	1.179585805696977	0.7158163414340858	5.109621284919005
NRM1=tf_act(ASH1)	592.1968111444493	0.021587335341756143	0.021279717426374876	1.1772762971634316	0.2773587904134835	5.127051754141567
NRM1=tf_act(ASH1)	594.017423837346	0.0037004539831889164	0.026367482071151464	1.473932146347162	0.10536322406910459	5.144180255116208
NRM1=tf_act(ASH1)	592.1968084744741	0.02394242650002123	0.021279752217109604	1.1749230020421664	0.001	5.12400932443569
NRM1=tf_act(ASH1)	592.1968084746082	0.026430431653786106	0.02127974543291789	1.1724345844564599	0.001	5.117044503548388
NRM1=tf_rep(ASH1)	604.2165206011317	0.3	0.0031515903174934635	0.0	0.001	2.5438127891275903
NRM1=tf_rep(ASH1)	325.09795956605745	0.3	0.01965397159970847	3.054466790173426	15.459252802054968	10.0
NRM1=tf_rep(ASH1)	325.0979595660102	0.3	0.01965396982473873	3.0544668623442095	15.459249263785258	10.0
NRM1=tf_rep(ASH1)	325.09795956627346	0.3	0.01965396019393651	3.0544655893952948	15.45924971466413	10.0
NRM1=tf_rep(ASH1)	325.09795956685446	0.3	0.019653986209492005	3.0544749958860877	15.459235013044399	10.0
NRM1=tf_rep(ASH1)	325.0979595660142	0.3	0.0196539704895352	3.0544676585828494	15.459246800942495	10.0
NRM1=tf_rep(ASH1)	325.0979595660584	0.3	0.01965396765042486	3.0544666498025252	15.459248930621808	10.0
NRM1=tf_rep(ASH1)	325.0979595733482	0.3	0.01965397360461585	3.0544637212756522	15.459232179833915	10.0
NRM1=tf_rep(ASH1)	325.09795956683513	0.3	0.019653953182710345	3.0544618670324253	15.45925383624983	10.0
NRM1=tf_rep(ASH1)	325.0980436518951	0.3	0.01965551362485423	3.0561989524984208	15.453731561352026	10.0
