# LEMpy local minima file for target HCM1, replicate 0
# Right-hand side of tf_act():  p0 - p1(tar) + p2(reg^p4) / (p3^p4 + reg^p4)
# Right-hand side of tf_rep():  p0 - p1(tar) + p2(p3^p4) / (p3^p4 + reg^p4)
# Run configuration file:  ../pipeline/src/yeast_data/simulations202110_Orlando_2/no_annot/results1/edge_finding_20211012195319/lempy_20211012195319_config.txt
# Time series data file:   ../pipeline/src/yeast_data/time_series/orlando2008_WildType_r1_trunc.tsv
# Computed on:  2021-10-12 19:55:49 
 
model	loss	p0	p1	p2	p3	p4
HCM1=tf_act(SWI4)	403.5180378507399	0.0018385802400352153	0.00046210923389071505	0.0	2.22173681533745	2.916004942949631
HCM1=tf_act(SWI4)	403.51476169595975	0.0	0.00042947504319582226	0.0	2.568273570890763	2.8589578322608107
HCM1=tf_act(SWI4)	403.5147616959598	0.0	0.0004294750392615681	0.0	2.5151009496626275	2.83674295451923
HCM1=tf_act(SWI4)	403.5400789403188	5.1048930495168326e-05	0.0006724638628079429	0.013709438627876998	2.738049509314277	2.8548225790973736
HCM1=tf_act(SWI4)	403.5147616959597	0.0	0.00042947504299181954	0.0	2.991330605695632	2.8160216558149287
HCM1=tf_act(SWI4)	403.51476169595975	0.0	0.00042947504403815075	0.0	2.7412047467347875	2.830933541880143
HCM1=tf_act(SWI4)	403.65548660745895	0.001003058548341649	0.001393075584027033	0.05514897890527506	2.302747258824284	2.8483639596808237
HCM1=tf_act(SWI4)	403.51476169595975	0.0	0.0004294750441079606	0.0	2.197421887080501	2.735156393334951
HCM1=tf_act(SWI4)	403.5622288909711	0.0014012127292863574	0.0008479702868287179	0.022335821927296468	1.7832342647620798	2.732113954581747
HCM1=tf_act(SWI4)	403.65735997558994	0.003083219203094772	0.0014276799388729207	0.05448765683345274	1.6832344714790743	2.725149107458623
HCM1=tf_rep(SWI4)	403.51476169595975	0.0	0.0004294750427980317	0.0	0.001	3.152728389029857
HCM1=tf_rep(SWI4)	403.56108289739115	0.022824802772688117	0.0008299040309474018	0.3781718920346083	0.33149502180076623	3.1298183288945203
HCM1=tf_rep(SWI4)	403.5147616959597	0.0	0.00042947504464058205	0.0	0.27832240057263075	3.1076034511529396
HCM1=tf_rep(SWI4)	403.51476169595963	-1.734723475976807e-18	0.00042947504662641184	0.0	0.5012709538929447	3.1256830887590388
HCM1=tf_rep(SWI4)	403.51476169595975	0.0	0.0004294750400411372	0.0	0.5316034969539856	3.0688025278704947
HCM1=tf_rep(SWI4)	403.5147721843318	0.0	0.0004294766344739625	0.3402131446691368	0.2681115321655734	3.1134633184203233
HCM1=tf_rep(SWI4)	403.5147616959597	0.0	0.000429475044586376	0.0	0.001	3.1308937775882533
HCM1=tf_rep(SWI4)	403.5147616959607	0.0	0.0004294750146563727	0.49490143561607536	0.001	3.148022278562894
HCM1=tf_rep(SWI4)	403.5656207497658	0.02476174514405931	0.0008633546174126119	0.13638799471423158	0.001	3.144979848857017
HCM1=tf_rep(SWI4)	403.5501656313412	0.017995492953901123	0.0007460984930374834	0.0	0.001	3.138015027969715
HCM1=tf_act(HCM1)	403.52951435795904	0.007976923067895512	0.0005706124080999594	0.0	2.221789252384705	2.9158398231103337
HCM1=tf_act(HCM1)	403.51476169594264	0.0	0.00042947569955290146	0.0	2.5604537521416795	2.8745032095371856
HCM1=tf_act(HCM1)	403.5147616959599	0.0	0.00042947503721774437	0.0	2.507281130913544	2.852288331795605
HCM1=tf_act(HCM1)	403.5147616959592	0.0	0.0004294750609476754	0.0	2.730422744012482	2.8701818960309597
HCM1=tf_act(HCM1)	403.5147616959597	0.0	0.0004294750456089769	0.0	2.983703840393837	2.831380972748515
HCM1=tf_act(HCM1)	403.51476169595963	0.0	0.000429475049019419	0.0	2.7266960259365174	2.860739622630424
HCM1=tf_act(HCM1)	403.6570467294392	0.0009996301018643345	0.0013821992383346961	0.05458607478248772	2.2882385118690536	2.878170089373038
HCM1=tf_act(HCM1)	403.5147616959597	0.0	0.0004294750456950874	0.0	2.1627347351112958	2.80231675275274
HCM1=tf_act(HCM1)	403.56217459269277	0.001399736050592142	0.0008413401267075164	0.021972221229832705	1.7485471066968792	2.799274324460681
HCM1=tf_act(HCM1)	403.6574214420797	0.0030795332139827276	0.0014182010942138275	0.05396407400219696	1.6485472954325657	2.7923095074200868
HCM1=tf_rep(HCM1)	401.2773949819026	0.0	0.0037184118312895025	6.476683570602572	11.30537504868338	2.77572930680037
HCM1=tf_rep(HCM1)	401.28218692841284	0.0	0.0037324832826098665	6.664656993647671	11.34582497357597	2.8085901342876083
HCM1=tf_rep(HCM1)	401.27005996204036	0.0	0.0037231931227391444	6.214181417378136	11.356029190143571	2.7452968997608402
HCM1=tf_rep(HCM1)	401.25384776585287	0.0	0.0037346806397436662	5.937139439073838	11.60289001999869	2.751233589647274
HCM1=tf_rep(HCM1)	401.241397965044	0.0	0.0037363262813427667	5.767345599588132	11.792724314212014	2.7634633179115538
HCM1=tf_rep(HCM1)	401.2583148894997	0.0	0.0037525769825967363	6.179427224337526	11.629872049994225	2.791842649026523
HCM1=tf_rep(HCM1)	401.25663147107167	0.0	0.0037582071828551884	5.963032005850471	11.565735421361245	2.7404188248761194
HCM1=tf_rep(HCM1)	401.2746041475579	0.0	0.00373362568382466	6.43949476494518	11.361393869656665	2.778152844087152
HCM1=tf_rep(HCM1)	401.28033674098344	0.0	0.0037281885870878123	6.2335282911476515	11.170894772707754	2.7064190990389627
HCM1=tf_rep(HCM1)	401.2798539492802	0.0	0.0037396247960707297	5.993277481202558	11.195895145807011	2.6709714164198295
HCM1=tf_act(NDD1)	403.5147616959597	0.0	0.00042947504228505357	0.0	2.220588791641059	2.9196376967037208
HCM1=tf_act(NDD1)	403.51476169595963	0.0	0.0004294750454064388	0.0	2.5511576845547292	2.894978544078375
HCM1=tf_act(NDD1)	403.51476169595986	0.0	0.0004294750382299754	0.0	2.4979850633265936	2.872763666336794
HCM1=tf_act(NDD1)	403.5147616959599	0.0	0.00042947503959196183	0.0	2.720955510411877	2.890931319080563
HCM1=tf_act(NDD1)	403.5147616959597	-5.421010862427522e-20	0.0004294750425404796	0.0	2.974236606793232	2.852130395798118
HCM1=tf_act(NDD1)	403.51476169595975	0.0	0.00042947504431213167	0.0	2.456926139066112	2.9360017111866195
HCM1=tf_act(NDD1)	403.65728575151985	0.0009985368561319834	0.0013786028598849116	0.05438383169735099	2.0184686175140505	2.9534321918810584
HCM1=tf_act(NDD1)	403.5147616959598	0.0	0.00042947504174636414	0.0	1.8530447233857326	2.956356388886491
HCM1=tf_act(NDD1)	403.5622013772717	0.0013997231669574048	0.0008408851189837273	0.021945184333819402	1.4388570938075222	2.9533139621184765
HCM1=tf_act(NDD1)	403.65744764381	0.003079334126056853	0.0014173548228124627	0.05391211627643901	1.3388572794307068	2.9463491479415773
HCM1=tf_rep(NDD1)	191.26484658254603	0.0	0.026575077972379672	16.838490428528882	27.181498513277653	3.223533441783858
HCM1=tf_rep(NDD1)	191.26205206399797	0.0	0.02657864249335793	16.952949151161118	27.07962594726907	3.2172467387777557
HCM1=tf_rep(NDD1)	191.26934401023027	0.0	0.026567534796015535	16.667263254794033	27.33342196443807	3.2328005334319423
HCM1=tf_rep(NDD1)	191.27762657684818	0.0	0.026568783713990313	16.3888650302773	27.58170064722206	3.246466463897043
HCM1=tf_rep(NDD1)	191.2920442594166	0.0	0.026635150642185808	16.184205602837604	27.706107403864202	3.239403606260301
HCM1=tf_rep(NDD1)	191.27323111391266	0.0	0.026561770903514723	16.531452302004993	27.456497094316735	3.240430951143374
HCM1=tf_rep(NDD1)	191.27727244093984	0.0	0.026556564015622286	16.400060252670965	27.57737946171104	3.248000706212833
HCM1=tf_rep(NDD1)	191.26628999553265	0.0	0.026572127341295385	16.781452277153548	27.231141520376113	3.2264970100998505
HCM1=tf_rep(NDD1)	191.26786563845164	0.0	0.026569708657342407	16.72168143990577	27.284619838733143	3.229799045673182
HCM1=tf_rep(NDD1)	191.27256446819453	0.0	0.026563194604249298	16.554092137806332	27.435974838476948	3.2391440055976632
HCM1=tf_act(SWI5)	403.55575109001927	0.020507193155101903	0.0007897503748489367	0.0	2.2420803626789354	2.854408088473585
HCM1=tf_act(SWI5)	403.5147616959597	0.0	0.00042947504442176045	0.0	2.221486910857005	3.1030071383682456
HCM1=tf_act(SWI5)	403.51476169596	0.0	0.00042947503420881185	0.0	2.1683142896288694	3.080792260626665
HCM1=tf_act(SWI5)	403.5147616965548	0.0	0.00042946458753034274	0.0	2.391262426048159	3.0988722535341684
HCM1=tf_act(SWI5)	403.51476169595963	0.0	0.000429475045638456	0.0	2.644543522429514	3.0600713302517235
HCM1=tf_act(SWI5)	403.51476169595963	0.0	0.00042947504607776787	0.0	2.2300671996075296	3.2241515778951166
HCM1=tf_act(SWI5)	403.5147616959597	0.0	0.00042947504362819266	0.0	1.791609374225282	3.2415822774270078
HCM1=tf_act(SWI5)	403.5147616959598	0.0	0.0004294750432970317	0.0	1.6406992841529016	3.2319441856327247
HCM1=tf_act(SWI5)	403.56053543835225	0.0013859568214047973	0.0007770213187622991	0.01845315428282942	1.2265115823299453	3.2289018058632033
HCM1=tf_act(SWI5)	403.65673887018465	0.003047679117208181	0.0013353007346041791	0.049421912867477026	1.1265115525037408	3.221937127467977
HCM1=tf_rep(SWI5)	403.51476169595946	0.0	0.00042947504279681667	3.557817951526672e-08	0.001	1.8302339751247396
HCM1=tf_rep(SWI5)	120.51967978686285	0.0	0.07618094462421206	7.291453938878052	48.730795622462814	2.5503043264733907
HCM1=tf_rep(SWI5)	120.51987472791845	0.0	0.07610707801042112	7.286498457275302	48.71318905527696	2.5546337818557237
HCM1=tf_rep(SWI5)	120.5433371991627	0.0	0.07653980882312464	7.298055327938122	49.005190197624515	2.5674935427811416
HCM1=tf_rep(SWI5)	120.51967978622062	0.0	0.07618103880051862	7.291463127262864	48.730811802447114	2.5502979147881013
HCM1=tf_rep(SWI5)	120.55376560266181	0.0	0.07530120451224002	7.243343114558434	48.40426317069813	2.5788655846526676
HCM1=tf_rep(SWI5)	120.51970166847688	0.0	0.0762046458630147	7.293671238662461	48.73131768692362	2.5501382510044075
HCM1=tf_rep(SWI5)	120.51968475530863	0.0	0.0761887678552379	7.29184993272368	48.73378705848902	2.549689739576341
HCM1=tf_rep(SWI5)	120.54553096083156	0.0	0.0757200033606809	7.2780290527389635	48.4322375372219	2.5409698842626716
HCM1=tf_rep(SWI5)	120.54621219594351	0.0	0.07584708603431503	7.288161078751821	48.4438980017653	2.5285065037034506
HCM1=tf_act(NRM1)	403.5147616959597	0.0	0.0004294750454099257	0.0	2.2349739797273207	2.8735468413585874
HCM1=tf_act(NRM1)	403.51476169595975	0.0	0.0004294750435477761	0.0	2.4777312030930023	2.923929811157254
HCM1=tf_act(NRM1)	403.5147616959598	0.0	0.0004294750392942076	0.0	2.4245585818648667	2.9017149334156733
HCM1=tf_act(NRM1)	403.5147616967944	0.0	0.00042946201451737003	0.0	2.64750684772197	2.9197948658595423
HCM1=tf_act(NRM1)	403.51476169595975	-5.421010862427522e-20	0.0004294750435788899	0.0	2.9007879441033246	2.8809939425770974
HCM1=tf_act(NRM1)	403.51476169595975	0.0	0.00042947504546771343	0.0	2.312871760957231	3.02746044630777
HCM1=tf_act(NRM1)	403.67095291106995	0.0009558099930261591	0.0012480405402188754	0.04763622088993101	1.8744140130701226	3.0448911204288267
HCM1=tf_act(NRM1)	403.51476169595963	0.0	0.00042947504699513	0.0	1.7153028970168114	3.0336221016145273
HCM1=tf_act(NRM1)	403.5613743258337	0.0013905661850644262	0.0007988530991384029	0.0196520350843474	1.3011152174722036	3.0305797123559324
HCM1=tf_act(NRM1)	403.65735710615934	0.0030578872552649763	0.0013621705719536552	0.05089891379197357	1.2011152675772256	3.023614998089778
HCM1=tf_rep(NRM1)	185.44900857639456	0.0	0.031405588551168706	5.398136955984052	30.550230916437652	3.833163960861426
HCM1=tf_rep(NRM1)	185.45628490814602	0.0	0.03139993887765529	5.373890986304618	30.730985888271135	3.8933394497096527
HCM1=tf_rep(NRM1)	185.4489942026046	0.0	0.031386891933840845	5.399846460100319	30.52590995525706	3.8302672256821384
HCM1=tf_rep(NRM1)	185.4590716310256	0.0	0.031448293673928346	5.370448066497057	30.781964475196055	3.8952621428360708
HCM1=tf_rep(NRM1)	185.4489781468827	0.0	0.03141081273011361	5.402380420341511	30.53014816221069	3.8285352857678085
HCM1=tf_rep(NRM1)	185.46332635352277	0.0	0.03134273358542376	5.437462926389279	30.22392339320608	3.749558048089621
HCM1=tf_rep(NRM1)	185.50378792182906	0.0	0.031071974912614975	5.447164313839153	29.999860558269358	3.752259613980445
HCM1=tf_rep(NRM1)	185.45104783498647	0.0	0.03141204588365079	5.409806229454894	30.515017431473694	3.8382111574584106
HCM1=tf_rep(NRM1)	185.4618617137898	0.0	0.031346978903358316	5.4355514910983205	30.240198925302543	3.7533051341857693
HCM1=tf_rep(NRM1)	185.4638787013248	0.0	0.031412251702651335	5.441146393692221	30.238215959143247	3.7365770878732345
HCM1=tf_act(CLN3)	403.5429661037905	0.014639094235466027	0.0006875416082015624	0.0	2.2218312482504388	2.918079750049268
HCM1=tf_act(CLN3)	403.5147616959597	0.0	0.00042947504308069566	0.0	2.5541528128119486	2.889838591441584
HCM1=tf_act(CLN3)	403.5147616959599	0.0	0.00042947503617453046	0.0	2.500980191583813	2.867623713700003
HCM1=tf_act(CLN3)	403.53951033970947	4.850467817202427e-05	0.0006590472943143964	0.012961472744835572	2.7239287452598235	2.8857033502514557
HCM1=tf_act(CLN3)	403.51476169596	0.0	0.00042947503333065374	0.0	2.9772098416411783	2.846902426969011
HCM1=tf_act(CLN3)	403.5147616959597	0.0	0.00042947504277737525	0.0	2.714986964518189	2.887736468115153
HCM1=tf_act(CLN3)	403.65677080069617	0.0010003028134810807	0.0013841659190208457	0.05467444640134122	2.2765294557025424	2.905166923408543
HCM1=tf_act(CLN3)	403.5147616959598	0.0	0.0004294750427672825	0.0	2.1110328366844757	2.9057774674060024
HCM1=tf_act(CLN3)	403.5622030045392	0.0014000497288635476	0.0008425037449010222	0.02203292545042163	1.6968452091931105	2.902735037193702
HCM1=tf_act(CLN3)	403.65749209216887	0.003080307176769277	0.0014199850314097501	0.05405715058007042	1.5968454007538238	2.8957702149747395
HCM1=tf_rep(CLN3)	403.51476191552916	0.0	0.00042947509280928474	0.16263108530771556	0.970751971074633	4.185693297363866
HCM1=tf_rep(CLN3)	403.56106302159554	0.022824191345737252	0.0008298906811058929	0.5408011305876104	1.301238908639674	4.162788781991799
HCM1=tf_rep(CLN3)	403.51476195158904	0.0	0.00042947508821087677	0.05571689766552254	1.2480662866237326	4.140573904404006
HCM1=tf_rep(CLN3)	403.5449539979718	0.015579714678114608	0.0007039781455181614	1.3820288004646301e-08	1.4710148399440466	4.1586535420101045
HCM1=tf_rep(CLN3)	403.51476169595963	0.0	0.0004294750452993519	0.0	1.7242959363254013	4.119852618727659
HCM1=tf_rep(CLN3)	403.56632413515763	0.025055195901183946	0.0008684144692405958	0.34021373411647615	1.4608082426431648	4.1645118987373175
HCM1=tf_rep(CLN3)	403.5809915442086	0.030956466431274487	0.0009696836560997574	2.2667728919292916e-20	1.0223507325872463	4.181942357905247
HCM1=tf_rep(CLN3)	403.5147620589215	0.0	0.0004294751098189923	0.49490143711631723	0.8503552453696793	4.199071015634942
HCM1=tf_rep(CLN3)	403.51476170211174	0.0	0.0004294750478677148	0.13638799698875603	0.4361676182768225	4.196028585775145
HCM1=tf_rep(CLN3)	403.6095837462732	0.04124270697746672	0.0011436744773311873	0.0	0.33616780897275034	4.189063764887843
HCM1=tf_act(WHI5)	403.56416821958464	0.024149649193590913	0.0008527906521276385	0.0	2.222154170269192	2.9146808853876607
HCM1=tf_act(WHI5)	403.5147616959595	0.0	0.00042947504868678384	0.0	2.553932092066643	2.8877373374527866
HCM1=tf_act(WHI5)	403.5147616959599	0.0	0.0004294750392481118	0.0	2.5007594708385072	2.865522459711206
HCM1=tf_act(WHI5)	403.53932505761605	4.772812078857127e-05	0.0006548209630622977	0.012728740764944764	2.723708022853085	2.883602100900676
HCM1=tf_act(WHI5)	403.5147616959597	0.0	0.0004294750405286285	0.0	2.9769891192344398	2.844801177618231
HCM1=tf_act(WHI5)	403.51476169595975	0.0	0.0004294750447736176	0.0	2.7141549555652844	2.8871506928351898
HCM1=tf_act(WHI5)	403.65706364090516	0.0009993540246663575	0.0013812280868531561	0.05452206646646369	2.2756974398973453	2.904581162858873
HCM1=tf_act(WHI5)	403.5147616959597	0.0	0.00042947504542168835	0.0	2.111556076990691	2.9021933368739523
HCM1=tf_act(WHI5)	403.5621835050753	0.001399774268296495	0.0008413543363439034	0.02197035957463531	1.6973684483763531	2.8991509087507636
HCM1=tf_act(WHI5)	403.65740711410115	0.0030795328128481003	0.001418030747007062	0.05394840016611409	1.597368636605378	2.8921860921158387
HCM1=tf_rep(WHI5)	261.47318096850864	0.0	0.02038843406156384	21.218156230127867	34.02427286085384	4.69328476471969
HCM1=tf_rep(WHI5)	261.49245394637467	0.0	0.020172136276014864	21.481164750323263	34.04682749724248	4.749583898636264
HCM1=tf_rep(WHI5)	261.44571597052317	0.0	0.020247014174231037	21.097566467240412	34.19416353300512	4.7412935428997605
HCM1=tf_rep(WHI5)	261.4020318361569	0.0	0.020333971719776276	20.713260559531406	34.35880564258498	4.735118303658032
HCM1=tf_rep(WHI5)	261.3827018347527	0.0	0.02043382706736685	20.503977864719207	34.439344689109284	4.722980882209643
HCM1=tf_rep(WHI5)	261.41783152311694	0.0	0.020354663399603085	20.84652730717158	34.29602199589884	4.730237341655639
HCM1=tf_rep(WHI5)	259.13416614303617	-4.336808689942018e-19	0.01933954328370861	8.942428783173389	45.9191603403409	6.385024881692288
HCM1=tf_rep(WHI5)	261.46976322515286	0.0	0.02031579581744996	21.28622204945839	34.06883153455852	4.719851867831368
HCM1=tf_rep(WHI5)	261.4481612281461	0.0	0.020263164983552035	21.119299665691535	34.18594827781583	4.7395721623921565
HCM1=tf_rep(WHI5)	261.42493750812787	0.0	0.02043494407801674	20.85286925205095	34.254056630473926	4.710924136247442
HCM1=tf_act(YOX1)	403.526648957089	0.006486119344563888	0.0005443258553896141	0.0	2.2190074258990866	2.9245832759050523
HCM1=tf_act(YOX1)	403.51476169595963	0.0	0.00042947504547557244	0.0	2.54870118920229	2.8854452181133823
HCM1=tf_act(YOX1)	403.5147616959598	0.0	0.000429475037230287	0.0	2.4955285679741546	2.8632303403718016
HCM1=tf_act(YOX1)	403.53310244053824	3.122598062074949e-05	0.0005667761786865132	0.007830498266210777	2.7184771018800293	2.881309997231481
HCM1=tf_act(YOX1)	403.5147616959598	0.0	0.00042947504179608695	0.0	2.971758198261384	2.842509073949036
HCM1=tf_act(YOX1)	403.5147616959595	0.0	0.000429475044381648	0.0	2.702435819476263	2.8783409934443918
HCM1=tf_act(YOX1)	403.6638643018218	0.0009808449334137816	0.0013236206437117082	0.05158131404132469	2.263978190383181	2.895771569047928
HCM1=tf_act(YOX1)	403.51476169595963	0.0	0.00042947504632677175	0.0	2.164025151132689	2.7798916368748987
HCM1=tf_act(YOX1)	403.5617092554527	0.0013931496459287174	0.0008109082418889753	0.020317315792077136	1.7498374970276567	2.7768492318738303
HCM1=tf_act(YOX1)	403.65772590700107	0.003063358535190111	0.0013759709777044489	0.051672478312881645	1.6498376116339546	2.7698844804373897
HCM1=tf_rep(YOX1)	333.07637753862997	0.0032765328313780415	0.0030497477205861817	99.76787186165991	6.828953716401373	9.999764115805858
HCM1=tf_rep(YOX1)	333.0771870070024	0.0014719268859997921	0.0030163622715318767	99.95911590434739	6.824518291778312	9.980534885112213
HCM1=tf_rep(YOX1)	333.078223953764	0.0024184386918502374	0.0030340320370512365	99.4762686394079	6.824666776580282	9.957753499365994
HCM1=tf_rep(YOX1)	333.07752168115434	0.00583351484805641	0.003097281727199982	99.1631419992318	6.830096477978437	9.977164264315244
HCM1=tf_rep(YOX1)	333.0792066779964	0.006699880626339294	0.003113471788675219	98.98560538962217	6.825894489619933	9.941223309662968
HCM1=tf_rep(YOX1)	333.07637544985295	0.0018785749871233369	0.0030238657927166056	99.32775329558831	6.832316996211826	10.0
HCM1=tf_rep(YOX1)	333.07859292764323	0.004272967317979224	0.0030683774767703066	98.83687480272718	6.828591935542104	9.951485658022989
HCM1=tf_rep(YOX1)	333.07789778791096	0.004926263178623704	0.0030804771211581173	99.33328278295583	6.827231198507004	9.967117269553484
HCM1=tf_rep(YOX1)	333.08047113636616	0.007875201192767545	0.0031352793531069464	98.97757978540352	6.822042434990355	9.916149611992473
HCM1=tf_rep(YOX1)	333.0818490720987	0.01000681462228331	0.0031749232094054544	98.6460780990783	6.821008348681665	9.892983739428079
HCM1=tf_act(ASH1)	403.5147616959595	0.0	0.00042947504466156244	0.0	2.2308563890224686	2.8864358327087287
HCM1=tf_act(ASH1)	403.5147616959597	0.0	0.00042947504514082713	0.0	2.771306481306619	2.6462875948599347
HCM1=tf_act(ASH1)	403.5147616959599	0.0	0.0004294750384672237	0.0	2.7181338600784835	2.624072717118354
HCM1=tf_act(ASH1)	403.5400173034297	6.956108847974384e-05	0.0007659182202143524	0.019033365817802	2.9410824742010293	2.642152388421504
HCM1=tf_act(ASH1)	403.5147616959598	0.0	0.0004294750433130282	0.0	3.194363570582384	2.6033514651390592
HCM1=tf_act(ASH1)	403.52086424267617	0.0	0.000522840000981085	0.005286454445349904	3.088697362091722	2.485174284872495
HCM1=tf_act(ASH1)	403.6470252334536	0.001038226139308562	0.0014883638936916842	0.06099299153552146	2.6502400450106873	2.5026049027662602
HCM1=tf_act(ASH1)	403.5147616959595	0.0	0.0004294750474710082	0.0	3.8714262700083637	2.1889532966937923
HCM1=tf_act(ASH1)	403.55672002092376	0.0014151993478743242	0.0008630890221003657	0.023800765749966292	3.4572386261180026	2.18591120616113
HCM1=tf_act(ASH1)	403.64182033565595	0.00311938281679571	0.0014134150967517888	0.055110668505417765	3.3572387736645135	2.178947208998174
HCM1=tf_rep(ASH1)	372.37243720822437	0.0013747775652322128	0.04484798890742976	3.2914621953465977	62.71296720256492	2.968682415145878
HCM1=tf_rep(ASH1)	372.37186380286624	0.0	0.04486455706486256	3.295361697266486	62.698675607869944	2.95604765916393
HCM1=tf_rep(ASH1)	372.37246495274525	0.002522256093519297	0.04484805173092245	3.2913746651289597	62.65995206527128	2.961633401699319
HCM1=tf_rep(ASH1)	372.3790618169824	0.0021702619144607907	0.04490376206863977	3.288925767186639	62.90520498825096	3.0008625748128464
HCM1=tf_rep(ASH1)	372.3856701489257	0.0	0.045134908872408314	3.3032174823574203	63.17767834828777	2.9851348052741766
HCM1=tf_rep(ASH1)	372.37189282752087	0.00017120163239004121	0.04487059307720674	3.295485147553489	62.70380024227957	2.9553808348134365
HCM1=tf_rep(ASH1)	372.37796729519715	0.0025505334987200924	0.04435785678608468	3.261193906196233	62.32798668395673	3.0060188299835016
HCM1=tf_rep(ASH1)	372.39959146656753	0.07706656326464645	0.04463099870876352	3.200375967684786	61.30988766229203	3.0896059220821046
HCM1=tf_rep(ASH1)	372.41260202736964	0.07922045540913103	0.04410899960128769	3.166907797636759	60.926943429780934	3.109683174092852
HCM1=tf_rep(ASH1)	372.41603976888604	0.08158318771301899	0.044028518293567416	3.158850746034406	60.858979624090416	3.1257197642405754
