# LEMpy all scores file for replicate 0 
# Run configuration file:  ../pipeline/src/yeast_data/simulations202110_Orlando_2/annot/results2/edge_finding_20211012132914/lempy_20211012132914_config.txt 
# Time series data file:   ../pipeline/src/yeast_data/time_series/orlando2008_WildType_r1_trunc.tsv 
# Ground truth edge list:   
# Computed on:  2021-10-12 13:32:05 
 
model	pld	loss	norm_loss
NDD1=tf_act(SWI4)	0.999949	45.91905447712633	0.10486567303338466
ASH1=tf_act(SWI5)	0.997974	72.88166821353066	0.11608503614260841
NRM1=tf_act(HCM1)	0.991995	28.142470890769864	0.04657679810339138
SWI4=tf_rep(WHI5)	0.982635	250.62089131518638	0.48857801363257286
SWI5=tf_rep(CLN3)	0.966484	178.15351643033878	0.2508923577221537
YOX1=tf_rep(NRM1)	0.822293	197.29953836930252	0.35872215397405427
HCM1=tf_rep(NRM1)	0.800933	185.44894395497195	0.4595840389470166
CLN3=tf_rep(SWI4)	0.690444	12.863136041565513	0.0708634114908687
WHI5=tf_rep(NRM1)	0.459678	132.73839547162652	0.5374175768157438
CLN3=tf_rep(YOX1)	0.305275	20.473174247710965	0.11278734567929113
WHI5=tf_rep(WHI5)	0.252743	170.5275088894618	0.6904142564190421
HCM1=tf_rep(WHI5)	0.177597	259.1341661435922	0.6421925310847606
YOX1=tf_rep(WHI5)	0.175676	282.875767723015	0.5143134421061185
WHI5=tf_act(NDD1)	0.119661	237.1553182672695	0.9601700850708703
WHI5=tf_act(SWI4)	0.0357507	209.22480558495826	0.8470878951617897
WHI5=tf_rep(SWI4)	0.0308389	246.9930296253354	1.0000000000000033
WHI5=tf_rep(ASH1)	0.0308389	246.9930296253354	1.0000000000000033
WHI5=tf_act(HCM1)	0.026711	226.49369131041982	0.9170043853220864
SWI5=tf_act(HCM1)	0.018601	334.1635374284443	0.47060018488593863
WHI5=tf_act(YOX1)	0.016771	245.0740155131572	0.9922304928398653
SWI5=tf_rep(ASH1)	0.0146436	223.04350515876826	0.31411061653547573
WHI5=tf_rep(CLN3)	0.0121749	204.7975810109567	0.8291634032005499
NRM1=tf_act(SWI4)	0.00799546	104.45698562411216	0.17288005551420274
WHI5=tf_rep(YOX1)	0.00740857	193.38240870815872	0.7829468264813052
HCM1=tf_rep(ASH1)	0.00449827	372.37184712545746	0.9228208791182525
SWI4=tf_rep(NRM1)	0.00437873	512.9598228371703	0.99999999999966
HCM1=tf_rep(CLN3)	0.00401224	403.5148513308681	1.0000002221353892
WHI5=tf_act(SWI5)	0.00399027	246.9930296253386	1.0000000000000162
WHI5=tf_act(ASH1)	0.00343425	246.99302962533375	0.9999999999999966
HCM1=tf_act(HCM1)	0.00290083	403.51476169589023	0.9999999999998285
HCM1=tf_act(NDD1)	0.00282716	403.51476169594355	0.9999999999999606
SWI4=tf_rep(YOX1)	0.00248509	419.36842826594363	0.8175463449481927
SWI4=tf_rep(CLN3)	0.00218936	512.9598231609805	1.0000000006309182
CLN3=tf_act(SWI5)	0.00198743	116.53481369344995	0.6419938675207865
ASH1=tf_rep(SWI4)	0.00187323	198.66680967761917	0.31643408208213275
HCM1=tf_act(SWI4)	0.00183493	379.8537942473235	0.9413628206581843
SWI4=tf_act(SWI4)	0.00159067	512.9598228373444	0.9999999999999993
HCM1=tf_rep(YOX1)	0.00158358	333.07634252750046	0.8254378132973162
SWI4=tf_act(HCM1)	0.00157123	512.9598228373444	0.9999999999999993
SWI4=tf_act(NDD1)	0.00153917	512.9598228373444	0.9999999999999993
HCM1=tf_act(YOX1)	0.00146474	403.5147616958949	0.99999999999984
SWI4=tf_rep(SWI4)	0.00109468	512.9598228373444	0.9999999999999993
HCM1=tf_rep(SWI4)	0.00100306	403.51476169595884	0.9999999999999984
SWI4=tf_rep(ASH1)	0.000910381	512.9598228373444	0.9999999999999993
HCM1=tf_act(SWI5)	0.000715324	403.51476169595963	1.0000000000000004
SWI4=tf_act(YOX1)	0.000697818	512.9598228373444	0.9999999999999993
HCM1=tf_act(ASH1)	0.000630697	403.51476169595963	1.0000000000000004
YOX1=tf_rep(CLN3)	0.000627566	550.0065683502468	1.000000012818965
SWI4=tf_act(SWI5)	0.000538264	512.9598228373444	0.9999999999999993
CLN3=tf_rep(CLN3)	0.000536681	175.66644698863664	0.9677518513268869
CLN3=tf_rep(WHI5)	0.000495737	161.25563243405114	0.8883622313772633
SWI4=tf_act(ASH1)	0.000369633	512.9598228372893	0.9999999999998919
YOX1=tf_act(SWI4)	0.000310607	549.9984601465142	0.9999852708062272
CLN3=tf_act(ASH1)	0.000275321	181.52013529903587	1.0000000000006395
YOX1=tf_act(HCM1)	0.000226656	550.0065612997785	1.0000000000000848
YOX1=tf_act(NDD1)	0.000220831	550.006561299784	1.0000000000000948
YOX1=tf_rep(YOX1)	0.000217047	403.6219201724121	0.7338492821223892
CLN3=tf_act(NDD1)	0.000198444	181.52013529897573	1.0000000000003082
CLN3=tf_act(SWI4)	0.000198318	181.52013529893338	1.0000000000000748
CLN3=tf_act(YOX1)	0.000198289	181.51996257768496	0.9999990484734129
CLN3=tf_act(HCM1)	0.000193172	181.52013529907762	1.0000000000008695
YOX1=tf_rep(SWI4)	0.000156891	550.006561299784	1.0000000000000948
CLN3=tf_rep(ASH1)	0.000142973	175.91694553053824	0.9691318554872469
ASH1=tf_rep(YOX1)	0.00010641	317.0766134864594	0.5050357797616665
YOX1=tf_act(YOX1)	0.0000880895	550.006561299784	1.0000000000000948
SWI5=tf_act(SWI4)	0.0000782081	623.6084377988311	0.878223424323796
SWI5=tf_act(ASH1)	0.0000782081	623.6084368814176	0.8782234230318088
YOX1=tf_act(SWI5)	0.0000694942	550.006561299784	1.0000000000000948
YOX1=tf_rep(ASH1)	0.0000616113	515.03053489345	0.9364079833454544
CLN3=tf_rep(NRM1)	0.0000539144	156.35435011709146	0.8613609165705701
YOX1=tf_act(ASH1)	0.0000516565	550.0065612997831	1.0000000000000933
SWI5=tf_act(NDD1)	0.000039104	623.6084536274277	0.8782234466150984
SWI5=tf_act(YOX1)	0.0000322854	621.3989543895754	0.8751118242105704
ASH1=tf_act(NDD1)	0.0000263768	407.9209163366677	0.6497314822368009
NDD1=tf_rep(CLN3)	0.0000199976	322.5525421276043	0.736615546726675
SWI5=tf_rep(NRM1)	0.0000155213	645.2648499755289	0.9087219989221763
SWI5=tf_rep(YOX1)	0.0000103567	710.079486070394	0.9999999999999862
NRM1=tf_rep(CLN3)	0.00000937433	310.9134207994336	0.5145728562504994
SWI5=tf_rep(SWI4)	0.00000896151	645.8491316423786	0.9095448387285803
NDD1=tf_rep(NRM1)	0.00000858958	343.5467071873749	0.7845600715832023
NDD1=tf_act(NDD1)	0.00000818424	432.9802130718868	0.9888000084265496
ASH1=tf_rep(CLN3)	0.00000699818	439.5587467454525	0.7001238343399002
SWI5=tf_rep(WHI5)	0.00000667955	675.364143015367	0.9511106239004984
NDD1=tf_rep(WHI5)	0.00000533011	382.9028021792081	0.8744378671144721
ASH1=tf_act(ASH1)	0.00000519112	563.0890218036157	0.8968813564484703
ASH1=tf_act(HCM1)	0.00000259556	563.0890224965816	0.896881357552218
ASH1=tf_act(SWI4)	0.00000259556	563.0890293628721	0.8968813684887622
NDD1=tf_rep(ASH1)	0.00000257275	437.88451596079364	1.0000000000000036
NDD1=tf_act(HCM1)	0.00000234182	404.5392658529139	0.9238492139081166
SWI5=tf_act(SWI5)	0.00000214932	707.7788242618333	0.9967599939813747
ASH1=tf_act(YOX1)	0.00000141428	560.646229600019	0.8929905066889314
NDD1=tf_rep(SWI4)	0.00000128638	437.88451596079665	1.0000000000000104
NDD1=tf_act(YOX1)	0.00000103361	421.04578134691417	0.9615452613643327
NDD1=tf_rep(YOX1)	0.000000547594	401.8205851474236	0.9176405433422596
ASH1=tf_rep(ASH1)	0.000000486845	627.8299997592698	0.9999999999991492
NDD1=tf_act(SWI5)	0.000000452172	437.88451596079403	1.0000000000000044
ASH1=tf_rep(WHI5)	0.000000405814	569.0358134085891	0.9063533339061397
NDD1=tf_act(ASH1)	0.000000293421	437.8845159607967	1.0000000000000104
ASH1=tf_rep(NRM1)	0.000000222351	598.140925513518	0.9527116030491625
NRM1=tf_rep(NRM1)	0.000000164724	455.6550972878512	0.754125519167476
NRM1=tf_act(NDD1)	0.0000000767521	592.1968086940876	0.980106945942111
NRM1=tf_rep(WHI5)	0.0000000590812	507.0477947618031	0.8391822756805658
NRM1=tf_rep(ASH1)	0.0000000424482	604.216520325689	0.9999999995442272
NRM1=tf_rep(SWI4)	0.0000000106121	604.2165206010781	1.000000000000006
NRM1=tf_act(YOX1)	0.00000000890971	583.2151565657147	0.9652419897184082
NRM1=tf_rep(YOX1)	0.00000000716168	526.6779819461206	0.8716709391232491
NRM1=tf_act(SWI5)	0.00000000278709	604.2165206010781	1.000000000000006
NRM1=tf_act(ASH1)	0.00000000274277	604.2165206010737	0.9999999999999989
