# LEMpy local minima file for target RIF1, replicate 1
# Right-hand side of tf_act():  p0 - p1(tar) + p2(reg^p4) / (p3^p4 + reg^p4)
# Right-hand side of tf_rep():  p0 - p1(tar) + p2(p3^p4) / (p3^p4 + reg^p4)
# Run configuration file:  ../pipeline/src/yeast_data/simulations202110_Orlando_2/extra_nodes_annot/results1/edge_finding_20211012175947/lempy_20211012175947_config.txt
# Time series data file:   ../pipeline/src/yeast_data/time_series/orlando2008_WildType_r2_trunc.tsv
# Computed on:  2021-10-12 18:03:19 
 
model	loss	p0	p1	p2	p3	p4
RIF1=tf_act(SWI4)	40.19244369428516	0.3	0.12949239477135682	30.08069477767059	100.0	1.389652466675353
RIF1=tf_act(SWI4)	40.19244369508543	0.3	0.12949236075077467	30.080678702773504	100.0	1.3896519463507668
RIF1=tf_act(SWI4)	40.21179636466706	0.3	0.12956740913139672	30.01741083996892	99.63177043467755	1.3913608988980855
RIF1=tf_act(SWI4)	40.232586959665284	0.3	0.1293900071141308	29.89418443103515	99.23598478339726	1.3937534651506647
RIF1=tf_act(SWI4)	40.25014917772649	0.3	0.12926060603164813	29.795912642256646	98.90863790709297	1.395709519509642
RIF1=tf_act(SWI4)	40.2687516047035	0.3	0.12911331306639737	29.691671351164864	98.56854913370405	1.3978231442591023
RIF1=tf_act(SWI4)	40.25147838157743	0.3	0.13002837168766582	29.968852213473987	98.95196555906983	1.3938970993422275
RIF1=tf_act(SWI4)	40.25951623425515	0.3	0.12908049443726893	29.72261344443839	98.74326347450771	1.3969932259148714
RIF1=tf_act(SWI4)	40.25159801468915	0.3	0.12916911850137397	29.772008016909467	98.88553698939124	1.3960572979304906
RIF1=tf_act(SWI4)	40.26044474122289	0.3	0.12913888834801482	29.73019473908275	98.72176378199728	1.3969697475770875
RIF1=tf_rep(SWI4)	262.02547886654	0.0	0.0026440773854540605	0.0	86.52370453853798	1.0
RIF1=tf_rep(SWI4)	262.02547886654014	0.0	0.00264407738458703	0.0	86.96796838005076	1.0029223881578815
RIF1=tf_rep(SWI4)	262.0254788665428	0.0	0.002644077308269722	0.0	86.5834242440402	1.0
RIF1=tf_rep(SWI4)	262.02547886654	0.0	0.0026440773855840307	0.0	86.19112016094685	1.0
RIF1=tf_rep(SWI4)	262.0254788665401	0.0	0.0026440773854092764	0.0	85.85879390260268	1.0
RIF1=tf_rep(SWI4)	262.02547886654014	0.0	0.002644077384950193	0.0	85.62853312530228	1.0
RIF1=tf_rep(SWI4)	262.95643937716784	0.0	0.002924938164416694	0.0308073030254712	85.93373336885445	1.0
RIF1=tf_rep(SWI4)	262.02547886653986	0.0	0.002644077390356151	0.0	85.683736484754	1.0005676831941808
RIF1=tf_rep(SWI4)	262.0254788665401	0.0	0.0026440773856005106	0.0	85.97514796700393	1.0
RIF1=tf_rep(SWI4)	262.02547886654014	0.0	0.0026440773844201544	0.0	85.54362606122277	1.0
RIF1=tf_act(HCM1)	203.32796355707407	0.3	0.014280884758471507	8.527498735664036	99.9999978675122	10.0
RIF1=tf_act(HCM1)	203.3279624656359	0.3	0.014281053853919893	8.52773089250378	100.0	10.0
RIF1=tf_act(HCM1)	203.32796246543265	0.3	0.014281060280957523	8.527738796161925	100.0	10.0
RIF1=tf_act(HCM1)	203.3279624667521	0.3	0.01428103807625751	8.527708377578813	100.0	10.0
RIF1=tf_act(HCM1)	203.32796246573525	0.3	0.014281051501170596	8.527728568220954	100.0	10.0
RIF1=tf_act(HCM1)	203.48697543802868	0.3	0.014207362354462445	8.29152514859517	99.69167527281732	10.0
RIF1=tf_act(HCM1)	203.3279624658375	0.3	0.014281049293262005	8.52772743566003	100.0	10.0
RIF1=tf_act(HCM1)	203.4466965475918	0.3	0.014200830379775688	8.322190670560426	99.77577179511012	10.0
RIF1=tf_act(HCM1)	203.3279624666233	0.3	0.014281037703533315	8.527711604396195	100.0	10.0
RIF1=tf_act(HCM1)	203.35717362441528	0.3	0.014199414108938099	8.405896784122122	99.95930097627428	10.0
RIF1=tf_act(NDD1)	262.0254788665401	-2.7123958522623615e-18	0.0026440773846931487	0.0	99.90784806278708	9.927436766964755
RIF1=tf_act(NDD1)	262.0254788665401	0.0	0.002644077384535964	0.0	100.0	10.0
RIF1=tf_act(NDD1)	262.0254788665401	0.0	0.002644077383736754	0.0	99.61558572800882	9.955761920543903
RIF1=tf_act(NDD1)	262.0254788665402	0.0	0.002644077382532951	0.0	99.22328164491547	9.930453109525068
RIF1=tf_act(NDD1)	262.02547886654	0.0	0.0026440773861217586	0.0	98.89123469558588	9.893876254143523
RIF1=tf_act(NDD1)	262.02547886655617	0.0	0.0026440769590468528	0.0	98.66097400383461	9.873630112246884
RIF1=tf_act(NDD1)	262.0254788665401	0.0	0.00264407738413215	0.0	99.18955711284696	9.892382465537512
RIF1=tf_act(NDD1)	262.02547886653997	0.0	0.002644077387009269	0.0	98.93956034296237	9.89295333046329
RIF1=tf_act(NDD1)	262.02547886654014	0.0	0.002644077384104483	0.0	99.23097189151228	9.867423756762923
RIF1=tf_act(NDD1)	262.02547886654014	-2.6232841962191887e-18	0.002644077384633252	0.0	99.03525229699642	9.985079525828606
RIF1=tf_act(SWI5)	262.0254788665401	0.0	0.0026440773850945043	-2.7755575615628914e-17	99.92308117574682	9.707594824434485
RIF1=tf_act(SWI5)	262.02547886654014	0.0	0.002644077383564162	0.0	100.0	9.71955809507474
RIF1=tf_act(SWI5)	262.0254788665401	0.0	0.002644077384022804	0.0	99.61561538334806	9.67529747616443
RIF1=tf_act(SWI5)	262.0254788665401	-1.0842021724855044e-19	0.0026440773834379653	0.0	99.22331130025471	9.649988665145594
RIF1=tf_act(SWI5)	262.02547886654	0.0	0.0026440773862258862	0.0	99.28362204833665	9.638657154802507
RIF1=tf_act(SWI5)	262.0254788665401	0.0	0.0026440773857525353	0.0	99.05336134740217	9.61841097176159
RIF1=tf_act(SWI5)	262.0254788665401	0.0	0.0026440773852044876	0.0	99.51361068002423	9.651128166160479
RIF1=tf_act(SWI5)	262.02547886654	0.0	0.0026440773859764143	0.0	99.26361387462555	9.651698973441176
RIF1=tf_act(SWI5)	262.02547886654	0.0	0.0026440773872971265	0.0	99.55502542002391	9.626169362995432
RIF1=tf_act(SWI5)	262.0254788665401	0.0	0.0026440773850329425	0.0	99.38695160246142	9.637350897533734
RIF1=tf_rep(NRM1)	106.93431873814187	0.0	0.016952280469658628	3.760722722304176	28.446356147188705	9.97982819237264
RIF1=tf_rep(NRM1)	106.93409826790574	0.0	0.01695015387972905	3.759702785009266	28.450117240940536	10.0
RIF1=tf_rep(NRM1)	106.96367024571705	0.0	0.01682260937961554	3.786841930959949	28.117379297591437	9.955507151976507
RIF1=tf_rep(NRM1)	106.93526997589979	0.0	0.01696059488767239	3.7639909008249894	28.43655082857106	9.916989815234
RIF1=tf_rep(NRM1)	106.96571654674509	0.0	0.0167496002804005	3.777274723954465	28.062013466703778	9.880716943048112
RIF1=tf_rep(NRM1)	106.93634463643886	0.0	0.016968534205073903	3.7666484760731076	28.430321428067156	9.86596614736615
RIF1=tf_rep(NRM1)	106.9372730251865	0.0	0.016972878740621908	3.768658843132957	28.42334689056047	9.829898940572216
RIF1=tf_rep(NRM1)	106.9476335132454	0.0	0.016815416999519772	3.7682813510190947	28.20108363151168	9.829564240382393
RIF1=tf_rep(NRM1)	106.942478049097	0.0	0.01707953510638805	3.770597579053351	28.563088970661386	9.801683979595209
RIF1=tf_rep(NRM1)	106.96604594500579	0.0	0.01670820469339327	3.768348852383777	28.049430233501468	9.84796067094122
RIF1=tf_rep(CLN3)	262.68910959950756	0.0	0.003221444450484466	0.0725877160915343	84.58439775456856	1.0
RIF1=tf_rep(CLN3)	262.02547886654	0.0	0.0026440773865430032	0.0	85.02811957134955	1.0038984712747991
RIF1=tf_rep(CLN3)	262.0254788665401	0.0	0.0026440773854070525	0.0	84.64356570724914	1.0000286822442481
RIF1=tf_rep(CLN3)	262.02547886654014	0.0	0.002644077383873437	0.0	84.25126162415579	1.0
RIF1=tf_rep(CLN3)	262.0254788665401	0.0	0.002644077383375789	0.0	83.91891456212154	1.0001488657652933
RIF1=tf_rep(CLN3)	262.02547886654014	0.0	0.0026440773831591913	0.0	83.68865381576504	1.0000007497301924
RIF1=tf_rep(CLN3)	262.0254788665401	0.0	0.002644077385478968	0.0	83.99189257559236	1.01434306799553
RIF1=tf_rep(CLN3)	262.02547886654014	0.0	0.0026440773849529717	0.0	83.74189565424852	1.0149150389174997
RIF1=tf_rep(CLN3)	262.0254788665398	0.0	0.0026440773918923743	0.0	84.0333071260573	1.0000003596829152
RIF1=tf_rep(CLN3)	262.02547886654	0.0	0.002644077385584885	0.0	83.62775507353311	1.0469744987795493
RIF1=tf_rep(WHI5)	262.02547886653997	0.0	0.002644077386566542	0.0	88.62254854759173	1.015861995635938
RIF1=tf_rep(WHI5)	262.02547886654014	0.0	0.0026440773845890185	0.0	89.06659570031039	1.0188615103708525
RIF1=tf_rep(WHI5)	262.0254788665401	0.0	0.00264407738606302	0.0	88.6820390684049	1.0006164981534256
RIF1=tf_rep(WHI5)	262.0254788665401	0.0	0.0026440773844408102	0.0	88.28973498531155	1.0
RIF1=tf_rep(WHI5)	262.02547886654014	0.0	0.0026440773839673274	0.0	87.95734826481807	1.0037314939190702
RIF1=tf_rep(WHI5)	262.02547886654	0.0	0.002644077385411475	-1.3877787807814457e-17	87.72664352655072	1.0418850464023388
RIF1=tf_rep(WHI5)	262.0254788665401	0.0	0.0026440773853639997	0.0	88.26084449030682	1.1725682918780376
RIF1=tf_rep(WHI5)	262.5103693643141	0.0017772970482920585	0.004407574427298588	0.21053176165713627	88.01084750891252	1.1731452384037704
RIF1=tf_rep(WHI5)	262.02547886654014	0.0	0.002644077385357734	0.0	88.30225886769432	1.1476393041992112
RIF1=tf_rep(WHI5)	153.14125114442024	0.0	0.012198600032216223	5.309110613767166	62.25800220127388	10.0
RIF1=tf_act(YOX1)	160.37339716189226	0.3	0.04095842846567238	12.562520759928077	99.89478331212702	2.351312397360268
RIF1=tf_act(YOX1)	160.36739295534196	0.3	0.04059640284308842	12.513472222906197	100.0	2.3642398872511676
RIF1=tf_act(YOX1)	160.37555810576714	0.3	0.040577686054598716	12.450071655846017	99.61793228318838	2.369225157437114
RIF1=tf_act(YOX1)	160.38456401294533	0.3	0.040528209605393474	12.37326711124231	99.2007600669514	2.3753941180438347
RIF1=tf_act(YOX1)	160.3919128543216	0.3	0.04061794969245826	12.346940745266739	98.87407652533543	2.377334023133717
RIF1=tf_act(YOX1)	160.39833241213165	0.3	0.04046318079182366	12.26048287569345	98.5721968169752	2.3846575973495354
RIF1=tf_act(YOX1)	160.3892086151656	0.3	0.04050589323206161	12.334826879490251	98.9875194896177	2.378506471025473
RIF1=tf_act(YOX1)	160.3958743445682	0.3	0.040645573775826296	12.316977141076443	98.71060919382755	2.3761695808755308
RIF1=tf_act(YOX1)	160.3908796027438	0.3	0.0404887058811788	12.318942267384163	98.91148193828522	2.3798823354088747
RIF1=tf_act(YOX1)	160.39551800398772	0.3	0.04046950928530435	12.281675772576417	98.70014764550969	2.382931444630029
RIF1=tf_rep(YOX1)	262.0254788665401	0.0	0.002644077384868781	0.0	88.47289987668749	1.0
RIF1=tf_rep(YOX1)	262.0254788665401	0.0	0.002644077385004817	0.0	88.9172600722762	1.0015666291761272
RIF1=tf_rep(YOX1)	262.02547886654014	0.0	0.0026440773834043863	0.0	88.53271474354507	1.0
RIF1=tf_rep(YOX1)	262.02547886654014	-1.0842021724855044e-19	0.0026440773836004954	0.0	88.14041066045172	1.0
RIF1=tf_rep(YOX1)	262.02547886654	0.0	0.0026440773846534266	0.0	88.200383729487	1.0
RIF1=tf_rep(YOX1)	262.02547886654014	0.0	0.0026440773852089306	0.0	87.97012294141695	1.0
RIF1=tf_rep(YOX1)	262.02547886654014	0.0	0.002644077383946697	0.0	88.27900117983677	1.0
RIF1=tf_rep(YOX1)	262.0254788665399	0.0	0.00264407738922308	-2.7755575615628914e-17	88.02900427290035	1.0005676047962841
RIF1=tf_rep(YOX1)	262.02547886654014	0.0	0.0026440773839181107	0.0	88.57041265602926	1.0
RIF1=tf_rep(YOX1)	263.0283864878246	0.0	0.003097687695406156	0.04685625714966248	88.13587854185305	1.0
RIF1=tf_act(ASH1)	262.0254788665401	0.0	0.002644077384515309	-1.1102230246251565e-16	99.99921486436317	9.998895127415341
RIF1=tf_act(ASH1)	274.16875224145394	0.005397229191615003	0.0030118411977056773	0.9453861511719673	99.9743743699419	9.90491804891218
RIF1=tf_act(ASH1)	262.02547886654	0.0	0.002644077385480906	0.0	99.78287252023051	9.914136015288513
RIF1=tf_act(ASH1)	262.02547886654014	-1.0842021724855044e-19	0.002644077383267704	0.0	99.39056843713716	9.888827204269678
RIF1=tf_act(ASH1)	262.0254788665401	0.0	0.0026440773852610634	0.0	99.45084395415978	9.877603311890416
RIF1=tf_act(ASH1)	262.0254788665429	0.0	0.002644077307920901	0.0	99.2205832507618	9.857357198995382
RIF1=tf_act(ASH1)	262.02547886654014	0.0	0.0026440773842510493	0.0	99.68028463067868	9.875422521193038
RIF1=tf_act(ASH1)	266.4001741846713	0.008122441420867248	0.0030108693912830986	0.40263834783449765	99.43028737048995	9.875992802155979
RIF1=tf_act(ASH1)	262.02547886654014	0.0	0.002644077383073312	0.0	99.97169617303652	9.849892963357002
RIF1=tf_act(ASH1)	262.0254788664559	0.0	0.002644083730408383	0.0	99.79020180262475	9.908452149174193
RIF1=tf_rep(ASH1)	193.3849917720419	0.3	0.04424549284087875	4.531171648210754	33.235067965850064	1.2652775520724826
RIF1=tf_rep(ASH1)	193.38505606455843	0.3	0.04417286205891264	4.494631148953805	33.64622764594327	1.279165480837766
RIF1=tf_rep(ASH1)	193.38617348175245	0.3	0.04384393142014191	4.485020031551663	33.187083824655076	1.2746540175368632
RIF1=tf_rep(ASH1)	193.3941536018123	0.3	0.04324644076005768	4.435961152593263	32.824286529123384	1.2839739251566988
RIF1=tf_rep(ASH1)	193.39766300559856	0.3	0.043204903281217184	4.455080255844441	32.466217358037234	1.2711610949745413
RIF1=tf_rep(ASH1)	193.38975346455524	0.3	0.04440387786085749	4.609971897590846	32.37358223807519	1.2370757009778137
RIF1=tf_rep(ASH1)	193.4629963154825	0.3	0.04770583493970374	4.9803145766444175	32.90714541604598	1.175255205103839
RIF1=tf_rep(ASH1)	193.38783963425075	0.3	0.04435741304713145	4.587943520219865	32.60750051187411	1.2447023587249357
RIF1=tf_rep(ASH1)	193.38572626648684	0.3	0.044264583331852694	4.550672230530542	32.982828122093274	1.2576840554342765
RIF1=tf_rep(ASH1)	193.39687827000574	0.3	0.04540054557963791	4.73541494302173	32.344284285013025	1.2096815854462895
RIF1=tf_act(RIF1)	241.57721962436193	0.3	0.012519497397703349	4.106068238584929	100.0	10.0
RIF1=tf_act(RIF1)	241.57721962481926	0.3	0.012519490038957774	4.106068134637962	100.0	10.0
RIF1=tf_act(RIF1)	241.844796744701	0.29996167314038136	0.012648856148961647	4.099456623886288	99.61858308139871	9.95825969191452
RIF1=tf_act(RIF1)	241.57721962434945	0.3	0.012519497747725102	4.106068536928173	100.0	10.0
RIF1=tf_act(RIF1)	241.577219624344	0.3	0.012519497899639147	4.106068650839874	100.0	10.0
RIF1=tf_act(RIF1)	241.57721962413206	0.3	0.012519514771116994	4.1060837957259215	100.0	10.0
RIF1=tf_act(RIF1)	241.57721962421815	0.3	0.012519502034227139	4.1060721108217795	100.0	10.0
RIF1=tf_act(RIF1)	241.71138219929279	0.3	0.01247972851087081	4.011538356836527	99.74101291602437	10.0
RIF1=tf_act(RIF1)	241.71520485704016	0.3	0.012442636812709521	4.011357045487074	99.91264621011733	9.9337170537825
RIF1=tf_act(RIF1)	241.57721962437088	0.3	0.01251949715053743	4.106068033493233	100.0	10.0
RIF1=tf_rep(RIF1)	262.02547886654014	0.0	0.0026440773833744957	0.0	85.75410811679092	1.0
RIF1=tf_rep(RIF1)	262.0254788665401	0.0	0.0026440773845070546	0.0	86.19829660303888	1.0010396434140576
RIF1=tf_rep(RIF1)	262.02547886654014	0.0	0.0026440773842763086	-1.734723475976807e-18	85.81374555672798	1.0
RIF1=tf_rep(RIF1)	262.0254788665401	0.0	0.0026440773848380684	0.0	85.80599251994553	1.0
RIF1=tf_rep(RIF1)	262.02547886654	0.0	0.0026440773856694936	0.0	85.47365235068247	1.0
RIF1=tf_rep(RIF1)	262.02547886654014	0.0	0.0026440773837014906	0.0	85.24339156542085	1.0
RIF1=tf_rep(RIF1)	262.02547886653997	0.0	0.0026440773867837187	0.0	85.5461596073789	1.0
RIF1=tf_rep(RIF1)	262.02547886653986	0.0	0.0026440773920986802	0.0	85.29616270495927	1.0005690301454608
RIF1=tf_rep(RIF1)	262.02547886654014	0.0	0.0026440773829461348	0.0	85.58757418278606	1.0
RIF1=tf_rep(RIF1)	262.02547886654	0.0	0.0026440773851487405	0.0	85.14834119401404	1.0
RIF1=tf_act(EDS1)	86.41200057662124	0.3	0.06174450412118645	19.98162208265628	100.0	2.714156405725601
RIF1=tf_act(EDS1)	86.41200057665601	0.3	0.06174454633888591	19.981599318207415	100.0	2.7141523285967413
RIF1=tf_act(EDS1)	86.43079759397509	0.3	0.061704662154255664	19.860863498517947	99.61820135526398	2.7204611644262884
RIF1=tf_act(EDS1)	86.45103756140452	0.3	0.061769188623816265	19.758795379826324	99.21147525445855	2.725810261369218
RIF1=tf_act(EDS1)	86.46974742064484	0.2994388888217004	0.06205117859882434	19.70155661911376	98.88447299977184	2.7233223794682564
RIF1=tf_act(EDS1)	86.48569433898454	0.3	0.061647775563997274	19.53932207563567	98.53972741369653	2.738494958822336
RIF1=tf_act(EDS1)	86.46460969294243	0.3	0.061756094330885886	19.678102377996314	98.9438346029016	2.730138815965776
RIF1=tf_act(EDS1)	86.47866019904322	0.3	0.06163081908069696	19.575392171012314	98.67658073853282	2.7366491486441817
RIF1=tf_act(EDS1)	86.4736836340606	0.3	0.061636383976528285	19.603845276298035	98.77269243804331	2.7349830400611297
RIF1=tf_act(EDS1)	86.47856491057556	0.3	0.06162764921176311	19.574847568250025	98.67888533086692	2.736605419717507
RIF1=tf_rep(EDS1)	262.02547886654014	0.0	0.0026440773843254117	0.0	83.79160132088425	1.0
RIF1=tf_rep(EDS1)	262.0254788665401	0.0	0.0026440773845552356	0.0	84.2357978473202	1.0030942358772172
RIF1=tf_rep(EDS1)	262.0254788665401	0.0	0.002644077385458452	-1.734723475976807e-18	83.85124692254823	1.0
RIF1=tf_rep(EDS1)	262.0254788665401	0.0	0.0026440773850838675	0.0	83.84349376422685	1.0
RIF1=tf_rep(EDS1)	262.02547886654	0.0	0.0026440773852318238	0.0	83.51115472232723	1.0
RIF1=tf_rep(EDS1)	262.02547886654	0.0	0.0026440773850543516	0.0	83.28089394201821	1.0
RIF1=tf_rep(EDS1)	262.02547886654014	0.0	0.002644077385065816	0.0	83.58171978680774	1.0
RIF1=tf_rep(EDS1)	262.0254788665401	0.0	0.0026440773853501627	0.0	83.3317228922981	1.000568148947127
RIF1=tf_rep(EDS1)	262.0254788665401	0.0	0.0026440773838628867	0.0	83.62313437279228	1.0
RIF1=tf_rep(EDS1)	262.0254788665401	0.0	0.0026440773862605317	0.0	83.17885313464613	1.0
