# LEMpy target file for YOX1, replicate 1 
# Run configuration file:  ../pipeline/src/yeast_data/simulations202110_Orlando_2/extra_nodes_annot/results1/edge_finding_20211012175947/lempy_20211012175947_config.txt 
# Time series data file:   ../pipeline/src/yeast_data/time_series/orlando2008_WildType_r2_trunc.tsv 
# Computed on:  2021-10-12 18:03:30 
 
model	loss	pld	inv_temp	prior	rhs_param_0	rhs_param_1	rhs_param_2	rhs_param_3	rhs_param_4	hess_eigs	hess_det	bnd_params	pld_time	opt_time
tf_rep(NRM1)	181.91334276437217	0.720427	1.0	0.0518416047168498	0.0	0.04233718717619867	6.9837898619866845	29.817330090160162	4.147868388505926	[1, 2.5570660000798577, 20.196096885851404, 35.730480088170154, 4318025.280003033]	7967708102.807602	1.0	5.396799999957125e-05	0.37352278500000047
tf_act(SWI4)	290.2150482552805	0.268339	1.0	0.929530321800562	0.0	0.21811315767018413	22.769995099716777	46.693994138786806	2.457332054507213	[1, 1, 7.74483449960198, 457.15399903326187, 4318524.630317272]	15290090846.20982	1.0	0.00018204200000049298	0.45586787000000006
tf_rep(WHI5)	281.0855281629172	0.00720886	1.0	0.0110756041306981	0.0	0.02511254312381591	7.77156256473703	65.8453996921016	10.0	[1, 1.1172152155129047, 9.179781461295082, 29.14418492238331, 4317900.893342174]	1290606261.841857	2.0	5.394200000097271e-05	0.4488842369999997
tf_act(EDS1)	294.6713111556751	0.00402456	1.0	0.00738664955273136	0.3	0.08839467313416971	24.766998584576925	100.0	2.866054428918287	[1, 1, 1.1801544204837608, 162.07056689571675, 4323499.083871354]	826948302.3233575	2.0	5.042799999976921e-05	0.47204228599999976
tf_rep(ASH1)	523.207179368035	0.0000000698924	1.0	3.63620298869788e-5	0.3	0.034642761193864474	2.239239964562354	44.939307306976744	2.2333999390349883	[1, 1.6455929363085668, 12.185708388566708, 33.83299692113194, 4318491.053912409]	2929852041.8916054	1.0	4.945800000122347e-05	0.3788994050000003
tf_act(YOX1)	522.7594909534674	0.0000000584849	1.0	2.47018205468239e-5	0.3	0.013400774158454769	2.1393715193005214	75.36382566096474	10.0	[1, 1, 2.9147231739439454, 39.11611756648185, 4317862.64024939]	492290980.7151401	2.0	5.186499999965122e-05	0.3908394970000004
tf_rep(EDS1)	553.4066917213033	0.000000049337	1.0	1.9782610493974e-5	0.0	0.0004634834891925835	0.0	0.042871081974470315	1.0012589741740798	[1, 1, 1, 27.413406025418972, 4317820.670480588]	118366171.18483114	2.0	4.914599999850111e-05	0.2063328470000001
tf_act(HCM1)	553.406691721316	0.0000000323661	1.0	2.59646151512735e-5	0.0	0.0004634814648035715	0.0	100.0	1.9820654689533108	[1, 1, 1, 27.431803701782908, 4317913.588300817]	118448157.95552906	3.0	5.930000000020641e-05	0.335111489
tf_act(ASH1)	553.4066917213569	0.000000029163	1.0	1.48630291120659e-5	0.0	0.00046347892660498347	0.0	99.85927701401869	9.808493823475361	[1, 1, 1.5348622355402337, 28.855118618817997, 4317830.37636382]	191230800.01612955	2.0	5.1081999998814354e-05	0.21142067499999984
tf_rep(RIF1)	547.8645886870783	0.0000000154594	1.0	1.23594146826552e-5	0.0	0.006843194623256104	0.41254135479028414	69.22802080371181	10.0	[1, 1, 1.5160953144881448, 91.0114623121554, 4318852.94847913]	595924190.2869549	2.0	4.9713999999312364e-05	0.19764129699999966
tf_act(RIF1)	553.4066917213567	0.000000011986	1.0	8.80348908124326e-6	0.0	0.0004634789317308143	0.0	99.83432780719183	1.6646931954341442	[1, 1, 3.320057529024921, 27.704023274513435, 4317996.7986045]	397164816.20239174	2.0	5.0682999999551726e-05	0.2058167609999999
tf_rep(YOX1)	553.4037449602781	0.00000000417773	1.0	3.83559934777882e-6	0.0	0.0007068380685359176	0.01695754082337825	96.19960023934883	1.0	[1, 1, 2.997073461260789, 47.95070259663129, 4318709.580027149]	620649433.2801403	2.0	5.1401000000339536e-05	0.165721601
tf_act(NDD1)	553.4066917213568	0.00000000375005	1.0	9.69339059565359e-6	0.0	0.0004634789256751828	0.0	100.0	10.0	[1, 1, 2.5662984269656035, 27.74546681137752, 4317828.452456713]	307442977.6198145	4.0	5.582599999875981e-05	0.32631954799999985
tf_act(SWI5)	553.4066917213568	0.00000000315653	1.0	4.61131084930289e-6	0.0	0.0004634789246779844	0.0	100.0	9.799846621454025	[1, 1, 3.2389654712586697, 28.086883269971647, 4317832.4811566165]	392803778.3719939	3.0	5.3962999999157546e-05	0.2005846520000003
tf_rep(CLN3)	553.4066917213568	0.00000000203805	1.0	3.4071380614241e-6	0.0	0.00046347892442768183	0.0	88.7371507194632	1.0	[1, 1, 3.5784592790633645, 33.28742056962332, 4318358.157323774]	514392800.84922093	3.0	6.011600000022099e-05	0.30632703800000005
tf_rep(SWI4)	553.406691721303	0.000000000850865	1.0	1.43535134968989e-6	0.0	0.000463483748141635	0.0	0.001	1.0	[1, 1, 1.1062520818372352, 27.413374906161113, 4317820.669280432]	130942674.61173782	4.0	7.253800000128763e-05	0.3036125380000003
null_model	553.4066917213565				0.0	0.0004634789378134075								
