# LEMpy local minima file for target E, replicate 0
# Right-hand side of tf_act():  p0 - p1(tar) + p2(reg^p4) / (p3^p4 + reg^p4)
# Right-hand side of tf_rep():  p0 - p1(tar) + p2(p3^p4) / (p3^p4 + reg^p4)
# Run configuration file:  ../pipeline/src/syn_net/syn_net_6D_simulations_202110_with_G/p1945/results2/edge_finding_20211014211952/lempy_20211014211952_config.txt
# Time series data file:   ../pipeline/src/syn_net/time_series_with_G/syn_net_6D_20191104_a_data_p1945_transposed_with_G.tsv
# Computed on:  2021-10-14 21:21:56 
 
model	loss	p0	p1	p2	p3	p4
E=tf_act(A)	839.8127094146331	0.0	0.0023489879664267514	0.0	100.0	10.0
E=tf_act(A)	839.8127094146364	0.0	0.0023489877414476393	0.0	99.60158803564093	10.0
E=tf_act(A)	839.812709414633	0.0	0.0023489879796642758	0.0	99.64608836662865	10.0
E=tf_act(A)	839.9370427997391	0.0	0.0029636397919411803	0.48773946151353537	99.96343297467482	9.987705940863599
E=tf_act(A)	839.812709414633	0.0	0.0023489879716869213	0.0	99.50293977888929	9.940467643451429
E=tf_act(A)	839.8127094146331	0.0	0.0023489879781597167	0.0	99.30840522563955	9.953027097220504
E=tf_act(A)	839.8127094146336	0.0	0.0023489879650538266	0.0	98.95432559712123	9.906578523174543
E=tf_act(A)	839.8127094146331	0.0	0.002348987969380221	0.0	98.75920548332543	9.905240653595637
E=tf_act(A)	840.1514296658781	0.010486477678662856	0.003247867419011711	0.5046776788604431	98.5405535000377	9.865588347779868
E=tf_act(A)	839.8127094146334	0.0	0.002348987968933405	0.0	98.54973804919692	9.924187701143643
E=tf_rep(A)	583.899462777097	0.0	0.03914409397392281	100.0	5.0094670130406715	10.0
E=tf_rep(A)	583.8994627776173	0.0	0.03914405630503369	100.0	5.009466595729209	10.0
E=tf_rep(A)	583.9089924267203	0.0	0.03914288357948973	99.63211627657029	5.0115622953356445	10.0
E=tf_rep(A)	583.9682674560398	0.0	0.03914379298960705	97.41401185708311	5.024527566443213	10.0
E=tf_rep(A)	584.2061085269528	0.0	0.04014340142751878	97.1985456470171	5.037187075721152	9.989363923834587
E=tf_rep(A)	583.9862997324375	0.0	0.03913163901599738	96.76132607261957	5.028223952583291	10.0
E=tf_rep(A)	583.9781145544911	0.0	0.03913288204090916	97.05604384846956	5.026485986376575	10.0
E=tf_rep(A)	583.9817624958298	0.0	0.0391323842736095	96.92443359521522	5.027262113892938	10.0
E=tf_rep(A)	583.9919737543224	0.0	0.03913090884962077	96.55826214531916	5.0294269371514195	10.0
E=tf_rep(A)	583.9990487918043	0.0	0.039129926304744614	96.30646347709775	5.03092228429816	10.0
E=tf_act(B)	839.8127094146279	0.0	0.0023489883543906702	0.0	100.0	9.960057804413694
E=tf_act(B)	839.8127094146332	0.0	0.0023489879679246565	0.0	99.68225269717293	9.98495676127558
E=tf_act(B)	839.8127094146331	0.0	0.002348987979428436	0.0	99.72675278722026	9.992066789646179
E=tf_act(B)	839.8127094146336	0.0	0.0023489879704880205	0.0	100.0	9.99016614384604
E=tf_act(B)	839.8127094146332	0.0	0.0023489879636330187	0.0	99.53704954602604	9.946907173825398
E=tf_act(B)	839.8127094146331	0.0	0.0023489879781597167	0.0	99.3425149927763	9.959466627594473
E=tf_act(B)	839.8127094146333	0.0	0.0023489879723689534	0.0	99.25042759218351	9.954732005348795
E=tf_act(B)	839.8127094146331	0.0	0.002348987984902384	0.0	99.05530747838772	9.953394135769889
E=tf_act(B)	839.812709414633	0.0	0.0023489879769957845	0.0	98.83665644855516	9.913745920859567
E=tf_act(B)	839.8127094146331	-2.168404344971009e-19	0.0023489879734613843	0.0	98.62718901442665	9.932692968407572
E=tf_rep(B)	25.118054910456387	0.0	0.1055866146266393	26.38224450712707	22.86795973465441	10.0
E=tf_rep(B)	25.079440056430442	0.0	0.10566433995394844	26.800466812966693	22.73462123335965	10.0
E=tf_rep(B)	25.079440056594834	0.0	0.10566432982454237	26.800440745527368	22.734629431626633	10.0
E=tf_rep(B)	25.07944005671122	0.0	0.10566432749854779	26.800473027387934	22.734618861306515	10.0
E=tf_rep(B)	25.084770464026935	0.0	0.10569173069140245	26.960171875442164	22.684984433167855	10.0
E=tf_rep(B)	25.087093243225034	0.0	0.10560632697142644	26.611111699421464	22.79232446427677	10.0
E=tf_rep(B)	25.09210207274237	0.0	0.10571450437195509	27.04807822639334	22.6586448023738	10.0
E=tf_rep(B)	25.085868841139284	0.0	0.10571291570176947	26.976772796531442	22.681413247935268	10.0
E=tf_rep(B)	25.07944040260703	0.0	0.10566530259100264	26.799412291596454	22.735044270381422	10.0
E=tf_rep(B)	25.08541330183696	0.0	0.10561498564914884	26.633063292760493	22.78574371074411	10.0
E=tf_act(C)	839.8127094146315	0.0	0.002348988093032898	0.0	100.0	9.960057804413694
E=tf_act(C)	839.8127094146332	0.0	0.002348987970848815	0.0	99.61306969400101	9.977648247215027
E=tf_act(C)	839.8127094146332	0.0	0.0023489879766493	0.0	99.65756978404835	9.984758275585627
E=tf_act(C)	839.8127094146333	0.0	0.00234898795690926	0.0	99.99094214976732	9.98395001068274
E=tf_act(C)	839.8127094146326	0.0	0.0023489879972605943	0.0	99.52799169579336	9.940691040662099
E=tf_act(C)	839.8127094146331	0.0	0.0023489879781597167	0.0	99.33345714254362	9.953250494431174
E=tf_act(C)	839.812709414633	0.0	0.002348987974157931	0.0	97.90717387619623	9.951929781930044
E=tf_act(C)	839.8127094146333	0.0	0.002348987966208598	0.0	97.71205376240043	9.950591912351138
E=tf_act(C)	840.146388196065	0.024891194893642506	0.0029204604825441953	0.0	97.49340273256787	9.910943697440816
E=tf_act(C)	839.8127094146331	0.0	0.0023489879675941934	0.0	97.50258632827192	9.969538959899143
E=tf_rep(C)	358.9261281282889	0.0	0.062043473462094	19.623553199174918	15.219911030226354	10.0
E=tf_rep(C)	358.8912664249986	0.0	0.06212281471216124	20.003070350491406	15.14853561427758	10.0
E=tf_rep(C)	358.9224993662344	0.0	0.06202339591223755	19.646823060829256	15.213738445040615	10.0
E=tf_rep(C)	358.9128683724718	0.0	0.06206572211986615	19.720569153546517	15.20146541947251	10.0
E=tf_rep(C)	358.9008832217966	0.0	0.062085696422156916	19.837813547953164	15.179011052786398	10.0
E=tf_rep(C)	358.9585970977847	0.0	0.061956825292303605	19.444526901803265	15.251445327111744	10.0
E=tf_rep(C)	358.89637940379697	0.0	0.06209995643483549	19.898752292272924	15.167738918866268	10.0
E=tf_rep(C)	358.90353149740054	0.0	0.062067943720046356	19.807389615330727	15.183961141886016	10.0
E=tf_rep(C)	358.88930207454945	0.0	0.062151291828591256	20.120988936784226	15.127308726355025	10.0
E=tf_rep(C)	358.8941608553799	0.0	0.06210454413193331	19.936274691986018	15.160557633874218	10.0
E=tf_act(D)	589.5933958515794	0.0	0.04249204862734363	7.920716338207744	78.94430459261125	4.174696804548731
E=tf_act(D)	532.6926088702149	0.0	0.06397528307883713	5.202865192496003	38.507502087250145	10.0
E=tf_act(D)	532.6927790970302	0.0	0.06399388045471999	5.202621710160327	38.485788554079896	10.0
E=tf_act(D)	532.6926088709517	0.0	0.06397523468614807	5.202864557386711	38.507539360022804	10.0
E=tf_act(D)	532.6926190317013	0.0	0.0639689253118639	5.202751772634788	38.51273764105155	10.0
E=tf_act(D)	532.7099038843887	0.0	0.06417209872793565	5.201134983490187	38.29021274793677	10.0
E=tf_act(D)	532.714463749536	0.0	0.06409415278989734	5.192712809769771	38.268321480375896	10.0
E=tf_act(D)	532.6926088708091	0.0	0.06397523890199422	5.202864709341421	38.507532468487675	10.0
E=tf_act(D)	532.7251165282134	0.0	0.06422641504753525	5.198913530206415	38.21075402266001	10.0
E=tf_act(D)	532.6926088709928	0.0	0.06397528394372405	5.202869936670278	38.50755608996579	10.0
E=tf_rep(D)	839.8127094146333	0.0	0.0023489879719887094	0.0	0.31465113882893303	1.0
E=tf_rep(D)	839.812709414638	0.0	0.0023489876243453344	0.0	0.001	1.5014527313290664
E=tf_rep(D)	839.8127094146331	0.0	0.002348987965695456	0.0	0.04550009004733235	1.5085627596996647
E=tf_rep(D)	839.8127098443708	0.0	0.002349095861752402	0.2901092841585448	0.001	1.8470381664114288
E=tf_rep(D)	839.8127095462606	0.0	0.002348987988348045	0.06032373327532612	0.001	1.8037791963907877
E=tf_rep(D)	839.8127094146331	0.0	0.0023489879781597167	4.109340175170352e-12	0.001	1.8163386501598628
E=tf_rep(D)	839.812710256507	0.0	0.00234898805513002	0.28355243861974766	0.001	1.7721800409572834
E=tf_rep(D)	839.8127098523046	0.0	0.002348988067646681	0.14550368465633945	0.001	1.7708421756154684
E=tf_rep(D)	840.1463858161367	0.024891024241460023	0.00292045651407033	0.0	0.001	1.7311939607051468
E=tf_rep(D)	839.812709414633	0.0	0.002348987976582763	0.0	0.001	1.7897892231634744
E=tf_act(E)	626.2940654913969	0.3	0.08968148926903856	23.948744883505217	87.90523450645344	10.0
E=tf_act(E)	626.2974420058572	0.3	0.08959245673997492	23.749659885759293	87.70912923056555	10.0
E=tf_act(E)	626.3120033888247	0.3	0.08946332732718631	23.595208465244223	87.5751847454256	10.0
E=tf_act(E)	626.296628267401	0.3	0.08971860007230262	24.008459321758377	87.9598200221083	10.0
E=tf_act(E)	626.3086349189282	0.3	0.0895199699157454	23.62879869063443	87.59466176173129	10.0
E=tf_act(E)	626.2930525603975	0.3	0.08964091044129113	23.881481804693117	87.84292988290261	10.0
E=tf_act(E)	626.2932286889982	0.3	0.08962133425698689	23.85316793181826	87.81744819316918	10.0
E=tf_act(E)	626.3024622657424	0.3	0.08951450688534136	23.67873526592715	87.65425297889969	10.0
E=tf_act(E)	626.3520209504329	0.3	0.08932765250360218	23.381704217406835	87.37191186671252	10.0
E=tf_act(E)	626.339660126342	0.3	0.08921892100287304	23.414536579710088	87.44842233550791	10.0
E=tf_rep(E)	810.7650669251337	0.0	0.013583941673251217	99.63170727004402	6.927847440697501	9.999775869378416
E=tf_rep(E)	810.7510726944878	0.0	0.013842507545437564	99.85599388239405	6.9411257270871	10.0
E=tf_rep(E)	810.7522633291165	0.0	0.013841909459491989	99.49337631007494	6.943677073063478	10.0
E=tf_rep(E)	810.7511106528169	0.0	0.01384269190100431	99.8443946954321	6.941219655268423	10.0
E=tf_rep(E)	810.7518571358605	0.0	0.01384222294073913	99.61679149216012	6.942815360245281	10.0
E=tf_rep(E)	810.7533153492282	0.0	0.013841659008413372	99.17512693925144	6.945944719675707	10.0
E=tf_rep(E)	810.7523703515304	0.0	0.013842013855113454	99.46090626195267	6.943917438598196	10.0
E=tf_rep(E)	810.7528213965296	0.0	0.013841884415815816	99.32430197480453	6.9448881743341415	10.0
E=tf_rep(E)	810.7540548230006	0.0	0.013841362900861796	98.95262892567582	6.947526547847863	10.0
E=tf_rep(E)	810.7708295870734	0.0	0.014048684852442038	98.69413160004984	6.957785312794362	9.994563125348412
E=tf_act(F)	31.001582317479983	0.3	0.43604492111026916	93.80455821553453	100.0	1.6618707766595402
E=tf_act(F)	31.00863152419613	0.3	0.4345847070985613	93.5151547361916	100.0	1.6626006970271292
E=tf_act(F)	31.001582318418087	0.3	0.4360448523672032	93.80454582358209	100.0	1.661870835586071
E=tf_act(F)	31.001582310526697	0.3	0.4360455739573786	93.80468666077282	100.0	1.6618703366557568
E=tf_act(F)	31.00158231470357	0.3	0.4360451387193651	93.80460592061469	100.0	1.6618707486739859
E=tf_act(F)	31.017146593915538	0.3	0.43386641575240004	93.37429204544776	100.0	1.6629953704387455
E=tf_act(F)	31.001582316924242	0.3	0.43604496492332234	93.80456410181624	100.0	1.6618706967991297
E=tf_act(F)	31.001582312124455	0.3	0.43604537201023597	93.80463395395728	100.0	1.6618702433591916
E=tf_act(F)	31.001582314765223	0.3	0.43604526014998146	93.80461296022013	100.0	1.6618701802068587
E=tf_act(F)	31.00158230272241	0.3	0.436047522677786	93.80501675629755	100.0	1.6618682333208412
E=tf_rep(F)	839.8127094146317	0.0	0.0023489880532714183	0.0	0.31465113882893303	1.0
E=tf_rep(F)	839.8127094311179	0.0	0.002348986790014641	0.0009406983965393051	0.001	1.4890492253250875
E=tf_rep(F)	839.8127094146229	0.0	0.002348988781712186	0.0	0.04550008796544553	1.4961592540960493
E=tf_rep(F)	839.8691506845595	0.0	0.0023747996718775657	0.48795144542165464	0.36283380850448965	1.4838654716782183
E=tf_rep(F)	839.8127167042778	0.0	0.002348991352138838	0.2581658928959173	0.001	1.4406065038304203
E=tf_rep(F)	839.8127094146331	0.0	0.0023489879781597167	0.0	0.001	1.4531659575994955
E=tf_rep(F)	839.8127203633785	0.0	0.0023490052058440665	0.2835524389197445	0.0010009855954797877	1.409007344996306
E=tf_rep(F)	839.8127150995757	0.0	0.002348990614657803	0.14550354524580472	0.001	1.407669668057527
E=tf_rep(F)	840.1463842488188	0.024890914340943454	0.0029204542010667143	2.118976317164613e-05	0.0010000007571953262	1.3680214531472052
E=tf_rep(F)	839.812709414633	0.0	0.0023489879716326796	0.0	0.001	1.426616715605533
E=tf_act(G)	839.8127094146333	0.0	0.002348987967621873	0.0	100.0	9.197141237605955
E=tf_act(G)	839.8127094146334	0.0	0.0023489879652802267	0.0	99.59803558452299	9.229083164787948
E=tf_act(G)	840.2721358326602	0.005875375177988292	0.0035116474889764354	0.38010679954949905	99.64253568212558	9.2361932985136
E=tf_act(G)	839.8127094146332	0.0	0.002348987974754902	0.0	100.0	9.50259118160547
E=tf_act(G)	839.8127094146331	0.0	0.0023489879863085534	0.0	99.53704954706508	9.459332228323923
E=tf_act(G)	839.8127094146331	0.0	0.0023489879781597167	0.0	99.34251499381534	9.471891682092998
E=tf_act(G)	840.1135030264151	0.001283264441585465	0.0032088415697819664	0.2963068348428692	98.98588809406546	9.428143644806804
E=tf_act(G)	839.8356279130218	0.0	0.002430066514081142	0.028244350580877778	98.7938658403384	9.432060742756967
E=tf_act(G)	840.7068477857641	0.005922035466438417	0.004292405836722685	0.6476040414096007	98.57521484185492	9.39241281579395
E=tf_act(G)	839.8127094146333	0.0	0.0023489879687591695	0.0	98.58439840620989	9.451007790304972
E=tf_rep(G)	839.8127094146332	0.0	0.0023489879671078216	0.0	0.31465113882893303	1.0
E=tf_rep(G)	839.8127094146329	0.0	0.0023489879818791738	0.0	0.001	1.2897312245168093
E=tf_rep(G)	839.812709414633	-6.938893903907228e-18	0.0023489879747327458	0.0	0.04550009004733235	1.2968412528874076
E=tf_rep(G)	839.8127094146332	0.0	0.002348987968372776	0.0	0.001	1.0396800439121507
E=tf_rep(G)	839.8127094146328	0.0	0.0023489880003396283	0.0	0.001	1.0
E=tf_rep(G)	839.8127094146331	0.0	0.0023489879781597167	0.0	0.001	1.0125594537690752
E=tf_rep(G)	839.837967772655	0.0	0.002350440222784551	0.2835396744179282	0.001	1.0000170991837298
E=tf_rep(G)	839.8127094146329	0.0	0.002348987980799382	0.0	0.001	1.2632797015074047
E=tf_rep(G)	840.1463832349826	0.02489084069751626	0.002920452390402335	0.0	0.001	1.223631486597083
E=tf_rep(G)	839.8127094146331	0.0	0.002348987968576546	0.0	0.001	1.2822267490554107
