# LEMpy local minima file for target WHI5, replicate 0
# Right-hand side of tf_act():  p0 - p1(tar) + p2(reg^p4) / (p3^p4 + reg^p4)
# Right-hand side of tf_rep():  p0 - p1(tar) + p2(p3^p4) / (p3^p4 + reg^p4)
# Run configuration file:  ../pipeline/src/yeast_data/simulations202110_Orlando_2/annot/results2/edge_finding_20211012132914/lempy_20211012132914_config.txt
# Time series data file:   ../pipeline/src/yeast_data/time_series/orlando2008_WildType_r1_trunc.tsv
# Computed on:  2021-10-12 13:32:05 
 
model	loss	p0	p1	p2	p3	p4
WHI5=tf_act(SWI4)	209.224805591138	0.0	0.03422620478892132	2.921096740109965	24.959603008224594	10.0
WHI5=tf_act(SWI4)	209.2248055926666	0.0	0.03422617466276648	2.9210946115715752	24.959607200620002	10.0
WHI5=tf_act(SWI4)	209.22480558495826	0.0	0.03422637696885274	2.921111226004642	24.95958852823091	10.0
WHI5=tf_act(SWI4)	209.2248055915077	0.0	0.03422619809066089	2.9210959845248605	24.959602858729745	10.0
WHI5=tf_act(SWI4)	209.22480559374375	0.0	0.03422615636625401	2.9210938803411786	24.95961824475268	10.0
WHI5=tf_act(SWI4)	209.2248055939642	0.0	0.034226153509291576	2.9210920175916715	24.9595984134177	10.0
WHI5=tf_act(SWI4)	209.2248055924142	0.0	0.03422618501724304	2.921096452897777	24.959613294885145	10.0
WHI5=tf_act(SWI4)	209.2248055901657	0.0	0.03422623115918863	2.921100157564338	24.95961448354552	10.0
WHI5=tf_act(SWI4)	209.23048983157682	0.0	0.034545739334052944	2.940646230302866	24.87772840988848	10.0
WHI5=tf_act(SWI4)	209.22480558865436	0.0	0.03422626248934885	2.921100892861112	24.95958914484871	10.0
WHI5=tf_rep(SWI4)	246.9930296253354	0.3	0.002713556031387119	0.23071894593787767	0.001	9.999052232201722
WHI5=tf_rep(SWI4)	246.99302962545832	0.3	0.0027135504535798554	0.0	0.3936294699797407	9.963746681676955
WHI5=tf_rep(SWI4)	246.99302962545858	0.3	0.0027135504502859608	0.31617025062251036	0.001	10.0
WHI5=tf_rep(SWI4)	246.9930296253386	0.3	0.0027135544559643236	0.0	0.26208215773935395	10.0
WHI5=tf_rep(SWI4)	246.99302962549228	0.3	0.002713549814728268	0.0	0.001	10.0
WHI5=tf_rep(SWI4)	246.993029625487	0.3	0.002713549909566489	0.10027915428287004	0.4221760372864122	10.0
WHI5=tf_rep(SWI4)	246.99302962545852	0.3	0.002713550450882752	0.0	0.8508781542727722	10.0
WHI5=tf_rep(SWI4)	246.9930296254625	0.3	0.0027135503701699376	0.0	0.9683574170478723	9.983817097502056
WHI5=tf_rep(SWI4)	246.99302962545835	0.3	0.002713550451776375	0.0	1.004804584363604	9.969954015089773
WHI5=tf_rep(SWI4)	246.9930296254585	0.3	0.0027135504513054695	0.4119923241552279	0.5738183713708819	9.982771079384644
WHI5=tf_act(HCM1)	226.49369131956183	0.0	0.04363569867117915	3.429487366496555	23.51565639532218	10.0
WHI5=tf_act(HCM1)	226.49369131041982	0.0	0.04363589346830213	3.429501614950191	23.515640513934702	10.0
WHI5=tf_act(HCM1)	226.5394726178356	0.0	0.0454039875052177	3.5678727678085944	23.58554034356405	10.0
WHI5=tf_act(HCM1)	226.49369131440776	0.0	0.043635824347611527	3.4294948478069323	23.515631962929085	10.0
WHI5=tf_act(HCM1)	226.49369142369363	0.0	0.043635260898401466	3.42943850684965	23.515398300000115	10.0
WHI5=tf_act(HCM1)	226.53310128015283	0.0	0.045465514340879185	3.569346364858234	23.527561525675726	10.0
WHI5=tf_act(HCM1)	226.4936913212205	0.0	0.043635665097502496	3.4294845768776865	23.5156509990491	10.0
WHI5=tf_act(HCM1)	226.4945442060238	0.0	0.04364940871518824	3.4319656738072117	23.542755782261658	10.0
WHI5=tf_act(HCM1)	226.51889757365188	6.201625915182853e-05	0.04403670216298488	3.4574683090443834	23.46339362571501	9.987845819892634
WHI5=tf_act(HCM1)	226.49369132099793	0.0	0.04363566962394927	3.429485098409848	23.515654684271425	10.0
WHI5=tf_act(NDD1)	237.15531836005707	0.2548603797487388	0.03227362688327105	2.1772600473138195	4.609235016639107	9.999052093330887
WHI5=tf_act(NDD1)	237.15531954872023	0.2540792644037352	0.03227366847409393	2.1780441615021653	5.001864488587461	9.963746561477116
WHI5=tf_act(NDD1)	237.15531827602604	0.19785776200510788	0.0322736512026956	2.2342644181207487	4.550954214418155	9.99999999887861
WHI5=tf_act(NDD1)	237.15531884257624	0.19971888838171858	0.032273681497444695	2.2324054302548206	4.812036363755098	9.999999999301311
WHI5=tf_act(NDD1)	237.1553182672695	0.21875783384148234	0.03227364267922035	2.213363302728922	4.549600525317009	9.999999999901421
WHI5=tf_act(NDD1)	237.1553193537442	0.2013358679857355	0.03227363189369938	2.230784915415199	4.970776802865942	9.9999999199163
WHI5=tf_act(NDD1)	237.15532171781473	0.2027875302445558	0.03227362856450333	2.229333022663922	5.399478914887819	10.0
WHI5=tf_act(NDD1)	237.15532286743763	0.20240840680663127	0.03227365668530836	2.2297142181842697	5.516958172272059	9.98381711163855
WHI5=tf_act(NDD1)	237.15532336356077	0.2019444846940514	0.032273664805032555	2.230178684179313	5.553405330104757	9.969954048148045
WHI5=tf_act(NDD1)	237.15532013976824	0.1399080775326935	0.032273708929930395	2.2922179306857573	5.122418671242036	9.982771115042372
WHI5=tf_act(SWI5)	265.5576420732632	0.3	0.003187871359033611	0.11889993600541593	20.75462012472815	9.330237836668033
WHI5=tf_act(SWI5)	246.99302962545855	0.3	0.002713550450403722	0.0	21.39334785419286	9.321696841576934
WHI5=tf_act(SWI5)	246.99302962545855	0.3	0.002713550449908769	0.0	20.96805965562443	9.342019751840144
WHI5=tf_act(SWI5)	246.9930296253386	0.3	0.002713554458318162	0.0	21.229141813363782	9.352850980329535
WHI5=tf_act(SWI5)	246.99302962549237	0.3	0.002713549813019115	0.0	20.9667060279375	9.362518382249956
WHI5=tf_act(SWI5)	255.13745238095066	0.3	0.003052615927120612	0.06081179924785984	21.39345320671377	9.36496752821759
WHI5=tf_act(SWI5)	246.99302962545798	0.3	0.002713550460021581	0.0	21.39540808268214	9.405808392397843
WHI5=tf_act(SWI5)	246.99302962545852	0.3	0.002713550450025709	0.0	21.51288727573267	9.389625496253865
WHI5=tf_act(SWI5)	246.99302962545855	0.3	0.0027135504505921898	0.0	21.54933442922866	9.375762416240324
WHI5=tf_act(SWI5)	246.99302962545858	0.3	0.002713550450708784	0.0	21.145141931601195	9.365115739720572
WHI5=tf_rep(NRM1)	132.76230077850022	0.0	0.008390302999676752	2.9613147849006145	29.30895870971065	10.0
WHI5=tf_rep(NRM1)	132.73839547199518	0.0	0.008502154802821064	2.959809859046829	29.614961517983147	10.0
WHI5=tf_rep(NRM1)	132.80089963330204	0.0	0.008323200265366945	2.9625791694712427	29.118011849997494	10.0
WHI5=tf_rep(NRM1)	132.73839547187072	0.0	0.008502144452815873	2.9598055132879866	29.614985899811643	10.0
WHI5=tf_rep(NRM1)	132.73847502269209	0.0	0.008505245439006328	2.9588553238113615	29.631214179229886	10.0
WHI5=tf_rep(NRM1)	132.74165146448678	0.0	0.008501264827741092	2.969668970764868	29.527101287474025	10.0
WHI5=tf_rep(NRM1)	132.73839547192418	0.0	0.008502143316805181	2.95980452827341	29.61499182462553	10.0
WHI5=tf_rep(NRM1)	132.73839547162652	0.0	0.008502149180254636	2.9598053309067907	29.614999866874694	10.0
WHI5=tf_rep(NRM1)	132.74073349108488	0.0	0.008537891991235095	2.9594221396258025	29.709815198474306	10.0
WHI5=tf_rep(NRM1)	132.7784350775418	3.6396235936824936e-05	0.00835711358976465	2.9615598737676816	29.219217664124987	10.0
WHI5=tf_rep(CLN3)	207.31253614030237	0.3	0.09479878048142609	19.493023406848366	53.99098048229904	1.6848357363561526
WHI5=tf_rep(CLN3)	207.35223985856877	0.3	0.0948200080013128	19.36426292880511	54.47351283664514	1.6964314920051038
WHI5=tf_rep(CLN3)	207.3063593077486	0.3	0.09454557966237019	19.48412723982445	53.90988224807765	1.687481136075182
WHI5=tf_rep(CLN3)	207.33800171632794	0.3	0.09472151059576879	19.40778158060572	54.30106685066612	1.6958189370209227
WHI5=tf_rep(CLN3)	204.7975810109567	0.3	0.09583876647437786	100.0	7.96248046143211	1.144898068314498
WHI5=tf_rep(CLN3)	204.80304062431847	0.3	0.09592904888285077	98.5790736487046	8.120119357010111	1.1475544269912141
WHI5=tf_rep(CLN3)	204.80416666033315	0.3	0.09583360798882726	98.23087913735587	8.123271351989072	1.146555338982444
WHI5=tf_rep(CLN3)	204.80556759821133	0.3	0.09582772805426644	97.86338381385141	8.156533068270381	1.146873173860135
WHI5=tf_rep(CLN3)	204.80739980725926	0.3	0.09577163973378686	97.40670966936389	8.180962276133625	1.1464482387988066
WHI5=tf_rep(CLN3)	204.8057015341717	0.3	0.09582739231199444	97.82840915068722	8.159739106952564	1.1469040322224362
WHI5=tf_rep(WHI5)	173.40332213098162	0.0	0.002522502217422588	18.36923049414073	36.31559177243901	9.187266536541898
WHI5=tf_rep(WHI5)	173.33803133762697	0.0	0.002456442867402246	17.953484964581477	36.53962269932711	9.365947629223045
WHI5=tf_rep(WHI5)	170.52750889033612	0.0	0.0032378256412957463	7.464023431995383	42.79004801256597	10.0
WHI5=tf_rep(WHI5)	170.5462102250974	0.0	0.003317669363586337	7.1843139190308465	43.13955639688903	10.0
WHI5=tf_rep(WHI5)	170.5458309176659	0.0	0.0033079722112505277	7.182306599065906	43.12825654099672	10.0
WHI5=tf_rep(WHI5)	170.5460287259036	0.0	0.0033048539911939984	7.179730185628799	43.12634331354302	10.0
WHI5=tf_rep(WHI5)	170.62504995812606	0.0	0.0034197153427600996	6.860353209114097	43.576188973201916	10.0
WHI5=tf_rep(WHI5)	170.5275088895913	0.0	0.003237835526402037	7.463992308495886	42.79008152043396	10.0
WHI5=tf_rep(WHI5)	170.5275088894618	0.0	0.003237836694863922	7.463992422114429	42.79008773581572	10.0
WHI5=tf_rep(WHI5)	170.55727617832412	0.0	0.0031385219901938657	7.859154440128475	42.33738976959357	10.0
WHI5=tf_act(YOX1)	245.12542589123498	0.3	0.014446900951011952	0.9215141673127366	19.64960378759998	10.0
WHI5=tf_act(YOX1)	245.0740155131572	0.3	0.014003005482182276	0.8921724787970814	19.96807887544335	10.0
WHI5=tf_act(YOX1)	245.10125525353757	0.3	0.014917679802168557	0.9669351590282769	20.100011545785417	10.0
WHI5=tf_act(YOX1)	245.07401552084843	0.3	0.014002805065793811	0.8921579897774634	19.968140948206845	10.0
WHI5=tf_act(YOX1)	245.1259513643166	0.3	0.012419501844476629	0.7650669627039096	19.836592216677502	10.0
WHI5=tf_act(YOX1)	245.07405663114358	0.3	0.013952250223874757	0.8881629499272422	19.968104363108687	10.0
WHI5=tf_act(YOX1)	245.07401553552404	0.3	0.014002578773871484	0.8921390466945321	19.968086950631665	10.0
WHI5=tf_act(YOX1)	245.08826290461235	0.3	0.013894107139121694	0.8848293200243744	20.041108668146403	9.983938724161167
WHI5=tf_act(YOX1)	245.0762544657928	0.3	0.013929329721781679	0.8875145336058731	20.035384511671936	10.0
WHI5=tf_act(YOX1)	245.07401551739318	0.3	0.01400287395308237	0.8921632184091031	19.968137254915423	10.0
WHI5=tf_rep(YOX1)	193.38379146262625	0.0	0.00014540397283409185	99.9999999969892	6.7298385554647115	9.9683708315725
WHI5=tf_rep(YOX1)	193.38522605232112	0.0	0.0001455999769377455	99.55400419404512	6.728027791333374	9.936890945903242
WHI5=tf_rep(YOX1)	193.38622742569646	0.0016153395594336113	0.0001676641721896361	99.87083858626843	6.724687353882397	9.93155703477833
WHI5=tf_rep(YOX1)	193.38484099056558	0.0	0.00014552017720063514	99.48187928755674	6.729980653794541	9.94548024020102
WHI5=tf_rep(YOX1)	193.38652656753882	0.0	0.00014557468911916967	99.38794993248787	6.724657481919578	9.90877237268877
WHI5=tf_rep(YOX1)	193.38615694602785	0.00034768421646963997	0.00015034895099593444	99.38927503980875	6.726545273356104	9.920353856231735
WHI5=tf_rep(YOX1)	193.3941284489148	0.019945752132166875	0.0004191713430554034	99.02557471720169	6.735343556004866	9.965769042733253
WHI5=tf_rep(YOX1)	193.38408523852053	0.0	0.0001454442722367562	98.65955426252057	6.738983560583491	9.963309119274983
WHI5=tf_rep(YOX1)	193.38452259675	8.311807162956911e-05	0.000146610305798861	98.20788357518754	6.740999284328362	9.954943690841075
WHI5=tf_rep(YOX1)	193.38723451468246	0.003149800364146483	0.000188729069056029	98.62314920647931	6.733181204700764	9.927257327783998
WHI5=tf_act(ASH1)	246.99302962545858	0.3	0.002713550450830568	0.0	18.78513952148526	8.798137404854122
WHI5=tf_act(ASH1)	246.9930296254584	0.3	0.0027135504523272953	0.0	19.177768991465	8.762831854329356
WHI5=tf_act(ASH1)	246.99302962533375	0.3	0.0027135553651447875	0.0	18.705255107084426	8.721639524533485
WHI5=tf_act(ASH1)	246.9930296253387	0.3	0.002713554456831922	0.0	18.96633726482378	8.732470753022875
WHI5=tf_act(ASH1)	246.99302962549223	0.3	0.002713549815377199	0.0	18.703901479397498	8.742138154943296
WHI5=tf_act(ASH1)	246.99302962545855	0.3	0.0027135504502010313	0.0	19.136299520378202	8.744502892394795
WHI5=tf_act(ASH1)	258.53934047445676	0.3	0.0030404384102223256	0.08999201868156859	19.565003337357165	8.787793944863084
WHI5=tf_act(ASH1)	246.99302962545852	0.3	0.0027135504505496236	0.0	19.253780941592513	8.728321174157657
WHI5=tf_act(ASH1)	246.99302962545855	0.3	0.0027135504493324488	0.0	19.29022807630188	8.714458066703493
WHI5=tf_act(ASH1)	246.9930296253398	0.3	0.0027135565568589533	0.0	17.79133543015748	7.404982926308276
WHI5=tf_rep(ASH1)	246.9930296253354	0.3	0.0027135560315645177	0.23071894593787767	0.001	9.999052232201722
WHI5=tf_rep(ASH1)	246.99302962545852	0.3	0.0027135504508589213	0.0	0.3936294699797407	9.963746681676955
WHI5=tf_rep(ASH1)	246.99302962545855	0.3	0.002713550449970219	0.31617025062251036	0.001	10.0
WHI5=tf_rep(ASH1)	246.99302962533858	0.3	0.0027135544589372918	0.0	0.26208215773935395	10.0
WHI5=tf_rep(ASH1)	246.99302962549228	0.3	0.002713549814728268	0.0	0.001	10.0
WHI5=tf_rep(ASH1)	246.9930296254582	0.3	0.002713550451150385	0.10027915428287004	0.4221760372864122	10.0
WHI5=tf_rep(ASH1)	246.99302962545858	0.3	0.0027135504492502814	0.0	0.8508781542727722	10.0
WHI5=tf_rep(ASH1)	246.9930296254599	0.3	0.00271355042296681	0.0	0.9683574170478723	9.983817097502056
WHI5=tf_rep(ASH1)	246.9930296254583	0.3	0.002713550455067207	0.0	1.004804584363604	9.969954015089773
WHI5=tf_rep(ASH1)	246.99302962543337	0.3	0.0027135504506152026	0.4119923241552279	0.5738183713708819	9.982771079384644
