# LEMpy target file for SWI4, replicate 0 
# Run configuration file:  ../pipeline/src/yeast_data/simulations202110_Orlando_2/annot/results2/edge_finding_20211012132914/lempy_20211012132914_config.txt 
# Time series data file:   ../pipeline/src/yeast_data/time_series/orlando2008_WildType_r1_trunc.tsv 
# Computed on:  2021-10-12 13:32:05 
 
model	loss	pld	inv_temp	prior	rhs_param_0	rhs_param_1	rhs_param_2	rhs_param_3	rhs_param_4	hess_eigs	hess_det	bnd_params	pld_time	opt_time
tf_rep(WHI5)	250.62089131518638	0.982635	1.0	0.08333333333333333	0.0	0.04048422349662916	9.563910073067017	52.97443671785703	7.107620058591471	[1, 1.6386274037470507, 8.416783135455288, 35.85637358633866, 4601026.543952352]	2275346036.3380923	1.0	4.662299999980135e-05	0.28750911599999984
tf_rep(NRM1)	512.9598228371703	0.00437873	1.0	0.08333333333333333	0.0	0.0027064287060599157	0.4119923241552279	0.5738183713708819	9.982771079384644	[1, 1, 1, 29.826233976471578, 4600871.376038101]	137226666.15736315	1.0	4.7730999999995305e-05	0.376564052
tf_rep(YOX1)	419.36842826594363	0.00248509	1.0	0.08333333333333333	0.0	0.013601833302766578	99.53845451365706	3.654253241288859	2.5082661969403444	[1, 1, 32.64590397298693, 217.5576769709345, 4602539.1482139295]	32688922305.065872	1.0	4.449699999975465e-05	0.39627054200000034
tf_rep(CLN3)	512.9598231609805	0.00218936	1.0	0.08333333333333333	0.0	0.0027064288349102363	9.512574653887606	6.946578625424703	10.0	[1, 1, 1, 29.82623397634902, 4600871.3760381]	137226666.15679923	2.0	5.5158999999971314e-05	0.331015984
tf_act(SWI4)	512.9598228373444	0.00159067	1.0	0.08333333333333333	0.0	0.0027064287855150535	0.0	20.90169957251556	9.291119416993252	[1, 1, 1, 56.482192190513366, 4602622.142819757]	259966188.45105794	2.0	0.011398069999999816	0.3777434770000001
tf_act(HCM1)	512.9598228373444	0.00157123	1.0	0.08333333333333333	0.0	0.0027064287855150535	0.0	20.65985701544074	9.390049359302827	[1, 1, 1, 57.88726198808497, 4602685.550393784]	266436864.3044181	2.0	5.5914000000267805e-05	0.3122413159999997
tf_act(NDD1)	512.9598228373444	0.00153917	1.0	0.08333333333333333	0.0	0.0027064287855150535	0.0	20.992524609303203	9.369544829954926	[1, 1, 1, 60.32321475792853, 4602755.0468599005]	277652981.1698692	2.0	5.073300000013603e-05	0.3892117580000001
tf_rep(SWI4)	512.9598228373444	0.00109468	1.0	0.08333333333333333	0.0	0.0027064287855150535	0.0	2.1053486091605595	10.0	[1, 1, 1, 29.82623397589805, 4600871.3760381015]	137226666.15472442	3.0	0.0001110039999998591	0.30812579100000015
tf_rep(ASH1)	512.9598228373444	0.000910381	1.0	0.08333333333333333	0.0	0.0027064287855150535	0.0	30.853395851906154	1.0204986089051584	[1, 1, 5.782715190171577, 29.827075413184694, 4601356.40895785]	793648772.9503382	2.0	5.8652999999964095e-05	0.33886932199999986
tf_act(YOX1)	512.9598228373444	0.000697818	1.0	0.08333333333333333	0.0	0.0027064287855150535	0.0	23.308913814136595	9.28254349943341	[1, 1, 4.908846241759711, 59.791564516778884, 4602261.359500328]	1350798671.3211353	2.0	4.5357999999939835e-05	0.32169698
tf_act(SWI5)	512.9598228373444	0.000538264	1.0	0.08333333333333333	0.0	0.0027064287855150535	0.0	20.70908621014243	9.344684267105224	[1, 1, 3.0478392026812653, 161.86220133097842, 4601998.433861573]	2270303715.486967	2.0	4.871200000033937e-05	0.30500070700000004
tf_act(ASH1)	512.9598228372893	0.000369633	1.0	0.08333333333333333	0.0	0.002706433212002915	0.0	20.683603542239155	9.916702352001554	[1, 1, 5.762146249846012, 181.5693602134604, 4601574.179901686]	4814301309.980135	2.0	4.424800000002449e-05	0.32630564900000003
null_model	512.9598228373447				0.0	0.0027064287710751363								
