# LEMpy local minima file for target CLN3, replicate 0
# Right-hand side of tf_act():  p0 - p1(tar) + p2(reg^p4) / (p3^p4 + reg^p4)
# Right-hand side of tf_rep():  p0 - p1(tar) + p2(p3^p4) / (p3^p4 + reg^p4)
# Run configuration file:  ../pipeline/src/yeast_data/simulations202110_Orlando_2/extra_nodes_annot/results3/edge_finding_20211011201047/lempy_20211011201047_config.txt
# Time series data file:   ../pipeline/src/yeast_data/time_series/orlando2008_WildType_r1_trunc.tsv
# Computed on:  2021-10-11 20:13:07 
 
model	loss	p0	p1	p2	p3	p4
CLN3=tf_act(SWI4)	181.52013529907774	0.3	0.0033724112771481443	0.0	100.0	1.9179867240216377
CLN3=tf_act(SWI4)	181.52013529907862	0.3	0.0033724112640677556	0.0	99.9804184450633	1.9737649808863826
CLN3=tf_act(SWI4)	181.52257094271175	0.26386525018957757	0.002933492680317274	0.0	100.0	2.558835826607241
CLN3=tf_act(SWI4)	181.52013529907862	0.3	0.0033724112642058396	0.0	100.0	2.58095316328811
CLN3=tf_act(SWI4)	181.52013529907885	0.3	0.003372411261214571	0.0	99.51172771043191	2.6012608229619243
CLN3=tf_act(SWI4)	181.5201353156076	0.3	0.0033724671291319496	0.0	99.45054465064476	2.478898851413155
CLN3=tf_act(SWI4)	181.52013556905237	0.29999015550119257	0.00337229114069689	0.0	99.9359289056515	2.5015559461446992
CLN3=tf_act(SWI4)	182.15055958715976	0.2988563660325559	0.0034146041134853924	0.04132207216916624	100.0	2.475934397314479
CLN3=tf_act(SWI4)	181.91761392464244	0.2988097178364361	0.0033985250844134254	0.026152362780015585	99.74999612701163	2.508896917394533
CLN3=tf_act(SWI4)	181.5201601955353	0.29912439861423795	0.0033616354975456813	0.0	99.5258153496665	2.5347921755032536
CLN3=tf_rep(SWI4)	31.89469715701932	0.0	0.04058827351537864	15.802132780278784	21.703425715072658	2.17749892971931
CLN3=tf_rep(SWI4)	12.863136049062799	0.0	0.03629903897929053	6.788104462781635	40.79637624343884	10.0
CLN3=tf_rep(SWI4)	12.863136045504262	0.0	0.03629909902869343	6.788112953075657	40.79638249429052	10.0
CLN3=tf_rep(SWI4)	12.86313604645866	0.0	0.03629908162479502	6.788110912838513	40.7963797784287	10.0
CLN3=tf_rep(SWI4)	12.863136050309363	0.0	0.036299021065480726	6.7881031048827385	40.796372202494574	10.0
CLN3=tf_rep(SWI4)	12.86313604816104	0.0	0.036299059141387084	6.788106691183483	40.796376412108785	10.0
CLN3=tf_rep(SWI4)	12.863136047446618	0.0	0.03629906530710002	6.788108349376893	40.796379312125865	10.0
CLN3=tf_rep(SWI4)	12.863136049037863	0.0	0.036299039363136984	6.788104523265898	40.796376252353525	10.0
CLN3=tf_rep(SWI4)	12.863136047830233	0.0	0.03629905855945604	6.788107824394609	40.79637699822145	10.0
CLN3=tf_rep(SWI4)	12.863136049085337	0.0	0.03629903881879839	6.788103828042383	40.79637733515803	10.0
CLN3=tf_act(HCM1)	181.52013529894523	0.3	0.003372414185187838	0.0	100.0	10.0
CLN3=tf_act(HCM1)	181.52013529911548	0.3	0.003372410722390348	0.0	99.98112950317478	10.0
CLN3=tf_act(HCM1)	181.52013529897502	0.3	0.0033724132709808453	0.0	100.0	10.0
CLN3=tf_act(HCM1)	181.52015392629764	0.2993379678613808	0.003364318141887146	0.0	100.0	10.0
CLN3=tf_act(HCM1)	181.5201352990786	0.3	0.0033724112643602143	0.0	99.5136439511853	10.0
CLN3=tf_act(HCM1)	181.52013660322535	0.29995251533567713	0.0033718319587709884	0.0	99.45960752662567	9.997634174676149
CLN3=tf_act(HCM1)	187.64943088683796	0.2999426646813866	0.0033694296360371433	0.6495970562066604	99.9449917757328	9.999999983869223
CLN3=tf_act(HCM1)	181.52017089043292	0.29876359321107576	0.003357254898646192	0.0	99.77471539843135	9.967115195057637
CLN3=tf_act(HCM1)	181.52013529907825	0.3	0.0033724112704791235	0.0	99.62185098892414	10.0
CLN3=tf_act(HCM1)	181.52014222805028	0.2997521268797578	0.0033692895069702866	0.0	99.39767021157901	10.0
CLN3=tf_act(NDD1)	177.70084696180737	0.0	0.001229467921541751	0.8725856311435226	99.2618175236338	9.993486895607091
CLN3=tf_act(NDD1)	177.7002639107971	0.0	0.0012292282646751403	0.8721108713115144	99.25129952576438	10.0
CLN3=tf_act(NDD1)	177.70230115849614	0.0	0.0012246576923131507	0.8929062393813075	99.73372601068262	9.986529147943543
CLN3=tf_act(NDD1)	177.70180407993388	0.0	0.0012213621732462526	0.9040848203455728	99.98431536923826	10.0
CLN3=tf_act(NDD1)	177.70068454453465	0.0	0.001226525203503895	0.8826715530849293	99.49888557907103	10.0
CLN3=tf_act(NDD1)	177.70056867516342	0.0	0.0012272106422475029	0.8799900808316703	99.43653605132536	10.0
CLN3=tf_act(NDD1)	177.7020771740945	0.0	0.0012222008048653362	0.9006804353462177	99.91138619835864	9.994306477997839
CLN3=tf_act(NDD1)	177.7049703868053	0.0	0.001222891914510905	0.9046348163303666	99.99999984292273	9.96173656701782
CLN3=tf_act(NDD1)	177.70368928662242	0.0	0.0012240366688170004	0.8968214497028915	99.82681748364799	9.972365162586506
CLN3=tf_act(NDD1)	177.7008339719113	0.0	0.0012257932830676936	0.8859970664418078	99.57455817864574	10.0
CLN3=tf_act(SWI5)	116.54633969419821	0.0	0.007078840904441302	5.53584598232667	99.93626629867774	5.971108396189693
CLN3=tf_act(SWI5)	116.55225630735372	0.0	0.0070291279883220445	5.525759741380472	99.95167972729885	6.045122309382769
CLN3=tf_act(SWI5)	116.58354284381781	0.0	0.006921340391317036	5.5363394707312406	100.0	6.316967994769706
CLN3=tf_act(SWI5)	116.55146485226865	0.0	0.007049588919248248	5.544781853023858	99.99724251380194	6.02976485845024
CLN3=tf_act(SWI5)	116.53510060111522	0.0	0.007214705148151859	5.471788954467392	99.51539849682382	5.719295894789523
CLN3=tf_act(SWI5)	116.5352746762643	0.0	0.007199082321157197	5.461865755674083	99.46161486064167	5.749645041334304
CLN3=tf_act(SWI5)	116.53523664736292	0.0	0.007187467846098593	5.528498519278769	99.8851043517835	5.748629357361191
CLN3=tf_act(SWI5)	116.53487522968123	0.0	0.007203111621480768	5.548756581207768	99.9992179386732	5.717272117259379
CLN3=tf_act(SWI5)	116.53506332101051	0.0	0.007196062689701718	5.52468198669511	99.85613107685487	5.7353578305278985
CLN3=tf_act(SWI5)	116.5352477746819	0.0	0.007231984703588814	5.489532905545259	99.6244483816751	5.681224239873394
CLN3=tf_rep(NRM1)	156.42092697413295	0.2997232732347969	0.004390879383962677	100.0	4.980690802929527	10.0
CLN3=tf_rep(NRM1)	156.4210611437692	0.2999728730122944	0.004393925638373823	100.0	4.980692218459138	10.0
CLN3=tf_rep(NRM1)	156.35448620952414	0.05160884370110144	0.001366233754280393	99.8341926034359	4.9830195127954156	10.0
CLN3=tf_rep(NRM1)	156.3548895459882	0.04966339386922398	0.0013425087142807813	99.35273026510579	4.985558720174615	10.0
CLN3=tf_rep(NRM1)	156.35485603281813	0.05080400761101101	0.00135641587971721	99.3881534581046	4.9853638432361675	10.0
CLN3=tf_rep(NRM1)	156.3593638423068	0.0501555524888865	0.0013477782499165456	99.44350462299533	4.983248137688958	9.990956792414774
CLN3=tf_rep(NRM1)	156.35561317320472	0.07303403615782843	0.001627434347305959	99.06447048047973	4.986951004399581	9.999991822857805
CLN3=tf_rep(NRM1)	156.37114491969808	0.05178692334205067	0.0013683517609440557	99.10085022936076	4.98174467778113	9.968124957838926
CLN3=tf_rep(NRM1)	156.35491803435823	0.051058204253338325	0.0013595113953804756	99.31290918805992	4.985759143736976	10.0
CLN3=tf_rep(NRM1)	156.35503365501373	0.051259615752298066	0.0013619645222127362	99.17370659664395	4.9864918468526795	10.0
CLN3=tf_rep(CLN3)	175.6738749828675	0.0	0.001549467764428535	30.39104726922917	40.940426210368635	9.991794316576582
CLN3=tf_rep(CLN3)	175.67388861609493	0.0	0.0015427746785592205	30.569279159425285	40.917075931836315	9.99886877551673
CLN3=tf_rep(CLN3)	175.67422906964902	0.0	0.0015465074982133156	30.970916494846698	40.86340147253284	9.996979726143898
CLN3=tf_rep(CLN3)	175.6737757494981	0.0	0.0015469866132235255	30.506521465117657	40.93288771539061	10.0
CLN3=tf_rep(CLN3)	175.67720736709924	0.0	0.0015548788732141327	30.57778648483461	40.727231068216305	9.876210612988398
CLN3=tf_rep(CLN3)	175.67584232296772	0.0	0.0015779964659364864	30.65547914292988	40.904864305470724	9.960993858531815
CLN3=tf_rep(CLN3)	175.6735968228151	0.0	0.0015471192751205694	30.294148400308995	40.96246649788672	10.0
CLN3=tf_rep(CLN3)	175.67360014669197	0.0	0.001547084510517668	30.29805290533859	40.96184734398798	10.0
CLN3=tf_rep(CLN3)	175.67465676120952	0.0	0.0015468031658530466	30.52211115981246	40.870799938736745	9.965258917242664
CLN3=tf_rep(CLN3)	175.67443541602827	0.0	0.0015490477195442306	30.41604578187475	40.898014892550094	9.96960781576386
CLN3=tf_rep(WHI5)	160.98493559598438	0.3	0.036972711799782995	16.48865675781825	23.1590849892039	1.4799082868715245
CLN3=tf_rep(WHI5)	160.985495427293	0.3	0.03560657908878098	16.490327826302924	22.97881310862596	1.5163474193460638
CLN3=tf_rep(WHI5)	161.0089387924018	0.3	0.03933188510430003	17.027558412805845	23.477765054196325	1.457572668016465
CLN3=tf_rep(WHI5)	161.00432856600563	0.3	0.038641679286982054	16.609664334106373	23.76631420599711	1.4682449627002268
CLN3=tf_rep(WHI5)	160.9848365709735	0.3	0.03670105741502837	16.494744416796262	23.141798478006532	1.4885965292681729
CLN3=tf_rep(WHI5)	160.9834281187496	0.3	0.03648372674801932	16.534250809199563	23.062694613103723	1.4940077244258438
CLN3=tf_rep(WHI5)	160.99777546968312	0.3	0.03588219855232187	16.178114904514104	23.498130980024637	1.516699575656833
CLN3=tf_rep(WHI5)	161.00089373548593	0.298956223617951	0.03725207653284914	16.169340467436687	23.764031082733865	1.48343567059498
CLN3=tf_rep(WHI5)	160.99578103135514	0.2979574568563857	0.036974384440983395	16.296999160749568	23.50092752684335	1.486061017816748
CLN3=tf_rep(WHI5)	160.99480798924102	0.29881051327411245	0.03628359090333482	16.312231877370312	23.410859384320293	1.5061624997704772
CLN3=tf_act(YOX1)	181.52013529907862	0.3	0.003372411263556784	0.0	100.0	10.0
CLN3=tf_act(YOX1)	181.52013529908166	0.2999999998909765	0.0033724112616937666	0.0	99.98092063472498	10.0
CLN3=tf_act(YOX1)	181.52013529895063	0.3	0.003372413991542798	0.0	100.0	10.0
CLN3=tf_act(YOX1)	181.52015392635408	0.2993379683164079	0.003364317879181905	0.0	100.0	10.0
CLN3=tf_act(YOX1)	181.52013529907867	0.3	0.0033724112633666823	0.0	99.51318798271306	10.0
CLN3=tf_act(YOX1)	181.52013659969612	0.2999526436786278	0.003371833490751359	0.0	99.4642317335164	10.0
CLN3=tf_act(YOX1)	186.94036062372308	0.29994290983984867	0.0033595255245729553	0.520879000478315	99.94961599615529	10.0
CLN3=tf_act(YOX1)	181.52017126290053	0.2987500364331709	0.0033571593921753675	0.0	99.77919117274274	9.967992234403635
CLN3=tf_act(YOX1)	181.52013529906895	0.3	0.003372411417191209	0.0	99.60602707873596	9.979979481803317
CLN3=tf_act(YOX1)	181.52014222761363	0.29975212551306274	0.0033692898510979505	0.0	99.38184630139084	10.0
CLN3=tf_rep(YOX1)	20.474606848955577	0.3	0.08623602496949269	21.009834685275315	19.971042238873032	1.0788671897197315
CLN3=tf_rep(YOX1)	20.47620924225829	0.3	0.08640252836188773	21.099091023373557	19.860991257481615	1.0751007864195647
CLN3=tf_rep(YOX1)	20.47644533977177	0.3	0.08641048049297151	21.10847778581727	19.84614885304499	1.0747068145536387
CLN3=tf_rep(YOX1)	20.47925577704023	0.3	0.084882807201556	20.68036859269557	20.11353320486811	1.092393906334185
CLN3=tf_rep(YOX1)	20.4749063457178	0.3	0.0862811560224654	21.03028197502819	19.94790255461569	1.0779770692857071
CLN3=tf_rep(YOX1)	20.475871258894863	0.3	0.08634494358950759	21.079231219409227	19.878334664458958	1.0759412350189124
CLN3=tf_rep(YOX1)	20.473453881454088	0.3	0.08573954599733156	20.735068985922965	20.32100803849177	1.0907321920321404
CLN3=tf_rep(YOX1)	20.475525465344514	0.29995763874023945	0.08570161707990548	20.621153544238734	20.524618268718772	1.0953527366570954
CLN3=tf_rep(YOX1)	20.473267309191847	0.3	0.08580382187094454	20.770324870031732	20.275784994749475	1.089184630981352
CLN3=tf_rep(YOX1)	20.473179066004832	0.3	0.08591137766209794	20.82964285524046	20.199949692510216	1.0866047150995213
CLN3=tf_act(ASH1)	168.66761133255503	0.3	0.006796294396855024	1.4475826729492247	77.21775618893079	10.0
CLN3=tf_act(ASH1)	168.66723860154	0.3	0.006789621337426605	1.4442413698716838	77.20598932627742	10.0
CLN3=tf_act(ASH1)	168.7207397794891	0.3	0.0067865522997210504	1.487214178460522	78.17767124682051	10.0
CLN3=tf_act(ASH1)	168.72578292764288	0.3	0.006771100269283808	1.4835329574001959	78.24302867589891	10.0
CLN3=tf_act(ASH1)	168.69072595955078	0.3	0.006777101740325411	1.4637331295915013	77.75750778344509	10.0
CLN3=tf_act(ASH1)	168.68719428543332	0.3	0.006778660811497677	1.461522202392293	77.69518910845397	10.0
CLN3=tf_act(ASH1)	168.71919034660965	0.3	0.006766646172129063	1.4779322221015718	78.16471107400768	10.0
CLN3=tf_act(ASH1)	168.7469732203751	0.3	0.00675800989795402	1.4886918493995245	78.47433102189609	10.0
CLN3=tf_act(ASH1)	168.73079176234822	0.3	0.006763171211725271	1.482793312366703	78.30118010976291	10.0
CLN3=tf_act(ASH1)	168.70923517092314	0.3	0.006773726041267134	1.4750474149459034	78.03631926115916	10.0
CLN3=tf_rep(ASH1)	176.80031798907038	0.0	0.0010089520379790193	99.99974117093872	4.463856592349923	8.536718275312232
CLN3=tf_rep(ASH1)	176.80028573541813	0.0	0.0010088990619182968	99.99999998485144	4.472726937572784	8.56763968881342
CLN3=tf_rep(ASH1)	176.80059252853397	0.0	0.001008681790158757	99.93035017410392	4.4989958602331495	8.659020200364122
CLN3=tf_rep(ASH1)	176.80139778438607	0.0	0.0010083782507909478	99.46544121058672	4.525590344776506	8.745786620925447
CLN3=tf_rep(ASH1)	176.80098291517055	0.0	0.0010084130461755947	99.50072903230505	4.5152051307596786	8.709104393159379
CLN3=tf_rep(ASH1)	176.8008664568151	0.0	0.0010085632649294246	99.55607026065661	4.511502255970006	8.696688912227081
CLN3=tf_rep(ASH1)	176.80168429582235	0.0	0.0010081449160469218	99.25192164418964	4.53288179795494	8.768394316193737
CLN3=tf_rep(ASH1)	176.80165713335714	0.0	0.001008148537847097	99.29782842631496	4.532040982671134	8.766221176179164
CLN3=tf_rep(ASH1)	176.8015088261632	0.0	0.0010081577172407633	99.50972493255395	4.527592483161841	8.754157980839695
CLN3=tf_rep(ASH1)	176.80107079224214	0.0	0.0010084909656100543	99.37034578968833	4.518520392742546	8.718408506115946
CLN3=tf_act(RIF1)	181.52013529907777	0.3	0.003372411276846758	0.0	99.92911185411194	9.990532720293086
CLN3=tf_act(RIF1)	181.52013529905872	0.3	0.003372411582015433	0.0	99.93072118045863	10.0
CLN3=tf_act(RIF1)	181.5201352990787	0.3	0.003372411262688727	0.0	100.0	9.98047375507301
CLN3=tf_act(RIF1)	181.52015392636113	0.29933796706135585	0.0033643179758942013	0.0	100.0	10.0
CLN3=tf_act(RIF1)	181.52013529907862	0.3	0.0033724112646321895	0.0	99.51316392367653	10.0
CLN3=tf_act(RIF1)	181.5201366261843	0.2999516805641648	0.0033718219632630805	0.0	99.44904352141376	9.985186881284129
CLN3=tf_act(RIF1)	181.5201369077766	0.2999414628402939	0.003371693650129794	0.0	99.93442781386112	9.999999888917595
CLN3=tf_act(RIF1)	181.52013529898156	0.3	0.0033724131104982923	0.0	100.0	9.968443249644793
CLN3=tf_act(RIF1)	181.52013529907867	0.3	0.003372411263650147	0.0	99.82602416973049	9.98568115950475
CLN3=tf_act(RIF1)	181.52014222358284	0.29975213114107285	0.0033692929119736263	0.0	99.60184339238536	10.0
CLN3=tf_rep(RIF1)	77.38347482271936	0.3	0.020905197349895984	16.433091276760706	41.263559725614414	10.0
CLN3=tf_rep(RIF1)	77.35684249688269	0.3	0.020891206185147972	16.068099751628505	41.386436764172366	10.0
CLN3=tf_rep(RIF1)	77.35684249966975	0.3	0.020891121844086924	16.068122787351054	41.38639837303596	10.0
CLN3=tf_rep(RIF1)	77.40413960987894	0.3	0.020851382143667954	15.59222213601871	41.54548092493991	10.0
CLN3=tf_rep(RIF1)	77.35717133350074	0.3	0.02089466840981361	16.02911521827322	41.401400852250106	10.0
CLN3=tf_rep(RIF1)	77.35702805775047	0.3	0.020893055581489593	16.098350315132546	41.37632732372434	10.0
CLN3=tf_rep(RIF1)	77.35684249968475	0.3	0.02089112154246701	16.068115876930875	41.386400839540734	10.0
CLN3=tf_rep(RIF1)	77.35829218226822	0.3	0.02088742524952257	15.984153493117239	41.415059373618476	10.0
CLN3=tf_rep(RIF1)	77.35684249951323	0.3	0.020891124235742596	16.068121117532986	41.38639978576309	10.0
CLN3=tf_rep(RIF1)	77.35745644956872	0.3	0.020887557319846903	16.013295592801043	41.40471750591428	10.0
CLN3=tf_act(EDS1)	175.84898764416405	0.0	0.001006518068278619	2.6623015892847546	99.93872327490547	5.566177964983592
CLN3=tf_act(EDS1)	175.8554407222869	0.0	0.0009443894716135009	2.6397950075403225	99.94140114823445	5.696943294887278
CLN3=tf_act(EDS1)	175.89812794295702	0.0	0.0008166453417156562	2.7081509524903398	99.99999999996531	6.172921962761619
CLN3=tf_act(EDS1)	176.0098984318206	1.1486011320609446e-08	0.0006317090605372805	2.2686752149837637	99.99999998872183	6.196167926298882
CLN3=tf_act(EDS1)	175.88653339473245	0.008411666461742295	0.0009123473079875267	2.6087190343110582	99.48164598391558	6.137469062984171
CLN3=tf_act(EDS1)	175.88947083863863	0.0021844350150623058	0.0008384265961390385	2.6283585893331614	99.4204487101436	6.169474108981201
CLN3=tf_act(EDS1)	175.8882586732557	0.010368091958782057	0.0009378005680608541	2.6395930064303337	99.87493278966157	6.112816088953936
CLN3=tf_act(EDS1)	175.88731821694745	0.008581189107155142	0.0009221792804093424	2.651851746241692	99.98847546201856	6.090329387244508
CLN3=tf_act(EDS1)	175.83036025484438	0.0	0.0012015493135038111	2.5620727210704692	99.45145791933643	5.099080725540125
CLN3=tf_act(EDS1)	175.8314493089874	0.0	0.0012683088799433876	2.5171088144151375	99.20762947444747	4.958567877891826
CLN3=tf_rep(EDS1)	181.520190077502	0.2997287379167146	0.003369119942073237	0.3863375623233774	0.001	1.0000125396703246
CLN3=tf_rep(EDS1)	181.52018375160222	0.3	0.0033725074609588165	0.5648769881057784	0.001	1.0351262640631025
CLN3=tf_rep(EDS1)	181.52405644508775	0.25990016806504107	0.0028846388803301154	0.8741066634460276	0.3219306409595874	1.7628508914516892
CLN3=tf_rep(EDS1)	181.52443303664174	0.25932279057437274	0.0028780139291592613	0.43579273774445687	0.5818052535093713	1.7854893464528712
CLN3=tf_rep(EDS1)	181.52118768277214	0.28038201532422236	0.003133136662021846	0.4727063784073407	0.1283169482595068	1.7940546741643613
CLN3=tf_rep(EDS1)	181.521047537294	0.28144868209976626	0.0031460030990223924	0.5277722245240634	0.0635522451769099	1.7989531374129333
CLN3=tf_rep(EDS1)	181.52150133259508	0.2831539341915247	0.003167681968619644	0.23250319775361578	0.5535339751617527	1.8154201783249553
CLN3=tf_rep(EDS1)	181.521917669197	0.2736051431504103	0.0030505687440506783	0.11571849035494707	0.7711240799443713	1.9666917210348744
CLN3=tf_rep(EDS1)	181.52168695590612	0.2881191483904986	0.0032288956828506383	0.3917871390412738	0.655841021636437	1.8754224168871083
CLN3=tf_rep(EDS1)	181.52041422166621	0.3	0.0033727936350985382	0.25113831036676587	0.43143813628176403	1.9015380546371854
