# LEMpy local minima file for target SWI4, replicate 0
# Right-hand side of tf_act():  p0 - p1(tar) + p2(reg^p4) / (p3^p4 + reg^p4)
# Right-hand side of tf_rep():  p0 - p1(tar) + p2(p3^p4) / (p3^p4 + reg^p4)
# Run configuration file:  ../pipeline/src/yeast_data/simulations202110_Orlando_2/extra_nodes_annot/results3/edge_finding_20211011201047/lempy_20211011201047_config.txt
# Time series data file:   ../pipeline/src/yeast_data/time_series/orlando2008_WildType_r1_trunc.tsv
# Computed on:  2021-10-11 20:13:07 
 
model	loss	p0	p1	p2	p3	p4
SWI4=tf_act(SWI4)	507.6036223073275	0.3	0.011855193991019414	2.0076073733331987	100.0	10.0
SWI4=tf_act(SWI4)	507.6039272094784	0.3	0.011851185713788823	2.004701870478401	99.99751275954539	10.0
SWI4=tf_act(SWI4)	507.6036223074929	0.3	0.011855178979943625	2.007597527767246	100.0	10.0
SWI4=tf_act(SWI4)	507.60414325225776	0.3	0.011854710933286751	2.006813823095862	99.99552499246883	10.0
SWI4=tf_act(SWI4)	507.6599980790105	0.3	0.011843712557731067	1.9497732470079332	99.5164242823189	10.0
SWI4=tf_act(SWI4)	507.66725780874293	0.3	0.011844626678047794	1.9440567044190553	99.45413285691751	10.0
SWI4=tf_act(SWI4)	507.61507452568645	0.3	0.011849580374742066	1.9942977639819004	99.910021760577	9.995955341822707
SWI4=tf_act(SWI4)	507.6085717385179	0.3	0.011888178922380492	2.0308451539855796	100.0	9.984736180776428
SWI4=tf_act(SWI4)	507.62406549768775	0.3	0.011847195245356296	1.9853985017476008	99.84217039994118	9.991370332631725
SWI4=tf_act(SWI4)	507.649901955865	0.3	0.011843891815444854	1.9587660689074273	99.60303706030894	10.0
SWI4=tf_rep(SWI4)	512.9598927131404	0.0	0.0027065543701902165	0.389353416999928	0.001	1.0411819633657453
SWI4=tf_rep(SWI4)	512.9598928196094	0.0	0.0027061918798433797	0.5675834798490118	0.001	1.0781686627972409
SWI4=tf_rep(SWI4)	512.9598236333492	0.0	0.0027064292595371706	0.6360205371096238	0.10686324415639868	2.8712747710696194
SWI4=tf_rep(SWI4)	512.9598306836099	0.0	0.0027064358493913247	0.1979771090433068	0.36709916315165614	2.893392835724047
SWI4=tf_rep(SWI4)	512.9598228373463	0.0	0.0027064287101366147	0.23104425137105322	0.001	2.913221191550607
SWI4=tf_rep(SWI4)	512.9598228373465	0.0	0.002706428710866263	0.286066253550051	0.001	2.9182747446268484
SWI4=tf_rep(SWI4)	512.9598228373659	0.0	0.0027064287074524385	2.621478773415675e-07	0.48638429527981786	2.940935908356544
SWI4=tf_rep(SWI4)	512.9598399900708	0.0	0.0027064441103847162	0.0476890541751939	0.7987204117875247	2.9070025123272605
SWI4=tf_rep(SWI4)	512.9598649054075	0.0	0.0027063495990943404	0.2578126916790942	0.6107990290563377	2.910306647383447
SWI4=tf_rep(SWI4)	512.9598274038096	0.0	0.002706428607800441	0.1173586747714722	0.3866124018510416	2.9362057811362785
SWI4=tf_act(HCM1)	512.9598228373462	0.0	0.002706428707909019	0.0	99.9454815790517	9.993166119265656
SWI4=tf_act(HCM1)	512.9598228373463	0.0	0.0027064287047738216	0.0	99.9687724923136	10.0
SWI4=tf_act(HCM1)	512.9598228373461	0.0	0.0027064287038108155	-5.551115123125783e-17	100.0	9.986590090921851
SWI4=tf_act(HCM1)	512.9598228373449	0.0	0.0027064287650522935	0.0	100.0	10.0
SWI4=tf_act(HCM1)	512.9598228373462	0.0	0.002706428710266763	0.0	99.51529630145968	10.0
SWI4=tf_act(HCM1)	512.9598228373455	0.0	0.002706428729878908	0.0	99.45087291497862	9.999987695432782
SWI4=tf_act(HCM1)	512.9598228373465	0.0	0.0027064286991029477	-1.1102230246251565e-16	99.9362574792886	9.999999903943502
SWI4=tf_act(HCM1)	512.959822837346	0.0	0.0027064287117577438	0.0	99.79076599111589	9.988154494142133
SWI4=tf_act(HCM1)	512.9598228373462	0.0	0.0027064287079227637	0.0	99.67269638194402	9.998272432898055
SWI4=tf_act(HCM1)	512.9598228373462	0.0	0.0027064287078689985	0.0	99.4485156045989	10.0
SWI4=tf_act(NDD1)	512.9598228373031	0.0	0.002706431193879654	-5.551115123125783e-17	99.94559967268313	9.817048768339701
SWI4=tf_act(NDD1)	512.959822837346	0.0	0.0027064287112870075	0.0	99.98444317193454	9.836275915746592
SWI4=tf_act(NDD1)	512.9598228373465	0.0	0.002706428700065688	0.0	100.0	9.851122874589699
SWI4=tf_act(NDD1)	512.9598228373445	0.0	0.0027064287725183187	0.0	100.0	9.873240211270568
SWI4=tf_act(NDD1)	512.9598228373463	-4.901208885171494e-18	0.0027064287055823684	0.0	99.54783906954269	9.979698442831497
SWI4=tf_act(NDD1)	512.9598228373462	0.0	0.0027064287059967523	0.0	99.93400498045501	9.878183393669142
SWI4=tf_act(NDD1)	512.9598228373462	0.0	0.0027064287061858445	0.0	100.0	9.900844550377755
SWI4=tf_act(NDD1)	512.9598228373462	0.0	0.0027064287026697643	0.0	100.0	9.865901980913463
SWI4=tf_act(NDD1)	512.9598228373462	0.0	0.0027064287070611088	0.0	99.99414759346087	9.996496978225304
SWI4=tf_act(NDD1)	512.9598228373462	0.0	0.002706428709045643	0.0	99.76996681611574	10.0
SWI4=tf_act(SWI5)	512.9598228373462	0.0	0.002706428703072664	0.0	99.93302274970095	1.240388058693821
SWI4=tf_act(SWI5)	517.3135989799327	0.15599669959646273	0.00638388169798504	0.08514254838822366	99.91901377502523	1.13227755091327
SWI4=tf_act(SWI5)	512.9598228373462	0.0	0.0027064287045764144	0.0	100.0	4.108573891549197
SWI4=tf_act(SWI5)	512.9598228373446	0.0	0.002706428769768466	0.0	100.0	4.1306912282300665
SWI4=tf_act(SWI5)	514.2291739836031	0.000507031071337289	0.0027597935925777486	0.05652703739885344	99.5130474341943	4.16092335888358
SWI4=tf_act(SWI5)	512.9598228373459	0.0	0.002706428715288468	0.0	99.93536608842217	4.137290821491328
SWI4=tf_act(SWI5)	513.7876329569159	0.0005393118452200138	0.002746844524729274	0.03755558074629045	100.0	4.159955571284285
SWI4=tf_act(SWI5)	512.9598228373463	0.0	0.002706428701644303	0.0	100.0	4.144599944409839
SWI4=tf_act(SWI5)	512.9598228373462	0.0	0.0027064287067986676	0.0	99.83836883993682	4.3446298742945775
SWI4=tf_act(SWI5)	512.9598228373462	0.0	0.002706428707069374	0.0	99.6141880625917	4.370525132403298
SWI4=tf_rep(NRM1)	173.17753740805034	0.0	0.05616049090231702	7.794210185535948	32.113835714767234	3.749584916971392
SWI4=tf_rep(NRM1)	173.17754094091615	0.0	0.056161869256727594	7.7942211195237805	32.115600207932836	3.7503425778112627
SWI4=tf_rep(NRM1)	173.20706843653133	0.0	0.056289430715119895	7.864097429072249	31.836527279249193	3.6665040089927157
SWI4=tf_rep(NRM1)	173.1778697931921	0.0	0.05616653471803973	7.788809956952323	32.14484417723468	3.757767287801006
SWI4=tf_rep(NRM1)	173.22610583158277	0.0	0.056142550568688825	7.868116468620604	31.733094998392293	3.6492943049009194
SWI4=tf_rep(NRM1)	173.17753736757317	0.0	0.056160495904886906	7.794282905323192	32.11352230397579	3.7495115085674753
SWI4=tf_rep(NRM1)	173.17753736768822	0.0	0.05616049403418546	7.794286850930513	32.11350118416581	3.7495060971458036
SWI4=tf_rep(NRM1)	173.1775373674834	0.0	0.05616050074665684	7.79428266258982	32.113527115081496	3.7495133345401186
SWI4=tf_rep(NRM1)	173.19505417898236	0.0	0.05613812653147463	7.836945592773336	31.885354381948044	3.689244002844716
SWI4=tf_rep(NRM1)	173.22420929231407	0.0	0.05610973058473032	7.86226195343219	31.738975011912512	3.651141197747405
SWI4=tf_rep(CLN3)	512.9598437102795	0.0	0.002706430065942825	7.2518848790642165	9.609097430827058	9.339051127779452
SWI4=tf_rep(CLN3)	513.0557550944608	0.011638733354990426	0.0029346950327169864	7.430429218551778	9.58802110169883	9.374155386982562
SWI4=tf_rep(CLN3)	512.9598544163598	0.0	0.002706430816038504	7.8938462746000555	9.984963227070503	9.355525634653032
SWI4=tf_rep(CLN3)	512.9598593472648	0.0	0.002706431095221906	7.4558036958360665	10.2452004076495	9.377643068712967
SWI4=tf_rep(CLN3)	512.9598452260278	0.0	0.0027064301597212303	7.4888708381638125	9.756907296494578	9.397471421757974
SWI4=tf_rep(CLN3)	512.9598438172454	0.0	0.0027064300665657045	7.543892840325347	9.691481661082323	9.402524976756998
SWI4=tf_rep(CLN3)	512.9598534883805	0.0	0.0027064306910365233	7.242486456698336	10.176865954469271	9.425186144770166
SWI4=tf_rep(CLN3)	512.9598663239834	0.0	0.002706431575163658	7.290174530347579	10.489201942143044	9.39125287999634
SWI4=tf_rep(CLN3)	512.9598604621773	0.0	0.0027064311427722654	7.501126543525086	10.302219309853294	9.393783926474708
SWI4=tf_rep(CLN3)	512.9598515276062	0.0	0.002706430564641486	7.360678717365877	10.078038176410622	9.419681211843107
SWI4=tf_rep(WHI5)	250.62089131472862	0.0	0.04048439580598503	9.56391388223486	52.97450911699403	7.107634913797761
SWI4=tf_rep(WHI5)	250.6222073627196	0.0	0.04048583575228553	9.60168864793352	52.892789463667945	7.080110158747867
SWI4=tf_rep(WHI5)	250.62089133158216	0.0	0.04048428681950745	9.563972952840187	52.97438314042373	7.107639154203656
SWI4=tf_rep(WHI5)	250.62089134040656	0.0	0.04048429444574701	9.563901539715868	52.97440140051224	7.107540057215048
SWI4=tf_rep(WHI5)	250.64557673662907	0.0	0.04048496970031626	9.729400926248449	52.61546910709097	6.988374141292271
SWI4=tf_rep(WHI5)	250.65338628770255	0.0	0.04047232336359846	9.749461814810251	52.561167057810856	6.968505277587968
SWI4=tf_rep(WHI5)	250.6219055975685	0.0	0.04048306095881561	9.531041435257142	53.04561460712192	7.131644133225975
SWI4=tf_rep(WHI5)	250.6337186723483	0.0	0.04047869038921702	9.449041077388479	53.22525725207548	7.194187999530551
SWI4=tf_rep(WHI5)	250.62104274690833	0.0	0.04048418809355439	9.551221029951288	53.002038548384114	7.116872134011905
SWI4=tf_rep(WHI5)	250.62226260480588	0.0	0.040482192513991926	9.602101672861126	52.89073876450955	7.079923353844897
SWI4=tf_act(YOX1)	512.9598228373462	0.0	0.0027064287062646304	0.0	99.95115503496537	9.959899382315024
SWI4=tf_act(YOX1)	512.9682452336988	0.0	0.0027072183831480766	0.0013122116249703886	99.99938027368589	10.0
SWI4=tf_act(YOX1)	512.9598228373462	0.0	0.002706428710059178	0.0	100.0	9.923398832496273
SWI4=tf_act(YOX1)	512.9598228373447	0.0	0.0027064287701668885	0.0	100.0	9.945516169177143
SWI4=tf_act(YOX1)	512.9598228373408	0.0	0.0027064289472911486	0.0	99.5136017530478	9.967737151253317
SWI4=tf_act(YOX1)	512.9598228373462	0.0	0.0027064287084540414	0.0	99.44837439729169	9.971552356193158
SWI4=tf_act(YOX1)	512.9598228373462	0.0	0.002706428705139073	0.0	99.93375875435314	9.994212890622244
SWI4=tf_act(YOX1)	512.9598228373462	0.0	0.002706428712706156	0.0	100.0	9.962098071096287
SWI4=tf_act(YOX1)	518.8666013969594	0.011669046506099248	0.00316360243707332	0.7061219289497077	99.82662679957103	9.969124740382137
SWI4=tf_act(YOX1)	512.9598228373463	0.0	0.0027064287012463703	0.0	99.77581922265487	9.987993329205008
SWI4=tf_rep(YOX1)	419.3673121283944	0.0	0.01360262382227538	100.0	3.6461667419280213	2.5077726176385715
SWI4=tf_rep(YOX1)	419.3765588914385	0.0	0.013339809586765965	100.0	3.691446913524507	2.541576714967303
SWI4=tf_rep(YOX1)	419.36751213696965	0.0	0.013602616369721475	99.91694862992648	3.647606825705183	2.507848169659292
SWI4=tf_rep(YOX1)	419.36864789082176	0.0	0.013601807868346395	99.4481703329097	3.655819166269958	2.5083404281014596
SWI4=tf_rep(YOX1)	419.3697233443005	0.0	0.013508963932620422	99.48393605824855	3.6712123922462037	2.5201612231256556
SWI4=tf_rep(YOX1)	419.36842512797637	0.0	0.013601784441799034	99.53973784181466	3.6542300653913995	2.5082621964958123
SWI4=tf_rep(YOX1)	419.3692002473592	0.0	0.013601227545661974	99.22191136092364	3.659826092879896	2.50859888734358
SWI4=tf_rep(YOX1)	419.36912457765203	0.0	0.013601373737375173	99.25284240178682	3.659280919195575	2.508559850944107
SWI4=tf_rep(YOX1)	419.3686075836158	0.0	0.013602993925484917	99.46481128827564	3.655316247096178	2.5081713613411494
SWI4=tf_rep(YOX1)	419.37141021609386	0.0	0.013466451168291657	99.3278664469312	3.6813751964268255	2.525798907204443
SWI4=tf_act(ASH1)	511.3686285926075	0.0	0.004204471982995881	1.07552119162303	100.0	10.0
SWI4=tf_act(ASH1)	511.36921440783374	0.0	0.0042021827123624915	1.0732957052120757	99.99077996508166	10.0
SWI4=tf_act(ASH1)	511.368628592557	0.0	0.004204474617171827	1.075521422472356	100.0	10.0
SWI4=tf_act(ASH1)	511.3687396799122	0.0	0.004204343511395084	1.0752924988081431	99.99824257909725	10.0
SWI4=tf_act(ASH1)	511.3996574558854	0.0	0.004188927252137223	1.0344666373622353	99.51451837178655	10.0
SWI4=tf_act(ASH1)	511.403737817671	0.0	0.004187809175862137	1.0298845432390502	99.45142929011566	10.0
SWI4=tf_act(ASH1)	511.3757288240893	0.0	0.004196819395727768	1.0647976531987944	99.92293554203266	9.991779142372904
SWI4=tf_act(ASH1)	511.3795536957796	0.0	0.004195638487762979	1.0673182091041729	100.0	9.959432226527923
SWI4=tf_act(ASH1)	511.3686285934374	0.0	0.004204451336987384	1.0755097473169457	100.0	10.0
SWI4=tf_act(ASH1)	511.36862859247833	0.0	0.004204476687014027	1.07552453456128	100.0	10.0
SWI4=tf_rep(ASH1)	514.2433943031207	0.1255726424399439	0.005129806176020821	0.38619318220518367	0.001	1.000523464211332
SWI4=tf_rep(ASH1)	512.9610125204273	0.0	0.002706814580791335	0.5646751189895283	0.0009999999999999731	1.0359356470293732
SWI4=tf_rep(ASH1)	512.959822922754	0.0	0.002706333746988022	0.41894057116166145	0.13767553313895284	4.843037441620643
SWI4=tf_rep(ASH1)	512.9598228373446	0.0	0.0027064287712979434	0.0	0.3979127867522474	4.8651547783015126
SWI4=tf_rep(ASH1)	512.9598228373463	0.0	0.0027064287054737214	0.033067142327746435	0.001	4.884983134128073
SWI4=tf_rep(ASH1)	512.9598228373461	0.0	0.0027064287065613982	0.08808914450674421	0.001	4.890036687204315
SWI4=tf_rep(ASH1)	512.9598228373462	0.0	0.00270642870478041	0.0	0.48638429544109796	4.912697851095287
SWI4=tf_rep(ASH1)	512.9598555844307	0.0	0.0027063873746228035	0.04763707603865783	0.7987047267468268	4.87876976637615
SWI4=tf_rep(ASH1)	512.9598709139051	0.0	0.0027064317059303034	0.2585890841587652	0.6117220831949227	4.881300812056517
SWI4=tf_rep(ASH1)	512.9598250306175	0.0	0.002706428839406966	0.11814072054961641	0.38754102986649464	4.9071959333466655
SWI4=tf_act(RIF1)	512.9598228372894	0.0	0.0027064332318353	0.0	99.67415608465465	5.5122330141472
SWI4=tf_act(RIF1)	512.9598228373462	0.0	0.002706428707843483	0.0	99.66113407105944	5.446407131368773
SWI4=tf_act(RIF1)	512.9598228373461	0.0	0.0027064287078434573	0.0	100.0	5.728827501600529
SWI4=tf_act(RIF1)	512.9598228373449	0.0	0.002706428765646087	0.0	100.0	5.750944838281399
SWI4=tf_act(RIF1)	512.9598228373462	0.0	0.002706428710583173	0.0	99.51611962398083	5.8035786163938745
SWI4=tf_act(RIF1)	512.9598228373461	0.0	0.0027064287101779606	0.0	99.45192809617424	5.808135328620203
SWI4=tf_act(RIF1)	512.9598231433914	0.0	0.00270606885305292	0.0	99.9373124178278	5.830795738102531
SWI4=tf_act(RIF1)	512.9598228373462	0.0	0.0027064287077219456	0.0	100.0	5.855505780977781
SWI4=tf_act(RIF1)	512.9598228373461	0.0	0.002706428706407132	0.0	99.8652032903179	6.224403420863407
SWI4=tf_act(RIF1)	512.9598228373463	0.0	0.002706428705070945	0.0	99.64102251297277	6.250298678972127
SWI4=tf_rep(RIF1)	418.3855644618352	0.0	0.016652694825593648	99.99951225131201	30.769938308225772	9.990414033347461
SWI4=tf_rep(RIF1)	418.3819432244486	-1.0842021724855044e-19	0.01663585535892612	100.0	30.77742733820957	10.0
SWI4=tf_rep(RIF1)	418.3933419410373	0.0	0.016685499970111657	99.97118210408013	30.75700691008855	9.972460087704148
SWI4=tf_rep(RIF1)	418.3929444668466	0.0	0.01664772963068432	99.51641877139002	30.789515536004828	9.994767274436354
SWI4=tf_rep(RIF1)	418.4147972686248	0.0	0.016725487737504565	99.55235341746899	30.744286451017576	9.942841270881617
SWI4=tf_rep(RIF1)	418.4240783352852	0.0	0.01671756660712109	99.60840096073763	30.71877377057441	9.92460725982688
SWI4=tf_rep(RIF1)	418.3951131323824	0.0	0.01663925372108525	99.29662523075443	30.80087702220245	10.0
SWI4=tf_rep(RIF1)	418.3943832841225	0.0	0.01663907350155837	99.3353062288917	30.79958405902728	10.0
SWI4=tf_rep(RIF1)	418.39862748045203	0.0	0.01666253301548108	99.54730940188189	30.773354852452798	9.979144758115103
SWI4=tf_rep(RIF1)	418.39273265509337	0.0	0.01663885599317337	99.42291801047978	30.79670661542383	10.0
SWI4=tf_act(EDS1)	323.0468918693569	0.3	0.016845675852140703	16.83960822025401	100.0	10.0
SWI4=tf_act(EDS1)	323.04689186937765	0.3	0.016845670749159578	16.83960889941796	100.0	10.0
SWI4=tf_act(EDS1)	323.0468918745756	0.3	0.016845628526113862	16.83961266007481	100.0	10.0
SWI4=tf_act(EDS1)	323.0468918795137	0.3	0.016845684055250887	16.8395291344439	100.0	10.0
SWI4=tf_act(EDS1)	323.10759220596367	0.3	0.016806492633442322	16.56062761045198	99.77402741281584	10.0
SWI4=tf_act(EDS1)	323.11305696144643	0.3	0.016815985900494546	16.554088573749006	99.74380432163566	10.0
SWI4=tf_act(EDS1)	323.04689186953135	0.3	0.01684567433236219	16.839624562955876	100.0	10.0
SWI4=tf_act(EDS1)	323.0468918694346	0.3	0.016845669879880072	16.83961364086017	100.0	10.0
SWI4=tf_act(EDS1)	323.05741228914695	0.3	0.016815766019902006	16.74880589182224	99.96796784329464	10.0
SWI4=tf_act(EDS1)	323.08302499386997	0.3	0.016744257334529826	16.608668909049236	99.97806927169452	10.0
SWI4=tf_rep(EDS1)	512.9598243753488	0.0	0.0027064298485524507	0.830294839355993	0.47832962718408667	3.575588606282329
SWI4=tf_rep(EDS1)	513.0557375666382	0.011638820371092366	0.0029346964650380043	1.008839179601444	0.4572533000318004	3.610692864176277
SWI4=tf_rep(EDS1)	512.9598431006204	0.0	0.002706443770253696	1.4722556125820663	0.8541927253385899	3.5920653701135055
SWI4=tf_rep(EDS1)	512.9598568184916	0.0	0.0027064540560545382	1.0342124495633864	1.1144280070923065	3.614184995125251
SWI4=tf_rep(EDS1)	512.9598268355065	0.0	0.0027064316923546185	1.0672796047319097	0.6261349775619489	3.6340132952486655
SWI4=tf_rep(EDS1)	512.9598255887609	0.0	0.0027064307661168303	1.1223016067122245	0.5607093431819811	3.6390668486632185
SWI4=tf_rep(EDS1)	512.9598406528424	0.0	0.0027064420476936597	0.8208952870204306	1.0460938234166863	3.6617278105309303
SWI4=tf_rep(EDS1)	512.959878380137	0.0	0.0027064701508699323	0.868583464108424	1.3584300531106936	3.627794222266477
SWI4=tf_rep(EDS1)	512.959862615028	0.0	0.002706381231011469	1.0793698226621722	1.1708952422493053	3.6310984416342484
SWI4=tf_rep(EDS1)	512.959837246849	0.0	0.0027064394912674856	0.9389215859060415	0.9467142010998367	3.6569939438619805
