# LEMpy target file for HCM1, replicate 0 
# Run configuration file:  ../pipeline/src/yeast_data/simulations202110_Orlando_2/extra_nodes_annot/results3/edge_finding_20211011201047/lempy_20211011201047_config.txt 
# Time series data file:   ../pipeline/src/yeast_data/time_series/orlando2008_WildType_r1_trunc.tsv 
# Computed on:  2021-10-11 20:13:08 
 
model	loss	pld	inv_temp	prior	rhs_param_0	rhs_param_1	rhs_param_2	rhs_param_3	rhs_param_4	hess_eigs	hess_det	bnd_params	pld_time	opt_time
tf_act(SWI4)	38.71053016752238	0.995097	1.0	0.0625	0.0	0.2359124294544208	48.97011623451921	100.0	1.3889272033632274	[1, 1, 1.7771641655645838, 3630.2221674455395, 5637382.894370198]	36369579965.555435	2.0	0.00015138600000019764	0.42071994299999993
tf_rep(NRM1)	185.44894395464033	0.00358005	1.0	0.0625	0.0	0.031401484137381565	5.400537530189769	30.529938436006272	3.8278926149002754	[1, 1.6908752165268508, 18.83164962619592, 23.878007948965394, 5565556.908921364]	4231619835.6851735	1.0	4.438800000006182e-05	0.42207320000000026
tf_rep(WHI5)	261.70461489591514	0.000585004	1.0	0.0625	0.0	0.02030694868580875	23.455892631068938	33.0050494058438	4.648559771183686	[1, 1, 4.692710424456579, 36.30834247202039, 5565912.783104755]	948345473.7182801	1.0	4.2946999999848856e-05	0.22494705899999978
tf_act(EDS1)	242.07479054741881	0.000563035	1.0	0.0625	0.3	0.01218176987912466	14.938747873755341	100.0	10.0	[1, 1, 2.1556933808904803, 18.376664608914098, 5565340.7036713585]	220467934.74846613	3.0	4.27969999998723e-05	0.3918857
tf_rep(SWI4)	403.51476174037134	0.0000358684	1.0	0.0625	0.0	0.00042948385707063986	0.715144529291534	0.009797387668485133	2.5863577606353227	[1, 1, 1, 18.19064259217698, 5565338.917708588]	101237091.15636998	1.0	6.592200000010706e-05	0.22775278499999985
tf_rep(CLN3)	403.514761695962	0.0000358684	1.0	0.0625	0.0	0.000429475044507298	0.953187019753053	1.5078900996276843	8.325483154238546	[1, 1, 1, 18.190642592176285, 5565338.917708582]	101237091.156366	1.0	4.536499999963084e-05	0.345166952
tf_act(YOX1)	364.58867009338013	0.0000226754	1.0	0.0625	0.3	0.011833416930953838	2.2366092653258263	76.63467993898688	10.0	[1, 1, 2.6037216075724228, 31.873065693011398, 5565377.167673948]	461862803.0978663	2.0	4.36889999999579e-05	0.20999650999999986
tf_rep(ASH1)	372.37184704934197	0.0000201062	1.0	0.0625	0.0	0.0448848994761819	3.2964553705142245	62.719109778155456	2.954313558964335	[1, 2.3373763636867793, 6.584294244190165, 18.286113304629126, 5566352.594674524]	1566498552.613297	1.0	4.422800000014604e-05	0.41660004299999986
tf_act(HCM1)	394.10131080345593	0.0000129722	1.0	0.0625	0.3	0.00980602983455649	1.2582096693663387	76.42356150822275	10.0	[1, 1, 1.858713613520952, 29.96989034664051, 5565390.572990768]	310022548.3551129	2.0	5.199199999994519e-05	0.3651784829999998
tf_rep(EDS1)	403.51476169595975	0.00000896709	1.0	0.0625	0.0	0.0004294750431691773	0.0	0.001	1.016336917309258	[1, 1, 1, 18.19064260155442, 5565338.9177091345]	101237091.20856854	3.0	4.256399999968963e-05	0.37498691399999995
tf_act(RIF1)	403.51476169595963	0.00000841151	1.0	0.0625	0.0	0.00042947504625082773	0.0	99.51314959418555	10.0	[1, 1, 1, 20.672950197349195, 5565348.845912396]	115052179.52242178	3.0	4.4198999999967015e-05	0.3147549609999998
tf_act(NDD1)	403.51476169590376	0.00000832478	1.0	0.0625	0.0	0.00042947782339586467	0.0	99.94564559053707	9.807961450936268	[1, 1, 3.9647601202810407, 21.29340906588572, 5565378.750534806]	469847412.1862313	2.0	4.8641000000237966e-05	0.37053720499999976
tf_rep(YOX1)	333.07633689890673	0.00000707851	1.0	0.0625	0.0018577672999187391	0.0030234671855574845	100.0	6.827222163754121	10.0	[1, 1, 18.166029763264557, 253.46540991116106, 5565404.551481024]	25625683645.13469	2.0	4.2849000000177995e-05	0.309966926
tf_act(ASH1)	403.514761695958	0.00000680546	1.0	0.0625	0.0	0.000429475104671778	0.0	99.94803816254327	10.0	[1, 1, 1.6163742208720602, 19.53861053359671, 5565347.992558217]	175763186.19328365	3.0	4.482900000013501e-05	0.17727853599999976
tf_rep(RIF1)	372.548860180567	0.00000595527	1.0	0.0625	0.0	0.007118423505601286	100.0	28.834269802863194	10.0	[1, 1, 7.850437450660437, 25.309982021017106, 5565415.508585141]	1105817066.2727988	3.0	4.2483999999731736e-05	0.23530094699999982
tf_act(SWI5)	403.51476169595946	0.00000205094	1.0	0.0625	0.0	0.0004294750533300277	0.0	100.0	10.0	[1, 1, 4.6875793701416635, 18.545334719792255, 5565356.735607783]	483811645.7954201	4.0	4.498499999971983e-05	0.3569427369999998
null_model	403.5147616959597				0.0	0.0004294750457166087								
