# LEMpy local minima file for target EDS1, replicate 0
# Right-hand side of tf_act():  p0 - p1(tar) + p2(reg^p4) / (p3^p4 + reg^p4)
# Right-hand side of tf_rep():  p0 - p1(tar) + p2(p3^p4) / (p3^p4 + reg^p4)
# Run configuration file:  ../pipeline/src/yeast_data/simulations202110_Orlando_2/extra_nodes_annot/results2/edge_finding_20211011155829/lempy_20211011155829_config.txt
# Time series data file:   ../pipeline/src/yeast_data/time_series/orlando2008_WildType_r1_trunc.tsv
# Computed on:  2021-10-11 16:01:12 
 
model	loss	p0	p1	p2	p3	p4
EDS1=tf_act(SWI4)	116.87596733095464	8.674553316912639e-05	0.02998350567412722	1.2589043584871469	7.272387016925681	9.252505024730535
EDS1=tf_act(SWI4)	116.87597503648972	0.0	0.029983514464370017	1.2589923275266646	7.143326711561579	9.23751873501849
EDS1=tf_act(SWI4)	116.87598475369678	0.0	0.02998348035269141	1.258988850892578	6.946418752169297	9.209606278480013
EDS1=tf_act(SWI4)	116.87596032567367	0.0028875166172701847	0.029983633512137363	1.2561105505035992	7.354392613079788	9.238466752780774
EDS1=tf_act(SWI4)	116.87596184554641	0.0026217741988699196	0.02998350743789846	1.2563697530212634	7.3386435475810705	9.24258334501646
EDS1=tf_act(SWI4)	116.87591471193025	0.0	0.029983518585708534	1.2589949395600077	7.825286401594882	9.267105748953057
EDS1=tf_act(SWI4)	116.87593018160337	0.0011112899445718583	0.029983530113200537	1.257883286433815	7.713729378883164	9.28484674011297
EDS1=tf_act(SWI4)	116.87589205958375	0.0022599852140374813	0.029983537560780184	1.2567372634553724	8.033831265341034	9.316410621778424
EDS1=tf_act(SWI4)	116.87593369192464	0.0	0.02998358711988614	1.2589973012205655	7.737681796825718	9.346493940005566
EDS1=tf_act(SWI4)	116.87591947113678	0.0	0.029983525645718268	1.258994956073873	7.901544359877105	9.391379978958577
EDS1=tf_rep(SWI4)	122.41974745241407	0.3	0.011227468896135531	44.37148169774491	6.69890708574374	9.724442311417484
EDS1=tf_rep(SWI4)	122.41967913619679	0.3	0.011227386624046865	44.642928248135235	6.569465729733533	9.70982000223294
EDS1=tf_rep(SWI4)	122.41959295535926	0.3	0.011227263533403746	44.76114719337896	6.37248927286924	9.681972549039074
EDS1=tf_rep(SWI4)	122.41981159087814	0.3	0.011227547290181012	44.27946773688042	6.780397220354245	9.710892554302564
EDS1=tf_rep(SWI4)	122.4197941668319	0.3	0.011227528507009045	43.994415380832386	6.764628321651832	9.715026736067829
EDS1=tf_rep(SWI4)	122.42026808740256	0.3	0.011228145362394883	44.43825297725977	7.256932095832849	9.7343831370069
EDS1=tf_rep(SWI4)	122.42010707822875	0.3	0.011227939213557045	44.070030882944685	7.145370567057561	9.752127301794289
EDS1=tf_rep(SWI4)	122.42048991623973	0.3	0.011228470391514419	43.942556787131004	7.465410111905464	9.783747958807526
EDS1=tf_rep(SWI4)	122.42007350851898	0.3	0.011227887621853486	44.20826292286297	7.168586037484675	9.814485557968638
EDS1=tf_rep(SWI4)	122.420220058375	0.3	0.011228093894904992	44.65938484767555	7.33054985560776	9.861211388992128
EDS1=tf_act(HCM1)	116.87603268387718	8.674112122557368e-05	0.02998345853190085	1.2588995573851998	6.978716860040238	9.523620259386439
EDS1=tf_act(HCM1)	116.87603135315497	4.216384640737281e-13	0.029983464637358063	1.258986468385054	6.849426956217215	9.508856632234401
EDS1=tf_act(HCM1)	116.87602970229122	0.0	0.02998347502949355	1.2589868129236013	6.6524693742132675	9.480992092669018
EDS1=tf_act(HCM1)	116.87603397850123	0.002887490320407054	0.029983458201710597	1.256098924869928	7.060448129796826	9.509847783603282
EDS1=tf_act(HCM1)	116.87603369048682	0.0026217726516721005	0.029983483307430638	1.2563658937229547	7.044701540730891	9.513961915157266
EDS1=tf_act(HCM1)	116.87604214026598	0.0	0.02998343858969696	1.258986297392921	7.530604218939988	9.539217980575112
EDS1=tf_act(HCM1)	116.87603920335506	0.0011113633602142202	0.029983437044029268	1.2578745367437723	7.419054707738271	9.556951407431999
EDS1=tf_act(HCM1)	116.87604596732271	0.00226006192289512	0.029983441692681835	1.2567268407440144	7.739157666078195	9.588514210890146
EDS1=tf_act(HCM1)	116.8760382293211	5.914100079981865e-06	0.02998343147438833	1.2589796387618994	7.4425514411776605	9.619048060944493
EDS1=tf_act(HCM1)	116.87604043235693	0.0	0.029983431840702273	1.2589858397688067	7.60513788100958	9.665189443817525
EDS1=tf_act(NDD1)	116.87602392491362	8.67390891064189e-05	0.029983486458149997	1.2589000154687342	6.435824690431039	9.953419047948156
EDS1=tf_act(NDD1)	116.87602384166576	0.0	0.02998348528115668	1.2589890905623433	6.3064252388874005	9.93875955774493
EDS1=tf_act(NDD1)	116.87602372863556	0.0	0.029983494044008067	1.2589874461720154	6.109452157388614	9.910908830265448
EDS1=tf_act(NDD1)	116.87602400975456	0.0028874907672224092	0.02998347796464393	1.2560988328646299	6.51743333889081	9.9397621820865
EDS1=tf_act(NDD1)	116.87602399066972	0.0026217754532460893	0.029983490583575304	1.256365192594426	6.5016879160889465	9.94387520473873
EDS1=tf_act(NDD1)	116.8760245831515	1.4884878199304593e-13	0.029983513558970526	1.2589877083251173	6.9872601569123445	9.969446367793811
EDS1=tf_act(NDD1)	116.87602437766732	0.0011113550850906239	0.029983470451565918	1.2578746014358493	6.875714553156717	9.987176136882548
EDS1=tf_act(NDD1)	116.87602491954951	0.0022600523626733426	0.029983471573464496	1.2567259808037907	7.195818161213678	9.99999999842238
EDS1=tf_act(NDD1)	117.23379237496582	0.0017433412610133436	0.0344322456851123	1.490340416231981	6.899012964122833	10.0
EDS1=tf_act(NDD1)	116.87602530673551	0.0	0.029983462199187984	1.2589857567688199	7.3578258653530835	9.99998564516851
EDS1=tf_act(SWI5)	113.96445091373698	0.0	0.012648545077008353	0.4726723438640885	17.483674642122136	9.986945001002077
EDS1=tf_act(SWI5)	113.9623632386216	0.0	0.012659255224403025	0.47283697481158954	17.10740514448298	10.0
EDS1=tf_act(SWI5)	113.96272690021307	0.0	0.01266501303401517	0.4729634388663827	16.93433528937633	10.0
EDS1=tf_act(SWI5)	113.96302624916474	0.0	0.01265221771163971	0.47271708182103284	17.34230762113081	10.0
EDS1=tf_act(SWI5)	113.96293931185376	0.0	0.0126526907628255	0.4727254617428568	17.326258155035173	10.0
EDS1=tf_act(SWI5)	113.96236317627312	0.0	0.0126594944441221	0.47285848642560985	17.106845757972245	10.0
EDS1=tf_act(SWI5)	113.96251594645695	0.0	0.012663259046610021	0.4729388253248957	16.994841677929166	10.0
EDS1=tf_act(SWI5)	113.96288099887316	0.0	0.012653053601364556	0.4727332363023097	17.314809442836204	10.0
EDS1=tf_act(SWI5)	113.96238130796048	0.0	0.012658448162457434	0.4728390820749419	17.140816166929437	9.999856504210905
EDS1=tf_act(SWI5)	113.96635849331865	0.0	0.012645640357084858	0.4727104171651469	17.64798096916184	9.98307256230657
EDS1=tf_rep(NRM1)	122.41929671348409	0.3	0.01122688253494424	29.038286486788962	0.3779431878566897	9.00048847264008
EDS1=tf_rep(NRM1)	122.419296714594	0.3	0.011226877658021692	29.309733668343984	0.2485437185225638	8.985828995234987
EDS1=tf_rep(NRM1)	122.4192967146201	0.3	0.01122687765876236	29.42795268270584	0.05157082377047828	8.957978355529804
EDS1=tf_rep(NRM1)	122.41929670817244	0.3	0.011226877659558567	28.946274379608116	0.459552023132763	8.986831597894067
EDS1=tf_rep(NRM1)	122.41929671000446	0.3	0.011226877658811875	28.661222516089598	0.44380661159085016	8.990944623306865
EDS1=tf_rep(NRM1)	122.41929328394664	0.3	0.011226882596667775	29.104949940085245	0.9293852496836911	9.016514563330183
EDS1=tf_rep(NRM1)	122.41929568379166	0.3	0.011226877719446327	28.7367281116745	0.8178399887634796	9.034244227865031
EDS1=tf_rep(NRM1)	122.41927751468155	0.3	0.011226878851861183	28.60925508110114	1.137944473785866	9.065806199702209
EDS1=tf_rep(NRM1)	122.41929553955856	0.3	0.011226877730152188	28.87496154917963	0.8411393383410439	9.09652661701082
EDS1=tf_rep(NRM1)	122.41929128703875	0.3	0.011226877986905519	29.32608383639126	1.00313426466613	9.14322423741048
EDS1=tf_rep(CLN3)	122.4192968208193	0.3	0.011226882580510527	44.36859470231722	6.435793941729644	9.95343441174888
EDS1=tf_rep(CLN3)	122.4192968048078	0.3	0.011226877698052532	44.640041883872236	6.3063945890097814	9.938775051045985
EDS1=tf_rep(CLN3)	122.41929678479121	0.3	0.011226877689715108	44.75826089823409	6.109421716888622	9.910924388602702
EDS1=tf_rep(CLN3)	122.41929683841944	0.3	0.01122687771304082	44.27658259513637	6.51740291675966	9.939777634448788
EDS1=tf_rep(CLN3)	122.41929683364022	0.3	0.01122687771174668	43.99153073161785	6.501657505969505	9.943890658765065
EDS1=tf_rep(CLN3)	122.41929694784292	0.3	0.01122688249038011	44.4352581556135	6.987230412231226	9.969461600943943
EDS1=tf_rep(CLN3)	122.41929690447468	0.3	0.011226877740801134	44.06703632720275	6.875685336074952	9.987191234207874
EDS1=tf_rep(CLN3)	122.41929700508958	0.3	0.011226877785736842	43.93956328175544	7.195788895331718	9.99999994204772
EDS1=tf_rep(CLN3)	122.41929690639236	0.3	0.011226877743313414	44.20526974983393	6.8989837304916835	10.0
EDS1=tf_rep(CLN3)	122.41929695895928	0.3	0.01122687776552837	44.656392037045556	7.060978444746101	10.0
EDS1=tf_rep(WHI5)	122.41929298570828	0.3	0.011226883040564746	44.36859470231608	6.435793588367556	9.953434584291735
EDS1=tf_rep(WHI5)	122.4192935674862	0.3	0.011226878086241022	44.6400418838711	6.306394441788606	9.938775060768053
EDS1=tf_rep(WHI5)	122.41929429185416	0.3	0.01122687798973618	44.758260898232955	6.1094215764714095	9.910924375510273
EDS1=tf_rep(WHI5)	122.41929239294218	0.3	0.01122687824765496	44.27658259513523	6.517402781890353	9.939777614683363
EDS1=tf_rep(WHI5)	122.41929255324824	0.3	0.01122687822561803	43.99153073143807	6.501657479298106	9.943890555999817
EDS1=tf_rep(WHI5)	122.41928847801402	0.3	0.01122688350343269	44.43525815543391	6.98722985392758	9.9694614981705
EDS1=tf_rep(WHI5)	122.41928996587887	0.3	0.01122687857110143	44.06703632702259	6.875684419252844	9.98719103431339
EDS1=tf_rep(WHI5)	122.41928633860552	0.3	0.011226879059375942	43.93956333376317	7.195788432360054	9.999999733449966
EDS1=tf_rep(WHI5)	122.41928986421844	0.3	0.011226878583101382	44.2052697209106	6.898983452138261	9.99999987867627
EDS1=tf_rep(WHI5)	122.4192879864459	0.3	0.01122687883765132	44.65639197342142	7.060978386402756	9.999999825100415
EDS1=tf_act(YOX1)	123.30768980662761	0.3	0.013659144540749053	0.36568609924926515	82.41825175899542	1.0
EDS1=tf_act(YOX1)	122.4192967146201	0.3	0.011226877658866647	0.0	82.61487291828814	1.0
EDS1=tf_act(YOX1)	122.68703137524678	0.2999947446188697	0.011993458004938427	0.1180455005480669	82.41797188594846	1.002536631794808
EDS1=tf_act(YOX1)	122.41929671462013	0.3	0.011226877658948857	0.0	82.82595308845026	1.0313898741590721
EDS1=tf_act(YOX1)	122.4192967146201	0.3	0.011226877659510354	0.0	82.81020767690835	1.0355028995718694
EDS1=tf_act(YOX1)	122.41929671462013	0.3	0.011226877658887389	0.0	83.29792895770701	1.0626712338006845
EDS1=tf_act(YOX1)	122.41929671462006	0.3	0.011226877659519153	0.0	83.18638340464285	1.0804009467016538
EDS1=tf_act(YOX1)	122.41929671462012	0.3	0.01122687765749295	0.0	83.506487021704	1.1119631180743303
EDS1=tf_act(YOX1)	122.41929671462005	0.3	0.011226877659698088	0.0	83.55785429479646	1.0
EDS1=tf_act(YOX1)	122.41929671462007	0.3	0.011226877658783047	0.0	83.71483564328845	1.0
EDS1=tf_rep(YOX1)	108.93028314177823	0.3	0.012581591334280582	99.99999980244628	6.2701604720062125	10.0
EDS1=tf_rep(YOX1)	108.93035204476435	0.3	0.012581671356749213	99.9999999990856	6.26246367207405	9.960622581083516
EDS1=tf_rep(YOX1)	108.93047558511375	0.3	0.012581840957831148	99.99999986432069	6.249408841438357	9.894395562685629
EDS1=tf_rep(YOX1)	108.93040949983138	0.3	0.012581762044048147	99.46049815529877	6.2598825968956975	9.929338786884232
EDS1=tf_rep(YOX1)	108.93040254813452	0.3	0.012581759394062263	99.17576606240668	6.262527337808706	9.933175748783407
EDS1=tf_rep(YOX1)	108.93035037651916	0.3	0.0125816850048622	99.5683075527414	6.265521417071582	9.961693427184013
EDS1=tf_rep(YOX1)	108.93035982901709	0.3	0.012581689257233894	99.2008143325508	6.266940960229081	9.956550082496856
EDS1=tf_rep(YOX1)	108.930300931983	0.3	0.012581614194873079	99.05456211261158	6.274436426248922	9.989958313980429
EDS1=tf_rep(YOX1)	108.93039053018178	0.3	0.012581732547645151	99.32203259307848	6.2628210525267445	9.93963973422042
EDS1=tf_rep(YOX1)	108.93030498605329	0.3	0.012581621857383018	99.76921435877217	6.269218225071436	9.987385665331827
EDS1=tf_act(ASH1)	113.38376554082387	0.0	0.012974861376882349	1.568006004889163	97.03006814216525	1.1468589798793014
EDS1=tf_act(ASH1)	113.38333622923967	0.0	0.012973451872160462	1.566775922366531	96.90903706553406	1.1475117052464938
EDS1=tf_act(ASH1)	113.38264636274573	0.0	0.012970741548104181	1.5647993544672572	96.71538784872207	1.148669989611538
EDS1=tf_act(ASH1)	113.38380614764584	0.0	0.01297515826138734	1.5681696489233947	97.04153318067101	1.1468152147806034
EDS1=tf_act(ASH1)	113.38370923631835	0.0	0.01297445507666129	1.5678378246273468	97.01417084593893	1.1469907702041173
EDS1=tf_act(ASH1)	113.38688252986167	0.0	0.012864730204957446	1.5731914182199054	97.50685422518396	1.1749466965499076
EDS1=tf_act(ASH1)	113.3882025320864	0.0	0.012809272515607008	1.5723382610979775	97.39178481323917	1.190533089496261
EDS1=tf_act(ASH1)	113.38614652792195	0.0	0.01298391282703808	1.57487557421222	97.70863963463069	1.1429198907077576
EDS1=tf_act(ASH1)	113.75323033107195	2.9255258679021465e-06	0.013963438807165295	1.8341950407741217	97.41493287753433	1.2021668280244517
EDS1=tf_act(ASH1)	113.38674272515253	0.0	0.012986627645755634	1.576625074594712	97.88051756518935	1.1418537952238834
EDS1=tf_rep(ASH1)	122.41929671458253	0.3	0.0112268825345301	38.725547334341464	0.3779431878566897	9.986948281259007
EDS1=tf_rep(ASH1)	122.4192967146205	0.3	0.011226877659469427	38.99699451589648	0.2485437185225638	9.972288803853914
EDS1=tf_rep(ASH1)	122.41929671462012	0.3	0.011226877659184452	39.11521353025834	0.05157082377047828	9.94443816414873
EDS1=tf_rep(ASH1)	122.41929671480173	0.3	0.011226877658735668	38.633535227160614	0.45955202627227576	9.973291406512994
EDS1=tf_rep(ASH1)	122.419296714746	0.3	0.01122687765940178	38.348483363642096	0.4438066147303629	9.977404431925791
EDS1=tf_rep(ASH1)	122.41929690830888	0.3	0.011226882446537051	38.79221078763774	0.9293794963166061	10.0
EDS1=tf_rep(ASH1)	122.41929676805466	0.3	0.011226877675486031	38.423988959226996	0.8178339247402	10.0
EDS1=tf_rep(ASH1)	122.41929816309744	0.3	0.011226878097157259	38.296515913779686	1.1379374169939915	10.0
EDS1=tf_rep(ASH1)	122.4192967856387	0.3	0.011226877680057932	38.56222238185818	0.8411320114032952	10.0
EDS1=tf_rep(ASH1)	122.41929713277781	0.3	0.011226877785512982	39.0133446690698	1.003126787460955	10.0
EDS1=tf_act(RIF1)	116.87602362484515	8.674900942322577e-05	0.029983521362100685	1.2589017701519014	6.435793618481942	9.953419026493467
EDS1=tf_act(RIF1)	116.87602358920154	0.0	0.0299834877891359	1.2589885284414792	6.306394150101939	9.938759550042558
EDS1=tf_act(RIF1)	116.87602353883845	0.0	0.02998348775512917	1.2589870137055372	6.10942109856997	9.910908753748618
EDS1=tf_act(RIF1)	116.87602366434798	0.0028874953665908617	0.029983490962206323	1.2560994688746803	6.517402301588446	9.939762037315397
EDS1=tf_act(RIF1)	116.87602365515102	0.0026217821787883375	0.029983512190125645	1.2563662680459646	6.501656890379842	9.943875063215668
EDS1=tf_act(RIF1)	116.87602391994874	1.1754633543238137e-08	0.02998349003573683	1.258986907432725	6.9872295222402485	9.969445396075418
EDS1=tf_act(RIF1)	116.87602382610018	0.0011113600451736197	0.029983487226492352	1.2578754153590668	6.875683969120386	9.987175148150408
EDS1=tf_act(RIF1)	116.87602406631774	0.002260057386081804	0.029983489323719144	1.2567268266644236	7.1957875844061014	9.999999997001874
EDS1=tf_act(RIF1)	116.87602383087464	0.0	0.02998352411492019	1.2589886811128097	6.898982254614815	9.99999997384711
EDS1=tf_act(RIF1)	116.87602394901837	0.0	0.029983502244066654	1.2589875551441472	7.060977444089951	9.999999996473484
EDS1=tf_rep(RIF1)	122.41928973393635	0.3	0.011226883654506874	44.36859470231722	6.439275298593559	9.95343458245036
EDS1=tf_rep(RIF1)	122.41929081845464	0.3	0.011226878608950275	44.64004188393898	6.309876207437421	9.938774725820979
EDS1=tf_rep(RIF1)	122.41929216901323	0.3	0.011226878390234118	44.75826089830083	6.112903703161803	9.910923974046465
EDS1=tf_rep(RIF1)	122.41928861973227	0.3	0.011226878963247689	44.276582565865674	6.520885229961213	9.939776862250906
EDS1=tf_rep(RIF1)	122.41928892134878	0.3	0.011226878911393366	43.991530695505226	6.5051398457735745	9.943889857486658
EDS1=tf_rep(RIF1)	122.41928131286966	0.3	0.011226884853828693	44.43525811950087	6.990712220409798	9.969460799642206
EDS1=tf_rep(RIF1)	122.4192841039393	0.3	0.011226879685459393	44.067036291090126	6.879167310673603	9.987189400779762
EDS1=tf_rep(RIF1)	122.4192773414381	0.3	0.011226880763272357	43.93956331972159	7.199271639127243	9.999999211099416
EDS1=tf_rep(RIF1)	122.41928392150874	0.3	0.011226879699507331	44.20526978609245	6.9024664724483475	9.999999975704343
EDS1=tf_rep(RIF1)	122.41928041656142	0.3	0.011226880290179254	44.6563922728349	7.064463084546756	9.9999979015109
EDS1=tf_act(EDS1)	116.87602340492877	8.676263620376263e-05	0.02998360156302631	1.2589058585448456	6.435793663284277	9.953418875132911
EDS1=tf_act(EDS1)	116.87602340722587	0.0	0.02998349038633209	1.258988932403289	6.306394260142663	9.938759447067191
EDS1=tf_act(EDS1)	116.87602339813722	0.0	0.029983503140154643	1.258987854199451	6.109421349099357	9.910908847496732
EDS1=tf_act(EDS1)	116.87602341040481	0.002887500376144391	0.029983545012990172	1.256102229950684	6.517402551601155	9.939762079664376
EDS1=tf_act(EDS1)	116.87602341009226	0.0026217763608293965	0.029983519140478553	1.2563666314070456	6.501657140302561	9.943875117160388
EDS1=tf_act(EDS1)	116.87602343826147	4.035833841979045e-11	0.029983516604267315	1.2589880003311575	6.987229448896564	9.969446044320382
EDS1=tf_act(EDS1)	116.87602342842015	0.0011113597251373307	0.02998350372956356	1.2578763499881505	6.875683890747556	9.987175755649023
EDS1=tf_act(EDS1)	116.87602345443067	0.002260052453414924	0.02998347971205658	1.2567263446891992	7.195787506828512	10.0
EDS1=tf_act(EDS1)	117.23909221910638	0.002175568347555334	0.034458949259252004	1.4913796770922747	6.898982324322448	10.0
EDS1=tf_act(EDS1)	117.90095665976014	0.0009412137911908718	0.037348898175089684	1.6457841540130906	7.3577823134572	9.99999996607432
EDS1=tf_rep(EDS1)	122.41929050427531	0.3	0.011226884810367386	44.36859470230176	6.436170767715135	9.952499880488583
EDS1=tf_rep(EDS1)	122.41929146272096	0.3	0.011226879584277446	44.640041966199824	6.30677171380553	9.937839823656342
EDS1=tf_rep(EDS1)	122.41929265627104	0.3	0.011226879148660978	44.75826098056168	6.109799319691478	9.909988849007746
EDS1=tf_rep(EDS1)	122.41928950396775	0.3	0.011226880303215284	44.27658267746714	6.5177807987375225	9.938841876230654
EDS1=tf_rep(EDS1)	122.41928977522629	0.3	0.011226880202544772	43.99153081394862	6.502035409911176	9.942954870926977
EDS1=tf_rep(EDS1)	122.41928302564295	0.3	0.011226887400702693	44.43525823794427	6.987648985560839	9.968469779706089
EDS1=tf_rep(EDS1)	122.41928552466103	0.3	0.01122688176130411	44.06703640959162	6.876103807907184	9.986198891186188
EDS1=tf_rep(EDS1)	122.41927957174877	0.3	0.01122688395301592	43.93956344688177	7.196208745795406	9.999998431795216
EDS1=tf_rep(EDS1)	122.41928539638342	0.3	0.011226881800684766	44.205269915326184	6.8994036214532946	9.999999936375053
EDS1=tf_rep(EDS1)	122.41928229412652	0.3	0.011226882937698895	44.656392210905175	7.061398537645413	9.999999800154704
