# LEMpy target file for ASH1, replicate 0 
# Run configuration file:  ../pipeline/src/yeast_data/simulations202110_Orlando_2/extra_nodes_annot/results2/edge_finding_20211011155829/lempy_20211011155829_config.txt 
# Time series data file:   ../pipeline/src/yeast_data/time_series/orlando2008_WildType_r1_trunc.tsv 
# Computed on:  2021-10-11 16:01:16 
 
model	loss	pld	inv_temp	prior	rhs_param_0	rhs_param_1	rhs_param_2	rhs_param_3	rhs_param_4	hess_eigs	hess_det	bnd_params	pld_time	opt_time
tf_act(SWI5)	72.88166821298373	0.996229	1.0	0.0625	0.0	0.06613842053920929	9.243769878584484	56.459970380900046	10.0	[1, 4.557784905546437, 11.36549390283612, 106.84801662716825, 3694092.758855859]	20446378703.77049	2.0	4.837699999971079e-05	0.4579117680000002
tf_rep(SWI4)	198.67014366439508	0.00374387	1.0	0.0625	0.018652973879889605	0.022992606369948834	99.44569728043908	18.943618501928825	10.0	[1, 1, 74.94609545863291, 311.03438721769714, 3694962.6556848683]	86132583048.02055	1.0	6.258999999975146e-05	0.4166891690000001
tf_act(NDD1)	563.0890116364012	0.00000518205	1.0	0.0625	0.002260667158426666	0.01983785298786392	1.3054207606619097	7.219522491633707	9.947576685438696	[1, 1, 1, 208.35112251652825, 3695620.6983769713]	769986720.902158	0.0	4.697500000006016e-05	0.17602687800000005
tf_act(RIF1)	563.0890219304719	0.00000518204	1.0	0.0625	4.466955455152751e-13	0.0198378443990036	1.3076809919093308	6.089429098273128	9.8909221023954	[1, 1, 1, 208.351172388012, 3695620.6985132475]	769986905.236639	0.0	5.80420000000359e-05	0.18003882599999965
tf_act(SWI4)	563.0892573337471	0.00000518202	1.0	0.0625	0.25871832465868283	0.019837930765557208	1.0489670023450732	6.379395019571439	9.687098336949669	[1, 1, 1, 208.35109034585312, 3695620.696907722]	769986601.7054255	0.0	0.0001311849999998671	0.18906074499999992
tf_act(HCM1)	563.0892625210878	0.00000518202	1.0	0.0625	0.2310354368294155	0.019837796851237086	1.0766439848062201	6.989718758793924	9.845967574268355	[1, 1, 1, 208.3510898204468, 3695620.6965800826]	769986599.6954589	0.0	5.032199999988052e-05	0.18919773899999992
tf_act(EDS1)	563.0890218618861	0.00000259102	1.0	0.0625	0.0	0.01983784712443778	1.3076811167344324	6.306392618315087	9.938773652455138	[1, 1, 1, 208.35117262693316, 3695620.6985075446]	769986906.1184127	1.0	4.496499999984138e-05	0.22406331299999982
tf_act(YOX1)	584.8680531250338	0.000000870331	1.0	0.0625	0.3	0.011134393813071632	1.974310302321361	93.47285036671983	1.0	[1, 1, 1.5358512740721302, 121.14823903784787, 3694150.5453981347]	687354623.1959302	2.0	4.499699999982454e-05	0.32971259099999983
tf_act(ASH1)	563.0890310731118	0.00000076047	1.0	0.0625	2.666850631735854e-06	0.01983784129970826	1.3076782340348285	0.001	1.7256447919397286	[1, 1, 11.608549032955233, 208.35115177251586, 3695620.6983819306]	8938429859.434214	1.0	4.9868999999702623e-05	0.39160680300000017
tf_rep(ASH1)	445.6941468956857	0.000000625017	1.0	0.0625	0.0	0.002441755496115363	100.0	5.750082388411536	10.0	[1, 1, 34.6735420653908, 1213.047619170671, 3695182.7336720224]	155421815917.52173	3.0	4.469300000042864e-05	0.2034929670000003
tf_rep(WHI5)	627.8299692161596	0.000000485994	1.0	0.0625	0.3	0.0	43.93958275511369	7.195904265154631	9.999931787897367	[1, 1, 1, 104.2268858928683, 3693801.74587982]	384993453.0786937	2.0	4.967199999938998e-05	0.164074292
tf_rep(EDS1)	627.8299208775799	0.000000485994	1.0	0.0625	0.3	0.0	43.939566090325854	7.197297774428571	9.999874944478506	[1, 1, 1, 104.22688589283554, 3693801.745879821]	384993453.0785728	2.0	4.4315000000239024e-05	0.2708245199999997
tf_rep(RIF1)	576.4025825740749	0.000000370463	1.0	0.0625	0.3	0.021943915681616844	43.6006970183968	1.4935617770335294	1.0	[1, 1, 1.2634612944072081, 1146.1873029856092, 3722369.5978007293]	5390599016.238781	2.0	5.830100000014937e-05	0.2172126510000001
tf_rep(CLN3)	627.8299952077094	0.000000242997	1.0	0.0625	0.3	0.0	43.93956328175544	7.1957651214283604	10.0	[1, 1, 1, 104.22688589283571, 3693801.7458798215]	384993453.07857347	3.0	4.517799999970151e-05	0.14041402400000003
tf_rep(YOX1)	627.8299992247722	0.000000242997	1.0	0.0625	0.3	0.0	39.67937019442621	1.1379261968495682	10.0	[1, 1, 1, 104.22688589283543, 3693801.7458798205]	384993453.07857233	3.0	6.710099999995833e-05	0.1584229020000003
tf_rep(NRM1)	601.8991606612847	0.0000000481068	1.0	0.0625	0.3	0.0033709919689204637	43.69054668479444	0.21360855840530785	1.0	[1, 1, 29.784435762259296, 1014.7244842586571, 3699570.2726587118]	111812098358.02612	2.0	4.5415000000659234e-05	0.19625844699999995
null_model	627.8299997598039				0.3	0.0								
