# Time series from syn_net_6D_20191104_a_hillmodel.json, output to pipeline readable format
# Generated on 2019-11-18 23:35:03
time	A	B	C	D	E	F
0.0	0.7807025340504715	2.0573411640928327	7.281347070092672	0.37245121855203744	0.7496352825807878	0.1331695244410347
0.5	0.5547477392504819	2.1306771790704486	6.248351742968618	0.39993659234959006	0.5241686831125538	0.08408647405802995
1.0	0.41006037715017707	2.1401229669225783	4.50133600586159	0.6277201122422392	0.3535979251275818	0.054289320206092256
1.5	0.3214969212457057	1.967503663932206	3.090299096292978	1.2200735561880998	0.24616235430263098	0.036266457015852
2.0	0.2676875249561478	1.5142531643467305	2.18940479491255	1.906051858385624	0.18221961877174572	0.025811705016817735
2.5	0.23503871123085515	1.0261573672118685	1.6332710547758873	2.449150764244571	0.1495574473745218	0.023254799048913755
3.0	0.21527904466875397	0.6680763463202479	1.2926527609002967	2.8246959617628167	0.13660198485946623	0.05322504825423632
3.5	0.27289886929650525	0.4349857042700399	1.086133022247988	3.013315628121642	0.305925532955003	0.27393458684168576
4.0	0.6339395938677819	0.29065518853475747	1.1905609576174778	2.198883211966612	0.6738302016478833	0.90190619046737
4.5	0.8705952266552641	0.24483374184216103	2.009117091452008	1.475011630982612	0.900161794634287	1.5668907164641181
5.0	1.0142383953057967	0.45502425105437144	2.9399601377997557	1.0235092565006787	1.0371810713194949	1.7375738427308451
5.5	1.1013233273231113	0.8762913643220913	3.71571186285542	0.7471120778305603	1.110290460530313	1.1674418638664097
6.0	1.1535881243933217	1.2866883255797192	4.436017767516647	0.5786927955785145	1.1000377974501674	0.7192902983517971
6.5	1.1789962834295018	1.611104515773004	5.300892766418383	0.4765033793197984	1.0318986758033988	0.4410548434858446
7.0	1.1372827187239183	1.8454064007094846	6.352234444623851	0.4150526463875178	0.9555063763495064	0.27126507737142974
7.5	0.9182559729743973	2.0025843922526883	7.2183983219730745	0.3802417285688471	0.8448071151160389	0.16798763227540917
8.0	0.6549933421180103	2.1006289054521634	6.929415682044674	0.3754030942712066	0.6330599333821403	0.1052336763231339
8.5	0.472682437526741	2.1469944347117997	5.369759530240739	0.473122599589985	0.42863890117066716	0.06712360065469097
9.0	0.35967500860364837	2.0883622759012663	3.713565442724134	0.8916704603547508	0.2925328896418071	0.04400907853536429
9.5	0.29086746796485247	1.7620590726615344	2.579901219045111	1.5780124846398358	0.20927154845471263	0.030160646054049663
10.0	0.24910092345007115	1.254389451867055	1.8735052691618568	2.203780934785529	0.16229919955690733	0.023110360164555904
10.5	0.223766863161157	0.8267353825132434	1.439607089666131	2.6584858411780816	0.14138791976087145	0.029974848347246456
11.0	0.21055734899031484	0.5365787211158225	1.1743818795836898	2.9624370556042425	0.14832879842104207	0.12102898584986774
11.5	0.4671963901611545	0.3523611934205486	1.0518324836429351	2.664811451863471	0.5134662153550652	0.5521933499094897
12.0	0.76866689239247	0.2485227437554032	1.5500115092979458	1.791038536869561	0.8027141952449438	1.2654522305378721
12.5	0.9523999038141285	0.3110185921486981	2.497225186852113	1.2185631201925675	0.9783354329050853	1.7724987164505852
13.0	1.0638508890774854	0.6593445281771128	3.351555198713239	0.8662980164729284	1.0826920036835983	1.4604605350274915
13.5	1.131285995461414	1.0935635291383614	4.075268406772386	0.6512432097831553	1.116268693787115	0.914636494811714
14.0	1.1702688211081183	1.4629308638057812	4.847233054294851	0.5204564706964389	1.0684414471753203	0.5611411985624466
14.5	1.1734669637317552	1.7406871402328554	5.821648301553713	0.44136365163030894	0.9933990341992478	0.34443438931041465
15.0	1.0476829112155992	1.9336503148632536	6.863849994010931	0.394481550935585	0.9096753650138718	0.21247439290166117
