# Time series from syn_net_6D_20191104_a_hillmodel.json, output to pipeline readable format
# Generated on 2019-11-18 19:21:40
time	A	B	C	D	E	F
0.0	0.8383048443283081	0.38244766513656986	4.8750954251406835	0.582320744977167	1.7342388618214941	0.7210650137590494
0.5	0.9698450520705242	0.6572613527934692	5.998291421380928	0.3564544464035533	1.6425809495319095	0.5006569447991626
1.0	1.0246735601806254	1.0116490124061723	7.046870044826886	0.2287186009548714	1.0822220383610441	0.32771598424535636
1.5	0.9382603538736032	1.3364297336081539	7.762916234102395	0.1948533514512061	0.675539485178659	0.21987054809676654
2.0	0.6973602627476438	1.5772211108916334	8.018103397985099	0.2163128709391636	0.4227046286821458	0.1540851326238678
2.5	0.4617909992782596	1.7021948836248366	7.235768133885178	0.24035318571125813	0.2683898883826607	0.11410147366460648
3.0	0.296829886412049	1.5998511845004473	5.492787376414815	0.27238651351601356	0.17468721249261096	0.0898458828695386
3.5	0.19150268217118113	1.2340669393984909	3.794030948481474	0.4021336810628385	0.11862760858226364	0.07527445077674322
4.0	0.126131651706363	0.8496752487112069	2.44093568655007	0.7535348607819004	0.09046503891784417	0.06752246121355843
4.5	0.08620352710652505	0.585473355904984	1.5532856543165534	1.1311089057341215	0.10365629160953625	0.07016548455412241
5.0	0.06527279318090111	0.421765949754427	1.0551260298391227	1.3948221426443461	0.17798199980550675	0.10941889169656484
5.5	0.16900265942698792	0.32219986540047707	1.1900622252716184	1.5120430560808982	0.2822397991550844	0.25698490862934137
6.0	0.5294910799707231	0.2685546348490041	2.898952663983297	1.0682139563326176	0.7145996385026201	0.5613418463412309
6.5	0.784616479537356	0.3299183762820914	4.515234051443909	0.6723039094373139	1.570237789022456	0.7542835758732118
7.0	0.9388701316756336	0.564252884725151	5.6700783008566065	0.4110828304882723	1.771037135845388	0.5654480780419863
7.5	1.0185732331151398	0.9066160252943481	6.767034978547761	0.25679054916655536	1.237111408549621	0.3704829404502042
8.0	0.9838407441600977	1.2490435450466393	7.593149840138562	0.1955164769531146	0.7758083139839591	0.24612938121281455
8.5	0.77411527750878	1.5166560680777166	8.01206445013819	0.208685543352363	0.48428753962755094	0.17006742120471857
9.0	0.52381766034954	1.6821721113370285	7.612102902784678	0.23366841794325546	0.30588491427800474	0.12380900445126966
9.5	0.3379742398093907	1.6616744436516284	6.023507738616365	0.2595522640915161	0.19740626164454372	0.09572761688124735
10.0	0.2173625118209939	1.355825249441915	4.2668772859036865	0.34294949597425506	0.13199570167891672	0.07876820162853539
10.5	0.14208523944386406	0.9509439150234992	2.786724726729424	0.6349857292282434	0.09563806574014724	0.06908470408451767
11.0	0.0958550020255581	0.6505200618809862	1.7701097876554284	1.0310698904881603	0.093570662244541	0.06750415340192573
11.5	0.06895318899532712	0.4615894176041342	1.157885838722602	1.3295984354941712	0.15135453750100689	0.0907919732386749
12.0	0.0996359921915796	0.3463438442039613	1.0461597584170153	1.51424962501409	0.24818358808860586	0.19742062895221332
12.5	0.429771454069878	0.27816047934760973	2.292591962171161	1.1986500457246014	0.5003804392035911	0.46096218803561256
13.0	0.7224274467682409	0.2931838056622865	4.114054112358046	0.7752145054943167	1.3491141753376867	0.7447383628038683
13.5	0.9019126317189133	0.4808285513639822	5.345657108496787	0.4746139544493377	1.824397887477316	0.6337408896645064
14.0	1.0034020043786656	0.801182325890685	6.460503462749337	0.29261233399760583	1.4052190306854169	0.419505616805968
14.5	1.012009932327409	1.1548650794180526	7.390392928685971	0.20323700808413744	0.8908581677549406	0.2764647428907477
15.0	0.8482854031773067	1.447739899067217	7.941528680579004	0.20153258900671842	0.5554104317407524	0.18855401004209454
