# Time series from syn_net_6D_20191104_a_hillmodel.json, output to pipeline readable format
# Generated on 2019-11-18 22:31:29
time	A	B	C	D	E	F
0.0	0.6639078265576172	1.1822756204244793	3.977560560583834	0.9007735336853558	1.7312180054059527	0.1778818849958388
0.5	0.5216616726385098	1.1965131940695024	2.826501718759578	1.3122723360744004	1.2982221026483265	0.15251784857977718
1.0	0.4346721642236344	1.1781845395405834	1.8799031416781675	2.2583190995913327	1.0334752663823483	0.13712877668934192
1.5	0.38165647402439973	1.0443216286374444	1.2659619786161411	3.68933501205873	0.9161482152713425	0.13064050322356643
2.0	0.3495728447377543	0.7822917002954938	0.8887158972749197	5.2816291926152426	0.9905240355781412	0.1467613579057319
2.5	0.3335569175789495	0.5420357956713825	0.6585923468613358	6.7130222662771475	1.193043084759842	0.2494597476644751
3.0	0.4195917262882873	0.3766561823864733	0.5200278584789714	7.212388384274662	1.8771519990198255	0.4784108549618739
3.5	0.9588149572664597	0.2724415044150943	0.5309301991679825	5.11705367493118	3.6413993859709617	0.7065441442386657
4.0	1.7125570421900191	0.23679176583039646	0.9697655982414621	3.380538198569988	5.229188935598508	0.865572592208537
4.5	2.3223290973058397	0.35634313239784227	1.3860111355285423	2.3176314908852045	6.3020081530680745	0.9502419913969542
5.0	2.70306721009502	0.5675644793541876	1.7431055386835903	1.6722366914043014	6.9088875180886795	0.88232988213797
5.5	2.719660160816637	0.7758750741390366	2.2704038166752527	1.2806755876815543	6.880168440068047	0.6723317186435996
6.0	2.2392824021269124	0.9418671605979629	3.2022089284450788	1.043338549973416	5.911861688778098	0.4798432678750955
6.5	1.6046485538026487	1.0531226334433512	4.386559929382081	0.9006401373744127	4.380633160784402	0.34542725794200174
7.0	1.1201727733247684	1.1223254579842663	5.117376338532978	0.8221456274008849	3.060081154181641	0.25809677563637273
7.5	0.8046653538783493	1.1643821618234622	4.678909017932621	0.818084718643017	2.1502514606841707	0.20272103613892906
8.0	0.6081759728060709	1.188816073500974	3.5862995718065234	0.9908005994456297	1.56295154493796	0.1679850308906185
8.5	0.48753300858201953	1.196337562639032	2.4693469062299105	1.56523969837896	1.1932992395174424	0.14640912057872651
9.0	0.41385462054698935	1.1515781688197475	1.6393350724872027	2.698115346015495	0.9760912167756396	0.13379765015829898
9.5	0.3690048739063398	0.9628584693628552	1.117481378631729	4.224665376714353	0.91919956431917	0.13187448827262202
10.0	0.34215659449633506	0.6935020042932545	0.7980545260297215	5.7939115139556545	1.0502513688744037	0.1666333989310296
10.5	0.33741841922993954	0.4781366231984594	0.6034516953428671	7.089460372413001	1.3057969682834436	0.3170604054725186
11.0	0.5428744294704558	0.33562920813405894	0.491545073397579	6.654041495171343	2.4132279269864654	0.5616085187583956
11.5	1.2160006176895188	0.24924703653213903	0.6499006054445013	4.436316950886079	4.234275447674342	0.7682219518326896
12.0	1.9407918756228828	0.25838578205636775	1.1242135468187446	2.9609789048867237	5.645481913759311	0.9035391383032204
12.5	2.4797117611792037	0.42395694701609055	1.504788233845246	2.062758695472939	6.560208001587036	0.9508985112498655
13.0	2.7610148592918695	0.6406165768923396	1.8871673004627039	1.517583659377947	6.98820700349072	0.8175988707690728
13.5	2.6062029214157634	0.8379918547498076	2.5359807283934255	1.1868871405497299	6.662130569130652	0.601245482379053
14.0	2.018835634803951	0.9851703056401737	3.598046430540195	0.9866489876408067	5.411876919820802	0.4282248500884811
14.5	1.4201187186174484	1.0803509972617331	4.733873048035556	0.8675759448937995	3.889723428489286	0.3115013523896192
15.0	0.9971373092586059	1.1389615950340926	5.100918876827401	0.8099625844889917	2.709713677480494	0.2364876094084372
