# Time series from syn_net_6D_20191104_a_hillmodel.json, output to pipeline readable format
# Generated on 2019-11-18 22:23:21
time	A	B	C	D	E	F
0.0	0.033537366979176864	0.9130450407271885	3.172361917356246	1.5690888940553172	0.41758804534704824	0.11419719269016884
0.5	0.025847062059198848	0.7671267256190288	2.317227334167823	1.9236201075818367	0.38161699513965375	0.10147708804731102
1.0	0.021181066923125963	0.5604634131979368	1.7907932087174676	2.144035234148582	0.4115310622738593	0.09479648046645427
1.5	0.018350700575634	0.3842450256909885	1.49243737501415	2.1273944911722	0.5836742859388997	0.09785462425458652
2.0	0.016639125309051882	0.2610238087552376	1.3275507316184594	1.6845127573100558	0.8345833685676187	0.14684806994438632
2.5	0.016213514884715497	0.1808112872940817	1.2647828047229503	1.145299338485354	1.1666993680563662	0.3965076270259703
3.0	0.06866141043423943	0.13538338417163306	1.5100959226620903	0.7225542945999268	1.6143994549127922	0.9637137672453131
3.5	0.2929516105200153	0.18988390348444795	2.6872618714495973	0.4503502606904638	1.8982104139345863	1.3543282640598289
4.0	0.39795048300736074	0.4483356391402929	4.956343324461628	0.27859872239716815	1.948517019549804	0.9387946041928315
4.5	0.30804486503481504	0.6604520531988725	6.348453780455797	0.1766432478645436	1.5848093629259847	0.6042230735953298
5.0	0.20116210020335348	0.7922368932687769	6.531951426007151	0.13425869582255767	1.2106106108861676	0.39904478597120896
5.5	0.12873788489735624	0.8722165239167614	6.481659310273134	0.1739890873951567	0.9227552974252144	0.27424505409592137
6.0	0.08379299062365941	0.9205148229672505	6.381582941431416	0.382272315669456	0.7032333179253147	0.1984390954817085
6.5	0.056371158626383464	0.9478169047742461	5.414152945265233	0.8154544781488935	0.5509223964305918	0.15241390487076614
7.0	0.039706594259645914	0.9445834890984769	3.8313572746450872	1.3229624786196075	0.4533130443541991	0.12448407787473417
7.5	0.02959066558779373	0.8608512700645942	2.73509025481513	1.7462444834352278	0.39614706061792143	0.10759493680609877
8.0	0.02345233666399107	0.6740480147938487	2.04436317504548	2.0416691153362083	0.38277191255114784	0.09772342274526716
8.5	0.019728306624564804	0.4739639107583972	1.633042821771728	2.182764060467542	0.4698091163110095	0.09420042308613673
9.0	0.017470167555488386	0.32215158573894787	1.4053039714711264	1.9678120440161213	0.6979528079105638	0.10912734561905413
9.5	0.016136050194463323	0.22007460565195378	1.283818931761398	1.4330338651340393	0.9491375006557251	0.22027675987888076
10.0	0.02169430313382176	0.15562569517773575	1.304535315896601	0.9328840506202982	1.389559535255482	0.6268459814420563
10.5	0.1625655442770295	0.13513036001228226	1.9041079340229126	0.5833798188245493	1.7613134429577677	1.2266004195707032
11.0	0.37174836875125156	0.2980153493225512	3.6399450348364915	0.36232573251640243	1.9735460612946552	1.1896045066480223
11.5	0.36921697415723054	0.556319126842344	5.810926704705936	0.22485187709797247	1.8082186536980362	0.7672164534639667
12.0	0.2558078024103991	0.7283503588556495	6.502315846394555	0.1497204279124858	1.4038026330674451	0.4985348306480276
12.5	0.16420131083176182	0.8335191798832601	6.514673075752456	0.13868480157320698	1.0708757008324707	0.3347234538320799
13.0	0.10562622668711129	0.897176443828114	6.452067227648493	0.24037350850066722	0.8147248918134709	0.23516868338883198
13.5	0.06966876709045261	0.9353516684711274	6.1487762952920635	0.5558101564834469	0.6262776487926528	0.17471230352195438
14.0	0.047783953229804305	0.9520832451721023	4.6518830540441645	1.0489610033042787	0.5008939599636768	0.13801230702030556
14.5	0.03449315152942842	0.9206487595005427	3.273350488602584	1.5300121727796328	0.42284611571582537	0.1157583232717338
15.0	0.026426982754584525	0.7849211803190869	2.3807663833941506	1.8964217190884265	0.3830355006013343	0.10239377878444654
