# Time series from syn_net_6D_20191104_a_hillmodel.json, output to pipeline readable format
# Generated on 2019-11-18 19:00:20
time	A	B	C	D	E	F
0.0	0.5968009421994175	0.4933077387955093	1.3730318423571863	0.39654702223281296	0.26399629004301006	0.7929205202124693
0.5	0.8868972356920312	0.5866392401821352	2.1963970543797315	0.2643447687633622	0.7591910267841359	1.1500194074216876
1.0	1.0623391796543602	1.5769893267735844	4.144959048120229	0.17073820348806198	1.0192011931651732	0.848388637541883
1.5	1.1437103507775208	2.8705916695501394	7.678600460705461	0.11190819538754156	0.8270084026206477	0.5987023007076285
2.0	1.1075457568486589	3.7097172981995508	10.740258753013665	0.0762358532961085	0.5824985261736254	0.4467136990723812
2.5	0.9457061549309591	4.221917467757581	12.285496649947053	0.05622893867998779	0.4056726262517402	0.3544877047261145
3.0	0.7368102281743588	4.532934551660454	12.224446237185035	0.051310963551	0.2914544400028105	0.2985399635364876
3.5	0.5536194218549099	4.721299547705177	11.419189181682958	0.07383655861624341	0.22009205334322535	0.2646022117365356
4.0	0.4168547792589934	4.834831612184702	10.257397098343626	0.14152737104176855	0.17604155825341608	0.24401619054015297
4.5	0.3217816726717752	4.900271146994505	7.876166922074674	0.23368508110523836	0.14899095122781872	0.23152925008075065
5.0	0.25796777265013504	4.915877449106782	5.48592451578995	0.31331838194761524	0.13242244408299964	0.22395514486422108
5.5	0.21594893716907976	4.788533788129226	3.826231511496254	0.3696238228518349	0.12229435032593042	0.2193616670446102
6.0	0.1886001653939362	4.24517568312849	2.758092753051535	0.4064684107104491	0.11614635668090088	0.2165797984245869
6.5	0.17094036692865336	3.2634186060559442	2.0869439068650997	0.4298339069624821	0.11263491380720464	0.21491795015411694
7.0	0.159635504765536	2.294183670881121	1.6696034219993425	0.4444448958299536	0.11186660409111279	0.21407284979585373
7.5	0.15267814108632544	1.572718799454113	1.411623948985183	0.45351669230248043	0.11653034887168018	0.21466212987352337
8.0	0.1501348308450577	1.0894478013815416	1.2533146380006759	0.45911355386036357	0.1260625556500163	0.2220748821178417
8.5	0.1626555312151776	0.7788119788047366	1.158708966834827	0.4624377824883378	0.13502775701769357	0.26467576089194367
9.0	0.2962654609412771	0.5838963106475475	1.1446422347545049	0.4609029262271581	0.14877676833023876	0.4413849213302505
9.5	0.6532674441174647	0.48496036871597836	1.4473460154428825	0.373987673514335	0.3253854237368448	0.8778496265173233
10.0	0.9224689570765037	0.6654285455329503	2.40426227780988	0.2461760229177642	0.8356148478399648	1.12580502870896
10.5	1.082113870177218	1.8126659472876148	4.6528375399854935	0.15907674497837607	1.0075326218020133	0.7988625669367609
11.0	1.146948399553962	3.036955302497706	8.2593961008152	0.10476070038383145	0.7842381752326242	0.5684093530385811
11.5	1.0884769883912233	3.811741643963501	11.107557567849469	0.07201296745297325	0.5486019125841204	0.42832783595416135
12.0	0.9121887382826258	4.283932357280699	12.372811417967448	0.054267920164575455	0.3832661088509251	0.34333365291878404
12.5	0.7040438671398123	4.570533050583854	12.11655960989813	0.05254174949941826	0.2773485188690828	0.2917738439506524
13.0	0.5280655017211502	4.744023273198107	11.267865025992517	0.08168608756202163	0.2113584641016418	0.26049798019086523
13.5	0.3987351085426281	4.848395844349287	9.956677495286847	0.1561003370159174	0.1706709664636895	0.24152666150712598
14.0	0.3094953309172412	4.9069712228603395	7.44314425151115	0.2481615465600714	0.14569898803490075	0.23001917817855075
14.5	0.2498305990441813	4.909884983046354	5.165560618058512	0.32409015100372957	0.13040838211077058	0.22303923656238603
15.0	0.21063326669906368	4.736534158925772	3.6168324225648645	0.3768099575973709	0.12106594990771039	0.21880641642333107
