# Time series from syn_net_6D_20191104_a_hillmodel.json, output to pipeline readable format
# Generated on 2019-11-18 19:52:20
time	A	B	C	D	E	F
0.0	0.36638690804285534	0.3114217724891489	0.6106700173556169	2.8807995709221332	0.29082678984593646	0.27407600744142147
0.5	0.3134590187926692	0.23010950904353306	0.39106781392654066	3.725448477054716	0.3005651263666379	0.38699398280255143
1.0	0.47629584155484733	0.18064475468784738	0.25952657543343766	4.10626326588534	0.40643173739920363	0.6006642168916622
1.5	1.0461551543570187	0.15062706447224913	0.19513961539585806	3.1338923884968257	0.7151379781469841	0.8257229123729589
2.0	1.6929515021238166	0.13241834438339486	0.1609617537129551	1.931914052375621	1.287040367516969	1.0039375077958845
2.5	2.1905848272576525	0.1213736998525391	0.14133042958868824	1.1791703345167184	1.952256994809471	1.1292355977308444
3.0	2.531225398738008	0.11467462844201998	0.1325377259787761	0.7213383421176184	2.5450156934483514	1.2129217875282379
3.5	2.7548747447537485	0.11061139993316414	0.1325269122691016	0.44345602876692963	3.009129988406725	1.267454974620205
4.0	2.899064024220495	0.10814698241248724	0.1468372520397211	0.27485790175522906	3.349368238254261	1.3025257927856717
4.5	2.9911799547883877	0.10665369844377878	0.25880156461912324	0.17257675364429198	3.58975100692338	1.3249059714548295
5.0	3.0497336360320877	0.10610104490253464	0.7906161297246802	0.11052997885424684	3.755541099473415	1.3390777353278482
5.5	3.0866779155806676	0.12680681299730687	1.6354157301511623	0.07289142848123	3.8428360762575444	1.3435156264744104
6.0	3.1017239084020867	0.26246153386543536	2.2738740041960104	0.050064812972362524	3.3575432505717258	1.2089487059436266
6.5	2.997352900456811	0.47678231108572877	2.517316224641989	0.03628814558668497	2.3330320606927533	0.8551714796272137
7.0	2.54107770976207	0.6381510365200165	2.5239298012584457	0.028504501752148973	1.546178141164676	0.6040599621225138
7.5	1.8488979511647994	0.7284716341083152	2.492433907112801	0.02833422370778155	1.0253358994629427	0.4489174760300859
8.0	1.2577175419674775	0.772987846047137	2.461861051553525	0.06023263281918345	0.7000978346271081	0.3542504293890284
8.5	0.8499048759084229	0.738363238298636	1.9713561067750347	0.2707044779200249	0.500662884898087	0.2967404190506034
9.0	0.5876272959140626	0.5392115912087811	1.2355072690551494	1.0616125881699447	0.37958965503049896	0.2636408817364918
9.5	0.42414714659396713	0.3734964664816378	0.777897453517202	2.2880729031593985	0.30976373293643017	0.25668226927143745
10.0	0.3301404646573748	0.2681397525179153	0.49386645228479925	3.325720691915513	0.2866584400641515	0.3120572872243891
10.5	0.3428324673764411	0.20375051396812952	0.3199549192687743	3.9851812325149076	0.3343419121281084	0.4797519227502122
11.0	0.7064167462389542	0.164645720916759	0.22290248688976433	3.8460025243150207	0.5173039465139899	0.7104060589087424
11.5	1.3629524162277815	0.14092178473399378	0.17679138225771046	2.505401129613973	0.9584934859264442	0.9165697144459124
12.0	1.948609946171244	0.12653148461689642	0.15022082921481483	1.5312426257917418	1.6014507455041238	1.0689491128139208
12.5	2.3682263414670084	0.11780304146945739	0.13596887626749582	0.9352297765909318	2.245881075589057	1.173004021030458
13.0	2.6485612651897728	0.11250888720282343	0.13151922056824955	0.5732553710550248	2.780028013825336	1.2415588596752156
13.5	2.83073991048797	0.10929782032808862	0.13601883051448624	0.3536067741858584	3.1834200829083312	1.2859139057262163
14.0	2.947604679512456	0.10735041728426711	0.1737986759975686	0.22034945760794386	3.4733446438935993	1.3143219208281391
14.5	3.0220622592019284	0.10618633744790286	0.4370850386614872	0.13951010423967186	3.6757352125157468	1.3324017073151286
15.0	3.069303861634072	0.10884948070373032	1.1896994571390134	0.09047111350625076	3.8118205718223517	1.3434048069433855
