# Time series from syn_net_6D_20191104_a_hillmodel.json, output to pipeline readable format
# Generated on 2019-11-18 22:26:04
time	A	B	C	D	E	F
0.0	0.22683183771078935	1.6456678409665115	2.90825561920139	0.44921735163839005	0.6847745538095712	0.2471325006472284
0.5	0.16340249937022358	1.23974193083064	2.2892915913740417	0.724963469570495	0.5494891832500366	0.23540409905540477
1.0	0.1241210884741316	0.8423358986814937	1.7164475547798335	0.9238045154058612	0.4751429201157124	0.22917929964300973
1.5	0.10013997298360201	0.5436948880319775	1.2832477828955664	1.0509729133870318	0.48813275129994665	0.2332463580012862
2.0	0.08906906175668254	0.348985803122516	1.0628095051965258	1.1179033712078312	0.6343352321682671	0.3010487548935414
2.5	0.20226138101706373	0.2290693777477016	1.0943725753843327	1.0251038234112277	1.4704638287862686	0.6372673516374254
3.0	0.8272844478232088	0.1609468788711217	1.4413182357992016	0.6716786135764508	3.4915803432487422	1.2076279916222017
3.5	1.3643188666910857	0.25017041886604297	3.0106388501935046	0.419905766248899	4.913608152765978	1.588868528070481
4.0	1.679499378080213	0.8543962665181856	5.21777435588219	0.2667908106834584	4.899971491232275	1.1241042925644056
4.5	1.7296668643466033	1.3996137487013753	6.8869659594663135	0.17390077040824095	3.947948802544955	0.7677455442425782
5.0	1.4399821502482886	1.7521082799850138	7.666542732545841	0.11763332546152504	3.118604663409345	0.5510889297323311
5.5	1.022409355497647	1.9666518203815548	7.086994765309904	0.08394731850065239	2.3102316139542065	0.4196245348981832
6.0	0.6838701822665442	2.077821786714566	5.593985323733829	0.06663598973689304	1.6393363822812155	0.33987281345592
6.5	0.45346796528798383	2.0714309714404067	4.31993092085217	0.08115170152825261	1.1646942425405262	0.2914975716018212
7.0	0.3054058937015715	1.902106901973404	3.449620211740748	0.22174266157551023	0.8524883633090498	0.26216305983192323
7.5	0.2123314221697408	1.5736980562457281	2.789149320938324	0.5059352680758975	0.6536701032517317	0.24440465807554926
8.0	0.15440269668171397	1.1596872761069332	2.1740439844082937	0.7690953760343932	0.530755494034516	0.23381205425811355
8.5	0.11857349588473456	0.7767746555564697	1.6206099126311306	0.9529834039343721	0.4687993205422837	0.22871825234275078
9.0	0.09689538243234756	0.4994528423914298	1.2231488161468294	1.0683646985371356	0.5057057888583282	0.2375455891334564
9.5	0.09029120610100703	0.32132591512421427	1.0482926941673159	1.1223569309740944	0.6860354988538256	0.3364160185349126
10.0	0.29173985564822214	0.2125202012258175	1.1276655620341487	0.9637828926748548	1.8507059419991514	0.7400008534043654
10.5	0.9471163718960333	0.15449307481950225	1.6114476650433978	0.6138186876518194	3.816491161666489	1.3093271000633604
11.0	1.4411245475857681	0.3360987049317336	3.4374806313703523	0.3846220922943769	5.098167778719663	1.537526775675188
11.5	1.7130706083406437	0.9739938301603484	5.590508175422216	0.24537787183907103	4.708421590495216	1.042192441947851
12.0	1.698908288999688	1.4799417770811192	7.114777636763421	0.1609184602546118	3.7865282312077406	0.7178260668043985
12.5	1.360972906324015	1.801954387339897	7.673930351316791	0.1097945086136064	2.961434003970107	0.5207929034005319
13.0	0.9494406652639874	1.9954095063457333	6.829641235829053	0.0794182092732731	2.168246687208084	0.40124485003439647
13.5	0.6323133413449975	2.087011996148467	5.317818768189094	0.0656044826865394	1.5343511282583226	0.3287236819618248
14.0	0.4199015490499685	2.052807777393308	4.127918875163041	0.09382336684944086	1.0943871989701763	0.28473558681209915
14.5	0.2841908287350998	1.8504552995399852	3.314603492185596	0.2696243727692955	0.8073147670034644	0.25806492059830805
15.0	0.19909219843659973	1.4983995453303547	2.6709970503034857	0.5612533798227185	0.6253215116379996	0.24193375547430362
