# Time series from syn_net_6D_20191104_a_hillmodel.json, output to pipeline readable format
# Generated on 2019-11-18 22:50:40
time	A	B	C	D	E	F
0.0	0.43646755377300794	1.6711584236721984	6.972457846201502	0.34853784915911984	1.722506214595287	0.5113415832123251
0.5	0.28202243985619463	1.8677989538009059	7.303662754079299	0.3572423656702689	1.2022325099306284	0.3459500343653116
1.0	0.18690425876232974	1.9885832658862392	7.187595369856926	0.4683868267329325	0.860087465974459	0.2446793603914834
1.5	0.12900132978156104	2.050211224058079	5.940440248368195	0.8140565048788336	0.6483912007733375	0.18288332892312922
2.0	0.09384337050639006	2.0076954146538744	4.294583487028879	1.3457339073000605	0.5192298152158381	0.1453551106129839
2.5	0.07251026391583336	1.7492292006008572	3.134234587893736	1.8555826169083822	0.4407422733813909	0.12331073293680786
3.0	0.059568723534422593	1.3340838846109813	2.3885915753736273	2.2453242258554287	0.3932571286571221	0.1143106417075241
3.5	0.051719715895742806	0.9580212112165929	1.920433998175929	2.5156378458611326	0.36542083366150013	0.13264352992350475
4.0	0.0469880442405659	0.6885918021655398	1.630086248985763	2.6935542308970892	0.35427088900651166	0.2449525651942547
4.5	0.04567553667160325	0.5113129822350919	1.4576181078685593	2.7926611077629735	0.40668837703086785	0.533196596789719
5.0	0.07305761034661404	0.4008305015914456	1.5415435661529349	2.4319987207977425	0.9566741254709367	0.898294728767459
5.5	0.2108593483646584	0.3490453571667883	1.8732796401570977	1.6246823596883113	2.1311096004225702	1.1958433774698323
6.0	0.46920423679033746	0.3454460038749137	2.134071459432019	1.105963373563418	3.215202299691118	1.3924552202697515
6.5	0.7536375229677311	0.3953441502491879	2.5718703227754154	0.7807698028928166	3.694745579717176	1.4973282286070024
7.0	0.9470994935049889	0.638357075386217	3.7916591203120302	0.5568357398010982	3.303897282282759	1.410648174618609
7.5	0.8246904770729002	1.1230294973628094	5.577562105978969	0.4162850839496824	2.6792141621039707	0.9868591303745794
8.0	0.5568104112496244	1.515864597366667	6.64905870022162	0.3600790239298712	2.0719777583456915	0.6438207719348451
8.5	0.35850881220738373	1.7704206744218125	7.157106079404708	0.34638786910269354	1.4675238243448572	0.4275322657689867
9.0	0.23375336439772093	1.9293573921851113	7.335935767560458	0.38620593308529216	1.029791616198409	0.2945716003709273
9.5	0.15748796424306905	2.0238917044290665	6.798428583609089	0.5891500612552417	0.7527411304496705	0.21330809098844825
10.0	0.11113523331576347	2.0505472121934485	5.159193313111007	1.0413409394659996	0.5827967329873024	0.1637890711915619
10.5	0.08300171421931724	1.9228904801581508	3.7159725716745333	1.5852080896450087	0.47934426389739987	0.13392990540857494
11.0	0.065933027530027	1.5700234503493404	2.7591452169680495	2.045535683982562	0.41656333365585035	0.11747655456634475
11.5	0.05557919770141201	1.1541786356177042	2.152257681892791	2.3791939399187307	0.3788262815146727	0.11690794457009307
12.0	0.04930302271066186	0.8247015410228135	1.7734203538685736	2.6048470880398864	0.3580676991278535	0.16444565072045206
12.5	0.045674033718205206	0.5997710092731848	1.5402705654262423	2.748969131126809	0.35968524094036486	0.35267003192520957
13.0	0.05031372652394759	0.4547312100733766	1.4303136394888538	2.7636504884694757	0.5495532525687555	0.697691009952786
13.5	0.11662398362175723	0.37078376967201543	1.700043754283336	2.0384971401588885	1.4442247677130318	1.0435882776233067
14.0	0.3160264776545731	0.34227905426914534	1.991627305932522	1.3616918016010127	2.664286902703113	1.2954393014540952
14.5	0.5990223150090747	0.358095022548352	2.2781139317318577	0.9436298955275554	3.5262676448438057	1.450836376888509
15.0	0.8619019194546798	0.4631950977368385	2.984452671053922	0.6713718254485568	3.61630309593548	1.5023412066962016
