# Time series from syn_net_6D_20191104_a_hillmodel.json, output to pipeline readable format
# Generated on 2019-11-18 20:26:49
time	A	B	C	D	E	F
0.0	0.19971204638933246	0.5013485946381577	0.9163019658342809	0.9043125704373084	0.11999678245496828	0.1590042822647773
0.5	0.17522175947717247	0.385297314675321	0.7945633749104896	0.9152358335802949	0.1891400581979475	0.373648522138875
1.0	0.3003427104364535	0.313576828248924	0.7239188629006038	0.8541058737490532	0.25735075922809175	0.6666928378034032
1.5	0.8035615008787882	0.26961942009189105	0.7041941386592093	0.6827528117612472	0.36155482732299676	0.9310835799571171
2.0	1.4037596185874086	0.24379987234091802	0.9037440520110311	0.45200614905987374	0.508006032323776	1.1281736047148458
2.5	1.8750987473031238	0.26825461603355527	1.9130291724169972	0.28009031203692236	0.6492898698324052	1.2552560895104259
3.0	2.148326568204505	0.7040177213975055	3.6548514637032623	0.17238644597252162	0.6500176799608005	1.0301974940263203
3.5	1.9028140986604107	1.196861399743374	4.108322610465166	0.11138077995176114	0.4230015154631817	0.6414983518580174
4.0	1.3106887969693624	1.4907903559052011	3.7868343314906374	0.12902979964185837	0.2633377746103976	0.3965377153880156
4.5	0.8536038644181233	1.608360893127042	3.168303693979547	0.32710668791091907	0.16493253663914587	0.24712935580566903
5.0	0.5660253711751612	1.4737742295900906	2.2924891192275583	0.5612511902204546	0.10525126091936671	0.15653281017614692
5.5	0.39060078172034113	1.122537348399336	1.647967747545626	0.7237884787800916	0.07105962103948837	0.10304253418155195
6.0	0.2840983897745919	0.7978578413825768	1.242733310901388	0.8250705373444286	0.061613243797496664	0.07971750006276045
6.5	0.21950450950667763	0.5733544265557831	0.9934434375986652	0.8865099221315076	0.09271568857746017	0.11033412921718551
7.0	0.18137084064476802	0.43020346686239125	0.8411903828853299	0.9168145607962147	0.15856766767021735	0.2614376797402734
7.5	0.20446176838068197	0.3412459164035871	0.7501082272972449	0.8926917013463412	0.22571615990432245	0.5347229828431728
8.0	0.5426261001675993	0.2865319355094309	0.7034952663245638	0.7739049849838725	0.30814833946031456	0.8209986423211492
8.5	1.1464512328975889	0.25331379975716584	0.7619494012109871	0.5518363694867485	0.4405878951820071	1.048971681923328
9.0	1.6848497968841145	0.24004435974729002	1.3129511130692129	0.34736916361430037	0.5898018260025004	1.2088031436109627
9.5	2.064189348954798	0.45314611150541184	2.917321413898659	0.21383227669031987	0.696930593167528	1.2145185151602416
10.0	2.0933104616153706	1.0024701560927238	4.085650187430826	0.1330223779008405	0.5198597259798096	0.7947545497246005
10.5	1.572334468401227	1.3825460802209486	3.9663583327951875	0.1037227104123552	0.32520280094239745	0.4909005998897094
11.0	1.0330195144221774	1.5788528894655411	3.490603990405673	0.2202101032485192	0.20280687508411233	0.3045666368299351
11.5	0.6768614809746938	1.5726301526806774	2.670824186688542	0.46432928620733305	0.12809659550482363	0.19127601158231153
12.0	0.4580244353762997	1.2875850456480964	1.8999740472995617	0.6604346625855422	0.08355765150498813	0.12312347955712592
12.5	0.32501347652427093	0.9304516591190232	1.3993077077403737	0.786043411289664	0.06202391073454862	0.08592080767023268
13.0	0.24431148347988338	0.6614819319299444	1.089500612705361	0.8630486588714883	0.07293965991583254	0.08636255263842992
13.5	0.1955007624068872	0.48572910817245435	0.8997126040639514	0.9077649829542151	0.12744905998589176	0.1755574881999697
14.0	0.1763073128182733	0.37560139637112894	0.7846270614174258	0.9127560576908098	0.19646299461677938	0.4043388558170419
14.5	0.33791566345080964	0.307615439307645	0.7186931230478375	0.8412505149742231	0.26616249004693354	0.6984981257527306
15.0	0.8717437897606686	0.2659924981159262	0.7089213574690973	0.6575009999566614	0.37634914811386583	0.956177404386998
