# Time series from syn_net_6D_20191104_a_hillmodel.json, output to pipeline readable format
# Generated on 2019-11-18 19:22:02
time	A	B	C	D	E	F
0.0	0.3163370141929898	1.7295774885082635	3.7519321441241633	1.1232618220356712	0.11295735030106925	0.2094052869202757
0.5	0.2470727114457903	1.5203002844432596	2.4629418669378755	1.7202573412566708	0.08981412098565836	0.18419291985123684
1.0	0.20503356561085978	1.0799607587156397	1.6270849806868009	2.559329212946026	0.11010595756531448	0.2055372967339258
1.5	0.18214863047129087	0.6902415630469264	1.142973331393962	3.355745701040377	0.19355810152632386	0.42566307439462714
2.0	0.28019271159432296	0.43426788296065283	0.9914936875638881	3.658425770687729	0.3009570164134892	0.8809382657166961
2.5	0.7300855227471139	0.27857682539342027	1.0724114643804747	2.678558034430692	0.5050952308631154	1.2629791510216524
3.0	1.2166045845709084	0.1928560323965119	1.3734807228809112	1.9300823045801057	0.755910755753078	1.5083134243260463
3.5	1.5763387396738568	0.21745825626911197	2.143209726470429	1.4127942776920905	0.9632244292762089	1.6583038514837491
4.0	1.8168618259319735	0.5682786152395884	3.7512798284183915	1.0369403915221462	1.1066082909592383	1.7142788897900996
4.5	1.9274032964258818	1.0342190726949483	6.908391894822379	0.7874097279542994	1.065451971071356	1.3690168350411507
5.0	1.7483504895414956	1.344066513798369	10.311822848886761	0.7025032510165328	0.7849283285710116	0.9366327042803255
5.5	1.2880870132750821	1.5334336895342418	11.442168635281174	0.7305987126051056	0.5200599657964528	0.6367818725448424
6.0	0.8694634437386141	1.648178104064058	9.930980135482013	0.7711938972190289	0.33987832503196397	0.44505333699742067
6.5	0.5886127320988083	1.7164696164701532	7.566032859661729	0.8091596326183412	0.2249069563116487	0.3250007264258011
7.0	0.41346428054708545	1.749910745109717	5.302764523975597	0.8924904704774178	0.1528563637103422	0.2505360536304959
7.5	0.30622269667885127	1.7189940097842038	3.573872234381022	1.1741414090139242	0.10893868949299776	0.2052262976514998
8.0	0.24092274033925498	1.475343728444992	2.3420664326484806	1.812750694942721	0.08912074141674843	0.18307508672011819
8.5	0.20132573260751674	1.0271195489889973	1.5527424142686987	2.6605942227072807	0.11735997521280354	0.21631458879187143
9.0	0.18178978677741026	0.6533133835412066	1.1078656925448682	3.436665168007145	0.2048687320592307	0.4733200353651372
9.5	0.31742896249251584	0.4113597746712594	0.9927367982150642	3.5748043753176826	0.3187358720578487	0.9337164329966023
10.0	0.7921532668312226	0.26506358647428047	1.0912543893052937	2.572364054832897	0.5349912915845463	1.2985142591009133
10.5	1.2662997829584093	0.18752001490822806	1.4374762323642258	1.8594516663171674	0.783521171008685	1.530247009321477
11.0	1.6105107162307881	0.23765398762554418	2.275233605903862	1.3616712709615715	0.983779259531119	1.6714576922045614
11.5	1.838317501263493	0.6282507051657199	4.0401511823470155	1.0003843716527312	1.1167439289926966	1.699950130537901
12.0	1.9255606507417762	1.0791253474534137	7.353061284293202	0.7681056105191303	1.0395279611305486	1.312598722019937
12.5	1.7022875343645858	1.3717267517775578	10.601966285478477	0.7025530753953304	0.7495225972699301	0.8941654117515082
13.0	1.231907283764489	1.5502350174490769	11.369786327036119	0.7357115767579923	0.4944650174105903	0.6092001374483487
13.5	0.8292648510392574	1.658304123937014	9.669107456673528	0.7755059507738611	0.3233419838669364	0.42769141475432704
14.0	0.5631694251922775	1.72224892817408	7.278127256321171	0.8148882831984838	0.2144874207193524	0.31419569870979414
14.5	0.3978231086262506	1.751062289945979	5.0692027937045525	0.9112507202816992	0.1463876204493989	0.24387564703230408
15.0	0.29668534995291895	1.7053970744449984	3.402545243068709	1.2305438856199735	0.10522864708713084	0.2013455516459616
