# Time series from syn_net_6D_20191104_a_hillmodel.json, output to pipeline readable format
# Generated on 2019-11-18 23:15:04
time	A	B	C	D	E	F
0.0	0.15439480923608737	0.23767813171088728	1.0202279785466974	4.291508101537652	1.5253240865035314	0.7667203677678287
0.5	0.2465812399207669	0.1852156747694426	0.7580191495170227	4.130396078799307	3.1954280245880873	1.1381374808880491
1.0	0.5476270553945987	0.153270899947381	0.7175150812113381	3.545539410539855	4.779548462106515	1.420580236884804
1.5	0.9298181634188599	0.1339125730179283	0.7775416150406598	2.496772991935089	5.864491469752363	1.6096327643664834
2.0	1.2712573705421022	0.12221656011311909	0.8364018942715296	1.7452376633158815	6.5599765662459	1.730600692198358
2.5	1.535229232244499	0.11519404928491075	0.9226405608364147	1.2770264986699236	6.996891086930236	1.8065900186489372
3.0	1.725974608714254	0.11118582401349376	1.131082534820907	0.9904045158674677	7.269108426813249	1.8538943123008935
3.5	1.8588787046338417	0.11019168603626096	1.5534043693654904	0.815681797257787	7.4380186086209115	1.8830847358182365
4.0	1.949311933705393	0.11723878960098888	2.1390258943917724	0.7093292827910016	7.542501093887311	1.9002678988876127
4.5	2.008872564257707	0.14682428810128423	2.740817484507203	0.644634654165644	7.606399980498234	1.9052838924843711
5.0	2.04009849416578	0.21080582932444178	3.25660769860374	0.6052988849407015	7.640719150842775	1.8704124436483929
5.5	2.006972500184826	0.30006372446315366	3.655835978559298	0.5814346970689439	7.627957038155833	1.6823359321127065
6.0	1.7773987064241485	0.3942584355536897	3.94650762471296	0.5672822019635181	7.463406436782851	1.3080589798009954
6.5	1.311282053454103	0.4784054043111316	4.145540587089888	0.561211930190333	6.841566945252325	0.9298977569012273
7.0	0.8603794479142416	0.5449036608467498	4.238883873305936	0.579137260643811	5.373546403853127	0.6439493039260131
7.5	0.548975375621486	0.5787433984086184	3.9537632709521335	0.7566689815258091	3.6145520068121484	0.4505335257690868
8.0	0.35384875861108445	0.5124475372792437	2.836222809388616	1.4159522853674626	2.3042475168148773	0.33799392900628633
8.5	0.23469751952179163	0.37731613999647745	1.8513682012607209	2.436183316915126	1.487285236734972	0.3489053470536023
9.0	0.16592206734024728	0.27306333591954374	1.2249353655808766	3.892475097808301	1.196019117576746	0.5889569739342279
9.5	0.1765808791486386	0.20693750701557345	0.8518191063529342	4.258910743990528	2.329908797340175	0.9693217053725662
10.0	0.3838579608448903	0.16647133422737567	0.7130391757813548	3.9261276013473925	4.089306532716713	1.2992617756599494
10.5	0.7482758256495179	0.14190386427303298	0.7476077164920836	2.9763220687398255	5.4068200799807276	1.529986802636246
11.0	1.1180063586692992	0.1270406147175191	0.8084683750684818	2.0598329201504466	6.2691790695478	1.6800211648731647
11.5	1.4197431035672774	0.11807913078771648	0.8736498518914464	1.4711770933857993	6.814820108272532	1.774925513277737
12.0	1.6436189699486596	0.11276909126898232	1.0091216672140944	1.109021718473699	7.155846931879571	1.8342226688696293
12.5	1.8019416699580677	0.11016142722618845	1.3252616866507863	0.8879441744820661	7.367801875983882	1.8709954466167082
13.0	1.9108105303242322	0.11218088388807149	1.8497369794227545	0.7533035142345659	7.499118047345422	1.893397321215954
13.5	1.983932367894274	0.12884049153543436	2.461437309984856	0.6713808974363332	7.580079276780743	1.904951501324319
14.0	2.029473293292036	0.17619793026236744	3.0256678846929805	0.6215580521116603	7.6281237558535135	1.8966547545715737
14.5	2.0365877629058042	0.25581378235764246	3.480781318124569	0.5912828369737215	7.643428003020827	1.7999640363431475
15.0	1.9215459107379174	0.3500811305897746	3.8208663529791504	0.5730213577841741	7.57339251824773	1.4982755164513817
