# Time series from syn_net_6D_20191104_a_hillmodel.json, output to pipeline readable format
# Generated on 2019-11-18 23:07:19
time	A	B	C	D	E	F
0.0	0.16822395529552783	2.329351844772043	0.9517395530487487	4.535805778944409	0.17847993195339237	0.47233711049441907
0.5	0.14390947440690097	1.5475746218666888	0.7423683211930208	5.300784575507223	0.1529230137941202	0.4910154269780008
1.0	0.13042722222163455	0.9893482786934037	0.6149961656090588	5.794715084683305	0.13981211993637735	0.7509257460774938
1.5	0.15109330415284614	0.6256364025325464	0.53772741550634	6.085609908403376	0.17872815608190668	1.344599866700466
2.0	0.30785978452181584	0.3963501612653041	0.49683789319298366	5.735522681800525	0.35990846672210886	1.8720400850388565
2.5	0.5718765401894882	0.25981063785819347	0.6032413946054448	4.075187888420658	0.6896299362357213	2.2150806351534835
3.0	0.8262794432693988	0.31248511620659913	1.0605997367513924	2.6530231948787604	1.0887054562749279	2.4250624885443286
3.5	1.0201187298467722	0.9454447014582327	1.5565857191033976	1.7482498026208586	1.0443802879552875	2.45101221208947
4.0	1.0275482779477685	1.8603866057316207	2.1296281669366564	1.193899245376516	0.9602574877745028	1.835605645562544
4.5	0.7950849639782065	2.6407352322904	2.924082803966135	0.867493991413719	0.7837306997515415	1.2853654016179148
5.0	0.5530612970988144	3.1615749770466857	3.201632821633466	0.7428092420781517	0.568105722255793	0.9375768864784582
5.5	0.3839969483867317	3.467583500287798	2.65854640263265	1.0230642354080468	0.4014299316657513	0.7241375183574765
6.0	0.276586687752798	3.54953924249689	1.8757137312137258	2.02564854511944	0.2915146825893582	0.5940114415445124
6.5	0.21014063072350614	3.1776670945757917	1.3115012297092585	3.3758126603211807	0.22242871495769254	0.5155669551339016
7.0	0.16941846718490905	2.36242259933491	0.961964696986042	4.4998893719649535	0.17973680648473317	0.4732148463396214
7.5	0.1446298459694653	1.5734438220995113	0.7485940352887361	5.277084604624697	0.15367738964775982	0.48783499273988723
8.0	0.1307031659826685	1.00668849644984	0.6187803612286696	5.779722584658328	0.1399684920299307	0.7331501925030189
8.5	0.148459280687745	0.6366924686729344	0.5400091468021394	6.078937961778001	0.17473013633812975	1.3210605964779552
9.0	0.299047007393947	0.4032411212214806	0.49737661714276243	5.779573803601384	0.35080291785542916	1.8554973010662799
9.5	0.561450614285906	0.26331061456263605	0.5924181518377448	4.140529514174401	0.672564773552455	2.2048029174215453
10.0	0.8174859163318873	0.30134990781670334	1.0404543700430173	2.6967796059396165	1.0843356596891665	2.4188871901858584
10.5	1.0145999414931055	0.9124087991689666	1.5382200000860728	1.7753294279091363	1.046940119979486	2.462043474443902
11.0	1.032917969790622	1.8262399482861897	2.1024354545236634	1.2103058843775287	0.9648271429066165	1.8610886750199305
11.5	0.8052952330035932	2.615768151900373	2.896685902287538	0.8765343895867191	0.792016058766451	1.3022190363686192
12.0	0.5610024152439259	3.146015100577048	3.209075170528831	0.7424864383835491	0.5756791806225268	0.9479839151703368
12.5	0.389175873174214	3.4593896569088676	2.6875540906959925	0.9998958432451984	0.4066650114435649	0.7304972483495915
13.0	0.27981626163081347	3.55274700423278	1.9026019076736325	1.9761909384436163	0.29485359619529816	0.5978772501386719
13.5	0.21212619493117985	3.2025263697654895	1.3285174590736357	3.3263478524837202	0.22450393617790768	0.5178545754976116
14.0	0.1706318150924335	2.395587943186354	0.9723860493228595	4.463564861606089	0.1810124688403726	0.47415310318452475
14.5	0.14536250527960343	1.5996338007953324	0.7549409239749364	5.253054735169558	0.15444472300512788	0.4849623005295339
15.0	0.13100639217603166	1.0243034519733376	0.6226383589408337	5.764497299523438	0.1401693393221423	0.7160197420633685
