# Time series from syn_net_6D_20191104_a_hillmodel.json, output to pipeline readable format
# Generated on 2019-11-18 22:26:03
time	A	B	C	D	E	F
0.0	0.4083381635765214	3.6425199113122506	2.4939315050009063	0.13838399679572494	4.318403319791533	0.5239670402569487
0.5	0.2567998538833218	3.947382094216452	2.4740566805833772	0.14301274202399986	2.946595988054055	0.396406818580087
1.0	0.1620179916391972	4.031533721111705	2.325572618675417	0.20728685120071325	2.080022587759439	0.3190112285708462
1.5	0.10382658120041617	3.8586195226940236	2.1377777306479566	0.392284257953764	1.5489043279524977	0.27207535509868325
2.0	0.0683135864557758	3.4698250250761222	1.9137066604584412	0.8125226235657087	1.2346328684778498	0.2436537848236165
2.5	0.046691118620624486	2.7768721591079553	1.499583410879391	1.2838216079404758	1.0806070918375694	0.2266057362064802
3.0	0.0335410497631448	1.9030159462154799	1.042912625178273	1.6196552586675381	1.1518124869401198	0.21766482754147068
3.5	0.02556005027204168	1.2284053963086916	0.7163139238606733	1.8069967443062027	1.4735521024436944	0.22495304717638276
4.0	0.020929102882411316	0.7950152700499188	0.5079723850073375	1.8535404893348764	1.7855518096466103	0.33267457404092887
4.5	0.038247973719236744	0.5284046437155864	0.3888054242984582	1.749684341289747	2.5029878267606356	0.8610694910480702
5.0	0.31413711195042643	0.36631307954562947	0.46772164045991194	1.1873014661192103	5.553863343517212	1.8029621548866028
5.5	0.6281945684337075	0.2876311121045576	1.0305568303212411	0.7591519042600406	7.957532934697248	2.6151275355370345
6.0	0.8322227937301994	0.47909409660235347	1.602949135854736	0.4988380338001214	9.445131178291648	3.0336866897238957
6.5	0.9533321655639075	1.1277739198523256	1.9877499066295865	0.3408471609634733	10.294031955467124	2.279853031186803
7.0	0.9814526589641507	1.9612201003694485	2.2262286023004854	0.24500288884777863	9.990750711257325	1.4749943634519975
7.5	0.8285206835311257	2.7170597648416654	2.371525715909444	0.18696905093742855	8.067164475855181	0.9745033312761892
8.0	0.5695638991536586	3.309463835962459	2.458454194968447	0.15244965586888926	5.753064998024392	0.6699249264707595
8.5	0.36282805258411016	3.7370130919508613	2.4988685185060997	0.1362142217588217	3.9085727426548442	0.4849865214777241
9.0	0.22800985104792343	3.9936316092471924	2.446988661468752	0.1521119112833967	2.683848969670929	0.3727531131767917
9.5	0.14428295780653783	4.010044985789985	2.2775495156705965	0.2386537881362414	1.917662971273628	0.3046634229839491
10.0	0.09299025385017565	3.779306786590587	2.088310620307476	0.4772602713552425	1.4511924285701272	0.26338008958025916
10.5	0.061712397929457	3.327959005039132	1.8290953255389615	0.9408517450842597	1.1802331173963214	0.23840436446147498
11.0	0.04267522772473172	2.5505426252943604	1.374556056543013	1.3844397731864335	1.07105520509692	0.22355885766422992
11.5	0.03110061169212126	1.7046206997005562	0.9459323915229553	1.6816345841181186	1.2197975808509602	0.21700499391111525
12.0	0.024089242556165034	1.097132318402348	0.6531144248406068	1.8314949547598007	1.5614207948175263	0.23528485883467656
12.5	0.02042997321909013	0.7137251023102045	0.46957546924310384	1.846319784292203	1.8591608141673341	0.4115748447941406
13.0	0.07511167913044782	0.4788290079114629	0.3748275507657817	1.6427753598906967	3.167940043043119	1.0864855837768401
13.5	0.40507606595286033	0.3367882819917971	0.5787714883679096	1.0566995121956877	6.2768544896864436	2.0371741745464784
14.0	0.6899779168969282	0.2961886908765731	1.1928027499509914	0.6796213628280502	8.411105641013695	2.7736972071988912
14.5	0.8703331654949701	0.6071841454901242	1.718871324462579	0.45055957145476794	9.720298690332632	2.9570981006529604
15.0	0.9718422503137197	1.3377449704380722	2.0603926923400184	0.3115541182914729	10.379530251877629	2.0397892009154006
