# Time series from syn_net_6D_20191104_a_hillmodel.json, output to pipeline readable format
# Generated on 2019-11-18 21:53:08
time	A	B	C	D	E	F
0.0	0.6487287794525383	0.7872029128971058	2.899688706702276	2.1694394187963604	2.3526445884941714	0.7130552745039503
0.5	0.450774774944034	1.6374243083751165	4.002348787355032	1.6971119782590223	1.449211883187385	0.4544421888821845
1.0	0.3029117134057167	2.2629617319988893	4.7414737282343795	1.8425788406175567	0.8988989518210805	0.2975697609830451
1.5	0.20996442125174974	2.6588499987087304	4.516313800762824	3.9982032142167223	0.5587227784439761	0.20242092109596813
2.0	0.15317976500488048	2.82580980825673	3.319866124255626	7.70836441824215	0.34507456477335363	0.14471012075252956
2.5	0.1186765523231487	2.667738316522728	2.503082815911906	10.560320461940368	0.2126638503562634	0.10970676472611404
3.0	0.0977375992806522	2.188492605978515	1.981955453851507	12.354773600540668	0.13166419549289488	0.0884763188418842
3.5	0.08503461468712424	1.5927639628138937	1.563244177773357	13.449074505519913	0.08236191235710609	0.07560036233437785
4.0	0.07732896988840496	1.0530340711053632	1.1709645867334206	14.113362848095349	0.0524394602638744	0.06779825998107065
4.5	0.07265491858043974	0.6630114423349015	0.8910983971212632	14.51633627411561	0.03463980250938168	0.0631418396918802
5.0	0.0698198221210088	0.41151187251498855	0.7157609812777426	14.760762148796971	0.027713452191880986	0.06113799440976854
5.5	0.06810032241453244	0.25523131277672023	0.6131191344094246	14.909012596231635	0.05508220555161615	0.06872635653857119
6.0	0.0670654926038507	0.16038467407869664	0.7316131016564643	14.997185587756812	0.1872031248360331	0.15071966190156866
6.5	0.06919074991628395	0.10902415543223594	0.923633655127848	12.52190471084416	1.2453209673231485	0.47149318478645375
7.0	0.15341604028168787	0.08802834949046004	1.0478292603980366	8.006408671146374	2.3616266330719715	0.8830088686709697
7.5	0.41279169737292687	0.08933154701076196	1.1819245643725071	5.222172026186935	3.0535976555712145	1.177215151285004
8.0	0.6688115648369705	0.13940861107871425	1.5433168761455258	3.5011111393285064	3.446616595357344	1.2328893239385548
8.5	0.7014658831312488	0.5298676877634397	2.5113079783104877	2.4092200703506927	2.7437945361054332	0.8264177050477458
9.0	0.5112690421951055	1.3842269901554247	3.68557623341388	1.803013610033424	1.6895795919269108	0.5232671305586705
9.5	0.34324632442125225	2.091608463965721	4.553275586049873	1.6734071932897014	1.0456090934902014	0.33931470113726087
10.0	0.23485707345455376	2.5554242433860987	4.803978582668677	3.008544320724502	0.6502865275965892	0.22774061660983363
10.5	0.16833598819783202	2.802417857869593	3.6678025848584537	6.558168466158376	0.40248006133114017	0.1600673193195345
11.0	0.12787894832124988	2.7586488686974424	2.7226965191937684	9.783495515481373	0.2480087521244572	0.11902135989290556
11.5	0.10332119257827908	2.364425363545907	2.1267004301276033	11.8761599078655	0.15322746899568215	0.09412581813888593
12.0	0.08842180194909215	1.7831764364885228	1.6965407615132762	13.158102026731267	0.09547351072513266	0.07902645107547453
12.5	0.0793835966838321	1.2106470825068052	1.2860924723853298	13.936810684389789	0.06038312069021571	0.06987200178503473
13.0	0.07390119109160559	0.770179270393142	0.9670545922595388	14.409243291119777	0.039247049297702084	0.06435543646836575
13.5	0.07057575467869352	0.47920240524662816	0.7625262780191455	14.69580516125364	0.028262993890298134	0.06139294839647733
14.0	0.06855874542560478	0.2970112950508985	0.6380187741890971	14.869617060534551	0.03892123600620805	0.06376017371157779
14.5	0.06733693560315972	0.18522369637578212	0.659056641634867	14.974785829912022	0.12428067689287571	0.10604172178956363
15.0	0.06709330923539823	0.12146359985139227	0.8721093823657098	14.227582635442094	0.79783223245258	0.34367029643312563
