# Time series from syn_net_6D_20191104_a_hillmodel.json, output to pipeline readable format
# Generated on 2019-11-18 19:28:20
time	A	B	C	D	E	F
0.0	0.6695637238414448	0.9952769625844362	0.9021931948505851	0.2990580449896571	0.3746721478552116	0.019057229429681025
0.5	0.4455537032313282	0.6566053717267932	0.7218738416523011	0.3284410139465535	0.45398101626361886	0.013133079164004323
1.0	0.29504716653097374	0.4315598829872566	0.5117645387636859	0.49929906053653705	0.5071693520189858	0.009800760384003796
1.5	0.20172068546664154	0.2887433846388379	0.32250288340287564	0.9590825851682891	0.5400840765179534	0.00977908513467659
2.0	0.16243664606008942	0.20122906760300652	0.20283811243170413	1.4599768475906447	0.5601286913574953	0.02224881973988315
2.5	0.4256647925262365	0.1480627244098757	0.13023566208198248	1.4123347862562292	0.5722979191761193	0.08558174352165204
3.0	0.6641536244839941	0.11580709378152444	0.08743864694625265	0.9987764095146763	0.5798728965216322	0.27636692374047767
3.5	0.8090288943502391	0.09624211239752085	0.0650895303084341	0.7275940627419503	0.5990417475191202	0.6183192630222302
4.0	0.8969010774469285	0.08437523442351998	0.06207618195289291	0.5595798359025086	0.7779588383199268	1.018814003583684
4.5	0.9501982776024708	0.07717772919449639	0.08961519040818519	0.4481680066880113	1.1995890960853155	1.3796252534312172
5.0	0.9825246665619641	0.07281682898787481	0.18666986414254222	0.3529558226061771	1.6148966866824082	1.6624475459820252
5.5	1.0021316135840717	0.07062598613496415	0.4749333542559868	0.27048277083817174	1.9202173347828078	1.8674690093219828
6.0	1.0140238286149577	0.09884311228406346	1.0513379551851112	0.2086979038662499	2.1233939342640187	1.9135552723046383
6.5	1.021236821148676	0.47713632343450113	1.73161979667878	0.1667954242912097	2.169928487434076	1.2519686191409403
7.0	1.025611710545584	1.4110688137139797	2.2862538487938364	0.147201279698137	1.8016561234966821	0.7609409971836859
7.5	1.028265075630518	2.348175801570037	2.621792628474714	0.16650016574490276	1.22830914976281	0.4630723191632394
8.0	1.0298727651127864	3.009604828127716	2.6468339894263067	0.20946932333585583	0.8148531165061388	0.2824054244718439
8.5	1.0308284784349846	3.3333536672651887	2.3665311361890295	0.2437811181848179	0.5558869829076987	0.17282540202329547
9.0	1.031187139490144	3.244869253668254	1.9480416696883913	0.2658296164652744	0.39786263219132384	0.1063617444165602
9.5	1.0290091555527778	2.7238231466002087	1.5613279001390543	0.27939684332965153	0.3053614625654547	0.06604950269474372
10.0	1.0052439774992146	2.019752738918386	1.269438271456617	0.2877146855753021	0.2667669504017885	0.041598999860739345
10.5	0.8734864709943339	1.3979212026202399	1.0559517297891556	0.2932885223644656	0.3003665525191228	0.026769747701312983
11.0	0.6252731373072158	0.9355189601704995	0.8711502950889927	0.30117893266370155	0.3871655161158488	0.01778077920901148
11.5	0.41386134461605084	0.6156214470866406	0.6883842386763349	0.34211063589719143	0.4630852644960327	0.012372565851289367
12.0	0.2750597034108935	0.4048064781050922	0.47315855286251224	0.5609515825574266	0.5128973315199714	0.009452499563711483
12.5	0.18965433942461887	0.27218573547281333	0.2967724413797755	1.054576811027447	0.5435835923332659	0.010381748619361093
13.0	0.1755145774701138	0.19115393895011815	0.18716178516265478	1.5290624567818127	0.5622545863313384	0.027095096926965788
13.5	0.4699898524818161	0.1419486734389195	0.12079917596410689	1.3487338966659566	0.5735886582850472	0.10482202613617671
14.0	0.6911783086403904	0.11209839239307808	0.08206744363505757	0.952816847724712	0.5808890361843503	0.3207493981289533
14.5	0.8254206417218178	0.09399262749749956	0.0627034356627379	0.698969938754215	0.6094378122843472	0.6796419664323995
15.0	0.9068431823178581	0.0830108500962997	0.06331924049587542	0.5415907493930384	0.8327773724806281	1.078993920297179
