# Time series from syn_net_6D_20191104_a_hillmodel.json, output to pipeline readable format
# Generated on 2019-11-18 22:52:05
time	A	B	C	D	E	F
0.0	0.11775695589582144	1.3083069250802266	14.281152613589018	1.2465691180527056	0.8568587679398806	0.12705387656735337
0.5	0.07969113809302364	1.3239072073198128	10.297278615088047	1.9292986414465931	0.6522633936307002	0.10371163892470484
1.0	0.05654422399894295	1.3333638683450297	6.546738926309988	2.7684503872017348	0.5254547883295331	0.08952287723380695
1.5	0.04248560653550889	1.339041060298783	4.051787192576931	3.5110986326769162	0.4476496908932559	0.0808989513909869
2.0	0.03395097614653169	1.3418314775819973	2.502184727503328	4.06123898231049	0.40010432272563884	0.07565828996371575
2.5	0.028770975567467234	1.336500233689554	1.5518285177199596	4.437565271230586	0.37110432671017124	0.07248076124682484
3.0	0.025627377765021393	1.2724956385148782	0.9712137647082892	4.685690987065168	0.3534342587594519	0.07062779189699113
3.5	0.023719932145026847	1.0149274927594911	0.617054925258244	4.846269471234184	0.34268998451493515	0.07026111632702295
4.0	0.022564668646491055	0.6835339382555835	0.401204247808234	4.949075480406144	0.3363240119398376	0.07697762887905613
4.5	0.02192557531582495	0.4443484594077657	0.2698001880101867	5.013843637131334	0.3359810421847733	0.13902718057236593
5.0	0.04214101619470028	0.2941691046501363	0.21242653615257576	4.915389576726257	0.6599943177480448	0.4785291301682002
5.5	0.31009911648864125	0.2157777341959332	0.5382219052652755	3.6011365567859954	1.5375839541885115	1.1860858789053397
6.0	0.5438336873803824	0.4461483918153805	1.2913155629984547	2.428831490347497	1.9978072195597465	1.3568594561859804
6.5	0.6723575353638397	0.7927770916495772	3.400759752865239	1.710463908252008	2.140526840816944	0.8844850685297028
7.0	0.6582385160915594	1.0111511997544382	7.453595617329885	1.2740128511499373	2.207433609989035	0.5669316802469458
7.5	0.4885185558523695	1.1436713224084225	11.662569547881313	1.0101724984045046	2.132180768095779	0.37166223226532247
8.0	0.3185226606078518	1.2240508434782797	14.7683374204781	0.86016074041125	1.7640855761236869	0.2525418541565807
8.5	0.20369043435152356	1.2728037249581774	16.259079270308785	0.8451031582313042	1.29130085394978	0.18002686717132801
9.0	0.13219642339019422	1.30237385113479	15.095496785272644	1.111428088541967	0.9329035897074173	0.13591936991126793
9.5	0.0884845346039664	1.3203087580672423	11.494100689818948	1.7117160378219323	0.699992645250185	0.1091013312683237
10.0	0.06188785018411057	1.3311841149509651	7.4655679065967	2.535293920836273	0.5548716935398309	0.09279893387496957
10.5	0.045730329436486764	1.33775049708564	4.634932367284641	3.3223396989486598	0.4656600237002996	0.0828900719269854
11.0	0.03592055549949608	1.3413994104386142	2.8615461884374866	3.9270521316513647	0.4110996780114441	0.07686805059462115
11.5	0.029966337986779182	1.3399569920032275	1.7717448888171132	4.347476965052373	0.37780771801794644	0.07321201047207103
12.0	0.02635278556555397	1.3041467228732302	1.1054595456845056	4.626836588549693	0.357517164995268	0.07103093962375842
12.5	0.02416001789722789	1.1065006173647711	0.6989084699494764	4.808371181018279	0.345167046502259	0.07011169770977346
13.0	0.022830515534515015	0.7691061925770948	0.4510795080276521	4.9248970153930225	0.3377382638612637	0.07330987214871008
13.5	0.02204300492483593	0.5007636891474436	0.30012070301217614	4.998894411585351	0.33446981361406425	0.10804761744749156
14.0	0.025530713626398274	0.3289481010840283	0.21202582100674014	5.020543573213128	0.4597184111245257	0.33712571784437334
14.5	0.22541270641442449	0.22634798681339266	0.3964943230863374	4.024627440982764	1.29403985686424	0.9798614758190397
15.0	0.4897476181708854	0.34039501848602133	1.0121230669124008	2.7013217099164963	1.9348240718119962	1.4556158154435415
