# Time series from syn_net_6D_20191104_a_hillmodel.json, output to pipeline readable format
# Generated on 2019-11-18 23:02:31
time	A	B	C	D	E	F
0.0	1.1721368818925748	1.0568435034153723	4.301381226062617	0.2905055500801657	1.0030915102520885	0.5841971946924752
0.5	0.7852596790101996	1.0514028921944791	3.871847300956995	0.5662803358692424	0.7965588267263048	0.39063062753864536
1.0	0.52985354086704	0.9870058423610433	3.0080703593009024	1.4089976894313663	0.6593842540558263	0.2781491522949984
1.5	0.3721902716000148	0.7727093990986699	2.013937557945739	2.619137794053652	0.574821745814433	0.25316781593610027
2.0	0.28315609357097205	0.5330195629735938	1.3809415612210652	3.6152766222677752	0.5297194000092823	0.5081028171835619
2.5	0.5470071606455963	0.36434165314383093	0.9981657381738815	4.094434880017212	0.6593099432968835	1.3908340135504556
3.0	1.0391755797690596	0.2582342053008899	0.8169565765646255	3.0914505200412554	1.0076019054810124	2.4835350914617234
3.5	1.35689281010229	0.19329212573306584	0.7942983977788698	1.9893526105117907	1.6840805476091598	3.302717512579161
4.0	1.5511285321232706	0.15493180313251534	1.1247738818722108	1.2481183224068901	2.605950083914614	3.8321403395087117
4.5	1.6692799898130295	0.16966326002157814	2.344681841989436	0.7916072657261948	3.3508531450058374	4.1588121871093495
5.0	1.7410417067477857	0.41719189466966694	4.016587723289516	0.5141289278770991	2.834287819390761	4.147496264230968
5.5	1.7840454678232263	0.690167436908543	5.031246944870258	0.3482776614109075	2.1292365719225006	3.0604394182732366
6.0	1.8043730452060134	0.8725060417986403	5.2415236677350325	0.2560484234610652	1.690099420228347	1.9877035808612875
6.5	1.7672711405030577	0.9815839699822551	4.991097716174456	0.2183754997265223	1.4131694951074474	1.2670642032780937
7.0	1.5109856691413257	1.0389877862640082	4.60726483774546	0.22960341963726041	1.1881611002943095	0.8113336201449284
7.5	1.068642955740793	1.0585102664794792	4.206050311564748	0.3271924159559035	0.9480135444137128	0.5290229727239515
8.0	0.7134445331554545	1.044556555883281	3.736858368304759	0.7030680858925984	0.7580479716139358	0.357542050886533
8.5	0.48505262160359713	0.9494568750740667	2.739208587237799	1.691665058305354	0.6353105168971451	0.2619063318645857
9.0	0.3450067087492484	0.7113947565398655	1.8345370971030608	2.885839327545819	0.5604220991864285	0.273750635334238
9.5	0.2830209356086997	0.48614984948657797	1.2710586624713611	3.7997542240114766	0.5319730163422964	0.6588944148707964
10.0	0.6777563072304136	0.33431633674061534	0.9380492256330355	3.963897286244178	0.7243162579654322	1.6601080079428947
10.5	1.129139107737852	0.23976810115390046	0.7957906474484915	2.802692036589351	1.1326541791709324	2.7079265461691087
11.0	1.4121052631030009	0.18210564902852308	0.8268011729445895	1.780898374227964	1.8944114887856387	3.4515349559039583
11.5	1.5847382834247152	0.1495513681071529	1.3134879217599522	1.1184683533251085	2.8190121207243224	3.9251749337745463
12.0	1.689704425144312	0.2060022551446589	2.757245337215307	0.7125870654797967	3.3778036026054634	4.211723229226023
12.5	1.7534106004598384	0.48926347414636645	4.335442841915349	0.46645050602144233	2.638487840539764	3.9638896517265536
13.0	1.7910694671986789	0.7414451102401401	5.145559624400956	0.3206466865202875	2.00480499672435	2.7743309456085385
13.5	1.8041509913913902	0.904133327474711	5.208025260738865	0.24261671145841068	1.6133659491570131	1.7868493385751172
14.0	1.7341251307451624	0.9992501987099937	4.904825378986004	0.21638276984143165	1.3597261533826326	1.1387033456813687
14.5	1.409869405297419	1.0467085216015706	4.512009276822538	0.24171324048698184	1.130960632877592	0.7313720497341604
15.0	0.9717364050526511	1.0583841242833485	4.10901999125021	0.37761255993124465	0.8963431610603636	0.4800327750590241
