# Time series from syn_net_6D_20191104_a_hillmodel.json, output to pipeline readable format
# Generated on 2019-11-18 23:34:52
time	A	B	C	D	E	F
0.0	0.24571068675324453	0.8608867794119499	13.864264459003627	0.40147653888224694	3.604429989672871	0.1419030098335276
0.5	0.17711536048188906	0.964861389420949	14.860859382346257	0.3941727219359171	2.2413340544862055	0.10309025138615795
1.0	0.13543851879429852	1.0289656004117933	14.315963138143498	0.41674024744814314	1.3822568815935024	0.07952293874695736
1.5	0.11014563411552171	1.0568856880369581	11.900945795692806	0.5540569809152216	0.8548379689741972	0.06521902116185826
2.0	0.09480087370556203	1.009227550239411	8.434760520966625	1.2651405644369973	0.5340697930845246	0.056544476476644824
2.5	0.08549253150110629	0.8147645288488383	5.9162802176618925	2.730806358274973	0.3449509096591584	0.05132366826225373
3.0	0.0798462387356209	0.5710341054343829	4.300374255310418	4.0761365138542835	0.24756746661771542	0.048463741579027345
3.5	0.07642145595242382	0.3840008501294541	3.2769748952476814	5.039027926696399	0.2035470218371234	0.04903369741213054
4.0	0.07434521023812615	0.26128439649249396	2.6333008553260213	5.69027214071616	0.18198164338912165	0.06477151240262685
4.5	0.07313702004090346	0.18444105266080696	2.2302595842507507	6.118794264250202	0.22332032785782296	0.14280007372765083
5.0	0.07614898367046549	0.13707844345325618	1.9878777554348908	5.1326798767336985	1.560101245349961	0.3246687901138869
5.5	0.1352473928027655	0.10825885840847925	2.2369012237035237	3.3948048867640224	3.757215552421835	0.5357340774023118
6.0	0.3387552436990291	0.09433967497870976	3.4411472884098	2.2106470149789508	5.230407149983892	0.7020470671374153
6.5	0.6106698306967902	0.09904564103606077	4.306587018455393	1.4838487413968022	6.1392099691115884	0.8081444705822936
7.0	0.8429833444211178	0.1207178837542716	4.879984971103612	1.0428930720252074	6.693567145850757	0.8509361873827457
7.5	0.9829306961172027	0.15621314428396826	5.424835655414797	0.7754297496542952	7.029332020368073	0.8072140054145098
8.0	0.9652506913860629	0.21840440497861824	6.331824079845848	0.6132030042409227	7.225081890224431	0.6500211193686452
8.5	0.745556543311778	0.34682601555332965	7.925765415994525	0.5148102937870165	7.277426865851117	0.4431825838391658
9.0	0.5020308756359777	0.5442177794539463	10.073656946922288	0.4551621675078693	6.805218651123158	0.28906563351665066
9.5	0.3352550854064503	0.7370401751511467	12.302596371183968	0.4192238387789766	5.160639805631941	0.19273546989189036
10.0	0.2317285921742827	0.8817688352629443	14.119900399753543	0.3990246697050857	3.333279940299556	0.13398353309689523
10.5	0.16861296456687638	0.9782720885928884	14.892076235304724	0.3950493369949701	2.0666946374050377	0.0982803393957953
11.0	0.13027744689638635	1.036451835439797	14.048300649292905	0.4267072917925572	1.274521870598748	0.07660320603859941
11.5	0.10701427366112265	1.056659920348554	11.323683023570885	0.6118440739540549	0.7890741753769814	0.0634474020349769
12.0	0.09290129505964739	0.9869559413175525	7.934655322748126	1.4811631843756237	0.49447640490361655	0.05547216534160948
12.5	0.08434026123144045	0.7729745599575281	5.592615625382023	2.981458263194832	0.32301431096325367	0.05069225447045082
13.0	0.07914730555985007	0.5348159276690314	4.094663958490922	4.263731761126522	0.23758221799089382	0.04822305644379201
13.5	0.0759975542803753	0.35943772339546426	3.147320422488893	5.16743792040475	0.19875239411109413	0.04993566655782217
14.0	0.07408887800123268	0.245745167177729	2.5519925201534375	5.775793200168073	0.18012453439553638	0.07151952468326798
14.5	0.07304154706286191	0.17482687908997352	2.1795401844970343	6.169315825949024	0.28035169120620707	0.16657760055685777
15.0	0.07911211585588929	0.131183286296735	1.9672761508567376	4.793272609259676	1.9595251784199998	0.36087230515017366
