# Time series from syn_net_6D_20191104_a_hillmodel.json, output to pipeline readable format
# Generated on 2019-11-18 22:58:42
time	A	B	C	D	E	F
0.0	3.0305016380143353	0.16831753638088146	1.4506588658219834	0.2417029025011617	1.2279729798720158	1.0244282001861462
0.5	3.6129353007176626	0.2957963261289502	2.517967020786901	0.14756725243373842	1.5585631948055696	1.1954130959604872
1.0	3.964841753548101	0.7601740759797148	3.21593860038789	0.0903244584546225	1.1962750548790193	0.9281666817223136
1.5	4.135531620226067	1.2030353819051742	3.416443663260876	0.05556392505345355	0.8557472881353331	0.5928368258209911
2.0	3.9448909818579447	1.5039334283768386	3.455683231133257	0.03450040278212128	0.6279715497919303	0.38213515958213456
2.5	3.1151061865562193	1.6835503163952634	3.3955703612379278	0.022006452306717668	0.4351960618963874	0.25344536295423675
3.0	2.183142354016596	1.7246727527320198	3.0484295691085497	0.018091686254730156	0.27724972220173816	0.1751873361018097
3.5	1.522872838642154	1.5031269640162528	2.3442055518256026	0.0594275498734005	0.17101950208780478	0.1278894348129087
4.0	1.1055928373478856	1.0748097106230698	1.6794453077776577	0.20490235311082758	0.10467839229969084	0.10106041654304611
4.5	0.8496667318171693	0.6990324632687013	1.2009552444759255	0.3730862839726904	0.06414654262561706	0.10095467790700732
5.0	0.7204711577597961	0.44550294043099703	0.8703712811579529	0.4997571004745551	0.045108250792966625	0.21254759716049
5.5	1.4935020283456228	0.2868730197620848	0.6811913407052911	0.4954851679664809	0.33696521762715553	0.5492201834325726
6.0	2.6375301211777042	0.19139331782713517	1.0265098802680894	0.30556920576385754	0.9692618107415625	0.8982622932497349
6.5	3.3716745518720366	0.1886855101813542	2.011334493084425	0.18650578044418636	1.4543396638530146	1.1336888890492502
7.0	3.820754986718696	0.5200096121125299	2.968417203752561	0.11398843859115623	1.408599875650372	1.1163720029874085
7.5	4.079659855540101	1.0098623047154762	3.3559721815360226	0.06992945293353951	0.9985291851498079	0.7344149577954581
8.0	4.108500287984653	1.3777810503056538	3.44728297624757	0.043193652668842564	0.727691985738785	0.46947410567892783
8.5	3.570338267849494	1.612264444945773	3.4426194636150083	0.027072137537431925	0.5246392616034111	0.3066827717661995
9.0	2.5990447068859814	1.7282691498539038	3.267654876819523	0.018304338659483325	0.3458243065575324	0.2075338101723844
9.5	1.8010564492781542	1.648092615003582	2.699508105752593	0.028277412801752472	0.21552143770407464	0.14736128274840157
10.0	1.2790255251489275	1.2847088202514616	1.9716979913158321	0.12565582605392964	0.13220542751056924	0.1115261866446837
10.5	0.9554314995607195	0.8622891584544784	1.4078671762110553	0.29661013016594084	0.08088518758936981	0.09556994114637159
11.0	0.7607546287722113	0.5518102428392458	1.0104800613761675	0.4456832971550087	0.05011866262811016	0.1338645159327908
11.5	0.926761408543226	0.3526999501653324	0.7479044661886131	0.542824760064309	0.1137184951342082	0.36941883483506377
12.0	2.147784704946144	0.23015348090914736	0.7564773205284341	0.38593874078784185	0.6713178255326562	0.7449581264187607
12.5	3.0669287370124447	0.16744227108788967	1.5014749034750021	0.2358040947154715	1.2524372129671264	1.0361889332524945
13.0	3.6352103199545587	0.31306780911160464	2.5678178601254174	0.14397615874457076	1.5569277579811933	1.1972349733661962
13.5	3.9778131156661725	0.7852404587619037	3.2342373899055716	0.08814281192065748	1.1754487693318645	0.9081654522053293
14.0	4.137833837011818	1.2214163603685553	3.420644219993839	0.05424000548904087	0.8423724916809398	0.5796816467831223
14.5	3.917788754010037	1.5156165640087746	3.4555826843008126	0.03370133418013962	0.6179286125662957	0.374067742211914
15.0	3.0649030442443195	1.6895011871963532	3.3875314029906844	0.021560386717897777	0.42615174919432125	0.24853328519976986
