# Time series from syn_net_6D_20191104_a_hillmodel.json, output to pipeline readable format
# Generated on 2019-11-18 20:50:44
time	A	B	C	D	E	F
0.0	0.1600602485628314	0.8822801294012512	1.1270057134852116	0.9259941834686277	0.36089149066355675	0.025230527506331032
0.5	0.15050498726433456	0.6263155281862599	0.9659061877224473	0.8422848312953243	0.5846349942978257	0.029329833847548205
1.0	0.14520027449674203	0.4671677605753176	0.9082211863009838	0.6348779515787161	0.9629368652784959	0.0510090870329928
1.5	0.16704473906999126	0.3721552888826117	1.0636469731458436	0.4836957849034966	1.3101972991995252	0.11409131584558606
2.0	0.5147075019132643	0.3377469998085638	1.5777430467764315	0.3658667627663925	1.5550228473960106	0.21348724269229236
2.5	1.0027819873835797	0.6780740299214513	3.1396846912990513	0.24384104333383003	1.6182363152903363	0.20863789230042884
3.0	1.0183099343326074	1.547127193170935	4.598229527536422	0.1674786727806274	1.1579714477696612	0.13621242034538592
3.5	0.7516577096103934	2.1873648935060372	4.956196962090325	0.12382457183025405	0.8097525752065388	0.09114988051833615
4.0	0.5224882758148021	2.577521122099308	4.729365483744558	0.1138966366317631	0.5958098984213756	0.06378449176656645
4.5	0.3727774082651474	2.7672397754125737	4.0452807321286866	0.18045637762972147	0.4655766884795057	0.04718080676149942
5.0	0.28009161993813886	2.7054441259865065	3.084246675803407	0.3605140306233572	0.38651480737526417	0.037109291426082755
5.5	0.2234579849446346	2.227860518910507	2.196176502880534	0.5784312204308302	0.3389896206370397	0.031005835547675095
6.0	0.18898985352559777	1.5885072980926396	1.6192409846281057	0.762036831702086	0.31340959749623626	0.027343779787055305
6.5	0.16804342133696581	1.0885002462624207	1.2634069362633449	0.8891466955815266	0.3195225387186367	0.025400825414623743
7.0	0.1553299378465109	0.7570015867072128	1.0465090208291	0.919701530588077	0.43024806252594583	0.025983201743495034
7.5	0.14769287188992458	0.5479986507990254	0.9244038952944257	0.7506273178271607	0.7407230470177566	0.03525017693488498
8.0	0.14565965349120089	0.41947519438863984	0.9413978859472133	0.5611961763341428	1.1242093217929174	0.07199178192738881
8.5	0.2510871090426052	0.3476471251372651	1.2203843209699545	0.4358421611219891	1.4287539213461533	0.15585925366622397
9.0	0.7577159116160394	0.38495731305651104	2.119275983698979	0.307165283629242	1.6271732577321647	0.2385302072996299
9.5	1.0747963511216925	1.0577999799419764	3.9249119235495766	0.2060473083714408	1.4313144128338975	0.17358753716537448
10.0	0.909949474101482	1.8593463462567978	4.845913241556253	0.14510458783046365	0.9870713110802475	0.11396631517898795
10.5	0.6422101623580768	2.3823826175613543	4.922924091878841	0.11420601257398409	0.7042308062516871	0.07763400997197668
11.0	0.4491406142590755	2.6836800421264697	4.473948398263618	0.12901833484390632	0.5315229389155547	0.05558322777768414
11.5	0.3271098326567781	2.781587951310761	3.662348858322717	0.2468336430170585	0.42652030037441346	0.042205703840135875
12.0	0.2521432490964629	2.5484069765310857	2.660943039040545	0.4558045508850564	0.3629042330158945	0.034092694212356195
12.5	0.2064389299769521	1.9454132932286652	1.9130172485000352	0.6639757690778888	0.325382616172538	0.029184903537430133
13.0	0.1786446830494008	1.3498609101573327	1.4438841676237584	0.8246321942369743	0.31009743588385996	0.02630095561471976
13.5	0.1617614095239246	0.9269396629559359	1.1561982104109387	0.9205963104357638	0.3467596321100954	0.02518139960333409
14.0	0.15152958935425742	0.6544188962900526	0.9826685826436575	0.8672653342322663	0.5415408723782836	0.028179487491703965
14.5	0.14562666057154533	0.4844560526279151	0.9068827239104845	0.6606914247888508	0.9100477494592828	0.04618037703226749
15.0	0.15688811538800104	0.38194225760560846	1.0259130809310981	0.5003841678471386	1.2688574314665424	0.10254252150594886
