# Time series from syn_net_6D_20191104_a_hillmodel.json, output to pipeline readable format
# Generated on 2019-11-18 18:52:21
time	A	B	C	D	E	F
0.0	0.5227821153462021	0.6006049730828379	1.0665917579357342	1.916190736077206	1.8259808198140766	1.3571381457335518
0.5	0.6191934653154906	1.1203445139851236	1.577856494748904	1.2608820493868882	1.9332388086242178	1.3342650194282841
1.0	0.6747279045556448	1.734312501919916	1.925757007050326	0.8649791131059473	1.8159408288434813	0.9293344186957937
1.5	0.684648242747873	2.195325564972039	2.1722810599509983	0.6308799400780923	1.5929629735536532	0.6144985893416178
2.0	0.5973333569821604	2.509683082492467	2.3685340619910082	0.5212105056537649	1.2014800811152786	0.4130209139069249
2.5	0.43428371687342787	2.712059136946407	2.3532255173499808	0.6238641499706906	0.8449817536892265	0.28791035896354866
3.0	0.29504049225410234	2.7987896792548765	1.8966872133750465	1.1179403907442773	0.6046482561780383	0.21100178621708582
3.5	0.20193760164238697	2.623970095882644	1.3027924642250885	1.7953415313438745	0.45455966187809255	0.16456858379883016
4.0	0.1436094169828996	2.017463224801584	0.848939353766544	2.3620810663912213	0.36269737133401864	0.14158178175123445
4.5	0.10816638203138355	1.3844044809896294	0.5527378139203614	2.8121723306765767	0.30748608371018094	0.16608070487576138
5.0	0.10317994276080042	0.9535991616317624	0.36802751230271863	3.220602310046734	0.2869465588255163	0.3589575998718847
5.5	0.27668815722675666	0.6865034029076946	0.3053013514976254	3.22304713177003	0.5960286313228739	0.7852012060220811
6.0	0.4645559121400293	0.549931578364288	0.7986765257185364	2.308195827086247	1.4833687482350562	1.2187348037929924
6.5	0.5836981124867763	0.8521487432696983	1.3807937018398722	1.5025165931992928	1.9600301939002296	1.4280781065232184
7.0	0.6553408637256801	1.4857877715673082	1.793344368016036	1.0103589280455294	1.8708275155855003	1.1026530710365217
7.5	0.6883526176923583	2.017893934314271	2.074198377305309	0.7155037275782923	1.7125115504770037	0.7335315351717577
8.0	0.649668594166029	2.390302872154915	2.292438700025468	0.5516468327325187	1.3780005782179978	0.4879763792638312
8.5	0.5056111063435255	2.637790544242752	2.410294451428723	0.5398939881942973	0.983782783051431	0.3342596560755565
9.0	0.348883585318101	2.7796015477770655	2.135764548731298	0.8596741056750338	0.694495232423567	0.2394168676988256
9.5	0.23677140658231385	2.750909805933512	1.5482154984928291	1.5085521656155738	0.5101143188141432	0.1814971923021175
10.0	0.16521767483045802	2.312541754138188	1.0220701506978778	2.1381728036332937	0.39657748977885254	0.14830594255234622
10.5	0.1211013482291006	1.6333466348659158	0.6632835983614487	2.6264326688319874	0.3275945264554235	0.14503506536348346
11.0	0.09699656774161583	1.1143342483999246	0.4363536917335475	3.0597573207333673	0.28871942939006234	0.24413818738828544
11.5	0.18123100246432725	0.7851137128006654	0.3013647473487256	3.283658560327151	0.37353301353135326	0.5858107913665543
12.0	0.3933550550824178	0.5864693690739927	0.5306058220281877	2.761062978844445	1.0667576545305386	1.0461029576193768
12.5	0.539638805795482	0.6451962505334978	1.1504239572412691	1.8018171881965968	1.8932649898604192	1.391311830348479
13.0	0.6293493286777314	1.213368547151237	1.636423055254661	1.1913516713745902	1.9187542575076375	1.2815177143048335
13.5	0.6796086045683349	1.8103624812437256	1.965385050250557	0.823300364356303	1.7945110622640434	0.8763449565298962
14.0	0.6795732377523553	2.2482190371616633	2.203377932953803	0.6074633967952725	1.544147658406612	0.579701687445638
14.5	0.5759532786420508	2.5448658026195647	2.3877548662870396	0.5183122008761553	1.1442280270452954	0.39128205674234573
15.0	0.4116377754382216	2.7325330727826396	2.3132514550276557	0.6691032475435148	0.8038152018054233	0.2745041392376554
