# Time series from syn_net_6D_20191104_a_hillmodel.json, output to pipeline readable format
# Generated on 2019-11-18 23:34:51
time	A	B	C	D	E	F
0.0	0.13254029909556145	0.14907516560004316	0.5227737605485524	1.0738957291169642	0.44272001537090716	0.2982101466550987
0.5	0.11856212005349005	0.12033823662426904	0.40450290771086833	1.2908928722892559	0.4397471706486018	0.7031353211585831
1.0	0.5944729700474595	0.1028782551863691	0.3340727499970764	1.2088840291672946	0.8665577632441149	1.430055005874388
1.5	1.295705970114831	0.09228213894865982	0.33931811076793117	0.8123159649210588	1.4540748172762086	2.3232126027356603
2.0	1.7688264346294078	0.08587201135007377	0.4663906513721634	0.5133600171520687	1.8455261370446896	3.183133957342506
2.5	2.061233205198136	0.0820781684290961	0.6243796636931479	0.32699118066724525	2.0869105600285582	3.8989274187800094
3.0	2.2397285582052886	0.0800865056341288	0.8031561755901473	0.2128827610651578	2.234147943754006	4.440824607993136
3.5	2.348349045970144	0.08055422411116836	1.160425182454567	0.14329449846914008	2.323711877483535	4.803142305172058
4.0	2.414333939989733	0.09483842839918163	1.740031441194951	0.1009172328725286	2.37810334407932	4.790412229911306
4.5	2.453906395577434	0.1562152495285963	2.265086749467462	0.07512777264561665	2.4106396009047013	3.6767550514202525
5.0	2.471751078355375	0.27170852440002663	2.631038553077622	0.05944209581981933	2.423578637896059	2.3198423000988746
5.5	2.4187636168820665	0.4060021770543259	2.8580899511617215	0.04994479677290163	2.365859467684891	1.4311208046656443
6.0	2.0390308824192744	0.5211521424343729	2.92307796878111	0.044632214351149196	2.0220950031011395	0.887232073391868
6.5	1.3727161730585367	0.5671572626889672	2.642176591052562	0.04614729871220334	1.4448699342562554	0.5567026472766318
7.0	0.8507007243520509	0.4923816390431051	2.048390309448935	0.08729417119208678	1.0045073097390904	0.3563231601400908
7.5	0.5197663151849334	0.3616554246302522	1.4340483461309594	0.24997880624936314	0.7391598351241434	0.2362311733989091
8.0	0.31744497027715596	0.2543735478865398	0.961247855037251	0.5283517798992217	0.5831122266412482	0.17262184156565016
8.5	0.19457072722638105	0.18491388252479893	0.6707974056890497	0.8454262600400397	0.4896256072901697	0.18099235756798263
9.0	0.12121918765689875	0.14217009592167135	0.49433766852673516	1.1240731265375767	0.4343031286723495	0.35239460594140587
9.5	0.1518201707993998	0.11614018195412566	0.387261779080249	1.3164792867866317	0.47269560841474245	0.8245502974138548
10.0	0.7461568548439385	0.10032962702214519	0.32575878410429293	1.1347925920664552	0.9952724086318313	1.6014949610767593
10.5	1.4079774383139647	0.09073699967895338	0.3572933625923904	0.7419064059570613	1.547120408023973	2.501889804466817
11.0	1.8389051420355327	0.08494455880712107	0.4976461140052179	0.4687586395877138	1.9034024750284702	3.3387644153428098
11.5	2.104098917156127	0.0815525249507434	0.6559344236810339	0.2996102884537908	2.1222766406164526	4.020610034981102
12.0	2.265831286978018	0.07989630155290012	0.8525035025893722	0.19617095137404017	2.255673783388464	4.527943447324145
12.5	2.3642179510497345	0.08148503856527058	1.265825928460452	0.1331139755448663	2.336794406152411	4.846825267551271
13.0	2.4239471317484718	0.10222828076888132	1.8557319504478458	0.09472058374790257	2.3860242571526085	4.671549150032364
13.5	2.459380091726845	0.17568278801599438	2.350387506464024	0.07135779202394131	2.4150727428980034	3.3764152951272317
14.0	2.470888922152076	0.2982224622152311	2.6864672196618646	0.057151519660965204	2.421617796929741	2.1076844165735293
14.5	2.380948880684875	0.43158932848785214	2.887227304113055	0.04858076503106983	2.329321827049938	1.3004728150411002
15.0	1.9114608285759365	0.5380408549100553	2.9020372677014876	0.04410581210241069	1.9105761017766127	0.8077537090005987
