# Time series from syn_net_6D_20191104_a_hillmodel.json, output to pipeline readable format
# Generated on 2019-11-18 21:59:55
time	A	B	C	D	E	F
0.0	0.046948500923734884	0.6099057394519994	1.3907080556803981	2.772256256818764	0.8522951775268	0.09807009987487213
0.5	0.04604814139843651	0.4863636445706758	1.2848901844580853	2.8372234944413375	1.0169073604925403	0.1894224763866619
1.0	0.04703172961499119	0.41024184639583267	1.2659891917621713	2.6778284798587584	2.119137835719096	0.36705992262680687
1.5	0.06728657084139175	0.36420973893181535	1.2985868655889008	1.8475542653623873	4.497549675004541	0.5996450679806384
2.0	0.15263796545310368	0.3439209963236337	1.8770129320382438	1.2198322753215556	6.323940914573244	0.826387557008998
2.5	0.2661907296022993	0.517365898858115	3.669493051506774	0.7765572480207803	7.456155067244481	0.8432309537294544
3.0	0.259868673641835	0.9572263238863054	5.348021012492754	0.4990812787463148	7.578308158023119	0.5649225676923659
3.5	0.1890642005032556	1.3105681336752815	6.38880141164244	0.3369442916350458	6.142757217564192	0.3654928466457695
4.0	0.13394101692599528	1.54014931037332	6.686904543544608	0.26757563119528527	4.267643213641729	0.24247644654312928
4.5	0.09900170236173081	1.6763421876843045	6.148872659924553	0.3158663311989591	2.7785746599566714	0.16745254021148168
5.0	0.07760903962629404	1.736882032296367	5.245307099355772	0.6772460708066099	1.8061920495096344	0.12182221855548984
5.5	0.06460124068475302	1.709626994362699	4.166155097941606	1.365895247812421	1.20529914373616	0.09412794147639789
6.0	0.05670494971584389	1.5126896318250176	3.0753046748155652	1.961719423342265	0.8496009913911927	0.07748112603702015
6.5	0.05191388137856844	1.174174126069944	2.261112223459995	2.3575339242013342	0.6847280382378282	0.06829842583608771
7.0	0.04900752327765695	0.8637972705915576	1.7213167445166055	2.603301710592332	0.7049799396290687	0.06748792908703588
7.5	0.04724561334251284	0.6476107057387858	1.431127185948316	2.749261635204001	0.8230114985850773	0.08742293579201459
8.0	0.04619927933540209	0.5098605779766168	1.3003620099617503	2.82758628818993	0.9609223001556704	0.16079870640620486
8.5	0.04629820774349392	0.42459661501025053	1.2654496687397117	2.7872951533714527	1.6777248653572623	0.31924112878439037
9.0	0.05845198797634715	0.37279442732053286	1.2817019278014825	2.030732903596218	3.9677328144180906	0.5442544499846018
9.5	0.12647568477890764	0.3444151285299294	1.6107641668415422	1.3466105485121687	5.970430225770769	0.7786074785842371
10.0	0.24585404368532254	0.43899296352711975	3.2213800833440747	0.8623965798086018	7.252055054131797	0.8854718333548842
10.5	0.27261095905230043	0.8573384553180596	5.0143726840639635	0.5512294329762177	7.703534868605036	0.6250198150743027
11.0	0.20495810852929258	1.2410702365211514	6.208183348335082	0.3659079696088455	6.556864244439135	0.40348810609385755
11.5	0.14464916896091998	1.49652892163817	6.695822237996373	0.2752374617721445	4.684044152054402	0.26572796224722695
12.0	0.1056302637020877	1.6519789262359388	6.32958312439889	0.2882768735254707	3.072578884505777	0.18161079165190175
12.5	0.08164901103180405	1.729448309651287	5.459399786235258	0.5522650842362173	1.991742559421771	0.13042703062951805
13.0	0.0670551611732765	1.727242766379509	4.440509622903238	1.2034324580404332	1.3185580252559623	0.09934248190955398
13.5	0.05819415151367347	1.576038211449077	3.302813147294505	1.842851252504972	0.9140349664561468	0.08057921300085466
14.0	0.052817361047527295	1.2552317432757751	2.424793036338201	2.2817432781923217	0.7058278155555205	0.06981494127574629
14.5	0.04955553971564887	0.927346508218866	1.8215240198065212	2.556987985663707	0.6866239081079436	0.06657444996789129
15.0	0.04757751958264126	0.6895182033738366	1.4802073089018453	2.7225138527963315	0.7937179942785294	0.07959151646080294
