# Time series from syn_net_6D_20191104_a_hillmodel.json, output to pipeline readable format
# Generated on 2019-11-18 22:46:58
time	A	B	C	D	E	F
0.0	0.09819500023627897	0.31420150934940766	0.7464461929667942	3.029866769105304	0.09295612138210618	0.45643657682410244
0.5	0.4045685126536546	0.25060798255435884	1.6135869591688645	2.397705649066411	0.2850643228945885	0.5972826602972867
1.0	0.8796550242624861	0.23971682076796602	4.9915159965781335	1.6287642639908402	0.5829223146437893	0.6913260941162568
1.5	1.3027587697781198	0.6223870806494419	8.350467355874953	1.0511899986523794	0.6703498091615631	0.6752687825155702
2.0	1.1773887504706362	1.5451266796914993	10.935643621946959	0.6809917328153203	0.5876062814467232	0.4546658180185112
2.5	0.7882455300383658	2.430144075145688	12.483550263265288	0.5068907703668675	0.4125356326293534	0.30707377398202146
3.0	0.4912434859460875	3.0556514785669626	12.721168516869598	0.5050160676385315	0.2697947811418708	0.21726227013418173
3.5	0.30162281119124507	3.349936135870689	10.904806302788735	0.6525577208875383	0.17686905012990362	0.16275475279147292
4.0	0.1848768320235591	3.0585452743218893	7.728352546755518	1.133582245999792	0.11932290056403223	0.1296939799376857
4.5	0.11366195593736199	2.192156550768199	4.99832985411221	1.78652418500487	0.08414228614819182	0.10970833332360272
5.0	0.07034849203354641	1.426877421171727	3.210477305819006	2.296169293243837	0.06272272007586398	0.0982218882431271
5.5	0.04404292314185605	0.929746634930357	2.105650467283134	2.6295667865392827	0.04971085585336488	0.0967005069809673
6.0	0.02817881112898187	0.6244606988272785	1.4307403993428622	2.837513738936754	0.04190782116937375	0.13042240151097761
6.5	0.02181117227747176	0.4388252256850286	1.0197047636312087	2.9651827318482513	0.03960018627464009	0.2548737035982667
7.0	0.0759072630237588	0.3261613253316828	0.7709513739684138	3.0335375074832154	0.078131209222186	0.43252004222164653
7.5	0.3461383778678871	0.2578274491877201	1.2496695800379918	2.5266957478116883	0.24865798529435537	0.5801848353669984
8.0	0.8090561167593602	0.2315292386245736	4.496019631194955	1.726440021810996	0.5440125945893466	0.6806062502496062
8.5	1.2625857735487644	0.5236667222112958	7.901038170649256	1.1208083443517736	0.6695168645555567	0.6995301431715506
9.0	1.2275410393963113	1.4050111074107674	10.631272114589894	0.7218364487927625	0.6088975573367638	0.48220243707443833
9.5	0.8404772301893741	2.3181812146308216	12.32699160201575	0.5195132311326827	0.4370347871730855	0.32393733313387846
10.0	0.5262912338220862	2.9842158079948575	12.802934978967597	0.49795878165790775	0.286861080865119	0.2275025701494321
10.5	0.32344166845612327	3.3345574907132276	11.284398067441625	0.6157255606068573	0.18760182670499034	0.16896786498234392
11.0	0.19822764547306204	3.148508317923986	8.188352356880344	1.0440615600453453	0.12591269196944946	0.13346070949667774
11.5	0.12179080833052715	2.3213494364282496	5.326810349221782	1.6985739349949227	0.08816053636189379	0.11197218909010614
12.0	0.07528897546768291	1.5185983140331936	3.4167383189451765	2.2351901363656816	0.06516670143648509	0.09940176636472865
12.5	0.0470407904080272	0.9869093301119232	2.232086729101045	2.590919762872288	0.05119307256155897	0.09583069326694355
13.0	0.029959598039285388	0.6593132910163472	1.5078261006952276	2.81363599135419	0.04277356664314001	0.12116302000690798
13.5	0.02156288106709876	0.4599893050416239	1.0666165955005529	2.950611227527106	0.03915698058917014	0.23141545388465873
14.0	0.05850142040057342	0.339002186719297	0.7987199930423268	3.0298587976366393	0.06629872436201541	0.40784824007109743
14.5	0.2919135461251821	0.2656072825811688	0.9799673659251514	2.656904859178513	0.21506977932797686	0.5621028485808679
15.0	0.7384751483366997	0.228762145528152	3.999802771354825	1.8273164728310773	0.5004611689561476	0.6689615840169165
