# Time series from syn_net_6D_20191104_a_hillmodel.json, output to pipeline readable format
# Generated on 2019-11-18 18:59:55
time	A	B	C	D	E	F
0.0	0.0804513305943537	0.6376211228419766	0.753986930948445	0.5376970011722008	0.12518942231745742	0.17779488030738766
0.5	0.469433882252544	0.48069249760598537	0.8931549279371365	0.486045046005074	0.8352537324642184	0.3155468118931865
1.0	1.043243278055678	0.705475266217246	2.1053421790040643	0.29702308433460584	2.323850318473923	0.3999918526386398
1.5	1.3582743819363596	1.3689841633137374	3.0643916652545253	0.18024762359282423	2.9331298584614265	0.29847436570309216
2.0	1.176797616906816	1.87126637146648	3.6608331694411005	0.10942757597693627	2.135908461034322	0.1905393273972463
2.5	0.7883605212223356	2.1952013680526403	3.99838164645657	0.0667619652364122	1.3335639289883996	0.12104789394561263
3.0	0.49874286325845285	2.396200142216869	4.00080889547906	0.04807684785514977	0.818410493871208	0.0780599725535872
3.5	0.3168333265847563	2.508288029593837	3.3861645090996335	0.10797787476996469	0.502866860072356	0.05170347468870424
4.0	0.20577935579390447	2.511491174911311	2.5130983136574727	0.25248454091207917	0.3109350242907995	0.035633520236271435
4.5	0.13832725302940915	2.283672222919629	1.830180534341426	0.3706645825707246	0.19523057373556563	0.026058958819417506
5.0	0.09740085239857846	1.7992612385601323	1.3760907404583917	0.4459224392883408	0.12913175959833426	0.021482034118876208
5.5	0.07257716302796897	1.2926934887972945	1.0792290515275857	0.49195016539518444	0.09874684016459459	0.025771743154048288
6.0	0.05767235291828572	0.908558067782934	0.8857327749278358	0.5199172234666225	0.08843491228808809	0.0624561536716453
6.5	0.07338384084635145	0.6506081255785102	0.7602808488377772	0.5368785530043744	0.11554465520928675	0.1690224056274952
7.0	0.4318782708763837	0.48756682560488684	0.8425027950219226	0.4994886003742878	0.7527925098467966	0.30734049698696475
7.5	1.0111356340961775	0.6668736897000059	2.0294930593388623	0.30667380023475227	2.2346960722596476	0.3998083188107873
8.0	1.3518313652663918	1.3297484529280321	3.015190805133545	0.18610345199424597	2.9500700700768556	0.30670590918374546
8.5	1.200357353123663	1.8450595881981393	3.6311093217189327	0.11297637393124901	2.196349247829223	0.1961863117657427
9.0	0.8111812308448908	2.1786750576226823	3.984177373474177	0.06886068455963743	1.375632649126124	0.1245735208066181
9.5	0.5136470795155665	2.3861780660371466	4.017655961062317	0.048002202843868365	0.8444075759673367	0.08022788726975151
10.0	0.3259920938220465	2.5037025053011193	3.4402200944568757	0.10032411252952392	0.5187134206862691	0.05302937915507646
10.5	0.21134916288271435	2.516464029374644	2.565465307507164	0.2433699090808063	0.3205506843715981	0.03643790021236468
11.0	0.14170770450678222	2.307477431639008	1.866266701958248	0.36451781731603344	0.20095463365263114	0.02652040138282671
11.5	0.09945158295172467	1.8335662790789646	1.3997204760871875	0.44213029098992046	0.13216544685550036	0.021603762904755047
12.0	0.0738206704771769	1.3219597138712327	1.0946593399219673	0.4896425647021689	0.09990054515581694	0.024950884882126267
12.5	0.05838247397847006	0.9290459166183405	0.8957669772208449	0.5185163528988044	0.0887733822144507	0.05822786711696379
13.0	0.06785412224065224	0.6639565014969342	0.7667554031312926	0.5360324095082901	0.10802667668383688	0.1603927261854856
13.5	0.39518761647087614	0.49514103794529063	0.8009989502335527	0.5118113421533742	0.6747434904979297	0.2989979637150582
14.0	0.9780906306905577	0.6306481137121213	1.9521388509896278	0.31662614749729495	2.1426749142269195	0.39840689907793336
14.5	1.3431441048162964	1.2897394409624288	2.9645177601761725	0.19214297825588275	2.9594795486096195	0.31502515769971967
15.0	1.2229989464599753	1.8181300348848533	3.6003909348299037	0.11663708534195837	2.2572502362144524	0.2019957567801517
