# Time series from syn_net_6D_20191104_a_hillmodel.json, output to pipeline readable format
# Generated on 2019-11-18 23:00:39
time	A	B	C	D	E	F
0.0	0.30265890033737497	1.457546294947842	9.334674441965879	0.16435111967757193	0.7972892492954408	0.21578168436545708
0.5	0.23002362461907097	1.5593074292769173	9.452862157084576	0.17680943961285397	0.630934450695477	0.1358092882125459
1.0	0.18577551333000428	1.6210348738525073	9.383731404249064	0.40230644526197346	0.4575123342615383	0.08705163388289626
1.5	0.15891834321079215	1.658024042024334	8.006324431861328	0.932286992130412	0.333788101933033	0.05735993306797023
2.0	0.142626503779352	1.6749671759524476	5.615407811693927	1.5367938413772524	0.2562924667594882	0.03929358788505078
2.5	0.13274473425457206	1.6540277903534246	3.988762477446781	2.0421212497451435	0.2089690903732473	0.02833676454768524
3.0	0.126751095323351	1.5365906258112731	2.982061393150405	2.415839142243303	0.18023443973733153	0.02185442797969614
3.5	0.12311576090858727	1.2944484532428073	2.366708553661039	2.677311185540942	0.16288381974437813	0.018708707512444498
4.0	0.12091081784848143	1.0122354270958098	1.9917706774976982	2.8549463086830627	0.15272797564780363	0.020100934732110182
4.5	0.11957346817662515	0.7720234012174406	1.7635880272401308	2.9734664275401137	0.14810185950900778	0.03411566280158762
5.0	0.11876378442554568	0.5950158339531492	1.6247901158526024	3.0513812559925673	0.15287845466555888	0.08671603273826665
5.5	0.11844252916076864	0.47288461009362653	1.540390890833214	3.0917879036109817	0.279661155478247	0.21915829999433153
6.0	0.12475582150357944	0.3913434229008434	1.489766211598598	2.7032734353474748	0.6373150648296965	0.43166104233075764
6.5	0.18767986683783094	0.33829110540276164	1.4701924113574043	1.8357292330060822	1.0739193071568385	0.6630516504420397
7.0	0.36082773754890873	0.3097208615505032	1.59566933366141	1.147806129136245	1.5227324069227133	0.8587294724191181
7.5	0.567520666506892	0.39898033868065474	2.714459295641117	0.7084772019120981	1.73882780458745	0.9589150366084523
8.0	0.6350597104601118	0.830746230156391	5.484032410335079	0.44111510531629206	1.363603361263304	0.6991328266859106
8.5	0.4935714920783614	1.1741800434808702	7.904550012112942	0.2803249146436137	1.061807371345227	0.43662240722609913
9.0	0.3525733595575392	1.3868303437573497	9.111646753645287	0.18841877969747967	0.8705551784391677	0.2711358607695234
9.5	0.2607467611697532	1.5163604402896853	9.430889297440169	0.1566458792391025	0.7164339538983467	0.16961257391210316
10.0	0.20445337807448577	1.5949949247081494	9.440973147827426	0.2527149954012543	0.5370509527106859	0.1076510753430586
10.5	0.17025154529787384	1.6426089706261557	9.011862125292824	0.6487789185788015	0.38688223335669597	0.06990146040830394
11.0	0.14950096548955236	1.6695910051767504	6.696521522535541	1.2503980812670965	0.28910439156220663	0.04692217680194623
11.5	0.13691437685756908	1.6716676561050543	4.681699397593883	1.8140791588802083	0.2289529339556396	0.032953300183148224
12.0	0.12928012394261262	1.6098834451117545	3.408152733125116	2.250698388216016	0.19235658159281377	0.024540144140576762
12.5	0.1246496988676413	1.423677500529656	2.6267820779121043	2.562991344705463	0.1701814336337917	0.01981862336333573
13.0	0.12184119914147726	1.1470523139333757	2.150157001711896	2.7777582333621575	0.15691175303000926	0.018610556389040616
13.5	0.12013775988056895	0.880567734201644	1.8599602256661538	2.922180852089074	0.14963592798589784	0.024694747629808472
14.0	0.11910471352515123	0.672998531969047	1.6834054116792843	3.0178311150844563	0.14843773142654415	0.053812861067394635
14.5	0.11849663413216163	0.5260372958746876	1.5760276814613907	3.0795276612703564	0.18097566769209283	0.14323288649441912
15.0	0.11945549843381034	0.42659239044233177	1.5108356849218014	3.0083254306116607	0.45041177872598703	0.3219779796594648
