# Time series from syn_net_6D_20191104_a_hillmodel.json, output to pipeline readable format
# Generated on 2019-11-18 19:45:11
time	A	B	C	D	E	F
0.0	0.14025127549868088	5.624609432088728	4.617025990087117	0.425213299579145	0.014658427167425558	0.2595044419872601
0.5	0.10052801119238303	5.623391147789378	3.880289314776967	0.5473845512307232	0.012586394497575275	0.23871134538820238
1.0	0.07624825678496627	5.327885397215378	2.9167960239625517	0.6258955331698701	0.011335313927174302	0.22629189603139682
1.5	0.06143774966562394	4.393652298209367	2.098706396949265	0.6743843983694685	0.010620999046468562	0.2202576879692781
2.0	0.052450892932429216	3.11099503325052	1.5255948690836278	0.7040086666584358	0.010506958886940474	0.22719443137014278
2.5	0.047488120628805315	2.0672129857664685	1.1521390658076611	0.7220423597277885	0.012972435562890025	0.307230545386868
3.0	0.06887319785143588	1.3693099039643473	0.9368296041747846	0.7329468906259033	0.03337701359294034	0.6837709836047895
3.5	0.40131858836735146	1.0331763371186178	1.7562084021502284	0.6471630686531182	0.12816966740164404	1.3211767354955855
4.0	0.8406586588071429	1.5651891776040467	2.6471259107931213	0.4277199371608285	0.17382113055278986	1.6287342591047103
4.5	1.0843246828187956	2.706611385070485	3.4421763583280867	0.2909706256285431	0.11817224877950651	1.2514572764881384
5.0	1.0245702787221393	3.7470099233882843	4.038938087284853	0.20838936435376992	0.0761982531748724	0.8627086907776004
5.5	0.7507626627406961	4.489669010539666	4.42535824940514	0.15877566405083812	0.050092301485088433	0.6099136749356334
6.0	0.4970986504977644	4.981949145871179	4.66436687484635	0.13229454493381812	0.0341393914271661	0.4531770884151675
6.5	0.323485134242403	5.299268809078393	4.807541071401379	0.1430414006486785	0.02442711962779841	0.3569888033895816
7.0	0.21352219381475668	5.50026990370991	4.864739797958514	0.24835508692446712	0.01852133441534427	0.2981647038093614
7.5	0.14547802948389735	5.617440835110235	4.664650585568456	0.41009949739199125	0.014932111261800404	0.26225020264628157
8.0	0.10372689731846235	5.631705887089351	3.9728442723910478	0.5371911065549688	0.012752397814632001	0.24037678228502984
8.5	0.07820149769724816	5.382591181413874	3.012086059761419	0.6195260174716346	0.011434657860894318	0.22725665690988953
9.0	0.06262783879715682	4.516845828437616	2.170362960591152	0.6704793260220508	0.010672032633184614	0.22053279254379987
9.5	0.053166836029626026	3.2359396372016174	1.5735442184043167	0.701628391889756	0.010469334032327646	0.2251068704459038
10.0	0.04778006523182352	2.1564635292508503	1.182767342218507	0.7205948292538622	0.012398165502706263	0.2906021144731892
10.5	0.06057472190168516	1.4265086069944506	0.946267590625962	0.7320948086296062	0.029163064926522805	0.6266068787522897
11.0	0.3522733336647213	1.0364009049702532	1.6542946012202526	0.6722231525190766	0.11507580895017884	1.2603528761756058
11.5	0.8032709734191819	1.4692469622699238	2.5611894749517945	0.4458465503179868	0.17764162770981584	1.6345188043892243
12.0	1.0717350980402802	2.5875968453014986	3.368753077064058	0.3019095392934849	0.12353062031402366	1.298026421166772
12.5	1.044954961158319	3.6549249434760065	3.9888930061806116	0.21500106322067294	0.0796269881837656	0.8954695033641372
13.0	0.7801330853631417	4.427048785555121	4.3939417912688645	0.162689676677395	0.052196694091564445	0.6304675370500955
13.5	0.5191429650652232	4.9411504028916005	4.645149053261719	0.13387602856940514	0.03542206170174104	0.4658324014979683
14.0	0.3377903983589399	5.273185283748004	4.7964954784128295	0.13867659008809088	0.025207413438136605	0.3647380407831954
14.5	0.22244428112963194	5.4839666091881325	4.865142670136916	0.2330057139421837	0.01899566321009687	0.3028993123745807
15.0	0.15096937052914386	5.609304189497789	4.706666813058347	0.39454217593095176	0.015220317738876917	0.2651387647050171
