# Time series from syn_net_6D_20191104_a_hillmodel.json, output to pipeline readable format
# Generated on 2019-11-18 21:35:40
time	A	B	C	D	E	F
0.0	0.3696837882431939	4.101607232073079	4.338702153573459	0.42839791538161576	0.6828610680936117	0.6914947441463696
0.5	0.2552887143221326	3.9422987636009506	2.8281736498096866	0.675641395180415	0.5534958782124428	0.49110620524235127
1.0	0.18538032789138864	3.0238103835945687	1.8862236751954558	0.848512126040746	0.4748291091567263	0.3832905113598099
1.5	0.14292372202075176	1.9815096372444356	1.3040256889234398	0.9577710478104139	0.4285519290363781	0.43277880410719005
2.0	0.11876473557482804	1.2410777531359243	0.9454920812502422	1.0250549688156083	0.41633916158202283	0.9073804585503941
2.5	0.13889298560547494	0.772863856286167	0.735322209736082	1.0653651319702122	0.549969492816936	1.5724353016238617
3.0	0.2701215812117095	0.485175073229957	0.6309807345501189	1.069508827324999	0.996611983792822	2.051625744653156
3.5	0.469281157910338	0.30979185171217954	0.5901036423410806	0.925928913821758	1.474303542159232	2.3503199892860684
4.0	0.6605931621506984	0.20358686586634434	0.6675604247477798	0.6540647036210556	1.8206886075734394	2.5322935534391386
4.5	0.8140549424343232	0.14313779876508279	0.949895251898814	0.42595718058083415	2.0498794385553456	2.642753377752647
5.0	0.9274210925163094	0.16875453438337323	1.7352121633507231	0.27289626003333006	2.197463041407326	2.7097590233839814
5.5	1.0069584041721613	1.097652679859721	3.849598737246241	0.17591727802785492	2.111624750997683	2.7296395197363506
6.0	0.9824716860397822	2.4639532865247005	6.297277832989312	0.12266425016753044	1.5362680965603162	2.108817133967046
6.5	0.7431716014578559	3.35357770208785	7.125316424623239	0.11963137555394225	1.122908617090241	1.3928562786238006
7.0	0.49992435982533734	3.887973445290669	5.863450325670784	0.23839174586822276	0.8315487759461339	0.9239707288662956
7.5	0.3362595611451192	4.124442311296588	3.9026055842197684	0.494310662635639	0.644988759402911	0.6325083796314621
8.0	0.23478844953834976	3.777336970402466	2.553440615402429	0.7251701556136627	0.5303837602685003	0.4563397607920757
8.5	0.17291091493795294	2.749690248123587	1.7163369640821866	0.8803296144555834	0.4609129638481584	0.37349588673929246
9.0	0.1354005159537992	1.7697225719045389	1.199135284906024	0.9774637483966079	0.4213862505545162	0.5018286088882795
9.5	0.1167294240691922	1.1046374149800298	0.8817475632917545	1.0370674642915816	0.4258853897025086	1.0769418879182229
10.0	0.1601759415908794	0.6886121850839523	0.7024049521799595	1.0716365179398808	0.6353416023789605	1.710157078702071
10.5	0.3163204540400459	0.4337384167903529	0.6147648876324459	1.0536716269408535	1.1229008693385063	2.139032307806487
11.0	0.5188549652000813	0.27852622278741956	0.5942760204057442	0.8626411430942804	1.5720443149513896	2.403719074193834
11.5	0.702142539080225	0.1849593856951957	0.7150231354171034	0.590849689201057	1.8863890331493598	2.564722390807086
12.0	0.8454058037862203	0.13531707707757176	1.0679884727678	0.3819918805991783	2.092440015203296	2.6624272183062643
12.5	0.9498529607899193	0.24881871660769206	2.117975865214211	0.24467611009361437	2.224395523363461	2.7216823838002715
13.0	1.0193133481421035	1.4708876334163061	4.503882464191973	0.15894323494568394	1.9572552830205028	2.663728658215123
13.5	0.9376066564981664	2.7236889565960434	6.710825624908022	0.11617324236417347	1.4223356778707863	1.9099233770647501
14.0	0.6770362937854747	3.512439373133684	6.9691282264459895	0.1329161037263958	1.0403336251651432	1.256974059184985
14.5	0.45258159515544627	3.976765615996608	5.3626805643922975	0.29452163072984644	0.7772401231818512	0.8388396025195558
15.0	0.3065666952252548	4.1131882465492735	3.510787886151054	0.5576733126223503	0.6114001319303654	0.5803093669734272
