# Time series from syn_net_6D_20191104_a_hillmodel.json, output to pipeline readable format
# Generated on 2019-11-18 18:34:14
time	A	B	C	D	E	F
0.0	1.208638281520554	1.612159680002697	6.333476803226983	1.3727747261072663	0.7291639996886745	1.5372005635105452
0.5	0.8641304607808579	1.7423967587770413	5.898989745478012	1.4896471495018158	0.4688361894405908	0.984691103506822
1.0	0.5455731827523231	1.8147302891516295	4.7783448586751875	1.591452345038499	0.3069015785792655	0.6456754835616106
1.5	0.33510123597487323	1.8137561655899581	3.304152058353441	1.9147223689839943	0.20811886067222485	0.4388587620581142
2.0	0.20518924857035897	1.5877698658984114	2.0993044662121587	3.2134237536199777	0.1484631231864432	0.3173837328558755
2.5	0.12608007218287245	1.1421793396355793	1.315064939478663	4.927404823888507	0.11545767660001843	0.28292786191212016
3.0	0.0785188873340583	0.7824455079838716	0.8358736858971991	6.14175323668627	0.11723769097517214	0.5080874706904432
3.5	0.10841113037816774	0.5533575510819947	0.5460391678521251	6.891828883056465	0.22092347295490763	1.3949912630098273
4.0	0.48899202690193067	0.4132516040360791	0.42389063500623736	5.990114272047421	0.72238038237444	2.704002761274213
4.5	0.8341719300644764	0.3282045435689859	0.44899476329000965	4.2364055221038255	1.4281213715758534	3.8146633907110448
5.0	1.0535368739953959	0.27674404748009224	0.5332483438082655	2.9975144645811787	1.9742358756436493	4.58084980662694
5.5	1.188461944213101	0.24634583526758733	0.77332128671783	2.193371906275889	2.341509982441054	5.0744475978209955
6.0	1.2709010742328228	0.24587006212924967	1.4827147890260384	1.6915474067444138	2.575488317794176	5.382465131655447
6.5	1.3211275938749378	0.4985735951623256	2.865033040585285	1.3828157912532264	2.593276067723641	5.431890379560154
7.0	1.3503386476875439	0.9964853161001325	4.562588347995784	1.2145838876161215	1.8401778527922907	4.031442744064602
7.5	1.3519838611317985	1.3619299585583642	5.8953968130957035	1.2218845615234064	1.1920540242203863	2.5720128102507958
8.0	1.2393155830517557	1.5909235172573086	6.339979407561119	1.3557055647279355	0.7701026554591218	1.6259499638846535
8.5	0.9097355089897639	1.7297788099486553	5.987925420407171	1.4772062332065155	0.494870906930799	1.039314523084669
9.0	0.5788699144409889	1.8086795907615223	4.952138395939398	1.5761961314130193	0.32287664265083993	0.6791154176952031
9.5	0.3560283158943502	1.8211862514744042	3.4789195801565764	1.83850162093487	0.21782801941969399	0.45914717860760906
10.0	0.21798288777430586	1.6340873789237587	2.2246065798094334	2.9978273168492238	0.15425821889098806	0.3284870489706465
10.5	0.13385119193904554	1.196239790978519	1.3925418616467116	4.738010825575981	0.1181503876651725	0.27962601650319485
11.0	0.0830292832525037	0.8190993183277218	0.882985567523812	6.02037535490614	0.11377565503483655	0.45174189210999033
11.5	0.08788545812374467	0.5760038782102297	0.5741116309750318	6.819872595499351	0.19610899699885911	1.2474133768874112
12.0	0.43698620238116215	0.42702798914722545	0.42858946688327276	6.241310032237206	0.635764177044838	2.5449737639566075
12.5	0.7991167107281231	0.33655572077410617	0.4421451521687454	4.424001500499874	1.3472229613668694	3.696587745948203
13.0	1.0318014792351824	0.2817829298845159	0.5185903681090938	3.124618119525883	1.9172324735180204	4.502892836633661
13.5	1.1751526570931692	0.249163665101301	0.7260491546303629	2.2737130936841963	2.3042669033604106	5.025028392845117
14.0	1.262780588032778	0.2412056484539986	1.3580167315007516	1.7412941435155282	2.5525949877243503	5.352371771308655
14.5	1.3161938645560556	0.4420744358185275	2.664881513226226	1.4131006622389397	2.6308718856464846	5.474528438402997
15.0	1.347769874192796	0.9399060913503655	4.358065129853019	1.2271847797424056	1.9393056199597825	4.245426827404573
