# Time series from syn_net_6D_20191104_a_hillmodel.json, output to pipeline readable format
# Generated on 2019-11-18 22:16:20
time	A	B	C	D	E	F
0.0	0.1553054689659297	2.6260203487002376	2.924541013346056	0.4652558452778643	0.13758584387673736	0.12326237321014112
0.5	0.09666535983366131	2.2704393876616162	2.2225184006797045	1.0585570459373381	0.1086440682782842	0.09322984827399489
1.0	0.06109447969005785	1.6790853680843838	1.6848997563280619	1.5452651596100402	0.09410618615441824	0.0769494792094591
1.5	0.03951908433526239	1.133520588165334	1.3526051452813448	1.8559583603086593	0.10572178814846286	0.08149823666194633
2.0	0.026452271425777996	0.7417945426846009	1.1505249148360546	2.045907490892674	0.20479479787983598	0.1937287021160472
2.5	0.03780330423244774	0.4845487840638802	1.0556746630082976	2.1508617910453376	0.522477671150809	0.782279819760453
3.0	0.5704584006906606	0.33235604358617726	1.1931995921402474	1.5900397991768376	1.2126503920542424	1.861458593941381
3.5	1.2128224514867907	0.30050197915003407	1.7111342492456465	0.9722332572564878	1.6783332778913722	2.756476869548104
4.0	1.6245649509691416	0.6820648463124004	2.796375845999782	0.5954717947160211	1.902375892143134	2.81692275929299
4.5	1.8412577448419418	1.4491511595200115	4.538034896024376	0.3675004816364855	1.4516448977333307	1.8060144009179562
5.0	1.7230240922595852	2.037209693119231	6.048261716872881	0.23581774510809914	0.972083721738355	1.1174838641677907
5.5	1.2195573967410658	2.4076232256625305	6.768660497042617	0.17139720324631613	0.6575479663897976	0.6967072797130067
6.0	0.7638695860018998	2.6325133107837217	6.151263595566835	0.14262301869990826	0.4402641167468755	0.44091263942258424
6.5	0.46813540143176713	2.7554251212229564	4.785248044864591	0.1297337330117522	0.29443072566930795	0.28557788193988387
7.0	0.2866872472369932	2.7788425147546665	3.7393797223865617	0.14617564075330863	0.20352177106336922	0.19130301608148034
7.5	0.17638902616437488	2.6767737353492107	3.0730657252711016	0.3439975459362544	0.14814076202421428	0.13415723581127123
8.0	0.10945573475104767	2.3963201214221095	2.407276777054075	0.900298742212332	0.11483428865471434	0.09970204291803551
8.5	0.06885276857079144	1.8412684746370165	1.8036374438721572	1.4353322298864621	0.09645326967868391	0.0799672031621653
9.0	0.0442246975110256	1.2637008886462933	1.425259888525348	1.7878043888671646	0.09773664810208442	0.07638382267607605
9.5	0.02929108503606395	0.8308021263391506	1.1944256912280284	2.004498983148882	0.1660323847483211	0.13925303667904987
10.0	0.02359909437945892	0.5416801209155815	1.062713400612032	2.1336328652450782	0.3764912222326871	0.5554949058915719
10.5	0.3721663663085433	0.3635062567395642	1.147716898687268	1.809352238349935	1.0485657375993471	1.5726939054567548
11.0	1.0668854256310016	0.28749153966315083	1.5113781088532723	1.1074462560307496	1.5763395576531831	2.5574740571154644
11.5	1.5348678557620037	0.5195047289123127	2.4409345777441827	0.6777085842389815	1.8843155915566878	2.9905029926177438
12.0	1.8053413758360501	1.2515558380893361	4.056024857298079	0.4169257746427949	1.6059241192187383	2.049558852695391
12.5	1.8033526247685012	1.9058321483740648	5.711912580346421	0.2630304634940517	1.0804376256436232	1.268408658042919
13.0	1.3628686503782208	2.326381719978074	6.68133737385049	0.183649546500559	0.7289142639278097	0.7885990505494114
13.5	0.8679795244188504	2.5840208037633263	6.453696278711197	0.148302519884943	0.4904398303114524	0.4967397369166465
14.0	0.5331444620509228	2.731913663461189	5.13446938349989	0.1317766936255995	0.32680964417880376	0.31947175829347246
14.5	0.32632371747062483	2.7837042832960215	3.9735507672319006	0.13512100921534745	0.2234195705268967	0.21186764906753536
15.0	0.20045602657135558	2.717157678101969	3.222979042442881	0.25494819030847243	0.16020988539355074	0.14661037653966602
