# Time series from syn_net_6D_20191104_a_hillmodel.json, output to pipeline readable format
# Generated on 2019-11-18 20:35:43
time	A	B	C	D	E	F
0.0	0.25586640997783006	0.5629656646013943	0.2869443953620616	2.804190724317675	0.31139524905507493	0.08210067757124953
0.5	0.23630483718808667	0.3766221184777287	0.19575756334399927	2.937948393471143	0.46967411366342887	0.09067638994526715
1.0	0.22497894908777924	0.2629369599369737	0.14441057942090232	2.6023479379239087	0.7409735905369154	0.1818531516426731
1.5	0.29565456249356464	0.19389705885017314	0.13673672939226175	1.9670033141950916	1.0563991459388105	0.541942309514096
2.0	0.6924114217792071	0.15345963129334658	0.38391864592317126	1.3953564415299435	2.4168663485757356	1.2612783702330703
2.5	0.9868083026665732	0.278208437410525	0.9290600931809917	1.017431531325098	3.686988020568185	1.5691908990639623
3.0	1.1593537489348127	0.7602272513931129	1.3707626285129995	0.7672011021239512	3.213729137349935	0.9971322869983332
3.5	1.2015064368787487	1.1911385940761599	1.6711403466304051	0.6021380311222639	2.2030220246719208	0.6291059204307838
4.0	1.0172333192624807	1.4834908401253695	1.8402493252062606	0.5182976919882356	1.4546043971047835	0.40560662437935513
4.5	0.7424392423040302	1.6646082718328268	1.75438467800324	0.5462695724514804	0.963605538381519	0.27001223637423094
5.0	0.5383816155659988	1.7413271778105206	1.3685943681602082	0.8347397741151081	0.6603561622433006	0.1877610482808414
5.5	0.40889496988928525	1.6142538273094365	0.9378554217914106	1.4603905672097393	0.47573008077635504	0.13787433586093284
6.0	0.3293845471156971	1.2050039851162797	0.6148607264354167	2.0948023048156963	0.3645290872393374	0.10765266969890532
6.5	0.28095092277456835	0.7968774205448911	0.4016307744281902	2.554795317853436	0.3050613340615131	0.0896516537269914
7.0	0.2515202618519438	0.5217605090708389	0.26678401589197526	2.8457908665127887	0.325654404526515	0.08156503252266126
7.5	0.23367784029492888	0.35139488478698006	0.1835598582720474	2.922128058605172	0.5167840466036394	0.09750496367184619
8.0	0.2242000871829889	0.24760385010032665	0.13923394245796009	2.4909372621152026	0.7885437750832849	0.22065402005359797
8.5	0.3574751395376027	0.18459784069546387	0.14679496936963585	1.8508256560381202	1.2009667247607867	0.6509492242633093
9.0	0.7572796820225189	0.15108132736935195	0.4788266091211175	1.3132655482546305	2.6986862738100883	1.4068286389772657
9.5	1.0264391108455002	0.352510361892807	1.0215035515418565	0.963939091403602	3.7918240263085377	1.4573337093522172
10.0	1.1790760637033852	0.8493139925738324	1.4352004132872367	0.731258985525601	3.0109465057627176	0.9154891696444998
10.5	1.1859875838652751	1.2543689713320654	1.7131925124277902	0.5802781010684838	2.0458740552681776	0.5794686932769477
11.0	0.9658612818420438	1.5241052066900334	1.849161367975451	0.5132710519050945	1.3470647929313102	0.37548902514636856
11.5	0.6986384356763559	1.6872649505583706	1.701020990438502	0.5722664190286308	0.8964527802730037	0.2517423836799783
12.0	0.509857937477472	1.7389616745879337	1.2854917892077724	0.9305441480087887	0.6193609307827564	0.17667923059428614
12.5	0.3912792177183864	1.555449070685949	0.8695819448236962	1.5855109043450977	0.4508777208442405	0.13115495037272545
13.0	0.3186371454690158	1.1220981746467966	0.5685189991522118	2.192932266169344	0.3499533270639805	0.10359751640129682
13.5	0.27441645050230307	0.7367790862236521	0.37202837533744004	2.619748814723057	0.30049453066710513	0.08737440968795986
14.0	0.24755330871649986	0.4840445116994446	0.24831642419254638	2.881602087081588	0.34640894880893486	0.08167620537887997
14.5	0.23129050413104546	0.32835674741042936	0.17260643344922338	2.885459873484452	0.5665324154585586	0.10745429036310462
15.0	0.22494897870660488	0.23360837179919944	0.1354567900960361	2.374550927807248	0.8348991085763522	0.2701485552125253
