# Time series from syn_net_6D_20191104_a_hillmodel.json, output to pipeline readable format
# Generated on 2019-11-18 18:57:02
time	A	B	C	D	E	F
0.0	1.6276627309146303	3.105438820642952	10.715508307150222	0.3691488925537038	0.3436194613834552	0.1797465035657665
0.5	1.6453914057796248	3.5980392787150413	9.72641823322915	0.2895306247037824	0.20962130974722068	0.11824182103417127
1.0	1.5206559618295978	3.88960447620688	8.712201491566383	0.24165034802499874	0.12821685499970778	0.08092477989996562
1.5	1.2097202515200116	4.056909111986232	8.06179554882158	0.21623138557573765	0.07880797840485612	0.05828625247708423
2.0	0.8856190674280029	4.149119775753849	7.662501601206659	0.22083427026682767	0.048827000032580566	0.044553396283605565
2.5	0.6479399285212348	4.197158402539226	7.395263425740379	0.3094869541107217	0.030636890925573496	0.036223145255944916
3.0	0.4921563262001466	4.216555932271251	6.963158026974339	0.5743405316511857	0.01960149356307446	0.03117021095978699
3.5	0.39381891201166785	4.170354210919533	5.502720084512699	0.9703194751652111	0.012908755993597575	0.02810554154940742
4.0	0.3326508564577	3.833725080573524	3.907425441100199	1.3447042549082244	0.00886543669881197	0.026249213266958143
4.5	0.29485850774968003	3.000311599040122	2.799322968755172	1.6285686505950552	0.006529502835885488	0.025141369556037196
5.0	0.27160926280938247	2.0681270218213084	2.0855091105644057	1.824528283975362	0.0059725164059703205	0.0246034531153073
5.5	0.2575099773771476	1.3682432620763596	1.634415043351214	1.9542169103998015	0.012329158889466573	0.025356384405188163
6.0	0.25126692546425333	0.9088052079503958	1.3521177418118473	2.0379062916882074	0.05747320214851562	0.03412234455492892
6.5	0.36942241508695484	0.6201375168517502	1.201655412034078	2.068111149905677	0.19391856742174307	0.08856228632514958
7.0	0.8778050853174532	0.4451542095599288	1.3812446985695217	1.5642812790860714	0.3991416952410968	0.2656369538959672
7.5	1.2232068183934621	0.4111757365380685	2.5294876837500873	1.0324989134383504	0.7913642773595297	0.5000924321423337
8.0	1.432938392150824	1.187520919118133	5.259529769957806	0.6922179307832478	0.8637536007420029	0.4282134008026555
8.5	1.5596809923960766	2.3814257773355827	9.373097231522731	0.4856746870878345	0.5392431843526516	0.2699669475678704
9.0	1.6320824135281782	3.1595996078257467	10.678994129379477	0.3604387080212743	0.32896300746211743	0.17301226517160695
9.5	1.6420805016527151	3.6304372115910053	9.623067516336702	0.2842426824603437	0.20070952658483565	0.11415522485290079
10.0	1.4992026372189171	3.908465201954362	8.64158010924335	0.23856009327145933	0.12280626274423856	0.07844532097803918
10.5	1.179039378478204	4.06749447102499	8.018416611886128	0.2150955636707511	0.07552463129020083	0.056782147706809054
11.0	0.8608976900874433	4.154789436222074	7.635447759525709	0.22392767632823207	0.046834895607009444	0.04364102935458131
11.5	0.6312685122883958	4.199943440133879	7.372879193895268	0.32482247496538047	0.02942831431335175	0.03566972678549272
12.0	0.48152582552125006	4.216616597069434	6.882396253341236	0.6062361233509721	0.018868340118524334	0.030834528335043156
12.5	0.387178383846781	4.157573614286273	5.347201017370107	1.0059608981009953	0.012464479008711902	0.027902002386335382
13.0	0.3285394400754093	3.7786966042654724	3.7902636115457162	1.3736120113502686	0.008599612685571014	0.02612632572313903
13.5	0.29232463817129184	2.9141429742905185	2.7227216756462824	1.6490891372553	0.006393779876055602	0.025070795782812686
14.0	0.270056162462719	1.9956379265994615	2.036848502425069	1.8382880737718899	0.006086070461151112	0.024591320838219778
14.5	0.2566025377034593	1.3190323808913675	1.6038417840251193	1.9631893277255044	0.013885652931512163	0.025597699082155284
15.0	0.25154927908255736	0.8775193282101545	1.333166487084881	2.043559024711475	0.06562970179015797	0.03607424958663262
