# Time series from syn_net_6D_20191104_a_hillmodel.json, output to pipeline readable format
# Generated on 2019-11-18 22:26:19
time	A	B	C	D	E	F
0.0	0.05866757457773132	0.47987498764560915	1.5409423307622805	0.923830639790317	0.28693974843123543	0.24679778448135128
0.5	0.058245755503290135	0.352678486171992	1.5114728616464848	0.8927353124022	0.3187479021760915	0.328789207876356
1.0	0.05999189093299501	0.2723480516405344	1.5011158347152243	0.8441886407046224	0.3503983994062506	0.5898492499287584
1.5	0.09819598941958345	0.22308550641696193	1.504313201953036	0.7181604991411612	0.5568780572781338	1.0854998645428051
2.0	0.24901422758877056	0.19491526652601937	1.521196764644569	0.49337205912641496	1.2559235193089624	1.6720989687423122
2.5	0.4099887102683675	0.188755284025421	1.641885522998876	0.3372848412268133	1.95530633437458	2.1635030301148497
3.0	0.5211550552397326	0.2712469928548923	2.193039624872085	0.22754830550839664	2.4290617621603885	2.2371222414883154
3.5	0.5676742434905149	0.7371805176452944	4.113472583697539	0.15275848804922754	2.576316408144281	1.5440813860659892
4.0	0.49758294725334096	1.2864174348451958	7.127882708557573	0.10866654443226373	2.0623975103656664	1.025324797622233
4.5	0.36018342453758795	1.6376782074771064	8.759602231535965	0.09511146503615593	1.4322798460289299	0.7097118845733247
5.0	0.2483167957598404	1.8518454168729388	9.056064347791189	0.10097035042856288	0.968040057425451	0.518199060101623
5.5	0.17488106230093564	1.9817612254672319	8.895306883162345	0.11930473945623112	0.6702605902780777	0.4020190843528475
6.0	0.1291362076313029	2.0600374938791197	8.013359420039992	0.17845306099624983	0.4860769710969415	0.33154399399390083
6.5	0.10106457381942308	2.1029482044880563	5.92897769449193	0.31546412280615055	0.3733633402620363	0.2887948579178586
7.0	0.08392768758355722	2.100520511668536	4.21879027242875	0.4942784511722518	0.30466167339207884	0.26286498123690966
7.5	0.07348850384720261	1.9903512608855525	3.1316259101992254	0.6530945244376537	0.26293944736787095	0.24714102381000747
8.0	0.06713570639225655	1.703009637833564	2.4508692053361396	0.7708755732676025	0.23801270219613624	0.2376237555176183
8.5	0.06327175074126488	1.3099536573992514	2.0237709677189786	0.8513103835573221	0.22491752374352697	0.23194822366936504
9.0	0.060922578469208885	0.9447550557071045	1.759508417363494	0.9025957852608815	0.22598358104693683	0.22903291155418978
9.5	0.05949648663395066	0.6659910989020399	1.609479174065979	0.9278286624283719	0.25059688312031503	0.23034590632787041
10.0	0.05864303865896795	0.47390286345215654	1.5392475447573133	0.9230651155170619	0.2883330407144131	0.24820205283310137
10.5	0.05824278028211991	0.3488644080695072	1.5108212027180323	0.8911483542381032	0.3197918797420283	0.33463227292531017
11.0	0.06026525091794026	0.26997199168635067	1.5009741910745034	0.8418376476234882	0.35249963268462803	0.604815541587793
11.5	0.10191991111393056	0.22167149589970978	1.504679896048428	0.7093992404806186	0.5754203382099385	1.1075831148854376
12.0	0.255783738360544	0.19418277879376028	1.522655421683685	0.48618558275153	1.285896665591586	1.693691060380841
12.5	0.41520598269786885	0.18937343701211146	1.651849625038521	0.33236170592697334	1.9776475493380015	2.1777614139908152
13.0	0.5243492902227725	0.2795955858718759	2.232926384135337	0.22408355185959908	2.4426153629695233	2.2197284072070147
13.5	0.5674183742001921	0.7612816848806445	4.224054246217586	0.15051767667480104	2.5674691598203956	1.5192358346415695
14.0	0.49272308079377924	1.3032216649085329	7.225828517062983	0.10759551694640701	2.0371484259022203	1.0101266902686572
14.5	0.3551644605450688	1.6479792731128993	8.78742682533296	0.09509819369512296	1.4109863725579213	0.7004871817866192
15.0	0.24485140231419844	1.8581023695160148	9.055879021351485	0.101388444043025	0.9539092097776171	0.5126026449793963
