# Time series from syn_net_6D_20191104_a_hillmodel.json, output to pipeline readable format
# Generated on 2019-11-18 20:32:18
time	A	B	C	D	E	F
0.0	1.3967881871825434	1.8362549950885416	5.291854447440117	0.11071783073671695	0.2787634132378713	0.21382206063842943
0.5	0.9352486000085276	2.001364732986701	5.607948674991774	0.11226472636534232	0.2016181632745704	0.15496819146825785
1.0	0.6409366246000494	2.103093327253977	5.536451798996802	0.19464768332155494	0.15453211888455348	0.11910263067818302
1.5	0.45946618106192644	2.1540004892901767	4.36408566939832	0.4431202834064095	0.12589979510274688	0.09727729684735695
2.0	0.3486288872169808	2.0949916852767814	3.000701269334436	0.8228026576165629	0.10852068277872884	0.08403809742364243
2.5	0.281152514255319	1.7600779185590263	2.07538351889726	1.229584506016819	0.09806511741056294	0.07625519607570103
3.0	0.24013869405574764	1.2385456317763195	1.4880508758293576	1.5852180146117711	0.09242097514043023	0.0735554979145436
3.5	0.21534261932030688	0.8029354174402691	1.1232583329099872	1.8368075413543707	0.09328340024741068	0.08873263928189767
4.0	0.20607974139991825	0.5100310664994369	0.8988716095425959	1.9114488868577697	0.10321191562521932	0.19200226625116146
4.5	0.424535116372983	0.32526944180308764	0.7945153525019341	1.7848182176755218	0.12186391197365629	0.40221989831755245
5.0	1.1178905322707353	0.2201950611098902	1.1690242430468167	1.2644071206108383	0.1993094936798138	0.5810500177049596
5.5	1.7407600476330225	0.20015199657780883	1.5132582353329587	0.7998400314535614	0.3640486880191225	0.6959802787274056
6.0	2.1669793711590026	0.25730962928319506	1.7559075559286934	0.513039762780825	0.5572717798540509	0.7639671212075637
6.5	2.439930125217898	0.39848686098224145	2.110390105936891	0.33855590072036734	0.7201797915489512	0.7854018350278186
7.0	2.5885382566953816	0.7553401514468749	2.947516541602665	0.23259226957401302	0.749170579635142	0.6556566264305754
7.5	2.4824188632547357	1.2423161504966551	4.001633218508294	0.16831603482978935	0.5616569826202494	0.44030236293926356
8.0	1.9386185475640911	1.6169975808428858	4.817586824241213	0.129676822920742	0.3832263696251981	0.29438134104128283
8.5	1.324032100166022	1.8629608344811501	5.348087594797439	0.10902940471035717	0.2661852248902522	0.20420390307570271
9.0	0.8875663692323131	2.018026014799029	5.629032226385694	0.11640156938881846	0.19391864441084547	0.14910201533340395
9.5	0.6113294088231668	2.1129813100286947	5.460339130707306	0.21735767795641084	0.14984631692346959	0.11553120029853663
10.0	0.4413434794978413	2.1553075672217177	4.159606539127023	0.4883230743886671	0.12305327482686473	0.09510609552278798
10.5	0.3375868431399934	2.0695480830462434	2.853171687702466	0.8775889981981938	0.10679688810746019	0.08273081561034613
11.0	0.27443709865875365	1.6939354914791458	1.980360625484743	1.2811300016049223	0.09705226210613589	0.07555405979301144
11.5	0.23606189844975237	1.1722477313865736	1.428703646303836	1.6260360641186489	0.09205262845609091	0.0738812156111363
12.0	0.21293094442576874	0.7561275600137987	1.0866365690986424	1.8585004957782931	0.09416844710405126	0.09491682458719126
12.5	0.20952781649128185	0.48005654221886696	0.8765549454280055	1.9063776737459945	0.1048690592886147	0.21675947401940077
13.0	0.5013592349212306	0.3067937990483376	0.8131653162809158	1.7424116021708886	0.1270888499879181	0.4298401865678438
13.5	1.2119680621519713	0.21246384941974505	1.2240007403291056	1.189923652132983	0.2170207516776569	0.5997515002055023
14.0	1.8083621404142385	0.20375860367567947	1.5489867897046252	0.7529361739690591	0.3896830010700407	0.7074113050809665
14.5	2.2110910741566787	0.2700284305516139	1.7888737422227192	0.4844595919909574	0.5818374555083565	0.7700593180857687
15.0	2.4671745025682803	0.4297979969293234	2.1893505904338983	0.3211928614454575	0.7361734603239206	0.781146100655633
