# Time series from syn_net_6D_20191104_a_hillmodel.json, output to pipeline readable format
# Generated on 2019-11-18 19:30:07
time	A	B	C	D	E	F
0.0	0.48730373534427107	0.2387136439456702	0.5973731350600946	1.9389312452633927	0.28940657252091084	0.4183906627365484
0.5	1.044788697535444	0.15874083064807465	0.5193324735964462	1.2125349644611132	0.7065861216954717	0.7309251708530539
1.0	1.5793339537231648	0.1101750186065909	0.47690871987668904	0.7356967248852256	1.2625641394849372	1.0508108957803535
1.5	1.9235059905805452	0.0806970506884681	0.46266807361816115	0.4463373134370685	1.869052653976181	1.2725398654789588
2.0	2.1357034266881167	0.06284677865145961	0.572270183017893	0.270822715363583	2.4012464893933947	1.4120034520054674
2.5	2.2654725238225755	0.05373846584481345	1.1790398831978275	0.16436610551455125	2.806116534198544	1.4976423280316247
3.0	2.3446244812927994	0.08545794308366271	2.0283120194979416	0.09979641663308043	3.0911554313548164	1.548973774791071
3.5	2.3926883289448773	0.24615240003487499	2.634593003140924	0.06063274365259258	3.015061469356555	1.4727840725929628
4.0	2.4180150389557973	0.5157283577338555	3.010847386447496	0.03687947841833824	2.0252758107731004	1.0581001894538093
4.5	2.408297474404745	0.8017589507500515	3.2397639818293187	0.02248113148600941	1.2805738727088618	0.7531950357551268
5.0	2.3080219490713954	1.0488638494176235	3.378574900032564	0.01383172056594182	0.8183877573701839	0.5657835300286029
5.5	2.049146563279989	1.2414881795563812	3.4620069047067146	0.009272899253186211	0.5361946126559899	0.4517962517494154
6.0	1.6734510714168296	1.3823732927874417	3.5073192683380876	0.010421849385644135	0.36458096622153235	0.3825802755167165
6.5	1.2971416184220086	1.4764556498213155	3.506748774513876	0.021265628499352877	0.26034874107807143	0.3405705362214085
7.0	0.9884412889517173	1.515489209211258	3.4093725498164655	0.04031351275723054	0.1970749783917196	0.3150795656610438
7.5	0.7593876031043988	1.468450750251866	3.1640747574692565	0.07485271287161374	0.15868113656150395	0.2996191493787001
8.0	0.5981510615364405	1.3052308238856347	2.7732762971725324	0.16371546339550294	0.13541282440266267	0.2902623061679818
8.5	0.4880791143351242	0.9884725212600544	1.9849073382989175	0.3935222096863899	0.12144981620891343	0.2847028339526019
9.0	0.4150237962264957	0.643853932908425	1.2862895634722393	0.8734432849629342	0.11442463613020798	0.2824150970603352
9.5	0.37431949703591827	0.4080589568470868	0.8548077273392019	1.6061750417304212	0.12423750527313274	0.29159566740347687
10.0	0.43031637107637244	0.26186674772061164	0.6239129827064949	2.0421256483831947	0.23341036703078927	0.3754246065721697
10.5	0.9066718498445036	0.17280861007077697	0.5318579117891372	1.3524649851036792	0.600739477329872	0.6547555358633401
11.0	1.4814043151822913	0.11871573237212185	0.4839284984180058	0.8207625857869364	1.134294575064664	0.9895018158903851
11.5	1.8624035385521283	0.08587964813152184	0.4617467806042879	0.49793878028373517	1.7406289688011483	1.2326725987152145
12.0	2.0982258762982156	0.06597139917114313	0.5214753971061122	0.3021213667802285	2.296628664913917	1.387306294963926
12.5	2.242588156802376	0.05460647173795168	0.9969108690417338	0.18334988961629783	2.729445730478041	1.4825478798908194
13.0	2.3306754441413986	0.07006455354460711	1.8579329341899422	0.11131073211215244	3.039191764188237	1.540356493224357
13.5	2.3842970222950424	0.1986061289826454	2.5246291760329562	0.06761654336908886	3.135022759639524	1.5286247071375647
14.0	2.4146300317329774	0.4523557008447834	2.943587094487171	0.04111500630218014	2.2362966341373354	1.1451549311828775
14.5	2.415452902993646	0.7413000867217155	3.1989257317506667	0.02504625296778435	1.4156098336098117	0.8081319066239196
15.0	2.342121877155157	0.9992870016189058	3.353841506069704	0.015351505331120941	0.901276780463974	0.5992867637874777
