# Time series from syn_net_6D_20191104_a_hillmodel.json, output to pipeline readable format
# Generated on 2019-11-18 20:53:13
time	A	B	C	D	E	F
0.0	0.10263957255848155	0.3083997061637734	0.8408941196588364	0.3466847821317033	1.1425776458348302	0.09254858971287645
0.5	0.114516940312194	0.21741054091213088	0.945564725548974	0.31783474486578506	1.3021707102324875	0.39629175738188854
1.0	0.5586292464083611	0.19620719118815255	2.474276515186756	0.22629052839322525	3.705453545937786	0.9414891784674012
1.5	1.0229193554181388	0.6749245441046996	5.96701191613067	0.1427535140128225	6.325675217301983	0.7127475345112115
2.0	0.9321955282235033	1.1225608338895372	8.914615941709245	0.09203443285591072	4.983595945505844	0.4361055782858492
2.5	0.6436175131644429	1.4009609947679025	10.570256121783142	0.06134295889616664	3.303452561043214	0.26751962129325035
3.0	0.4326891429547042	1.570733351279469	11.139200993730448	0.043305486409390866	2.2009060757117602	0.16518427083773302
3.5	0.3013709637364081	1.673535421366278	10.074911954146305	0.03616449175446166	1.51936908499794	0.10309193899757435
4.0	0.22141355013166375	1.733109071971223	7.610513877416945	0.05053435473237984	1.1021537954808602	0.06542204556913545
4.5	0.1728871903545854	1.7507276691465081	5.289407909324992	0.10778565485008453	0.8476685017076333	0.04257053220631976
5.0	0.1434513331151214	1.6618833625114744	3.617914735298737	0.1948416704345434	0.6944073623488052	0.02871318843907339
5.5	0.1255972054017983	1.3340677452415743	2.429336092125499	0.27704047110605884	0.6143280213727202	0.02034284692299504
6.0	0.11476807502050014	0.907293960061981	1.6166779895084655	0.3380789174250735	0.6438008666659502	0.015564226993549975
6.5	0.10819986679300464	0.5899793335589679	1.1135526955860648	0.36856971910916964	0.8381069622916888	0.015328479479635778
7.0	0.10421614100458995	0.3889984353250209	0.8733895218771106	0.36141742988091774	1.0486606922087618	0.036631633593073046
7.5	0.10200138919070183	0.26607528835924826	0.8588738952227363	0.3354514528205847	1.1936464382433591	0.17489660443551738
8.0	0.2057574099888904	0.1925479735421768	1.1628871325662309	0.29435706676439255	1.7179748434698698	0.6107034209129466
8.5	0.8020035224871819	0.33691880528790624	3.8131657518851836	0.18756819274700945	5.226987746378393	0.9371304825607136
9.0	1.0471630365700915	0.8795997738307725	7.3104934877135594	0.11921986062382836	6.05432577990138	0.5847931245045949
9.5	0.8129576243058393	1.2514271676653923	9.720283464419959	0.07777231309089991	4.237559273763463	0.3579147792987893
10.0	0.547189032713716	1.4796743990081012	10.940927163403547	0.05280411356255002	2.795978256924228	0.22004571068019058
10.5	0.3718935012199486	1.6185339169740562	10.948855076432277	0.038925858964886755	1.8856790814453908	0.1363777990599819
11.0	0.2642869080906151	1.7019863699256383	9.1553759097494	0.03809002259526799	1.3261763142309673	0.08561538778403475
11.5	0.1989009786248756	1.7465544040604122	6.601382288899338	0.06796554615825072	0.9841896578547318	0.05482002739719948
12.0	0.15923056088565393	1.735481613520307	4.542993121072986	0.14148449803384458	0.7760966091466922	0.03614003056999749
12.5	0.13516793214197487	1.5606315447440389	3.089974300036798	0.22991969100029716	0.6534421703727826	0.024819222504243735
13.0	0.12057303519926406	1.1563510245534638	2.059921563700731	0.3046045050803901	0.6073415182731963	0.018034542266833743
13.5	0.11172075629706701	0.7632735998063671	1.3801533812282027	0.3548424275799353	0.7072750063462022	0.014642029861734452
14.0	0.10635157707377442	0.49716239561632686	0.9867503841376765	0.3696263497393973	0.9296338189248994	0.018892684293960887
14.5	0.10309676387130678	0.3319863004018752	0.8432433394453295	0.351855878349737	1.1147600492921972	0.06774016630906074
15.0	0.10501493532988776	0.23158528202902548	0.9068217403012585	0.32395704707564843	1.2486014862009713	0.3105724036543562
