# Time series from syn_net_6D_20191104_a_hillmodel.json, output to pipeline readable format
# Generated on 2019-11-18 22:35:49
time	A	B	C	D	E	F
0.0	3.3035216818773288	0.560286388610134	4.284172037027527	0.20476567128394785	0.6158360312026697	3.2792116100719593
0.5	3.4686524136313484	0.8537124195339603	5.694614354329075	0.1464844049622368	0.4171255175366331	2.158109680783019
1.0	3.5457613345381063	1.0463910050964706	6.406587149860026	0.12291879879271238	0.2785802698351483	1.3714031671633047
1.5	3.414621837041325	1.1665352318413262	6.810966982754552	0.11189513718088832	0.19083342385127103	0.8779054796909791
2.0	2.7493811148526506	1.2407022664379472	7.056631106151881	0.10578827743614044	0.1333575851466111	0.5736958254239289
2.5	1.8708289655297938	1.286321711690087	7.207733963021719	0.1026944227953436	0.09517986943167006	0.3871616380905112
3.0	1.2198075895282003	1.3143317894145314	7.298795572808393	0.10542904736696947	0.07111638691373257	0.2730352842337844
3.5	0.805411736133278	1.3314899022266462	7.331048449605594	0.1410726589432751	0.056332995662387864	0.20328510388029217
4.0	0.5505105055278721	1.341483296714515	6.848234660068557	0.30260143598084527	0.047312081742600556	0.1606840705838408
4.5	0.39509369302468866	1.339361449239509	5.082552010921671	0.5920376520000865	0.04182492844524785	0.13474506248210455
5.0	0.3005952489278024	1.2925234103783263	3.6389408469920297	0.8547049736283096	0.03854515483914277	0.11950676952146358
5.5	0.2432042664916247	1.12301098478481	2.612833754323092	1.0371339198715368	0.03690591347961651	0.1137338410650935
6.0	0.20842606659418994	0.8367780391746977	1.9107558420818693	1.153964277713477	0.03812790916881448	0.1321314006813261
6.5	0.18991669338825973	0.5720102739194223	1.4510383148893342	1.226783000257305	0.05328721208180174	0.2839061068359247
7.0	0.5942022964239139	0.3867356619167561	1.317675878141436	1.2300988754779791	0.14652187899386937	0.952583963265681
7.5	1.7669648302028884	0.2812333746812583	1.5401205995497835	0.8139714224283566	0.3706058357471031	2.094057262550742
8.0	2.536741358694103	0.23558511292199766	1.7875352610650685	0.5182396052495531	0.563804992563115	3.0633574747382966
8.5	3.00571634997804	0.272546628066863	2.4519366881684976	0.3276844211744413	0.6850578170571862	3.6710533515042854
9.0	3.2903424944642596	0.5395408724196679	4.168978040242741	0.21002212349936752	0.6280573014977796	3.3473204327746653
9.5	3.461005780767117	0.8388470988305098	5.633897568216858	0.14874830730339514	0.4277166180774259	2.2181925929153836
10.0	3.544398935491656	1.0370202816163265	6.374305191978412	0.12386209460657256	0.28536205268217446	1.4098851955915637
10.5	3.4354407615305624	1.160732708679308	6.791708027679317	0.11239143987422269	0.19515189806678976	0.9017446723093192
11.0	2.8035370091526306	1.23712857855488	7.044807507079321	0.10606930844529022	0.136260201912199	0.5883396090424232
11.5	1.9194867081966054	1.284125921471205	7.200472451018189	0.10278880212822385	0.09705585065441029	0.39612826931548417
12.0	1.252047059426923	1.312984577889451	7.29462709554874	0.10485060614409453	0.07227745658314676	0.2785176365213957
12.5	0.825428150195791	1.3306676701564688	7.332420774111021	0.13650323952951354	0.057042851754685694	0.20663453674681753
13.0	0.5627467335208363	1.3410813841656768	6.9284634909139715	0.28766850489986767	0.04774462818010398	0.16272886250820892
13.5	0.40254041019183506	1.3402231383523728	5.18706278362182	0.5738525726503839	0.042087145280798904	0.13598224403948786
14.0	0.305119935498691	1.297996966496175	3.713982703121621	0.8409495563721421	0.03869718782234208	0.12018722402687625
14.5	0.24595074675490514	1.1378874470173832	2.665431409134281	1.0280999975559049	0.03695420864028012	0.1137118236715756
15.0	0.21008315995284396	0.8548800098245105	1.9458839583849474	1.1482812971216971	0.037872445495947135	0.12930799567308524
