# Time series from syn_net_6D_20191104_a_hillmodel.json, output to pipeline readable format
# Generated on 2019-11-18 22:18:45
time	A	B	C	D	E	F
0.0	0.6176926536379278	3.79988667600452	1.3585255120199293	1.2138681536278517	0.6426877375970041	0.20176077348779387
0.5	0.4267312986083909	3.836466492965706	1.0035169348378292	2.204077359067118	0.5189339929546434	0.17641796796480191
1.0	0.3086365988380276	3.6922949719335856	0.7283427360367251	3.15551904461399	0.4123083946882816	0.16105143497044433
1.5	0.23606958879999934	3.182137113889855	0.5405091038107617	3.823091122098044	0.3306279006486787	0.1517789996811024
2.0	0.19161926612736885	2.379749319722259	0.4030099162183303	4.249856637905755	0.27263048490533376	0.14644288977276324
2.5	0.16448002470675596	1.627338921152049	0.2996347869695952	4.514755767330905	0.2374002579874625	0.14524315210932745
3.0	0.14831659679959364	1.0895388809395872	0.23046533459019247	4.677103194089846	0.24773454087556893	0.15995323964931005
3.5	0.14690291419387425	0.7474135847709404	0.22475216771632373	4.766209370055039	0.4874702585060819	0.271020990097495
4.0	0.5747275760967866	0.5477797551428317	0.261271126332942	4.336687612673912	1.0321242572493587	0.7747302282132008
4.5	1.5302783740074641	0.5494956566659805	0.45419419885304174	2.819169107718203	1.4195272708400466	1.6685563951980549
5.0	2.1366635807692025	1.1007555337599881	0.6535705586240608	1.771378374303235	1.531906381236029	1.343697852479673
5.5	2.4630775081279532	1.952629802521291	0.9097174765341184	1.1495045464940912	1.2917778175443104	0.8786667409826638
6.0	2.4271131367111116	2.693936601867679	1.2121026746857746	0.8230695900472622	1.0848801856233383	0.5878017601108384
6.5	1.9248225875047045	3.1921694293524547	1.4383867588483392	0.6814804391678702	0.9502607755348298	0.4107514958834999
7.0	1.3267807822940916	3.505224579147577	1.5696228951964293	0.6501112211082514	0.8518093704717807	0.3032420457401892
7.5	0.8822617995277104	3.6974938379507605	1.5628425718035035	0.7595468344371527	0.7502623079497069	0.23799335706915695
8.0	0.5926228445266692	3.808282243502056	1.3223216516506504	1.3026649767372975	0.6291805756600711	0.19840060025564954
8.5	0.41116354726004706	3.8327518365259117	0.9687218089361963	2.3167723477040405	0.5064371832848856	0.1743796036784186
9.0	0.2990530664458821	3.657571220912168	0.7047688432928948	3.2409300401760297	0.4023426693468233	0.15981708714665002
9.5	0.23019330181005337	3.104453753150612	0.5238315505280213	3.8789011145426393	0.3233376383648262	0.15104234881469664
10.0	0.1880250492826017	2.2913538770660837	0.3903884868091891	4.2847598293722005	0.2677085810953907	0.1460723745903041
10.5	0.16229679723381044	1.5588613243679328	0.2904613675731022	4.536242007355841	0.23538663386773973	0.14558921659793925
11.0	0.14712035025251124	1.0444385728623495	0.22574209585044738	4.6901475573709925	0.255531241544942	0.16440193169681983
11.5	0.15096480975336707	0.7201212187772614	0.22842960370472096	4.767056533141	0.5432757862679634	0.2985241855985039
12.0	0.6872396892439403	0.533056597463791	0.2707075060676662	4.1863137920562306	1.0828735798894937	0.8687768851660723
12.5	1.611079338965259	0.5806938802034939	0.47702734330873536	2.68171680379543	1.4494460141872674	1.6962904727250627
13.0	2.184389234753979	1.1858243115221245	0.6758995203078206	1.6868045229892266	1.5146118858915618	1.2846987700986467
13.5	2.480530470937536	2.042915230246032	0.9428961879927452	1.1024594700775032	1.265484523168965	0.8401879504810373
14.0	2.3925865547609027	2.758501598421078	1.2409084644022947	0.8007762843912585	1.0675296712314843	0.5643190320108401
14.5	1.8574856993495101	3.2333027176938187	1.4570542121696994	0.673589648217615	0.9386852182842743	0.39648627408464543
15.0	1.270646212996062	3.530704269689871	1.5772829259031622	0.6526994163938545	0.8416768075737364	0.29458326757893516
