# Time series from syn_net_6D_20191104_a_hillmodel.json, output to pipeline readable format
# Generated on 2019-11-18 19:30:54
time	A	B	C	D	E	F
0.0	0.8343178701190372	0.8089825079900568	1.8861394272839909	0.8848477427981536	9.817879497449855	0.62532117800702
0.5	0.6752348362193615	1.1931491663137552	2.3593917313850925	0.6380803619581961	7.7823629745762	0.4258458905938615
1.0	0.46470733263521724	1.4270140660526607	2.158134973964275	0.5934704731347323	5.62727835702711	0.3048396253256355
1.5	0.30872914187550293	1.5649394769984513	1.8267067387847964	0.721027560669806	4.063781239651288	0.23144285409041018
2.0	0.20814178233916317	1.6399860629436007	1.5782090271873626	1.04224688162612	3.021651029545557	0.18692464392027133
2.5	0.14562851791762976	1.6677318680576885	1.3189844741580736	1.810164459287351	2.35176843108113	0.15992268026822642
3.0	0.10723800646125856	1.6080498780928556	0.9702850757270426	3.081492718550698	1.95214046558055	0.14354522943601428
3.5	0.08377034353468495	1.3574166376175731	0.7130427899875662	4.371660952578661	1.8232538277331867	0.1336131610423855
4.0	0.06945455822384206	0.9875697057897058	0.5526157350369185	5.089139678514568	1.976741825669312	0.12759827542604713
4.5	0.06073089293171873	0.6631228609780787	0.45493625690423717	5.081926617561953	2.212983329765811	0.12401998140765845
5.0	0.0554198087902632	0.43186039390694636	0.3960901150527452	4.694141095664616	2.3888496819308322	0.12244559547049977
5.5	0.05220459878049582	0.27917415772818394	0.3613593734577407	4.23752298326499	2.5000012003882164	0.12670462166567167
6.0	0.050488403898188525	0.18155835372845675	0.3419231607266126	3.839597676296174	2.5691496623851062	0.16924363078709306
6.5	0.05950197503289607	0.12023021146354634	0.33249118886994306	3.5131134901767282	2.664675965079468	0.35971454332075004
7.0	0.22424571680274147	0.08235812606890011	0.33241856768580885	2.9309392496388704	3.8382236171686537	0.6703573937870916
7.5	0.5232464478671353	0.06260876896904834	0.38746329867426904	2.109396469212055	6.730052989646939	0.9250739085850314
8.0	0.7522814908982643	0.16939601187247122	0.8044581947969118	1.4256260721669152	9.283306609464866	1.0163363417447657
8.5	0.8420388740251886	0.7177071775645221	1.7266752657643838	0.9499372527052278	10.004381369282148	0.6738448512488919
9.0	0.7143371526215567	1.1364720554459502	2.3358116216239204	0.6689637890432887	8.215280675047243	0.4552892557587585
9.5	0.5001929272944321	1.3929134883739906	2.220521233498221	0.5861035240480228	5.980816940298193	0.3226990960630152
10.0	0.3327037208298992	1.5453180683528447	1.8827176611039083	0.6873302082923428	4.3065959455596365	0.24227547779476422
10.5	0.22323939505337062	1.6300769632317549	1.6192066621154142	0.9588283708157933	3.1804856991537727	0.19349506016690488
11.0	0.15494274900592858	1.6666975726707842	1.3778048013981317	1.6259233163973001	2.4521347967222447	0.16390786985603076
11.5	0.11294239081853862	1.6309658260440947	1.030174946972631	2.828197816864327	2.0065742166463023	0.14596231079322555
12.0	0.08725320019660669	1.4180435024619094	0.7519080771794168	4.164346598470425	1.8234104095892536	0.13507871873067775
12.5	0.07157792098782484	1.0554636333963132	0.5764578286333458	5.017493642971635	1.9346736336405808	0.12848394962036366
13.0	0.06202435117671547	0.7157603685083701	0.4693853419503386	5.125048582832703	2.172571028389771	0.12453169156198127
13.5	0.056206688256364185	0.4677101727496678	0.4047395815184373	4.777489269514775	2.3619761052073787	0.12253479336373513
14.0	0.052676617679557135	0.30241466704976955	0.3663808126596087	4.319328241299533	2.4833885457164837	0.12483556494869598
14.5	0.05066823983992893	0.19628287270439568	0.34461473317312913	3.906580729047807	2.5584875010150436	0.15443190330078668
15.0	0.054271262148723666	0.12942173351596062	0.3336254033947241	3.572821113575415	2.629478528510117	0.31007144329675507
