# Time series from syn_net_6D_20191104_a_hillmodel.json, output to pipeline readable format
# Generated on 2019-11-18 20:46:51
time	A	B	C	D	E	F
0.0	1.6628474628959033	2.091564559025072	4.083145830889298	0.0752961461047219	0.12867633044594773	0.23205265572435835
0.5	1.0965517440386165	1.9859374868378703	3.218305999881567	0.12702452734404499	0.08059145653190822	0.15506527536331438
1.0	0.7006662617396224	1.6422468897251281	2.5442687384638645	0.29640233120630916	0.051511316355472514	0.10837326714999364
1.5	0.45265313231779025	1.2114562121643981	2.0534699978303603	0.5025738561626545	0.03441140864563634	0.08007239834233315
2.0	0.30085822661788075	0.8264482746092444	1.6002778901321422	0.6489486520257869	0.025584308560179913	0.06303841396874127
2.5	0.20849441252195897	0.5397528107370608	1.2129617940268462	0.7404682919797412	0.021695853749874556	0.05380667090875392
3.0	0.15242735955122685	0.3501538978896243	0.9247836720806593	0.7963492468693476	0.01973854535899555	0.057801856009704666
3.5	0.12045186461483522	0.23124493169285643	0.7246999372906943	0.8303038868248884	0.018608349006720693	0.13256084782921349
4.0	0.4683502418796352	0.15812714321509647	0.5904498792459866	0.8497792006281641	0.02014110569652317	0.5054126621547887
4.5	1.2245597023732304	0.1135121842376791	0.5458521262506456	0.7190715830166858	0.14346116837406347	1.2621894614039213
5.0	1.6977742616639933	0.08869397666699277	1.2450723560968058	0.4683884352623508	0.36647765360763895	2.00194054508234
5.5	1.9850544355262982	0.24306427194362137	2.816998091593413	0.2869028857189842	0.5177143946106177	2.1356269348125783
6.0	2.1590275098118554	0.8391279042520154	4.097997637149017	0.17499066151329032	0.5799155012426948	1.3243170436555642
6.5	2.2611285588460115	1.4081326522501252	4.92637556084967	0.10736147603594602	0.4613574328354908	0.8176385122451967
7.0	2.28849773620882	1.8002450929755176	5.201387440834463	0.07072553640641464	0.2991949453407087	0.5102493182799563
7.5	2.0813579494509367	2.0277165936056414	4.704996916372161	0.06480115260682909	0.18576010538224694	0.3238012417681117
8.0	1.5218343150788245	2.088849154759086	3.880691295679088	0.08126877968075022	0.11535604316389418	0.21071328270768422
8.5	0.9892234570365546	1.924640250139879	3.039676609541438	0.15433525272487253	0.0725102709614225	0.1421224714374944
9.0	0.6323078594084601	1.5437846472890395	2.4216433251892466	0.3468443376158055	0.04667424701819936	0.10052507289117157
9.5	0.41065646133734657	1.115656718576513	1.9466192560872713	0.5422420786333623	0.0317377119481661	0.07532431595477185
10.0	0.27527650610325616	0.7507812357075047	1.502729148550247	0.6741978905050781	0.024390497858250967	0.06025105621935931
10.5	0.19295256802694324	0.48818016598325575	1.1375860642963154	0.755938329276925	0.02113502644777456	0.05292729753287508
11.0	0.14302880639405044	0.31743754043041716	0.8715425510295969	0.8057565544640876	0.019422299533356176	0.06411350486341263
11.5	0.12129401239218927	0.21104421140839283	0.6886415139894309	0.8360139951926168	0.018428979538100042	0.18032545711628048
12.0	0.6678151881280835	0.14577676177252777	0.567227201150223	0.8460880990485574	0.026312213960231978	0.6573907337606957
12.5	1.355599716624287	0.10601787361921307	0.5847817208182547	0.6611533128783023	0.19881556754845675	1.4480476211501034
13.0	1.7773896929209323	0.0903925599045176	1.5929487451863975	0.41876769898462796	0.407972934298365	2.1393769421518414
13.5	2.03333809658692	0.35648456787277427	3.1533256662979565	0.25595438749099947	0.542395295599899	1.9237815707621995
14.0	2.1880608307711427	0.9845738482713914	4.328787089692613	0.15614695614045473	0.5679725941924891	1.1839062325305438
14.5	2.2759888127366783	1.5143342117645353	5.050556420708201	0.09631405188272482	0.42145457144743365	0.7324361706318883
15.0	2.2726030765829273	1.8668826318091014	5.147711867808702	0.06667215774846048	0.2683199469342435	0.4585686391337185
