# Time series from syn_net_6D_20191104_a_hillmodel.json, output to pipeline readable format
# Generated on 2019-11-18 21:27:59
time	A	B	C	D	E	F
0.0	2.669764609134198	1.241444995976614	4.944732487509308	0.2325264952160741	1.0037088738616764	1.2364350903519798
0.5	1.8125119340775464	1.6754011850651123	5.136842028367215	0.27711095587821655	0.63174392169633	0.8060477317669058
1.0	1.171772825385318	1.8525865608054493	3.763875324979738	0.6576465564280102	0.39326318020896034	0.5432803174579185
1.5	0.7664553694133476	1.603597087572818	2.583458601965704	1.5432891403102935	0.2456689265551192	0.38405440792230783
2.0	0.5181899162878092	1.1231923302278306	1.8406034573855956	2.3887910921751376	0.15581021566389489	0.2910924645988951
2.5	0.36721105045707214	0.7263615794479532	1.3873016711643416	2.9577581721421065	0.10248839945781117	0.2665676060914953
3.0	0.2763300700530832	0.4621883158266699	1.112067512591019	3.3115056216200673	0.08157768410153982	0.4626404172894723
3.5	0.2730247267695288	0.2961385257108273	0.9456805773593183	3.527149895320233	0.21928498899473495	1.0417716688470267
4.0	0.7072468978298819	0.1944686630734005	1.0471201226094076	3.365891996391536	0.8758836236777499	1.615093621812994
4.5	1.4752065935155445	0.13886947783365078	1.3295689822636816	2.355154441437615	1.5309586455543904	1.9994549945444724
5.0	2.151897603975098	0.11791711398321039	1.564183853986892	1.5075899931495471	1.9765347056969245	2.2372110537675534
5.5	2.642908323092959	0.12999309052394425	1.8362834331615259	0.9656001363762203	2.25678566155356	2.3816599131459957
6.0	2.9761082411529896	0.1885644106354604	2.1538255743196086	0.6318035592872241	2.412892794423987	2.4650477940943465
6.5	3.1905671049934345	0.3207348406521161	2.5553188655867896	0.4278351202577158	2.3271050076997732	2.4606567915270015
7.0	3.251012050720738	0.6217903203545248	3.3721117344941853	0.3042524627886178	1.6898503050021343	2.0216697384526974
7.5	2.7965305624302137	1.157969382848583	4.764040440647381	0.23728440838363613	1.0771903706148593	1.323650670935991
8.0	1.9360472845735388	1.6216496612996025	5.238401359735674	0.2574995832464863	0.6794169855083768	0.8597496624747278
8.5	1.2537377433069694	1.84960900626283	3.990708013105072	0.5604356100584129	0.42328519621261773	0.5759432424980057
9.0	0.8171334188375833	1.66845860434052	2.734054766754767	1.393956310860435	0.2640590885081278	0.4037446430661917
9.5	0.5490821883128009	1.1962509611426313	1.9332345141166998	2.275904922592759	0.16695039497669825	0.3018653879609069
10.0	0.3859682411695525	0.7786061471118544	1.4436196039956921	2.8859040005205276	0.10883709191535211	0.26291364823463953
10.5	0.2873336773258303	0.4956824873878808	1.1462403042210876	3.2673636863652336	0.08173086137287354	0.4047992450760721
11.0	0.25738676915781167	0.3169532457030803	0.9659786099462917	3.50057737831303	0.16486241523944978	0.9412201770390003
11.5	0.6036085220159781	0.2068778381263981	0.9990261531273533	3.4739559315906416	0.7602584333352387	1.5386128933977412
12.0	1.3561871033590123	0.14498088882728602	1.2912934912345948	2.514633798668392	1.4433483867944936	1.9510809282355766
12.5	2.0592239198760116	0.1191439108120439	1.5267946430294361	1.6167764575347632	1.9198684127783963	2.2076137846455546
13.0	2.5782819822147345	0.12556178605294177	1.7906330267014432	1.033507015983573	2.2219540234806976	2.3638100734162757
13.5	2.9330643722659815	0.17560432660010644	2.102060927328967	0.6734148117950588	2.397432621173408	2.455698902836536
14.0	3.1643738369143715	0.2932392494967659	2.479267086853212	0.45320934940492474	2.374490874314592	2.4746187151690937
14.5	3.2619396752733234	0.5566598433622714	3.196473520722762	0.319439625068362	1.804374788388566	2.1322944692895756
15.0	2.912264331579363	1.071821993258074	4.558562432385349	0.2438353156297359	1.155903446186614	1.4172054359143813
