# Time series from syn_net_6D_20191104_a_hillmodel.json, output to pipeline readable format
# Generated on 2019-11-18 23:06:27
time	A	B	C	D	E	F
0.0	0.04311066977829341	1.1771156742579432	1.9412501911090383	0.3694629242068809	0.3016441941452024	0.08832612692050407
0.5	0.11549782902326203	0.7414126857628468	1.6239888409309375	0.39541007126828304	0.4547979707778831	0.3579183049632494
1.0	0.5724686486713024	0.6922291123866723	4.352647775530263	0.26504261316766764	1.0927779291657782	0.74664221302029
1.5	0.9011746193495686	1.6858586605335746	7.665618466991355	0.17760985723597997	1.5121613167863748	0.6282897081259675
2.0	1.018805413399188	2.512345987785894	9.836535393968854	0.12433889188931578	1.7032339678077695	0.3974273932219818
2.5	0.8315342313900245	3.039678002286352	11.155879254696151	0.09202577942415545	1.5302953471708416	0.2502665884753731
3.0	0.5501712929524085	3.3658417359832393	11.77586121341474	0.07270525271124707	1.123814661603402	0.15991200667801225
3.5	0.34910107611700614	3.5642368176870614	11.380193792239945	0.06268674490844747	0.802043662296869	0.10477095686753668
4.0	0.22352774902260247	3.677257499220857	9.751781694248075	0.06395736663542931	0.5971866508949465	0.07118746671163739
4.5	0.14690945101936903	3.708291100532505	7.422360310166465	0.08489317113943055	0.471705409463631	0.050763547299762915
5.0	0.1003702320003355	3.537191549214931	5.22667362412183	0.12996322915763736	0.39541331283528564	0.03842133403000847
5.5	0.07213016077575303	2.8984419047745464	3.6699007288020336	0.19212518941018236	0.3491058173456998	0.03145741184751181
6.0	0.05499930593436162	2.0118372290929116	2.6686446837610363	0.26714503843614057	0.32101374458047166	0.03135535210651342
6.5	0.044634101511846644	1.29579663923149	2.040041126634556	0.35177032616912945	0.30405531533766716	0.06600934608282576
7.0	0.06491343430390271	0.8170796659483834	1.6509977012483927	0.41244009316695696	0.3576148307673022	0.2783329126511254
7.5	0.4800313847798091	0.6014629913473994	3.5473838347967814	0.2894262273145846	0.9726794271869246	0.6808673450339274
8.0	0.8473674885239828	1.4697154472997767	7.0696170409398364	0.19258137547374235	1.4423980069615796	0.6857731322863162
8.5	1.0177374023155692	2.3667703394226627	9.46179962701276	0.13343814717790253	1.686454636950061	0.43826019819668555
9.0	0.8902199658558546	2.948675247806342	10.936435501019577	0.09753334393700436	1.6006167435215861	0.27556503484925365
9.5	0.6040695523611639	3.3099006906488575	11.711475909632648	0.07593547417946453	1.207306798457525	0.17538440384974774
10.0	0.38412598004791915	3.530626380489139	11.573019524418985	0.06403039295736791	0.8588438722240807	0.11420257616935248
10.5	0.2450490477878622	3.659563934785932	10.173430671049319	0.06239419765016135	0.6323876156463553	0.07692853183495683
11.0	0.1600007035289675	3.7112054260805145	7.932579544390021	0.07844227843205946	0.49315861088434954	0.05425143679875394
11.5	0.10831681849140484	3.604431791487793	5.638833255482188	0.11876157854763365	0.40844251453921226	0.04051162444623783
12.0	0.076951316634966	3.0716983243418587	3.94452328476829	0.17800882909385957	0.3570119075241471	0.03251623471947102
12.5	0.057923572698874694	2.1919424662800564	2.842366685047568	0.25030546374161233	0.3258087338304344	0.030314259198904094
13.0	0.04639008421806605	1.4252679463299172	2.148911384421312	0.3338224145930563	0.30691062853319306	0.051329426785095486
13.5	0.0460987195436274	0.9006297983961439	1.7141486597754847	0.41150884610763994	0.3130468582254935	0.20954983478716444
14.0	0.3803941066301025	0.5909991901692048	2.77622025382128	0.31621265636430473	0.8403177081019746	0.5997445783563093
14.5	0.7854485450490396	1.244068025826824	6.418562678173877	0.20919583568104572	1.3633892265316616	0.7394534924115176
15.0	1.002370273327692	2.2068395716831777	9.046979276335373	0.14354360401391233	1.6554131693405956	0.48317028814183893
