# Time series from syn_net_6D_20191104_a_hillmodel.json, output to pipeline readable format
# Generated on 2019-11-18 23:45:34
time	A	B	C	D	E	F
0.0	1.2510902430599902	0.4601233471404399	2.7208501114599835	0.329347203216197	2.132797178153807	0.5663111946945008
0.5	0.910159741020383	0.726185830909114	3.723545062062008	0.2550398454466885	1.5493956112318918	0.36961763102482165
1.0	0.5865445834348598	0.9379968913237121	4.043319361564237	0.21830260886310549	1.0405528346623798	0.24715245497101443
1.5	0.3714869735465659	1.0508066825794018	3.2923669991800226	0.2663330313092117	0.7044695692466008	0.1725239747516715
2.0	0.23834889440749069	1.0078233466638793	2.2516327488138956	0.6282957123267862	0.4965604860985506	0.1272186430529401
2.5	0.15713554028129817	0.7680020449423952	1.4581395522304115	1.5707737339814907	0.37190849832393547	0.10002230301112648
3.0	0.1077791222409775	0.5290935061798959	0.9416085694955283	2.8244316065522668	0.3106272412133185	0.08577544627661772
3.5	0.07782826346734785	0.36946042884622593	0.6221246694501578	3.7617835113063824	0.3218080266502233	0.09083596522196025
4.0	0.059839742947607535	0.2708994480337445	0.4402242843818982	4.016325859574797	0.382313742521094	0.14890529403721137
4.5	0.05496295298409759	0.21089952401981005	0.35670260783792096	3.6706066541987914	0.46558071210094837	0.2960723896475952
5.0	0.1335744473925801	0.17448312071210093	0.3705678842612049	2.8386901762651258	0.7682751383191915	0.49108365807956306
5.5	0.4143120494760694	0.15243460680694512	0.43958921101484544	1.9860934528238827	1.307317385121783	0.6674144922015478
6.0	0.7671072321387233	0.13949513125404445	0.7349472401326067	1.2813686361678076	1.7668882444360268	0.8005004190501602
6.5	1.0586246899551697	0.14154048505626904	1.296052614502494	0.833499929034983	2.0831667837632337	0.8893153659570059
7.0	1.2606237117590193	0.1953864022882665	1.7887659411053503	0.5602607437317461	2.2806925035965566	0.9011887861998037
7.5	1.3326947674537615	0.33395733967926394	2.2913131986654727	0.3942382736746063	2.3118207032523794	0.7122001575179323
8.0	1.1199314118575812	0.5722766437836802	3.1239545096075285	0.29370134196171493	1.8958966858241093	0.47041569827257684
8.5	0.7571220638674417	0.8264170306064681	4.010084656368672	0.2350299644822857	1.309101137784101	0.3091970941517335
9.0	0.4811958178437872	0.9978758428226803	3.7736449847994646	0.22116013713482258	0.8768412853289607	0.2102843814790626
9.5	0.30582362965170123	1.0565087620114415	2.8308808003909496	0.36409891648487297	0.6024447888656289	0.15012584748116975
10.0	0.19823165551985594	0.914845751975484	1.8629721623398559	0.9610614601064664	0.4346847822640331	0.11368813475168417
10.5	0.1327435203189655	0.6528394722950003	1.2021845219652934	2.110208232194809	0.3378976450971165	0.09232563644550287
11.0	0.09297170364484324	0.449116656089199	0.7813116123346558	3.293126701585125	0.3069151054662549	0.08456118156650186
11.5	0.0688680923162739	0.31975452622458184	0.5282179375465511	3.9508156150419014	0.3464560752055704	0.10698870217805186
12.0	0.05511726816114067	0.24060418723210847	0.39342100594035406	3.912607809890092	0.41306945322776556	0.20356043388927497
12.5	0.06967995251264612	0.19250413683032527	0.35005027021023066	3.3425603542209243	0.5533316625437449	0.3813255189633042
13.0	0.23556527974682812	0.16333675799635836	0.39797531519425194	2.443527051770419	1.0021726794187618	0.573968227800573
13.5	0.5731619485184922	0.1457282213696254	0.516368969403384	1.637262935245381	1.5291064421314808	0.731926319063023
14.0	0.9068743926484426	0.13707786395963176	0.979911393177097	1.0539858766210801	1.923523147450724	0.8455300170465094
14.5	1.1596394296305164	0.15639803216734702	1.526894974860948	0.6945203423293005	2.1843120914573726	0.9100582342914477
15.0	1.3157957871253645	0.24518654171036625	1.9938750105452956	0.47577708386798534	2.32733196474033	0.8438142460537807
