# Time series from syn_net_6D_20191104_a_hillmodel.json, output to pipeline readable format
# Generated on 2019-11-18 22:44:21
time	A	B	C	D	E	F
0.0	0.1138183313466072	1.377903151189634	3.533723722640554	2.011816585378578	0.8553988284794091	0.2569037699573471
0.5	0.10657556688668031	1.01966780330995	2.6266299547552925	2.401514357927308	0.7881231763455422	0.3139163070680368
1.0	0.10225861489579709	0.6966615243916353	2.029695069521124	2.6527890716095524	0.8200084950156569	0.7087934065573471
1.5	0.1055659250013499	0.46920626643404534	1.6647215144301513	2.4742828755339423	1.7487052343823106	1.6043492640223826
2.0	0.1751242409713657	0.33000472350225674	2.0720776368021605	1.612387314060598	4.687723675171423	2.4726875845061893
2.5	0.3677123423536807	0.34234616806956814	3.332321416204252	1.031457758218897	7.3293867381728885	3.0521030496123824
3.0	0.5923883100536802	0.6178099362863769	4.923843482657055	0.6438480328409084	7.461051086483677	3.21315856376992
3.5	0.6398058460166913	0.9915121728096026	6.89435874949666	0.4035157315052865	5.67900262825948	2.501691745416541
4.0	0.4909361214046518	1.268827585809866	8.338685345514625	0.25962775382138786	4.28140499867648	1.6883590516216724
4.5	0.3449746991542678	1.4468022217730137	9.078218160586603	0.18534705272229762	3.176140856147361	1.1226421386013856
5.0	0.24808478956942326	1.5565954840590845	9.074269813702697	0.1875387051494165	2.2698328191867683	0.7596263438957617
5.5	0.1882069438504	1.621209069793189	8.434679083766195	0.33399169706734483	1.6497495167229184	0.5318553843269611
6.0	0.1517279858119697	1.6518453003015472	7.139853116211192	0.7461264607262071	1.2612136770248177	0.39046311978807113
6.5	0.12957472407487525	1.6253364205147058	5.268953545983026	1.3410196526024853	1.0233946377753125	0.3044134025147294
7.0	0.11613235898162837	1.4488788314468088	3.8073583012655052	1.8985539276828456	0.8796416783711061	0.2601601925621397
7.5	0.10797846640724751	1.1065431616096113	2.809057436855757	2.321912606014056	0.7986404682357072	0.2841608617040505
8.0	0.10305749187997916	0.764780971600288	2.1487617237784935	2.6066104536440218	0.7933849066349612	0.5633496481565432
8.5	0.10253684097538822	0.5147594513068231	1.7264245666088054	2.634155884922352	1.3148550645530712	1.3726238609878496
9.0	0.1472683624227694	0.35448004286817886	1.8511153728245011	1.7904514407764875	3.930337513306236	2.2915874066658244
9.5	0.3139167942766217	0.3168280701143681	3.0243734410410497	1.1496170184801406	6.8356525926796206	2.9415543826938424
10.0	0.5454878659655111	0.5321952499073956	4.482451332092518	0.7202338439783235	7.7579991483194375	3.2464730305109244
10.5	0.654206075300426	0.909014278948175	6.4532115902176415	0.450097021799872	6.0848315379851385	2.7142299427778824
11.0	0.5308332199755252	1.2132941793664134	8.060863853022749	0.28692143738397297	4.573400097913537	1.8593975888690777
11.5	0.37502257387765864	1.4118965792665927	8.967866954335683	0.1968764527661124	3.4243716742689387	1.2355307441130203
12.0	0.26709077819737714	1.535362673589546	9.141435012006593	0.1781662323077745	2.4591104849197847	0.831129933056222
12.5	0.19984154270507815	1.6091530471240176	8.63357313656451	0.27882342906287144	1.7723802837150462	0.5764887445934613
13.0	0.15880149510840125	1.6478186798006067	7.535184057611287	0.6238143985819858	1.336934872157194	0.4180525427189735
13.5	0.13386820511544092	1.640809084830393	5.691224396460026	1.1966176112504634	1.0695323039534521	0.32084915349437376
14.0	0.11873718767842398	1.5092016834798267	4.10716399492166	1.777343241259786	0.9072695145657219	0.26665443891994683
14.5	0.10955819695338792	1.194157428001422	3.0103051850335016	2.2345705769797526	0.8127444025169883	0.26705984368947977
15.0	0.1039992953529044	0.8384555552166194	2.28072333898792	2.551520833388614	0.7826512986672307	0.4533647039715007
