# Time series from syn_net_6D_20191104_a_hillmodel.json, output to pipeline readable format
# Generated on 2019-11-18 23:40:10
time	A	B	C	D	E	F
0.0	0.38518639115008435	2.443235635774457	1.964822633634319	0.5540199760609501	1.5231145574586435	0.3324734912759541
0.5	0.29868315836219833	1.7572607569740244	1.3774612586382415	0.9045182708969757	1.244043862024988	0.2982902480591432
1.0	0.24612761698925192	1.130046093195614	0.9568489211828745	1.4819475682372985	1.0876825204733653	0.2784860791294969
1.5	0.21422062059608069	0.705001872378472	0.6905408122332759	2.006726348350169	1.2133152780513283	0.27629547450665787
2.0	0.194996215148322	0.4397304742729403	0.5628792883002035	1.868792638581461	2.289558978547654	0.37334204206558286
2.5	0.2032598991045994	0.2793772690725917	0.7196893684611382	1.4818839596500486	5.600055441004984	1.0446822757742598
3.0	1.008949295321955	0.19264990639372837	1.0361660076936718	1.096488613885782	8.905621556294559	2.502825980663543
3.5	2.3216901344799536	0.27438595472796684	1.7058545753119743	0.8048657908528002	10.937293683956828	3.5122832058672477
4.0	3.098922248308208	0.7484026167006622	2.3636602744400865	0.6279228579150524	10.461602416170455	2.5467730111791926
4.5	2.995672960357488	1.4302712940145994	2.93947406805088	0.5206338908402195	7.298935774974392	1.6455847306382956
5.0	2.183216018329901	2.015696508676995	3.360404890044938	0.45579102587626424	5.141392815595495	1.0949103203227626
5.5	1.4413370735286222	2.432144652212016	3.5992354509651956	0.4175597088916246	3.798015419582756	0.7606796712826113
6.0	0.9487391941622109	2.6996043919509334	3.5782701596428645	0.3985992670392943	2.9068737199402856	0.5579165018235579
6.5	0.6426031662313983	2.8239769076630683	3.1235456280735083	0.40282032388755723	2.239040216849577	0.43492211223273197
7.0	0.45534597673373495	2.6975568034336734	2.3633936976346304	0.4634365844545118	1.7353819512667787	0.36032199431650597
7.5	0.34133621942310527	2.1548545040677305	1.6832776267176823	0.6764578306920137	1.3836698154840175	0.3151043672624311
8.0	0.2720372469534763	1.4544868058934923	1.16878062964597	1.1434549540451382	1.1577496683061652	0.28793874557020066
8.5	0.22994652183308678	0.9170503815464334	0.8219374890112603	1.7510629360369245	1.0814753680884506	0.27410571372403275
9.0	0.2044166243465349	0.5708779673861669	0.6118844271738034	2.0472770992755462	1.530429105616189	0.2936437604175847
9.5	0.1898652483212868	0.3578331207403664	0.6018440889885347	1.681189684608872	3.404426720174224	0.5527537097577272
10.0	0.36212491419660314	0.23230625698041	0.8110483230887201	1.325657649168574	7.252063872537988	1.654200504845947
10.5	1.6398309405430753	0.1921072625807088	1.3356016463478075	0.9486253122531435	9.94612758752933	3.108261309584713
11.0	2.7493489582188086	0.43531107614278225	2.001810845888285	0.7151257199847967	11.35864734746358	3.2127892552170034
11.5	3.183758318475642	1.050100315519511	2.636225445951624	0.573497662884291	8.979947966607979	2.0919154686985495
12.0	2.664610008781422	1.7111661192852567	3.14774466177702	0.48768109807786036	6.211452875672105	1.3663850952459922
12.5	1.8219298903265249	2.221345579999757	3.491432929151784	0.43610876148846933	4.4665710875886235	0.9254099721927007
13.0	1.1939390328424715	2.5680587448320726	3.631195731697307	0.40686331126969466	3.363284575846629	0.6578470343544078
13.5	0.7939460966760267	2.774965938755635	3.436558690663721	0.39667678111213955	2.588538677843439	0.49553816087233665
14.0	0.5477457405624162	2.811901305135146	2.795100835636152	0.41889470286741387	1.9948836523609115	0.3970860942043261
14.5	0.39755783861510835	2.5043422426427475	2.0394791517184268	0.5312992854211381	1.561534332435589	0.3373794324267591
15.0	0.3062021215869297	1.835641895536194	1.434014839645248	0.8527884597861906	1.2688017778311287	0.30124247580922264
