# Time series from syn_net_6D_20191104_a_hillmodel.json, output to pipeline readable format
# Generated on 2019-11-18 18:51:30
time	A	B	C	D	E	F
0.0	1.4703029275284334	0.8014787269405841	2.05820682481588	0.6436339026191188	4.188471418656347	1.1990541474498406
0.5	1.4212936622725212	1.1289741339205244	2.47633348580329	0.5842830885887641	3.2361565858229073	0.9424291242838657
1.0	1.1768828807559235	1.3487619101510453	2.7333773985060885	0.5579195480538794	2.3574717414686135	0.6689287376399102
1.5	0.8138929671879613	1.4875858580685948	2.7929622745620537	0.5902058042484472	1.6853352090165983	0.46580651400887707
2.0	0.5208164619715883	1.5697237448462038	2.6090269080825115	0.7945643889587738	1.2473241741966585	0.32899530000086136
2.5	0.3288495182114214	1.5912262833899022	1.9387049108936851	1.5774758129426627	0.9764220661270183	0.24094368942382677
3.0	0.20986733041828048	1.418713458086492	1.2430675316582174	3.0453497324329013	0.8113549349335754	0.19443635523191585
3.5	0.13754975352008014	1.0272822099682912	0.7997710045602275	4.3185323675749085	0.712889811909735	0.23327883723953582
4.0	0.10443084512982438	0.6904542922288227	0.5257780136479824	5.16543653609473	0.6705655232098212	0.45462240978800594
4.5	0.2118585048858489	0.47156694488596756	0.36140157912006515	5.642045596097919	0.7967441274491961	0.737303821125648
5.0	0.5097653002590147	0.33696645662680014	0.289119600909146	4.787626785386088	1.4004867667679464	0.9450851000696552
5.5	0.8169361761974234	0.25510567564123976	0.2714784766250479	3.2141301665785607	2.372991405930913	1.0773292124570106
6.0	1.0536804526239214	0.20542938228178179	0.2752556553081216	2.155270683789727	3.3210689152245876	1.1587395248638532
6.5	1.219439973569491	0.17542996942943295	0.3306221301881814	1.5022770851307317	4.077346779239787	1.2084104239089906
7.0	1.3309400782942284	0.15949741821644536	0.5555346628863108	1.103922229477754	4.630939025161445	1.238626309136777
7.5	1.404435012224034	0.20127217291275895	1.0475744464490835	0.8615330114920553	5.013041837621736	1.2569325560367504
8.0	1.4519908973893203	0.49808989377574225	1.6525803556760743	0.7142313661509276	4.916633931554001	1.2622058217525445
8.5	1.4695846346321717	0.8947326834345413	2.1777180691638445	0.6254026485382588	3.9405645552261364	1.1481601962542964
9.0	1.3812455586384602	1.1936082168029043	2.5573004177814296	0.5743975101073132	3.0043616087578626	0.8687345684002548
9.5	1.0869785466453519	1.3902386105446618	2.768307271897551	0.5581519401791649	2.1643176835554128	0.6106776677879632
10.0	0.7299888276919447	1.5129275028114797	2.774335648678076	0.6175650132657179	1.5551837857924102	0.4257923171036836
10.5	0.46383272946012694	1.5827111416662103	2.49369178494715	0.9106894491487898	1.166116805044471	0.3028362981784171
11.0	0.2931985422077635	1.5749018323576165	1.737644603483929	1.9173249379791022	0.926781560128695	0.22500779331753826
11.5	0.18806021541240175	1.3293113339985103	1.1108665382555425	3.4064092770178918	0.7813397423827354	0.192176227892515
12.0	0.1247315675649768	0.9309488611909599	0.7177438116817163	4.569216036927441	0.6961947117226084	0.2710587906101416
12.5	0.11040857533727874	0.6252473638632313	0.47556862752686624	5.32207375885995	0.6758547570300382	0.5288452783312984
13.0	0.27578930388407613	0.43115976811861084	0.3344118446154818	5.638431110424596	0.8952782691145453	0.7979169549753191
13.5	0.5917602564961197	0.31235478761976215	0.28217535132037996	4.3577481714098205	1.628308638098893	0.9845271682206259
14.0	0.8838765840725452	0.24016340981002568	0.270247888633729	2.8991315500963393	2.6249234373497434	1.1017423149726655
14.5	1.1015394031489605	0.1963750928602417	0.28154151262655397	1.9594468227818223	3.531619777560555	1.1736589984189845
15.0	1.251944226883999	0.17006992541028954	0.3646767638780618	1.382631032541925	4.234792090863773	1.2174920535866331
