# Time series from syn_net_6D_20191104_a_hillmodel.json, output to pipeline readable format
# Generated on 2019-11-18 21:57:34
time	A	B	C	D	E	F
0.0	0.5403577047271825	0.1561532848908506	1.382657430992753	1.1714969885771125	1.0636146138050073	1.0208162963583916
0.5	0.543124108825391	0.6224893660638877	2.3094606951068553	0.7585519284885894	1.0001697090160055	0.6560271211097688
1.0	0.3862716200020471	1.2571417348363676	3.3494846162759067	0.5408698813235948	0.6871396926527112	0.4119079405995702
1.5	0.26487644603655963	1.6991828511548441	3.402491938312009	0.6277210046756921	0.4370960239595811	0.2637999322763112
2.0	0.18842840931270025	1.9242142956494677	2.5745117545542002	1.18532346034574	0.2727688041189159	0.1739658768672398
2.5	0.14174626915011773	1.857077172690141	1.859234324352982	1.7595578447797673	0.17149691015929414	0.11947856064696985
3.0	0.11339165446963044	1.479775942189979	1.3723263251836857	2.1418981557766554	0.10986708967233928	0.08643128061090477
3.5	0.0961873391283282	1.0324343012965151	1.0475342988227037	2.3773941817104136	0.07248517280706823	0.06639426832297239
4.0	0.08575112654570632	0.6874440892488429	0.8436217228628389	2.520632800498456	0.05004693857917422	0.05429749854481952
4.5	0.07942091333059219	0.4572419112092061	0.718654658125222	2.6075639282127456	0.03805664466097715	0.04740062881512136
5.0	0.07558135610730486	0.31087865179683105	0.6425382038180729	2.6602978583957655	0.03644405169866753	0.04631460208474616
5.5	0.07325272501002981	0.21951924411604426	0.5962997548103027	2.692280924727018	0.04150484400019206	0.06327450437086704
6.0	0.07185100159140824	0.1629565814318104	0.5683029510419869	2.711673436909831	0.04692747831869057	0.14263245231408436
6.5	0.07194480175238328	0.1280817270668083	0.5516952850861228	2.7234110121158595	0.06826998943587403	0.34144885367990185
7.0	0.09689882602348836	0.10697108223180626	0.582325344127377	2.6977876775780647	0.3105418116402348	0.6265385446272005
7.5	0.24400174392761528	0.09602135815045969	0.664869916458515	1.9963968622157253	0.7165316289595277	0.8983501621235254
8.0	0.4976210059265875	0.12385530234131586	1.217853325945985	1.279590402348036	1.0195032746793378	1.0540574926768569
8.5	0.5671411908896964	0.49724828716645175	2.1052904910254684	0.8238120985797129	1.0607021916410138	0.7202372707030368
9.0	0.41621727313668794	1.1438196638380094	3.1851837777631276	0.5676473512469266	0.7457735683704584	0.4509222465932007
9.5	0.28479894245728293	1.6289938713697922	3.493661272374396	0.5705958509536706	0.4793284374590708	0.28746453624079565
10.0	0.2007000684534886	1.899032162301901	2.7469874094167337	1.0573095172252052	0.2993230231989198	0.1883193424221782
10.5	0.14921191218076005	1.8985028399190131	1.979210720085415	1.6614036353430224	0.1877189663395666	0.12818435434161246
11.0	0.11792300715150901	1.5688762759137036	1.4543207004722234	2.080117672234841	0.11972128974282585	0.0917112461074926
11.5	0.09893631681059777	1.1149163781572946	1.1006054122011046	2.3396824761468817	0.07845308528097278	0.069594009033179
12.0	0.08741859841039878	0.7456542991379757	0.876413920583636	2.497730433089477	0.05357557738675035	0.05621661310628593
12.5	0.08043232729479115	0.49496701898982304	0.7386719209378997	2.593668734986858	0.03963177426517342	0.048397796270349014
13.0	0.07619481576261719	0.33460910862429355	0.6547150943143226	2.651869549086071	0.03598498297494798	0.04579077660623589
13.5	0.07362471202063224	0.23426414174050714	0.6036877890944939	2.6871696573652497	0.04035953054252756	0.0570074216994293
14.0	0.07207022652755361	0.17206521535388114	0.5727679925919866	2.7085747743549935	0.045892078977693165	0.11870214808296987
14.5	0.07154322096509569	0.1336904378442678	0.5541959996237312	2.721544560784316	0.0578700167437878	0.29257793085965783
15.0	0.08602989950834396	0.11023658318242996	0.5693992670825955	2.721470925505749	0.2355900235322415	0.5683992347968679
