# Time series from syn_net_6D_20191104_a_hillmodel.json, output to pipeline readable format
# Generated on 2019-11-18 19:33:10
time	A	B	C	D	E	F
0.0	2.807828809676364	0.09380731992118563	1.346430336980509	0.9377792709223466	2.1690365534314964	1.9103650143310669
0.5	2.9364324923818317	0.152794969189098	1.806502337354866	0.5844897847925278	2.4148024939997437	1.993683785011556
1.0	3.0144058504075426	0.434773981048314	2.7432672081167038	0.36959975520221877	2.231278649111004	1.538231785573859
1.5	3.061126679219734	0.843898521484836	3.5874766005224914	0.2463076270241698	1.7127369676127684	0.9659945381994681
2.0	3.0837188993099534	1.15990055223892	4.142215332417342	0.20286931710605866	1.236476334069536	0.6126455582354133
2.5	3.0493343333848597	1.370093054134201	4.455666690948897	0.24826778771136418	0.9074153927141351	0.3979776868675646
3.0	2.7745685565835694	1.5027421906302514	4.502069423939233	0.3360539711045991	0.7027587578990416	0.26770497093350304
3.5	2.116355910992124	1.5783560753589674	4.138317758416178	0.4156476453036442	0.5780048806648328	0.18866741901664077
4.0	1.425675540483792	1.5963725482418378	3.447591537329364	0.4917560950981213	0.5022469689869461	0.14072094911272862
4.5	0.9240827114076093	1.5210869317354743	2.7058783773827555	0.7020570797396888	0.45628392686634983	0.11164449847701953
5.0	0.5987626538745803	1.2620312459720422	1.9542973037498081	1.594726745886257	0.4284220425092243	0.09405324225729578
5.5	0.39513709383358947	0.8884939294214053	1.442039461090703	3.1422608062123003	0.4116712076217116	0.08372157515934942
6.0	0.26959450267721935	0.5815063769762723	1.1256766022826024	4.419919308279786	0.4027793320577667	0.0803407414031947
6.5	0.19586653049831404	0.3739520796218261	0.9327445027888663	5.250307182174474	0.4080358626507977	0.10354729989553815
7.0	0.3729212053670845	0.2420248746021525	0.8275850063867324	5.740021381297223	0.4665217346982738	0.2806755943986571
7.5	1.3745883142586495	0.160491958164656	0.8148991451469605	4.385525880299323	0.6106165032373736	0.7664610523686551
8.0	2.065809343224363	0.11247142153467421	0.9263248802804824	2.8570834778899035	1.0254842072923476	1.2771607789652708
8.5	2.4862255652430196	0.08960767026097648	1.095081185449269	1.803538366951294	1.5963613831812344	1.6319320320996114
9.0	2.7413367675123834	0.0883554429131455	1.267355226300987	1.1191790464210118	2.0426181422830783	1.8533642631839968
9.5	2.8960986259741053	0.11771937874277055	1.5723519741638285	0.6956543617015761	2.341044681756893	1.9798094253958038
10.0	2.989968039337549	0.29660276292744947	2.3752415052705143	0.43672393078311106	2.3915639957764094	1.7959193685260975
10.5	3.0466767099914187	0.6981791956686456	3.309197757665048	0.2829758086430705	1.9077653740832303	1.1480432837287362
11.0	3.0785827654461686	1.0564347262196236	3.9674182182445583	0.20862815687599273	1.3978516484445342	0.7235980086905223
11.5	3.075370396888114	1.3027778747718397	4.36615329829917	0.2226222088827204	1.0122362659056978	0.46533746290604633
12.0	2.923752232134488	1.4610125882870528	4.524139840557647	0.30290634009408923	0.7671547013994894	0.308577500297894
12.5	2.387830600363642	1.5564241298848847	4.32696059393816	0.388101836314297	0.6171703116793692	0.2134639572041534
13.0	1.6633363921539677	1.59771496721289	3.717694402354985	0.46065699040885044	0.5260190511404061	0.15576242260876813
13.5	1.0866109526538488	1.5644471446561938	2.9874505108360423	0.584815532011631	0.47070405332439397	0.1207639967233286
14.0	0.7022709710577051	1.3830437190224931	2.2116268619931145	1.144504033930774	0.4371572790767872	0.09955772786813717
14.5	0.45950222122127693	1.0253379946450716	1.604021652131481	2.563988401482466	0.4168780484469067	0.08685278718964472
15.0	0.30908860468481775	0.6830920418484037	1.2254002716879993	4.00268715960347	0.405145985832573	0.08043609864812416
