# Time series from syn_net_6D_20191104_a_hillmodel.json, output to pipeline readable format
# Generated on 2019-11-18 22:50:29
time	A	B	C	D	E	F
0.0	1.9667861779590219	0.3480204215287064	2.794897767584302	2.0036692770169204	4.118415930442797	1.1543521148291676
0.5	2.5166546235502154	0.7638938368809474	3.5786258898917995	1.2993596575297899	3.4491316486057078	1.1365344444319858
1.0	2.585342038617246	1.3282155855176871	4.135826909426993	0.8381433147472575	2.73508957676697	0.7958252251556858
1.5	1.986521025079591	1.8216084976705962	4.437097975287804	0.5965927659039706	2.2782724042961693	0.5136842039919358
2.0	1.3355707536052805	2.1726625776719564	4.509918708702461	0.6503151531586653	1.9107797845765286	0.33450288455846383
2.5	0.895105096048551	2.3588030471170613	4.234147000207795	0.9947597486344066	1.4828888068113408	0.22423157641244204
3.0	0.6222107309909654	2.2580345725484587	3.3970951345498377	1.607316396883713	1.1029322967278254	0.15716530305316456
3.5	0.4558916714703625	1.7361094642469455	2.3744531651548018	2.4699293901589354	0.8451526797886606	0.11863404619617261
4.0	0.3548961029357939	1.1352420128297782	1.5885365692707258	3.2799543204020027	0.6849315599095256	0.1155818736765995
4.5	0.29448764791444426	0.7097190870091619	1.071457315727726	3.872471404033805	0.6229672476698425	0.2502488999605596
5.0	0.3413223790780081	0.4430957976195812	0.8232863522516508	4.026761424281813	1.0951031618969134	0.595273440731039
5.5	0.9182121002562295	0.2846602543942312	1.4609816153208721	3.18663218429468	2.3966450783468667	0.9068664294920055
6.0	1.726207476454494	0.2815278512093625	2.4967781231575352	2.2908733900028575	3.9231068673466765	1.1081579581392715
6.5	2.3644623508323592	0.5933393254708114	3.334081282446704	1.5080797612900971	3.751316395207023	1.1878056438117899
7.0	2.6458264745903817	1.138604952455413	3.9783470799723326	0.968605156342606	2.940588890566378	0.9155024476749838
7.5	2.227286189532435	1.6701869653365506	4.361762979901161	0.6513303799394816	2.4120594690089368	0.5955697448160472
8.0	1.5325182168862375	2.0713085987937876	4.512555594772306	0.593418974093311	2.03791942827522	0.38549848966469685
8.5	1.0211614013617822	2.3183068286765773	4.385043746094519	0.8536785304138583	1.6303676103886566	0.2554755301074052
9.0	0.6995211085995161	2.3387417696619384	3.7313369137355132	1.364530238910746	1.2173864453093117	0.1760529761407779
9.5	0.5029111417482295	1.9453888990884989	2.702853232531693	2.169601926724553	0.9192286505663523	0.12879312145730792
10.0	0.3834279551525872	1.3216547604554398	1.8201405764884984	3.028517042466198	0.7300267145209036	0.10977809918042734
10.5	0.3110813494620404	0.8323456536026514	1.2196271628713158	3.6996609571114716	0.622578172366971	0.1770299011489211
11.0	0.2906279887891585	0.5186982002353508	0.8589602981611382	4.079848463129973	0.8563829487463193	0.47093842368174266
11.5	0.6632053297487152	0.3272834396912974	1.1200261629670556	3.5084645520383577	1.855651789944652	0.8148090562489246
12.0	1.4641019993518598	0.25353781389379265	2.1748193053021176	2.5891605522967867	3.500589703365292	1.051368998721637
12.5	2.1764601836185946	0.4510594287288443	3.0683590020749136	1.7459453133777714	4.0237460721063885	1.1853180604840599
13.0	2.6155362184312008	0.945737190436264	3.7902425605840055	1.1236175015886674	3.180765010122371	1.0376120159164033
13.5	2.440219980413356	1.5032250236668827	4.2605657111792725	0.7341457148599724	2.5640797046317996	0.690578721486136
14.0	1.7541235100684152	1.9528363419949508	4.486534331622822	0.5759290453310852	2.1587597617454293	0.44548732156129467
14.5	1.1689238778974858	2.2540162922739158	4.472338588534484	0.7375489866592231	1.77680066674562	0.2923621645161094
15.0	0.7908193956753894	2.3686596897410164	4.018728319108832	1.1597046519819478	1.3462101343704238	0.19849469493240687
