# Time series from syn_net_6D_20191104_a_hillmodel.json, output to pipeline readable format
# Generated on 2019-11-18 21:29:15
time	A	B	C	D	E	F
0.0	1.5452118806555941	1.231492884987258	3.7932631283413087	0.03676941533787634	0.12521511853479178	0.6427253610192885
0.5	1.1377785072486308	1.2923591653524917	3.2066430616747517	0.04956062342148729	0.09651788113096262	0.48945027421128035
1.0	0.7972041147532459	1.2171733584093412	2.505328320760891	0.09463028378616324	0.07723373977734715	0.3964860397211959
1.5	0.5617142927755611	0.9927335212376814	1.9598695209481247	0.14970886456584226	0.06495224059338808	0.340169231864151
2.0	0.40916028121936826	0.7165116470575649	1.5393518909597739	0.19097866662571514	0.05731059751138117	0.3064371613865321
2.5	0.31294630791156647	0.4826180726112886	1.2206640575197873	0.21756812733132785	0.052636718329613794	0.2890933344539343
3.0	0.2541362950273137	0.3176856083069178	0.9946824995182059	0.23402302511957512	0.05008514292533069	0.3033146218947349
3.5	0.2381485085574051	0.21027512757704372	0.8413726205086571	0.24407985619275532	0.0513309737271398	0.4766194667945344
4.0	0.587726677824337	0.14260343360264835	0.7411405468624142	0.24911497485800244	0.0831258842687008	1.1059534640913253
4.5	1.1363785379026767	0.10083168127486129	0.7541685746429704	0.21971117120324052	0.2132911363799847	1.972412412409299
5.0	1.4910635963802357	0.08323188798914521	1.3049427668249545	0.15876569962641202	0.4253769398745246	2.646876388357913
5.5	1.7078024311678348	0.20908501301641919	2.3411560990146785	0.10875442831969538	0.42948161484485997	2.779822241233005
6.0	1.8367221144019337	0.5639923553053158	3.2152250656603925	0.0751116235488689	0.29414076333623	1.8470796035403054
6.5	1.8910002690621301	0.8886893379733085	3.7115312437787007	0.05346211828743074	0.2101662865863865	1.2210053950500792
7.0	1.8001964145269365	1.113230188483742	3.914615251352998	0.04053192468645793	0.15687434169511646	0.84033479117588
7.5	1.4737344514693154	1.2497666880170235	3.7193777630553186	0.03719921436086161	0.11930638843193878	0.6093309350653051
8.0	1.069108046041848	1.290663931259824	3.0753412867363634	0.05527969407272801	0.09242728963965158	0.46919312592074675
8.5	0.7476306501945815	1.1861910162609155	2.395377087336553	0.1048560711700922	0.07459245160172202	0.384204393459726
9.0	0.5291038798847506	0.943510707385088	1.8767435959246397	0.15832976118777545	0.06329896644920702	0.33275125993379695
9.5	0.3884387711061827	0.669854887355472	1.4748202865744882	0.19669861408880893	0.0562910561135137	0.302143779846161
10.0	0.30004408705654817	0.4480629225503854	1.173829284091146	0.22113636255349378	0.052030106418899706	0.28809336977952127
10.5	0.24685410733096885	0.29473164953661846	0.9624971529965755	0.236210599194526	0.04988095665860358	0.3151735792403861
11.0	0.25246209646992585	0.19569287520484013	0.8199188730721368	0.2454072353354662	0.05287998779371134	0.5500646091203258
11.5	0.6979745180308008	0.133518574988678	0.7291920913569809	0.24821870661041118	0.09769161479775401	1.2613415773087295
12.0	1.2131861719876669	0.0954360079450746	0.7965988740826858	0.20918055934389368	0.24883859412038353	2.1127139044868932
12.5	1.5382336504240621	0.08722011974797496	1.4752891940368564	0.1485624171136914	0.45695543632609875	2.7381148327006457
13.0	1.7363935627908027	0.26349542152542993	2.523403496428985	0.10163059283482567	0.40103758799620587	2.616814545950567
13.5	1.8524552250665267	0.6290517161718038	3.330079580039456	0.0704731955209229	0.2759246659943289	1.711024404699986
14.0	1.8893539643282111	0.9361092529208798	3.7685806728898936	0.05055581621699719	0.19889941803864208	1.1380914577687153
14.5	1.7581314231312317	1.1438530534618323	3.9158255030675	0.03908425529523408	0.14925603833490034	0.7900085562172765
15.0	1.3999662211999961	1.2651355362486518	3.628825595529461	0.03828229319491229	0.11373801595460338	0.5787984929870871
