# Time series from syn_net_6D_20191104_a_hillmodel.json, output to pipeline readable format
# Generated on 2019-11-18 22:03:52
time	A	B	C	D	E	F
0.0	0.30724559525347256	2.104785615757219	5.522272093449122	1.1881147139980692	1.1257566643098553	0.08037938084579163
0.5	0.22129356635488007	1.8319946555589068	3.9193618205497254	1.363729193754266	0.9865561116663213	0.05911188396465161
1.0	0.16913257650977284	1.337338421995663	2.900096539000192	1.474451381953971	0.9023754919744585	0.04626286550579857
1.5	0.13748930065127152	0.8836415100065638	2.257213186095022	1.5432872975041714	0.8535624260036963	0.038889217310536246
2.0	0.11829539982515262	0.5627819137397452	1.8565760931234707	1.5856634859102952	0.8446554067517135	0.03836048677206382
2.5	0.10666387386387531	0.35491709047282927	1.6333008719523567	1.6100252976001102	0.9959980367425514	0.07319259825599776
3.0	0.10522665821661514	0.22559932767670876	1.6029760248481826	1.603276763534373	1.53924879457981	0.26098697606467536
3.5	0.35979511119952695	0.14788624052947133	1.6653451137360498	1.4176636486416947	2.702303250112175	0.5681537815787426
4.0	0.9280719821564	0.11043326104580993	2.2121967084603202	0.9859668654231015	4.110814334427928	0.8089555821194242
4.5	1.3704935814696864	0.16359088457838056	3.0942249521079828	0.6301267300972824	5.063454871404112	0.9518568589488351
5.0	1.6425317518055673	0.4518274023838381	4.66507083960481	0.39511193900067976	4.937375003111128	0.8029615788194052
5.5	1.6176687131384937	1.0817753109632415	8.413948987225426	0.25467987189362495	3.6293297507767006	0.5022313955608961
6.0	1.2034038459745655	1.5770354612468664	12.150264698519361	0.21873129242369602	2.6229925548098687	0.31510510731357483
6.5	0.7906460943018689	1.88489729305942	12.588146812396264	0.42984855798935223	1.9138858242602814	0.20149732538248682
7.0	0.5174719832362195	2.0653092442931444	9.10553253478386	0.8006126699203355	1.4668552091477398	0.13257301420504453
7.5	0.3491658994867136	2.1273076095245127	6.275777928939257	1.1056827158112488	1.1936916909414328	0.09076336661732298
8.0	0.2467484847295353	1.9650629388523364	4.402860276694298	1.3108357224983926	1.0277624988849738	0.06540629021374036
8.5	0.18457727154010092	1.51793363480319	3.2064707231540046	1.4413311782227423	0.9272138244441827	0.05005106442827766
9.0	0.14685833022369987	1.0287087403020876	2.4499616499274133	1.5227620214108277	0.8672697912292199	0.04093318481156804
9.5	0.1239782081816825	0.6608295171283975	1.9755699701226541	1.5730979446012623	0.8403866643247287	0.037185319936628825
10.0	0.11010211757752543	0.41736717263433265	1.691381451940074	1.6033959477560835	0.906005274116892	0.05167265945849652
10.5	0.10230036088637572	0.2639411042852675	1.5945767593324023	1.6128621696849101	1.3074899697655893	0.17056733356857456
11.0	0.20449939783776233	0.1706816982689292	1.6381222942377633	1.525658883539946	2.189018764248131	0.4620570815600714
11.5	0.7331038527305171	0.11747375162408942	1.9217038081871387	1.1378550070467952	3.6609172306833155	0.7355573920440004
12.0	1.2347072389920188	0.12910250181022803	2.778068793737431	0.7406183869078233	4.784078197577674	0.9140179619431071
12.5	1.5682806326363896	0.30371208555573914	3.908196261233521	0.4655178213907929	5.256988721718937	0.9145451549769275
13.0	1.6781832751226842	0.8570471503456218	6.916149593333157	0.2945639624134034	4.054398877426286	0.5933049247145338
13.5	1.3691183912344933	1.427902677826864	11.018449031526535	0.21303871968789614	2.94472795372769	0.3705470716763971
14.0	0.9197673871020017	1.79370317796991	13.153886567767787	0.3220332877523853	2.128891106435108	0.2351408012397689
14.5	0.5991412118346766	2.0141727707185844	10.337707704912999	0.6711728136520305	1.5998228363324702	0.15298261030228466
15.0	0.399097447972639	2.122645889043808	7.149648696410433	1.0105542790482847	1.2746499914892628	0.10314343386593017
