# Time series from syn_net_6D_20191104_a_hillmodel.json, output to pipeline readable format
# Generated on 2019-11-18 23:36:33
time	A	B	C	D	E	F
0.0	0.07175278303714655	0.5760295288695113	0.8095347418350706	1.1443773934986547	0.18204579850325772	0.07525465054914564
0.5	0.049051182940631884	0.3566174350095714	0.5632308288694821	1.298232461318643	0.1867705624949206	0.07365600518682137
1.0	0.035316969175810765	0.22255687516819794	0.4155713468188619	1.3052557182687232	0.25227194804948194	0.1414340096019699
1.5	0.07478564811617029	0.1410935094776649	0.37332450974385273	1.1114446654323622	0.41261502139033607	0.6526176243754477
2.0	0.713866776333111	0.10034787250793951	1.486128003249989	0.7943331941255792	0.9741483988731139	1.958285666813767
2.5	1.2036751379286241	0.5816782983256127	4.3198777824563805	0.5184189361376349	1.0964497812819218	1.6876218326229189
3.0	1.451697130221955	1.2015491299660237	6.926224678689918	0.35011256531382023	0.8742163649371087	1.0444450306324138
3.5	1.33688212395356	1.591323844079167	8.09811252691742	0.24811740082317998	0.6990361854582239	0.6540871806617049
4.0	0.9290327855307139	1.8281216831562348	7.345049143282214	0.18725671313287415	0.5204184247903576	0.4173108205682381
4.5	0.584146828831074	1.9640933635771711	5.278871025846193	0.15814529434021282	0.38288805650687613	0.27369594863682134
5.0	0.3618413334850861	1.98622960957799	3.4858970521979162	0.2006336871977571	0.295000524968181	0.18658833279634537
5.5	0.22531909482422158	1.7278406832793292	2.294552930820962	0.4268153064112406	0.2411104336983388	0.13375612403717818
6.0	0.14225699867092767	1.2110678480920791	1.5295152700798567	0.7416948096139684	0.20836556964079442	0.10172594715038022
6.5	0.09182787152326474	0.7665763590887963	1.0221882945347411	1.0148472688496353	0.18880385648411924	0.08244503531912994
7.0	0.06122910031062785	0.47467587755981827	0.6960149577965031	1.2167697279653675	0.1803208492155884	0.07236602323611856
7.5	0.042669343298485825	0.2945281013380681	0.4935298717255163	1.327637921141849	0.2031269038204824	0.08375002896199556
8.0	0.03194134345532551	0.1848017283656291	0.3808970645426977	1.2415360399563244	0.2968974575991388	0.25296047886176615
8.5	0.29957806884337074	0.11822555039564744	0.5423988414031516	1.0101221031789767	0.6343891045087725	1.1201614035173195
9.0	0.9419077687603714	0.1815291153187273	2.498809423947226	0.6669558485741881	1.150565939786749	2.2041279351244643
9.5	1.3339331201851001	0.8623350641235449	5.504120060055892	0.4404252201450618	0.9963748793828796	1.389645603301235
10.0	1.4606477579306143	1.3817717582385092	7.596462899107962	0.3027959195389334	0.8031117538853324	0.8635063050602741
10.5	1.182104665962205	1.701301156170527	8.046868465799983	0.2196124916518316	0.6255757664611257	0.5443346188819511
11.0	0.7742337076168785	1.893502436441376	6.559836353667849	0.17142444582995045	0.45836874727109916	0.3507410185504278
11.5	0.4817291121892757	1.9919244527052002	4.4818695317852715	0.1604381138167253	0.34236552140173654	0.23331885053476628
12.0	0.2986483447949305	1.9282117504954908	2.940937383098994	0.26831446931788516	0.2700498373972802	0.16209847978922606
12.5	0.1868330214789024	1.529356963945661	1.947284634782055	0.5535146535801175	0.2259274826780074	0.11890472248845667
13.0	0.118885104139489	1.013222375495906	1.299434448329217	0.8596406773355518	0.19919872974812536	0.09274220390632212
13.5	0.0776453485896449	0.6324130598424219	0.8725110713585424	1.1050614444756701	0.183802777152122	0.0772577279733965
14.0	0.05262538119343372	0.3913325018615919	0.6023149355205507	1.275692737072814	0.18291360732469278	0.0721110151709473
14.5	0.037461525196957814	0.24369104193068705	0.43768032374680693	1.3228546119837983	0.2332854395024476	0.11339511657200742
15.0	0.0404018899566086	0.1539224454817797	0.36569608446375773	1.1566494227762631	0.3548978339524019	0.4837110384666354
