# Time series from syn_net_6D_20191104_a_hillmodel.json, output to pipeline readable format
# Generated on 2019-11-18 22:18:46
time	A	B	C	D	E	F
0.0	0.09867310273894304	2.6461007639171354	1.3941488638873791	1.202025095545181	0.1479580993657796	0.07766067876544758
0.5	0.07567084681896298	1.7155978159190008	1.0219197552390547	1.4622651011391645	0.1287673231633439	0.12805159016647477
1.0	0.06372937118495052	1.1025803763925188	0.7960861014514984	1.6253689885859302	0.14620837252605795	0.4392247463753593
1.5	0.18199563101794802	0.7212093487707367	0.8154447285476554	1.685751719412165	0.6206347830528799	0.9670821411936711
2.0	0.5935862527803877	0.5598653101341394	1.4820244822258033	1.1288929459845125	1.3651793119679565	1.3866196623521316
2.5	0.9754413256574055	0.7672589840648252	1.9584913111946562	0.692633196695747	1.8802368103688316	1.6346377173081243
3.0	1.2294340893840388	1.2965943589550595	2.317572504033181	0.42335434985738485	2.1824170110663768	1.588190260496442
3.5	1.3066026707924077	1.9662143697511723	2.6239495739734786	0.2591742851880648	2.205740414147687	1.1624710900996853
4.0	1.075156919170925	2.6478882243155453	2.989162154376122	0.16069067507046295	1.8204539922279102	0.7562105278909448
4.5	0.7183069620519611	3.3602917814384052	3.7326794356229374	0.10864205023220842	1.2343754413182988	0.4802255093796618
5.0	0.45721043966469616	3.979357234852358	4.404840983868767	0.09736578013546845	0.7777807146468645	0.30567710720649277
5.5	0.2937486501092851	4.3847785113514135	4.133384420631602	0.14602364703169196	0.4882538008186414	0.19790001623767267
6.0	0.19405843573738996	4.432917461045971	2.896863423703711	0.39891826570714056	0.3111209583914782	0.13202578246847885
6.5	0.1335297754587902	3.7166293671759956	1.9544832762694995	0.8433356749119303	0.2042878260197604	0.09291438181549772
7.0	0.09680899738309198	2.5756339640673493	1.3639583471771237	1.2225820944745478	0.14548221742575795	0.0777899798692471
7.5	0.07454202992807629	1.6668197175560893	1.0035689408332376	1.475363466693274	0.12865928214654312	0.13757095322692364
8.0	0.06396193031471395	1.0717489953028188	0.7850169786459424	1.6334401518875448	0.1528465776176422	0.4712447069069479
8.5	0.2027836688861095	0.7027881328177855	0.854781946302683	1.6691041033943856	0.6724441622275162	0.9994538386043786
9.0	0.621666654920779	0.5610874651012376	1.5190464140290918	1.0939680106112242	1.4059785233834643	1.4079382999329222
9.5	0.9959880551827548	0.7937093765091336	1.9842460165165419	0.6708338476055865	1.9060595544537455	1.6438135544081773
10.0	1.2409896988838902	1.3378313427994182	2.33878339879314	0.4100171040661261	2.1942970711969356	1.568252265518792
10.5	1.301771320249257	2.010702684719382	2.6430818425569176	0.2510858209777243	2.1931749342366325	1.1324883617335073
11.0	1.051706976737124	2.6929696164839285	3.024440299895727	0.15598426265858523	1.7839470758694917	0.7344398374151261
11.5	0.6977922060123535	3.405683143831718	3.787604363136773	0.10674686743892645	1.1989978105583192	0.46620218300694183
12.0	0.44399253553809404	4.012656890712428	4.426722257264568	0.09798125899162269	0.7544380746527368	0.2969622497389275
12.5	0.2856495210991378	4.402198023916979	4.064235916920225	0.15409993260618968	0.47387623411528346	0.19255273647916016
13.0	0.1891368451662906	4.413136656255172	2.822816281998009	0.4249758342174562	0.3023820495498738	0.12878167965892867
13.5	0.1305435077585665	3.6452738752131713	1.9067787017842532	0.8717445495832136	0.19912619741296872	0.09111502616498446
14.0	0.09499760061723674	2.506387161040827	1.3346934473956675	1.2426595799415843	0.1431800830194689	0.07815774791861708
14.5	0.07344607089642034	1.619385194780057	0.9857862133900199	1.488112931661537	0.12863083151613297	0.14834052874518427
15.0	0.06457860674228852	1.0418462875584409	0.774325847060238	1.6412776126584154	0.16175428062746752	0.5042036868525638
