# Time series from syn_net_6D_20191104_a_hillmodel.json, output to pipeline readable format
# Generated on 2019-11-18 18:47:26
time	A	B	C	D	E	F
0.0	0.1189956387480621	1.2739097809060398	3.1536418312512944	1.044533775109692	0.19780895713681723	0.39815324724987705
0.5	0.07743931907124164	1.0906050424962777	2.2611623482343055	1.2367243949705937	0.18053714653735722	0.38594831170386823
1.0	0.05250690374397021	0.7888253017578484	1.6341435855101814	1.3544150539516953	0.1701163899521577	0.4154136209683454
1.5	0.05296330833785679	0.517080700829532	1.2172764820680388	1.4259701096452422	0.16706877400662504	0.692094672426127
2.0	0.35010072127705166	0.3301363993821839	1.0890238745342828	1.4040452273762303	0.2920464677587207	1.749501639954815
2.5	0.7428183722969782	0.2791755099389267	2.297643093843191	0.9285965494966257	0.5557891821014477	3.0562075326079348
3.0	0.989329879814296	0.6060956689759555	4.5621764307260255	0.5764966365080725	0.7306380760383598	3.024596156150515
3.5	1.1327869197054223	0.895646029895661	6.368378483633603	0.3570970007690332	0.82535623981138	2.093153640738965
4.0	1.1785961715049158	1.0780235094632258	7.543684616741091	0.2227009834009612	0.8195145463076439	1.432692061024237
4.5	1.0608239346518749	1.1899239787004616	8.23614611814412	0.14307672335843966	0.6836912959710109	1.0160545494490172
5.0	0.7961326982279945	1.2581491704178998	8.422405523776561	0.1010756937442386	0.5128969756793604	0.7582716120563548
5.5	0.5361869920231402	1.299317730156314	7.698259700367809	0.10013583676193852	0.38206293016627635	0.5997652493597196
6.0	0.34640908505419393	1.3225700688410222	6.2511348635841095	0.2352671875918349	0.29558379053391093	0.5025897019127273
6.5	0.22102605824910723	1.3294961219166779	4.813556356192837	0.5952462143244133	0.24099153239320642	0.443207102837294
7.0	0.14118473795927133	1.304191800282803	3.572504656329698	0.9422929132342045	0.20710549132873135	0.4074208762316776
7.5	0.09119034814215808	1.1816430173121897	2.5730310066332236	1.1731656687764134	0.18623481136628908	0.38831301569377125
8.0	0.06047596951305273	0.9093944652811189	1.8483171528471867	1.3156556820290912	0.17349705107992522	0.39392417465986973
8.5	0.0456738879142124	0.612604213139665	1.3573168643140283	1.4024315454564316	0.16655090425763844	0.5225130679649072
9.0	0.17794347230535537	0.3924792499156837	1.06146172989673	1.4527410977567803	0.2046679235699363	1.242528149530076
9.5	0.6101234984975479	0.263987650834682	1.606704947273919	1.1108360496400287	0.46274796948769237	2.5992678720062274
10.0	0.9083345939217504	0.4640444011562592	3.693913394332767	0.6938067882905121	0.6733012852711605	3.3023101773184216
10.5	1.0877001944064262	0.7983114554948083	5.751677894219086	0.4296609999259779	0.7980400965069852	2.4306172535459853
11.0	1.1754109204464398	1.017716439943917	7.153622238052922	0.2668841808567071	0.8375672489591606	1.6540476079546378
11.5	1.1299318824307303	1.1530302566066077	8.019832341080999	0.1686947751125465	0.7476028534328536	1.1542213757530817
12.0	0.9057649943248628	1.235694558127471	8.429145636537758	0.11348930523576777	0.576065661501177	0.8435010560920632
12.5	0.6294725721665982	1.2858735730856772	8.107977028762388	0.09302033694885901	0.42688465379250057	0.6521061723762512
13.0	0.4112213557486719	1.3153959792772023	6.836905620381322	0.15448615579137462	0.3245304346214981	0.5346519643595202
13.5	0.2630991485135118	1.3291222375665137	5.348431070817412	0.44217244383646004	0.25911762486074946	0.4627640764581855
14.0	0.16778137338189342	1.3204253179187737	4.027440853342273	0.8216438962347927	0.21831874256254827	0.4190730093965844
14.5	0.1077718341993482	1.2470511143321206	2.9269816682044016	1.096455690656073	0.1931269992767971	0.39379652631314854
15.0	0.0705336084554931	1.0273354810514703	2.097556827685376	1.2686889276360716	0.1776774530536307	0.3866603622399441
