# Time series from syn_net_6D_20191104_a_hillmodel.json, output to pipeline readable format
# Generated on 2019-11-18 21:50:10
time	A	B	C	D	E	F
0.0	0.15372047246834866	1.323811230796338	2.0344271404974252	1.3436569477606495	0.13510981846993053	0.12797613402535019
0.5	0.14534761783006783	0.930305750332659	1.7405856641378539	1.3970910395531753	0.13115730461266958	0.14605937069699967
1.0	0.14052769487483383	0.6775316008934086	1.5617743150373473	1.4294775044924508	0.17244887200639786	0.24406643227192698
1.5	0.145452446044437	0.5188275811384181	1.47776077007343	1.4386897360485824	0.628122558895144	0.4763379931436512
2.0	0.23516163250704114	0.42985861158588373	1.870973374771495	1.1073768299959594	1.5404399133843196	0.7642235896408859
2.5	0.47978502773967	0.41538606700325537	2.357151368936185	0.7278216357685211	2.2114941665563004	0.9909877459532311
3.0	0.7382985606398803	0.5680903912053488	3.3960013104422004	0.4842241308817103	2.6270538994347707	1.0679389228505276
3.5	0.8118835438685363	1.2712500260123913	5.297619868776499	0.3334834162024748	2.64250229140623	0.7858806745587916
4.0	0.6375130917261677	2.1233820107250865	6.849994627218322	0.2470958043623367	1.954764733982952	0.5217587722779279
4.5	0.45428495668111835	2.721515561900297	7.397830296147625	0.23119834448840723	1.3233547582970102	0.3587727900400278
5.0	0.3303191954066015	3.0879438877656225	7.03488933939958	0.3910612357411543	0.8538008307295973	0.25964363121489226
5.5	0.25302758293993505	3.221225865159764	5.370312302621665	0.7301755533271034	0.5392083580341722	0.19945654497013335
6.0	0.20572369251147768	2.921925257282622	3.831877209365946	1.013856767789668	0.3411269470938989	0.16296920313196098
6.5	0.1769229530970378	2.2364897920796394	2.8424498828902403	1.1958826021948574	0.2200089122430223	0.14108328617746435
7.0	0.159419695705533	1.5737860195199385	2.2335663767290073	1.307338149046233	0.1514862977271749	0.1294088212216105
7.5	0.14879574411838487	1.096123915618475	1.8619003842523725	1.3750552517986505	0.12855764176032888	0.1321987155384243
8.0	0.14240761488922865	0.783067533874356	1.6355563239563813	1.4161320404825979	0.14248263948367268	0.18228411156260133
8.5	0.14014108843908496	0.58475885512176	1.4986457595697358	1.4407227090880748	0.3059000719077537	0.35110099818517193
9.0	0.17258093661800397	0.46319450798466744	1.6418978707412035	1.3175165925104393	1.1196673944060758	0.6297082857237478
9.5	0.3510835446456317	0.41216065290330817	2.113116651032642	0.8890839827543394	1.9299719066897607	0.8955014734564942
10.0	0.6243681017576391	0.4547158640627942	2.775379132462215	0.5854702718265146	2.4574831517102607	1.0626519846597957
10.5	0.816751873092151	0.8657887594654897	4.350787867972053	0.3957703286004214	2.735637834093016	0.9467347211502523
11.0	0.733707940328297	1.7444647117632348	6.231339345881942	0.28086053782072207	2.3025687635282734	0.6318957513763852
11.5	0.5341746611010775	2.470852671308152	7.2526561033114	0.2265855894567982	1.602806601762108	0.4260708226870186
12.0	0.382114989745087	2.939407188282739	7.34877077860403	0.28305461630072287	1.0558255371942777	0.30053942350544643
12.5	0.28502654142515055	3.1959926457783365	6.250552275282127	0.5645626849632447	0.671075825929934	0.2242799011001817
13.0	0.22526038201766937	3.1303087606751436	4.486652473089038	0.8931475238140647	0.42330005596444376	0.1780048589814626
13.5	0.18880851601565588	2.581911482764526	3.253142016175337	1.1204290487234767	0.2698069248078962	0.15003137437432845
14.0	0.16664055573021613	1.867691174991024	2.4852560368641523	1.2613350691035852	0.17819124700641828	0.1337245494262218
14.5	0.15317618414004966	1.2991586462760785	2.015376777343871	1.3471264810051686	0.13394542617770974	0.1280603050419684
15.0	0.14501950375491046	0.9142092500875569	1.7289840749998224	1.3991957451805108	0.13184477476541	0.14846171220499374
