# Time series from syn_net_6D_20191104_a_hillmodel.json, output to pipeline readable format
# Generated on 2019-11-18 21:22:29
time	A	B	C	D	E	F
0.0	2.3696040784270322	0.21486012619445677	2.3548921690701543	0.17354487782993946	5.4439624477889845	1.6648203408727655
0.5	2.5029052799963534	0.34490927051155224	4.1334123509104606	0.13434917951843442	5.591454844306669	1.740804426852052
1.0	2.583612462133369	0.5973592750387416	5.656940886123775	0.10875223492493308	4.367635730345988	1.3850273428850195
1.5	2.6305636365061695	0.8010187087488911	6.730758555514512	0.09242938388783999	3.3280983782452145	0.9153326575249752
2.0	2.6405153730431166	0.9374527771034915	7.43071178665084	0.08262020771981671	2.6664123791939334	0.5860770369988788
2.5	2.5090105327429253	1.0247067542250081	7.867214953901886	0.07859523313048355	2.2580016226095796	0.37575395548617857
3.0	2.0064626979698956	1.0795514796756762	8.11999405931813	0.08587388485235602	2.0066025349131125	0.24437615443988653
3.5	1.3887726940069098	1.1135750629599956	8.180395985405937	0.11775865153276502	1.8436593953262688	0.16297624387201695
4.0	0.9429554551536639	1.133434695909903	7.774705725770441	0.16248901783375527	1.6921562727193984	0.1127448297789305
4.5	0.6617113465372706	1.1395452038228904	6.623132428201534	0.20993778090781684	1.4517798484044315	0.08189739872521189
5.0	0.48934120300568396	1.1125710781058087	4.879317481042186	0.28197844467699823	1.14711160839162	0.06343086300761153
5.5	0.3844473008889601	0.9631483606615918	3.1728032076095287	0.39020131370083627	0.8923117351463503	0.055629846034022885
6.0	0.32093278878209147	0.7024733530666157	1.9716324930205638	0.49694684335819694	0.7673271414014733	0.07673227720292863
6.5	0.30729313819322057	0.4971909137437391	1.2166512913120051	0.5407482017042341	1.1069165177767795	0.2162680591524937
7.0	0.9046104805392093	0.3674583381002971	0.7745042709359908	0.4597069173352623	1.805169841624124	0.5732404447479204
7.5	1.6004540350887542	0.28830051765000747	0.584551887190034	0.35046017930268697	2.9016137800527093	1.0065099410601233
8.0	2.035119009949467	0.24028697050904596	0.7796348093752652	0.2597016958359358	4.124015136054752	1.3567224464357448
8.5	2.2997825554602542	0.2136743964216857	1.7613443513416767	0.19285941094931808	5.14564968967378	1.598474178739795
9.0	2.4605273399824834	0.2693715697509418	3.4685719838928777	0.14717097369961482	5.725166634177949	1.7408714527174405
9.5	2.5580275951733307	0.5037905224673894	5.137896722871277	0.11706319500462227	4.858562512904882	1.5669649218563906
10.0	2.616323362670299	0.7332110069241907	6.378118894403079	0.09767232701699473	3.667394323550317	1.0769154574501634
10.5	2.643566805493592	0.8931179364352547	7.204713026101279	0.08564120092162032	2.8783319521146846	0.6932255908365917
11.0	2.5914194400848496	0.9965809180759858	7.728413244088364	0.07931880639068875	2.3883478331465846	0.4434016639701969
11.5	2.2358984688287737	1.0619429353686276	8.043880290107333	0.08090885237376887	2.087112364606804	0.28646785137659864
12.0	1.605794901609459	1.1027278125937277	8.190058486607567	0.10289548061779737	1.8984611681087276	0.18901113958103075
12.5	1.0878047815023348	1.1274456773014856	8.008185074828035	0.14564320650742088	1.7543901788504794	0.12879210511616548
13.0	0.7515805362411331	1.1392698325012813	7.141191982572474	0.19094529198892896	1.5553199502437178	0.09172265251118082
13.5	0.5442079480687397	1.1301120858467455	5.5725027725297025	0.25024085356120046	1.2605427041933375	0.06917561232380597
14.0	0.4177959861888229	1.0406490669437958	3.7620814013454265	0.34713651311539045	0.977494889717857	0.05697557180485076
14.5	0.34103799246935346	0.7996015426753178	2.3613667648237517	0.46005007475250687	0.7877612549075931	0.06208375503516726
15.0	0.29765118349227904	0.5641625745949089	1.4570963058261368	0.5387882390328026	0.9214682320615974	0.14042627271738578
