# Time series from syn_net_6D_20191104_a_hillmodel.json, output to pipeline readable format
# Generated on 2019-11-18 23:28:51
time	A	B	C	D	E	F
0.0	2.43534259212069	0.22193004480999307	2.915026356162162	0.3995764201334825	12.18089448952522	1.4233528060074458
0.5	1.8705452877370083	0.4159850572996848	3.2789796514818423	0.3108781260643697	8.446037417550555	0.9480147529968732
1.0	1.240633711370861	0.6239257142491543	3.5218207332376785	0.26425627624063175	5.788332632301993	0.659373943082349
1.5	0.8031101325491452	0.7720180702389218	3.3860962020551875	0.2697895351209683	3.8173328220774048	0.48428576746824425
2.0	0.5278909228400896	0.7302032489986434	2.720628736777841	0.32058436113504724	2.4888843499494353	0.3780879103220396
2.5	0.35883164922017674	0.5411562079209931	2.0095056760853054	0.40613140735120595	1.647935418104956	0.31368140385423127
3.0	0.25570364601272716	0.35905348273630894	1.4360739080787028	0.6573302608601277	1.128044621405061	0.2746674967585474
3.5	0.19295068984557068	0.2328825343924994	1.04107290625919	1.164850679009474	0.8126269128323154	0.25145463662700895
4.0	0.15481143455393684	0.1534344358725724	0.7921293453381979	1.6777450294820984	0.6471730098289085	0.24109472178097283
4.5	0.13168991238025454	0.10465977002025316	0.6398382597491455	2.0257247648221726	0.6902030864052517	0.26040831459235664
5.0	0.11832251534334336	0.0749322561740267	0.5534759743098707	2.0672367900386095	1.0799831954548322	0.3991236145748556
5.5	0.13621165844612526	0.056881396556142154	0.6087557782408847	1.554020745643751	3.3481634869902077	0.8413850656940217
6.0	0.5818820836763589	0.04607799508343728	0.7703309069653843	1.1085819460684165	9.500137201832972	1.580348251746999
6.5	1.5706661721027968	0.04383265046600942	1.6189263670600615	0.7743743891066975	14.224132732323135	2.3079501291409845
7.0	2.318032785368794	0.09195503555098902	2.4191166571184635	0.5389995824234045	16.191779051290112	2.1324366357505076
7.5	2.4219972684689273	0.22942863083115508	2.933253933700882	0.39471679373187996	11.986681276066815	1.3975470914916468
8.0	1.8406663016512663	0.42502196720238816	3.2924487589701337	0.30802743050359976	8.314281298694608	0.9323133211673535
8.5	1.2175730580999728	0.632391356196706	3.527090681163029	0.263254766378412	5.689040487826096	0.6498485311536922
9.0	0.7882777923796566	0.7749119507703435	3.365620866530718	0.27135573367425514	3.7473042821414118	0.4785081241661981
9.5	0.5187264038376513	0.7237609715959817	2.6880787935478834	0.3232573460501734	2.443729620109739	0.37458365781421316
10.0	0.3532306424499753	0.5323875651559913	1.981348024805902	0.4120183180910595	1.619822188332008	0.31155662093385866
10.5	0.2522929428393584	0.3524093702914301	1.4152908512659192	0.6748597690601233	1.110799839652927	0.27338441610720116
11.0	0.19087683667148636	0.2285996972968999	1.0276569155867243	1.1889982975853102	0.8024590597100103	0.25072638152854887
11.5	0.15355190237647828	0.1507887795290554	0.7838449477501784	1.6967228805022396	0.6437177174249411	0.24104542268965787
12.0	0.13093047885580222	0.10304419970089097	0.6348447998569693	2.035870290799141	0.6991378933026587	0.2628331585478769
12.5	0.11796822608817371	0.07394940127860684	0.5512980888581277	2.0559859042514694	1.109178493796924	0.41070770611362273
13.0	0.14060345008585537	0.05628765876355343	0.6158691073649367	1.5299768474479252	3.5757449549187896	0.8687957812352429
13.5	0.6203392748721404	0.045730064136119006	0.7841639836970905	1.0933297335219225	9.748705956605278	1.6148176994618162
14.0	1.6111479226072907	0.0443646391544548	1.6609811826837118	0.7617561901394457	14.381932336400293	2.3305710035728815
14.5	2.3389989131728797	0.09608785269565893	2.446285283041083	0.5311555666740726	16.11716400686654	2.096857464779406
15.0	2.4071540413493167	0.23704167181209074	2.9512196853212314	0.3899551783991928	11.795434680875132	1.3722776359516884
