# Time series from syn_net_6D_20191104_a_hillmodel.json, output to pipeline readable format
# Generated on 2019-11-18 20:13:05
time	A	B	C	D	E	F
0.0	1.8138177425377469	1.7560892806614898	1.5686579755902252	0.5394748509021732	0.2988169260441404	1.3141200428872257
0.5	1.4448027837582325	2.3574213445936216	1.7722530952854285	0.4184479807234047	0.21156129655413022	0.925086449730504
1.0	1.066710140773451	2.748121214628123	1.8564197501034145	0.42112319349918753	0.14344767880128473	0.6889182955603017
1.5	0.7980409194507796	2.985994837335136	1.7901376710740886	0.561187856908334	0.0989237910738529	0.5456304888537195
2.0	0.6253961075319652	3.102333031872483	1.5790807394931794	0.8996138285353886	0.07116322180026972	0.45870744042594047
2.5	0.5178033161072154	3.0735522880583437	1.2718512086972122	1.4560704503301964	0.05410360816497823	0.40598293658544937
3.0	0.451496560083658	2.728967549948008	0.925348451127022	2.0842478312104245	0.043675846102902725	0.37401864510913596
3.5	0.41082927060995295	2.0273754180497874	0.659728611867092	2.6373635447977355	0.037316549459894294	0.3547497477080962
4.0	0.38595036172560176	1.356633099579403	0.4851937904236929	3.063802757632381	0.033443289192670124	0.34402154020929115
4.5	0.37079279962635325	0.8876461359968087	0.37509025434537746	3.370571080776909	0.03109043868380267	0.34558782212779804
5.0	0.3619963749631149	0.5888399300083803	0.3065699072899639	3.582606367149099	0.02970664469322177	0.40577555414655087
5.5	0.36567880917160644	0.4037206247738543	0.2642685801577572	3.719793531705621	0.02966474000514899	0.7035412771743357
6.0	0.5294158569317265	0.29018030955785784	0.2419905146783325	3.6259980432134147	0.0464392108519764	1.2971554214818268
6.5	1.0035749142739634	0.22155892027898977	0.28535812443140174	2.6950637234127335	0.13216125032515688	1.8735568772040871
7.0	1.4407925922264597	0.18750023878306907	0.42745387230771503	1.7709470757000128	0.2797660747651411	2.2829840948928255
7.5	1.7420597449624826	0.2882357200641613	0.7835665119368513	1.144028248085438	0.3767510286100606	2.512881475711395
8.0	1.905160056532167	0.9713402916954822	1.24567358979092	0.7604567256040049	0.359949902816406	1.9129585927444612
8.5	1.8009951531575263	1.7901220203477928	1.5811558782599375	0.5312786088027794	0.2947362202997624	1.2909938006194412
9.0	1.4251979432588373	2.3801856798920116	1.7789821365733516	0.4155938697433268	0.20775753994548937	0.9110379630311133
9.5	1.051397620284579	2.7624566338198036	1.857030785342746	0.42452554207138055	0.14085161001004262	0.6803938727228191
10.0	0.7879472540407725	2.9941524971018136	1.782883861681831	0.5720137112855708	0.09728584063288022	0.540459068586862
10.5	0.619052405896587	3.104814865499531	1.5666558065599092	0.921687056182991	0.07015262972487382	0.45557047164183523
11.0	0.5138808124866886	3.0664357989989655	1.2551621223546123	1.4857021410423568	0.053484896515328735	0.4040804096152825
11.5	0.44908713421881463	2.7015223288572865	0.9104896941912344	2.112911012298295	0.043298251372460565	0.37286651740511184
12.0	0.4093538760833168	1.992119041473308	0.649596796137849	2.660517696925573	0.03708645466215296	0.35406480141601776
12.5	0.3850489694797088	1.3297794361695228	0.4787345471186131	3.0808694282689686	0.033303252237799966	0.34372197635002105
13.0	0.37024787071691445	0.870133074962159	0.3710545946433447	3.3825474555743353	0.031005830051984866	0.3463627738431856
13.5	0.36172766382074456	0.5779090737053912	0.3040686836838782	3.5907279997339763	0.0296615508694299	0.41252240332602874
14.0	0.3671475250896663	0.39699563349805916	0.2627420404415981	3.724131622587913	0.029778040509789362	0.7267346446318624
14.5	0.5470838366076668	0.28607148728257936	0.24179711676008483	3.60020402971949	0.048632995726260744	1.3271638977812812
15.0	1.0270477833432463	0.2191584833365971	0.28984806542269276	2.646345543059778	0.13805441452948944	1.8968750506115335
