# Time series from syn_net_6D_20191104_a_hillmodel.json, output to pipeline readable format
# Generated on 2019-11-18 19:39:17
time	A	B	C	D	E	F
0.0	1.5184474852912468	3.4593563911512852	14.849209692983738	0.7631976729320868	1.2746890723706197	0.2963307680020324
0.5	1.109000640537702	3.6237834542546596	14.83815437108238	1.0194502164891825	1.0126786474528215	0.19444851413656936
1.0	0.7191017281072515	3.7211965745542392	12.025576335725901	1.79971517653127	0.8518100647669987	0.1322159134128813
1.5	0.45673459604161154	3.7580644521171336	8.344382507879937	3.433217744866269	0.7537682832775243	0.09427395691247271
2.0	0.29348669728885973	3.6597224132970867	5.906990503442548	5.042276172903608	0.6943924001076228	0.07133204012512301
2.5	0.19370229173994624	3.2465195766660573	4.408049589821104	6.183056621249069	0.6599195928916677	0.058388488368635395
3.0	0.13302333579776796	2.5423905871387675	3.493698631390325	6.925697309635037	0.6472832212602762	0.05577121871950924
3.5	0.09647370407741943	1.8360845264654104	2.940020917008938	7.361700892630158	0.6828591764322066	0.08241501215569379
4.0	0.1104818461942612	1.289165247843587	2.6260880249208434	7.359950311373307	0.8881181817879515	0.2358373994223708
4.5	0.6158506963320014	0.9179233406209636	2.549850768715133	6.105650210793217	1.506961916901493	0.6886015062000942
5.0	1.063003687195306	0.7203832633282974	2.890377540732436	4.074818903370483	2.6619438028338576	1.2777707579170363
5.5	1.3363393046612186	0.7420486052910474	3.481480571042394	2.677309460855486	3.524147582224436	1.7070989895913313
6.0	1.5022490051613155	1.0366121706813307	4.36364946033093	1.8098559657807909	3.891579740190483	1.8116648519941518
6.5	1.6028029873756648	1.7353352590195523	6.4317638895711715	1.2789233797609547	3.3788592611832438	1.381198580819674
7.0	1.6627325806385078	2.5059463857087336	9.615066054040158	0.9584667754430678	2.548317685295624	0.8860479135924998
7.5	1.688428863915366	3.0345079017694427	12.47214497566515	0.7788623357763497	1.9060332245313774	0.5585094473667173
8.0	1.6190816587642312	3.3640134923742226	14.381181571887495	0.7313519861176162	1.4238149661559416	0.3552057202955356
8.5	1.2920483416534791	3.565818789307194	15.095463532282812	0.8775570847771735	1.1056241622163334	0.2304614065754809
9.0	0.8646494680395505	3.687747284418137	13.54883738237311	1.372880521174211	0.9086499686620342	0.1542013992754263
9.5	0.5504811772282675	3.7521597036224774	9.72170093589036	2.7006140135141288	0.7883661426092254	0.10766578389429078
10.0	0.3512601093635196	3.7272848190671377	6.772300481880763	4.431989751985621	0.7152564714354679	0.0793755659123072
10.5	0.2289285720921384	3.463267946871467	4.937796507210637	5.768314401070717	0.671608380919873	0.06265888725115404
11.0	0.15442117383380002	2.849418391180809	3.8164011455624274	6.660362203970032	0.6493239670936207	0.0551612504983737
11.5	0.10923446057558023	2.1121602438404383	3.1344182371111198	7.217882076759688	0.6577459499372991	0.06466289906142281
12.0	0.0857746055112202	1.4924335515346199	2.7295352969771596	7.448213237163367	0.7701018198831937	0.1447587047754717
12.5	0.37071118539907816	1.0507030669769977	2.5463396404872785	6.833900873476706	1.1672112974966962	0.46480817912589945
13.0	0.9044432254662819	0.7781918132073132	2.695308344604669	4.852773948176656	2.192230152601972	1.042816500773432
13.5	1.2399310564751842	0.7040543965969821	3.2263505828720884	3.1756869049722516	3.2208241832151274	1.5590616389510796
14.0	1.4437533981286446	0.8742234427111073	3.9200893058430664	2.116960907085251	3.817915125126194	1.8255180825194384
14.5	1.5673863508042585	1.4025484305621037	5.383272105126213	1.4663667603049595	3.699855045703934	1.6060483272318073
15.0	1.6419792383247684	2.2139472839418275	8.267877947272048	1.0706113536289363	2.8696341432347627	1.069705758339521
