# Time series from syn_net_6D_20191104_a_hillmodel.json, output to pipeline readable format
# Generated on 2019-11-18 23:04:17
time	A	B	C	D	E	F
0.0	1.1543256561204478	1.5882561963001998	4.973122599402377	0.39005837806449717	0.9160497217296262	0.10320724114901457
0.5	0.8082280360170822	1.6540021125337103	3.763866518560243	0.5722130940044637	0.7120333514100514	0.0827265384825535
1.0	0.5759361021743363	1.6650348573346005	2.415480602403689	0.930306635818004	0.5548721718832917	0.07019028645722494
1.5	0.42795201919816406	1.484583656022644	1.5050247633176759	1.3358379877659754	0.43811998469114666	0.0628258619784401
2.0	0.3359735319024497	1.0497931552374444	0.9369052427179302	1.7757469924194071	0.36530417753822514	0.061317633771159764
2.5	0.28532375079107997	0.6714422539981107	0.5903529604643062	2.1106214973400075	0.42409448293086677	0.08321066562618828
3.0	0.3935055629539609	0.4278180666014072	0.4808369768097891	2.015478459451973	1.0557888462124436	0.16039193213294406
3.5	0.8848043687591182	0.28154710270488664	0.6193132369434188	1.7784770850761273	1.9118792884817344	0.2456518795296065
4.0	1.3438587891785247	0.19919933636270573	0.7354388225571735	1.312321746999728	2.524040465156633	0.30439382584084984
4.5	1.6548167994929217	0.16009304360310334	0.8529524805093318	0.9422048988614937	2.9085202799893928	0.3409797311356055
5.0	1.8532483146944732	0.16641496060832767	1.074298642715482	0.7011947164220086	3.143517571640661	0.3632875925756198
5.5	1.9775597010691341	0.31913774677434437	1.6097425394504816	0.5499456866155937	3.270424831121649	0.375570641711889
6.0	2.0509543785654727	0.7368159815831091	2.601304546519001	0.4561287419079042	2.852660130556625	0.3348118083595156
6.5	2.047884598665119	1.1208148153853967	3.8408954708604157	0.39855944788226283	2.0220143943917437	0.2372668941261204
7.0	1.8454713717447966	1.3709281490905387	4.8854111418264115	0.3656893337881373	1.4461108580129085	0.16661943760936768
7.5	1.4235826597838341	1.5249804361964092	5.241956780974234	0.3606743759489236	1.0787534182531626	0.12190931168559938
8.0	1.0083674610972908	1.6180403960178553	4.609192865504625	0.4346738183654358	0.8317982239806725	0.09423085825589368
8.5	0.7079251874308146	1.6675370302555534	3.207465804681961	0.695075415113684	0.6474116366043257	0.07721917848156501
9.0	0.5114896444131405	1.632824196100012	2.019927388562271	1.0822027974865518	0.5058124430793334	0.06686493152808134
9.5	0.3876252205337544	1.3322615842228498	1.2563236605411865	1.4981934803846884	0.40440188295557594	0.0612708058985954
10.0	0.31171896753868045	0.8892994786879181	0.7840584994282558	1.9402742344951518	0.3578452838180925	0.064698941490658
10.5	0.2865139741838306	0.5647564891850902	0.5052050663678247	2.100950230968942	0.580390264948216	0.10667393653459845
11.0	0.5558961961016478	0.3628465825661235	0.5305762083563735	1.957246638762893	1.3981562916273231	0.1952655988223325
11.5	1.0768249723020715	0.2441383365479662	0.6667569996201417	1.6049365172355214	2.1763602440623493	0.2711370962600203
12.0	1.4780982546086265	0.17988738755708855	0.7763729491191247	1.1545512190711866	2.6924011628082543	0.32043301226960474
12.5	1.7411600101025415	0.1554620977420223	0.9157273478179995	0.8375083245873612	3.0118794313828574	0.3507936121766127
13.0	1.9075229890484457	0.19482162207588422	1.2275301433284278	0.6351624075549055	3.2054260209133725	0.3691740496502301
13.5	2.0111010203758557	0.45873344463993815	1.9357528188890576	0.508901464114219	3.2374931108506892	0.3732696792144481
14.0	2.0631691835259156	0.8990124439845225	3.0646316833421476	0.4308164495889318	2.516699607948752	0.2965319996804261
14.5	2.002863214055747	1.2299609499495623	4.288029124097852	0.38345482727558666	1.772532044824183	0.20676935370355257
15.0	1.699927725545938	1.4385629488369303	5.1251335917591705	0.359425413278763	1.287137592475711	0.1471004867538822
