# Time series from syn_net_6D_20191104_a_hillmodel.json, output to pipeline readable format
# Generated on 2019-11-18 20:52:19
time	A	B	C	D	E	F
0.0	1.0257295517213167	0.2460238559808317	1.7554389224466362	1.3710267211601401	3.3124339971530823	0.9242423963799772
0.5	1.4798513482174054	0.36076344853416603	3.4943829863962788	0.876182120640533	5.660783779006332	1.2540042090564387
1.0	1.754932362096342	0.7489590719244469	4.672684635620618	0.5749294739103716	4.72138064485052	0.945298768837821
1.5	1.9031483026145992	1.0824940708968906	5.189513500461713	0.3944523859215745	3.406264870666776	0.6334722145994935
2.0	1.8890652658111622	1.3022773937749033	5.264342742459897	0.29773360701440943	2.4033308866265597	0.43712859985727426
2.5	1.6034660155272726	1.4353535356162181	5.221905305815844	0.29529936617376334	1.7246791231511067	0.31683896527824246
3.0	1.1611951378557996	1.5107501127479819	5.096801638645307	0.41961712714025934	1.2982262405794205	0.2435125919659584
3.5	0.7755733014079681	1.5420988657952674	4.800840049906351	0.6192258375992987	1.0363201592022242	0.19890253738261243
4.0	0.5029772131369695	1.4960609514732337	3.9025288068869455	0.8686776107667948	0.8766995790724389	0.1718529736280522
4.5	0.3241443469332049	1.2273510080774948	2.636203683203019	1.2591386335464227	0.7807324550654371	0.15602300247831266
5.0	0.21105853591013032	0.830596074627532	1.679906197872426	1.6551393448004506	0.7330923969801987	0.1519989371293131
5.5	0.15116727588977433	0.534440547261664	1.075400072123966	1.9242293552944694	0.7961644468008524	0.19781244850897198
6.0	0.40430217936733454	0.34825364744081716	0.7374268689866974	1.9576335026420697	1.32782517385003	0.46395872973588564
6.5	1.0643597802314624	0.24222929480618716	1.8758470645557952	1.3289688685820877	3.516750186118971	0.957765068009212
7.0	1.5035867398578895	0.3836008519281888	3.597516710354458	0.8503289735909348	5.696286276566296	1.2509214890194227
7.5	1.7689259344854813	0.7753665188153942	4.728295450464689	0.5593000452305832	4.62177663228531	0.9196806135427427
8.0	1.9085601729739168	1.1010679448112197	5.204525266617738	0.3853224120004563	3.327042993040121	0.6167509935615405
8.5	1.878808863620716	1.313781764123443	5.263122517108355	0.2940914259975006	2.3467500854067764	0.42683839263882356
9.0	1.575043748814008	1.442135932979993	5.216323321946622	0.299757641785432	1.6884252021649468	0.31055847190538727
9.5	1.1314439679653163	1.5142652901709313	5.084639287041475	0.4319397935569948	1.2758363642971677	0.23968898946450687
10.0	0.7532799660988748	1.542417409057211	4.764070261389013	0.6340194962096494	1.0226414292649082	0.19657887526588225
10.5	0.488035539922655	1.4865489613961953	3.816307371778189	0.890529356321996	0.8683944759854432	0.17045333934294524
11.0	0.3145552562140055	1.2003106931988292	2.5576133967950807	1.2888990797353268	0.7758953874755348	0.15528395578545565
11.5	0.20516885339934995	0.8061463613848006	1.6284256764522387	1.6780203098061464	0.7321334271080812	0.15258603651661476
12.0	0.1503472969653582	0.5185681744885291	1.043769592862186	1.9374292861204598	0.8109701683922506	0.2062510242316109
12.5	0.4508292695403863	0.3385196410393427	0.7401743614240148	1.9300716247893004	1.4037540299216875	0.4941566614978954
13.0	1.1017882022379468	0.23946662561561205	1.998429020346772	1.28818116910369	3.7213642072635396	0.9905718365476184
13.5	1.5265249367909697	0.4077250817591486	3.6974745540443523	0.8253366465123962	5.7060786389568126	1.2428330269968846
14.0	1.7823643960358897	0.801346721093779	4.780769547428533	0.5442030672155536	4.523264100800145	0.8946296629576589
14.5	1.9132350106123726	1.1190960334277362	5.217483819684438	0.3765596824022256	3.2492743962803776	0.6005698585772316
15.0	1.8671118586450448	1.324894910322019	5.261629778250204	0.29088530766014703	2.291739863667843	0.4168909264500647
