# Time series from syn_net_6D_20191104_a_hillmodel.json, output to pipeline readable format
# Generated on 2019-11-18 21:24:54
time	A	B	C	D	E	F
0.0	0.18787131616858124	0.4141954222976635	0.7729473774476731	6.6816373448435655	0.26626993236131824	0.03249175064871647
0.5	0.17801672785545217	0.30895683714570654	0.5995473800319157	6.9929194934838215	0.3190659496366815	0.07355633991333926
1.0	0.18448817232163292	0.2442270903291846	0.5034522409163283	7.087720905571376	0.50865753403578	0.14406600132823266
1.5	0.2894736214524428	0.20496460961518698	0.6265258391664914	5.999191804803357	1.124411362861097	0.21509957818392283
2.0	0.5580957555167753	0.1867377742827159	1.1185618958491998	4.200701723206017	2.07797350336219	0.26974923127474093
2.5	0.8757059066028118	0.2145765622772067	1.5694574937791703	2.790123749975481	2.8412491148546986	0.3015487361488784
3.0	1.1027903476777106	0.3054431209709607	1.8855450490859043	1.839672813027868	2.9383997400406616	0.28938464812731535
3.5	1.0815353850034592	0.4550080903072122	2.258486837210307	1.2521172864834056	2.3266478968915414	0.21948514474164255
4.0	0.8193630254890261	0.6932204328942141	2.947699794236816	0.9243486937859613	1.6041736742036545	0.14440594231843518
4.5	0.5740637858039539	0.9511493063521721	3.5951045148582823	0.9185218777286511	1.06438955263205	0.09280552181329693
5.0	0.41344673208470123	1.1244622034123972	3.2964438172980235	1.6733816573007592	0.7211446998422688	0.06075046810571621
5.5	0.31468817826651824	1.1472036139677904	2.475976241199192	3.2376991556216934	0.5110583687711515	0.04119093602820248
6.0	0.25462249502359297	0.9682474899686337	1.7693125076477727	4.716969916247128	0.38356966700376954	0.029430551367237982
6.5	0.21816669286324605	0.7049955069899474	1.2541025002357853	5.758075639055725	0.3074520060518783	0.023150254618902497
7.0	0.19605203124672582	0.49677658702021443	0.9080343301948628	6.4281442556899275	0.26877549335959916	0.024403696987442138
7.5	0.1826707810799211	0.3605207381852865	0.6846235458650738	6.843657920069186	0.2791111311511569	0.04624597776408185
8.0	0.17657754627529126	0.2758366998402827	0.545957395026316	7.075165736841407	0.3775434395586229	0.10331769492612568
8.5	0.21159294022356137	0.22402598824820816	0.5094704056563681	6.860632715670164	0.7156230170991605	0.1775022179442662
9.0	0.39437372201571974	0.1935064237855614	0.8208106476113922	5.143397365553889	1.5460734969004644	0.24212142503395506
9.5	0.7041738474037667	0.19141967035563126	1.3433904287853482	3.510558302733425	2.4728433330650996	0.28751833083559547
10.0	0.9973583590411291	0.24840385834777604	1.721516418374451	2.3079566129020086	2.9947662487199826	0.3037635990258237
10.5	1.133671784628669	0.36429248868857633	2.027424626063607	1.538048624619585	2.7132623990899853	0.26262968925173225
11.0	0.9759922886684248	0.5512179437843693	2.5299354805446863	1.0746591526299127	1.988467402148753	0.1832936810838951
11.5	0.698227211266509	0.8152896233054965	3.2946448439206444	0.8659145564818779	1.3334822132210793	0.11822847139899952
12.0	0.49224168790766304	1.0433673305957771	3.613186978491518	1.1291248802726808	0.889153264836179	0.07641481120778192
12.5	0.362879289953935	1.1579474301427322	2.9261092997131493	2.331227378671774	0.6135276053691708	0.05072657976726885
13.0	0.2839037567787573	1.0895486289617846	2.1352741290119273	3.9531974327012986	0.4456567137561922	0.03512393996731657
13.5	0.23593467234764773	0.8483219192889082	1.5135773906359002	5.2396845803552825	0.34417678593423273	0.025954877795033027
14.0	0.20682941646175343	0.6015241839253398	1.0799945624960972	6.098447378562639	0.2854611759007004	0.022344265445892988
14.5	0.18917842271874896	0.4275726907364351	0.7948365343246963	6.64102778914829	0.2654164717795435	0.030421443661394463
15.0	0.17869308693832375	0.317252874355129	0.6131827115816953	6.969892679253504	0.3096338378202286	0.06781486565895403
