# Time series from syn_net_6D_20191104_a_hillmodel.json, output to pipeline readable format
# Generated on 2019-11-18 18:36:37
time	A	B	C	D	E	F
0.0	0.641078706496434	2.3724990276448223	6.964944888787991	0.41875111801305237	0.2844302854631759	0.14831808982430839
0.5	0.39242220977542114	2.4630159786579195	5.7860364967964655	0.5534795549214201	0.18055821013264128	0.09976897366523729
1.0	0.2397904125950237	2.3903484239987014	4.169037591156138	1.0873987401368375	0.11748094141237515	0.07031281196160484
1.5	0.14695608957566936	2.004813840290854	3.0216913034137454	1.6957090331704654	0.07921292202303795	0.052669260622157175
2.0	0.09060420607743172	1.468168039122469	2.316603618742413	2.109014307932568	0.05600689397137808	0.04345374517424356
2.5	0.0564194160275498	1.0215803500453027	1.8877451698216363	2.3638682941496523	0.041973950149937114	0.04733075108281112
3.0	0.03587216148800843	0.712572452650082	1.627336148167097	2.5188228136130015	0.03373170699040038	0.1029711111116483
3.5	0.0712707868176508	0.5120210258581612	1.4692874484636709	2.612810545850443	0.033054119551624093	0.32369127653817786
4.0	0.5851853028230621	0.3852067374306446	1.403042012525851	2.265716223873678	0.247566985865481	0.7299918932891445
4.5	1.0658355855954458	0.325367024155301	1.9667950863886587	1.535078577265844	1.0220994010075863	1.1287338877093167
5.0	1.3660293759888438	0.36162462460806427	2.4895129970670973	1.072915070008505	1.6503496602565204	1.3830128585306574
5.5	1.5489608702186939	0.5186794350773793	3.031476133169159	0.7827661363365878	1.70725808228178	1.377150039313576
6.0	1.6580329004025935	0.8476526276364249	3.83244526834024	0.6114278716475764	1.4702417624073645	1.0157221622904287
6.5	1.702539934142059	1.3359520834790122	4.994948479396198	0.5135619258279965	1.1821762850971613	0.6455023365624346
7.0	1.5721166343257267	1.7953260058736573	6.232524858546814	0.4577668658210132	0.8120994867628075	0.4038638593749031
7.5	1.144401900307305	2.124722679918972	7.046568528004319	0.4257189293784751	0.5119953026922667	0.2553403405232043
8.0	0.724102538373079	2.3348942816443903	7.102409706191117	0.4145523210519488	0.3197393722949446	0.1648348835097089
8.5	0.44419060117791986	2.4501741246421957	6.161618961031865	0.4896355800423161	0.20203315280390963	0.10980368827820924
9.0	0.27137447562640354	2.4343749583051646	4.547604193938052	0.9229061886033638	0.13051378581724787	0.07639077813984654
9.5	0.16614196014926544	2.1288485621136735	3.2609019752800967	1.5595786611608338	0.08711849627064379	0.056253057502774595
10.0	0.10224655055638993	1.6003513035497525	2.4625030014621934	2.0226366038903225	0.060799196032353744	0.04497118268142929
10.5	0.06348004404465382	1.1205454993544652	1.9763909322504742	2.311134851264048	0.04486178063778577	0.044086874554457575
11.0	0.04001929010861774	0.7786081209643316	1.6811483613167246	2.4868067235345293	0.03536483560868928	0.07900019249400042
11.5	0.03893126484987062	0.5542933664347759	1.50194349046037	2.5934190423925867	0.03118917571279941	0.2464396736858897
12.0	0.433754815498381	0.4116946446411709	1.394789700012278	2.4781197676249906	0.1325507779332181	0.6201252420019069
12.5	0.9644335016468114	0.3322887965461521	1.8215771585673595	1.689574333432437	0.8112588782159411	1.0389559466370213
13.0	1.3038032611868071	0.3422463256896344	2.3628192464710036	1.1700813270269461	1.5403396826660143	1.3367454352555008
13.5	1.5111884110421692	0.4657235142913508	2.8816285363843672	0.8427318825332215	1.7409892951307968	1.4150952778481767
14.0	1.6361316854808325	0.7456110039822833	3.5941067555422985	0.6459928688731378	1.5344281559420883	1.1228137310839132
14.5	1.699794120965014	1.2079183013947752	4.678892131105999	0.5332484014416189	1.264293556542875	0.7260637610380526
15.0	1.635230300028637	1.6909392852158236	5.93960300617967	0.4690534602556268	0.9043377969540075	0.45418574916117316
