# Time series from syn_net_6D_20191104_a_hillmodel.json, output to pipeline readable format
# Generated on 2019-11-18 23:42:58
time	A	B	C	D	E	F
0.0	0.46834090972296605	0.5895984392301136	14.389241928288241	0.24918861342524284	2.7448125051096897	0.612847642411441
0.5	0.305587579529342	0.6969976255485664	20.677502560438207	0.2185384296124877	2.344202171612796	0.4070744629462296
1.0	0.19737003782059742	0.7621393286180101	21.797954311886585	0.2629930330767561	1.9907780322650273	0.28214044216691103
1.5	0.1304268725311095	0.801649722426604	18.91280979926685	0.34399419946758825	1.6335286412250785	0.20632245690286716
2.0	0.08960814430899842	0.8256134611097588	14.60122057112333	0.40709274065274154	1.2621040991408186	0.16031834603553521
2.5	0.06480500986574475	0.8401453905842242	10.583856392044432	0.4518916653808739	0.9523778655384753	0.13240633927536374
3.0	0.04974889494831034	0.848941144690705	7.225334473931393	0.49682130251190815	0.7319451344234578	0.11547191416506737
3.5	0.040612776159573746	0.8541139289507879	4.636671347296159	0.5749440770566703	0.5856807175233322	0.1051979399313677
4.0	0.03506972787414585	0.8554973227457724	2.865887581713143	0.726156570501072	0.49158852259135705	0.09896511675407296
4.5	0.03170689469149707	0.837447341523498	1.7480811818985407	0.9616501892693544	0.43250446945084076	0.09518715727403507
5.0	0.02966681831759481	0.7124764017611219	1.0631147208345582	1.2373279004256479	0.4018255891093875	0.09293394485811317
5.5	0.028429245096321477	0.4845315313865492	0.646757117045009	1.4211055367450809	0.42787253564291233	0.09198209948698695
6.0	0.02767872932138383	0.30693788752000256	0.3960398856048146	1.3289374910938974	0.5361731029856265	0.0956789295891652
6.5	0.0272275870750842	0.19518458996820132	0.25121750827017225	1.1079449089902922	0.6687711001780681	0.13682008603510423
7.0	0.02745699218865316	0.12705421699695185	0.205629970230874	0.8919467181254929	1.3135493667088758	0.37028642926601046
7.5	0.0679670807396549	0.0857675122396187	0.27761550780983846	0.7408158786550565	2.1467061208274507	0.8458336121618198
8.0	0.30853856882995423	0.06191164487519458	0.5285276316404303	0.6103185561609212	2.662317580676523	1.274302560141559
8.5	0.6005685270779536	0.19727354173318395	2.287317912109054	0.4263816463545873	2.974288543153556	1.37140320376009
9.0	0.6300993382014284	0.4573978941842348	8.06713406247829	0.30642191565959437	3.0164392732843566	0.8803727425664732
9.5	0.4495072651263865	0.6168095416502969	16.23882139471551	0.23618730463559034	2.6669228678409103	0.5697468699162974
10.0	0.29093017357084044	0.7135026071716285	21.822878350530257	0.21512473587447356	2.271836371777265	0.3808901218372454
10.5	0.18804979063232843	0.7721501121593339	22.166876052123225	0.2693085552227752	1.9253974735524184	0.26624663193300274
11.0	0.12470706871675155	0.8077215270756899	18.836738354186462	0.35078362370638827	1.5644042906599382	0.1966774431258252
11.5	0.08612591595643507	0.829296096218144	14.364721470448362	0.4120760782804058	1.2000103092889312	0.1544660106562972
12.0	0.06268972296654501	0.8423785283747548	10.295093246293366	0.45672472029248523	0.9065283748949047	0.1288555049575902
12.5	0.048464917849487664	0.8502911372118782	6.933080710919674	0.5056531291558811	0.7010596852422452	0.1133175559601603
13.0	0.03983359843907757	0.8548820413159077	4.404868514959627	0.5947117316033914	0.5656722091286945	0.10389083961294111
13.5	0.03459694862122022	0.8553627773873128	2.7113552854923255	0.7619192546765714	0.4788734389944105	0.09817216860301388
14.0	0.031420046297435854	0.8313447029372565	1.6520235095706777	1.0098761740471653	0.424695339380467	0.09470724167204528
14.5	0.02949278756961213	0.6881859618588402	1.0044735371551619	1.2853871216872887	0.3990210694385227	0.09265610803012192
15.0	0.028323670026062737	0.4605533867862299	0.6111863825797357	1.4416525300910696	0.4358831689570151	0.09195389021729256
