# Time series from syn_net_6D_20191104_a_hillmodel.json, output to pipeline readable format
# Generated on 2019-11-18 19:44:14
time	A	B	C	D	E	F
0.0	1.0681309549110884	5.3740135457873475	0.9696417700696324	0.3212010215595324	0.27738691471066246	0.21740997508524043
0.5	0.7021592202875602	5.407817830288211	0.8129012560496476	0.6013074477069318	0.20396729749393686	0.1609063147158354
1.0	0.4750538748673919	5.1117015062306095	0.5558697162039916	0.827173679102036	0.1596907733679319	0.1277813935472551
1.5	0.33632922678642063	3.9968080877540366	0.36155002661534674	0.9729439972599205	0.13636767590294196	0.12227221096304618
2.0	0.25647210083926414	2.655779773846334	0.2339276140690603	1.0626714070676715	0.152244883447117	0.23454114223095154
2.5	0.628724283142572	1.7054180966110124	0.15715720789194762	1.1142642277721224	0.3475903634207158	0.7382472596857514
3.0	1.4591536721678553	1.1123569065979106	0.12110317310124007	0.9064843144194913	1.2281674399803895	1.4307979978733325
3.5	1.99425130461694	0.7524600978975081	0.16405366363378365	0.5721292519686089	2.1573655126767473	1.9422943793001302
4.0	2.3206685151992916	0.7070162923737505	0.4000382361914594	0.3591042992444529	2.775791678289776	2.2645140397983305
4.5	2.5190108494011967	1.8671285303436769	0.680966323343172	0.22821197561509707	2.961777061196139	2.3591097115147934
5.0	2.6387638827471727	3.189453405167198	0.8722702317313347	0.14840625595565213	2.1975098019350074	1.7806843412578526
5.5	2.704878332294708	4.098983903070234	0.9689182894117644	0.10102367338432323	1.4816667464280482	1.1695633816293307
6.0	2.6906553673548554	4.671624243771391	0.9914382225845134	0.07977486866101302	0.9838377611857816	0.7568705357793865
6.5	2.397765124926901	5.020697829990479	0.9887767347654783	0.09000439589193551	0.64429235667096	0.49539103231639714
7.0	1.752550589198802	5.23103640450527	0.9841010328931868	0.1324772214102248	0.428639754202225	0.3325300733705532
7.5	1.1592106136348415	5.356884881605543	0.9758369029059751	0.2744842104501158	0.2961394846787892	0.2317713259206926
8.0	0.7597754726375066	5.412962952430612	0.8600527213824865	0.5486351180589885	0.21537010444434593	0.16969605626517076
8.5	0.5104653706828151	5.222256768044397	0.6017075172777958	0.7906142635926541	0.16646943764360128	0.13253325889489703
9.0	0.3578637600236314	4.2633830275713285	0.39314374950139086	0.9501016436942592	0.1391054773496196	0.1195146768948327
9.5	0.2667750285386147	2.887901914918066	0.25412321275213084	1.048714664164745	0.14277675215183364	0.19162343066838727
10.0	0.4640122356819046	1.855928643912889	0.16785086623304124	1.1080915620675402	0.2756950860516552	0.6089298501319571
10.5	1.3234965762884825	1.2047855913975842	0.12508521005637968	0.980817475876615	1.024087927455125	1.3076302746662287
11.0	1.9108720651086584	0.8075443093615746	0.14299828127367484	0.6259144680418174	2.0036048760838767	1.8606930201838312
11.5	2.2699439412569524	0.6477992054889132	0.34311125471771836	0.3924157259678952	2.678883695379241	2.2145001609252875
12.0	2.488216111052882	1.5849382295778691	0.6329663181755435	0.2486020415054954	3.007724688974589	2.385777946871103
12.5	2.6203510903660305	2.9669954856567875	0.8430828021279585	0.16078423250875587	2.361040211603914	1.9153804168287571
13.0	2.6962335504921504	3.954328565505688	0.9573630170637139	0.10810565532022694	1.5997803441138914	1.2710061059649487
13.5	2.7054581656294383	4.5822525590608425	0.9904479386053342	0.08158361385672584	1.0660345368978195	0.8224745478243964
14.0	2.489012292865366	4.966620658901899	0.9896958954657985	0.08570522803778008	0.6986043942856214	0.536524183904498
14.5	1.8837167098254917	5.1985241914820906	0.9849465973504882	0.12040131801414453	0.4623860206414743	0.35805152666299306
15.0	1.257852856840856	5.337628664726377	0.9790800988101117	0.23388104446481817	0.3167651247035244	0.24753242076543783
