# Time series from syn_net_6D_20191104_a_hillmodel.json, output to pipeline readable format
# Generated on 2019-11-18 22:01:49
time	A	B	C	D	E	F
0.0	0.2739854258856506	1.5252737327831944	3.336818075479251	0.29861206097225235	3.2009922905074695	0.31665818314564537
0.5	0.18345022218869808	1.561670258467336	2.939316289963335	0.5345453977976283	2.178859441979723	0.2638585414383077
1.0	0.12808086999626325	1.343377368887651	2.274741643662457	1.1829073635623353	1.4994465652123175	0.2318815427522182
1.5	0.09433813540152976	0.9486934864597422	1.6056180475764679	1.9884508562212535	1.1354147886217876	0.21299059406298593
2.0	0.0738129071659445	0.6086680009607462	1.1158097135230793	2.5635229474069057	1.1536741319953459	0.2063391308510778
2.5	0.061425240531192464	0.38355847416866945	0.8312706564283703	2.817330590143918	1.456710681916681	0.24750926116647562
3.0	0.058147457659025216	0.24402111319143438	0.7000710734131217	2.3617208887189842	3.0860906870924896	0.5286128914909455
3.5	0.20407944139632514	0.15891052429470595	0.774874272783233	1.5926699480286508	5.4085030990020115	1.096726066849341
4.0	0.6259762327840321	0.12506787007082085	1.566195181615704	1.0745911052025732	6.8808287966015635	1.5817000857468575
4.5	0.9887570618887845	0.19803817968905377	2.0863305512032553	0.7047635661750495	7.775720735303101	1.8401687533676434
5.0	1.2065633275946652	0.37474424784904503	2.4055199103427616	0.4729101823566921	8.295936443044646	1.5523261809256128
5.5	1.1842624823326107	0.592227708803566	2.6194435491864696	0.33151024692935793	8.362970108280765	1.0581224620643845
6.0	0.8956796862979554	0.8189898388295203	2.8396136902866638	0.24753406575640566	7.553236443844368	0.7199847681807662
6.5	0.5935585817502491	1.0825295169948057	3.1906031878987795	0.21035456718836731	5.960955692632836	0.5098412943621141
7.0	0.3835283088275476	1.3666290457265515	3.425835462589992	0.2347729381646065	4.286464194574191	0.38130637220608943
7.5	0.2509583980631573	1.5458191510991117	3.273080225978088	0.32673392501449305	2.9561687555611758	0.3031100145709216
8.0	0.16933796727935907	1.5350786382090655	2.812255212306488	0.6323987365744721	2.010914520176571	0.2556421712928025
8.5	0.11947344148867686	1.2624014770275123	2.122437000152245	1.3567239160394673	1.3968132570376504	0.22693861792812567
9.0	0.08909897581867153	0.8650204750426874	1.4834901235361257	2.1320518391339163	1.1092096982251414	0.21034452584060398
9.5	0.0706320834841496	0.5506382247888141	1.0398700193471901	2.6428293176542943	1.1998727903029844	0.20818556211798533
10.0	0.0595862023160883	0.3472333420790691	0.7936845588577329	2.808008217279333	1.6068584342144392	0.27759756533143526
10.5	0.06399785724403141	0.22178850212854762	0.6834584324057024	2.1678012840491836	3.6588810478257527	0.6402513952826332
11.0	0.285691724333814	0.1458886198040943	0.950659683300031	1.4631225635345286	5.793062768637836	1.2174151482980256
11.5	0.7154098557814715	0.1302343882001642	1.7022501955687854	0.9794748052529659	7.115230160864005	1.6607866939874112
12.0	1.049691494591455	0.22970446237637301	2.16933782892511	0.6436959385360463	7.9170719095768245	1.8370843963769068
12.5	1.2275339902358156	0.42061138709446466	2.457898313549655	0.4355073896311788	8.36112631577256	1.4362769227043626
13.0	1.1366993277727797	0.6407038422882896	2.662048209200297	0.30891447576415654	8.273118436880491	0.9708257443712645
13.5	0.8236774290589196	0.8718254333623721	2.903853241020687	0.23509092645914406	7.251666034392322	0.6651175469971089
14.0	0.5397725716522489	1.1469174760071843	3.2722856575536703	0.20996355702652264	5.578831826018094	0.4761785118067361
14.5	0.3490112289984192	1.4188041692906066	3.422448105765212	0.24805330833801578	3.961870141893489	0.36080221271061313
15.0	0.22960692478270123	1.5629628204614676	3.1998181809837467	0.3646125544217656	2.71830338934435	0.29065570979170485
