# Time series from syn_net_6D_20191104_a_hillmodel.json, output to pipeline readable format
# Generated on 2019-11-18 22:30:22
time	A	B	C	D	E	F
0.0	1.1933797701870503	0.9964860670823061	2.5901241528216588	0.6847632656631422	15.175154561138084	1.6102555608808207
0.5	1.2489302375795077	2.049458953454068	4.025549001535147	0.5891408022578835	15.261249073190905	1.5391686043834854
1.0	1.267268637017678	2.975753760405295	5.785926303710462	0.5311342198364036	12.949190932592566	1.1786568001314899
1.5	1.195240952206144	3.581135031024131	7.501846497512417	0.4959622813354385	9.76010612498006	0.8283677386178571
2.0	0.9688512012847009	3.9559851114810116	8.947293110989108	0.47472514022519496	6.928005710025543	0.5826209912436652
2.5	0.7025779145755153	4.185325116540274	10.019168647393258	0.46247373367926276	4.662193432692615	0.4221732735294552
3.0	0.5027412574705581	4.325061386511683	10.545294864801718	0.45910418399784975	3.0853919330971413	0.31989690963902184
3.5	0.3727519754731625	4.409856931579206	10.175484049759072	0.48055694466600085	2.075373634721769	0.25538683489765646
4.0	0.2916894354200869	4.460500816012492	8.709155679873223	0.5980326709999366	1.4469868871946272	0.21492950008633752
4.5	0.2418430528870137	4.4857380358322185	6.275501040998237	0.9312393969583008	1.0600938877099528	0.18968536570665756
5.0	0.21135972469254227	4.457889212802803	4.196797063285772	1.4818435732533413	0.8240436023888157	0.17432888456522688
5.5	0.19277234216127648	4.190490398603661	2.8417281728617603	2.1344102968990097	0.689326594942925	0.167730711418211
6.0	0.18152507556878472	3.3717116787213146	1.9903068494731113	2.766292520889158	0.6705540980629108	0.18388536126896193
6.5	0.1760765813152748	2.3395533351184072	1.4985465044707111	3.262540601585146	0.952841474291937	0.3068723236539115
7.0	0.22789412088012162	1.5405288183877932	1.2339536784069918	2.9810542704622005	2.6567922349336266	0.6554829528690647
7.5	0.5064514592283925	1.0122770117005508	1.1625387624205938	2.0393558559161717	7.063416583496058	1.0355874963432363
8.0	0.7962212396892718	0.7001812745721714	1.2646160108551194	1.4124315070595963	10.668110576776453	1.2993036163637075
8.5	0.9975248179731148	0.5472192313812111	1.4425319431222143	1.0307385686204267	13.003161204962273	1.4636564622675126
9.0	1.1271887789232855	0.5944682995095419	1.8864759363667762	0.7990511915971784	14.458289238283806	1.563797756996356
9.5	1.2088165280641403	1.2076621345630187	2.8710937785525603	0.6584761264289526	15.323071057340814	1.6164697521762577
10.0	1.2572005259065255	2.290569256774627	4.414356917476022	0.5731937143199259	14.946366293765195	1.4727976893288668
10.5	1.2622262746286101	3.1401451680652004	6.19380923473057	0.521461868461263	12.216693098911184	1.0901328369472711
11.0	1.1560942751216408	3.683742334002562	7.861463261820821	0.49010481163768604	9.070739968322156	0.7630904891935131
11.5	0.9052516586257772	4.0189004849441075	9.228934090480271	0.4712332400225589	6.351315005378732	0.5394104306913564
12.0	0.6498805896201344	4.223700241048036	10.198859208935497	0.4607561344472708	4.241633541664029	0.39447901143237296
12.5	0.4675309871568519	4.348393616416877	10.551030942321558	0.4605514986031388	2.8111620065198784	0.3023825146465732
13.0	0.3506132616278062	4.423932735523255	9.943051531324546	0.49459308179173095	1.9037593866939782	0.24438504645505515
13.5	0.2780355258962095	4.468550287439417	8.201003430309	0.6522571723757908	1.3410679215932286	0.20804945201091402
14.0	0.23348239423790074	4.486765821971798	5.731214288253949	1.0413927143575012	0.99516555898959	0.18542454107019116
14.5	0.20625688828200503	4.430545751033937	3.8301627612264135	1.6271101370328298	0.7851685282167595	0.17194445213477644
15.0	0.18966870362300808	4.054454820631017	2.6094393068664443	2.2847070253392814	0.6719190714291638	0.16819551883940032
