# Time series from syn_net_6D_20191104_a_hillmodel.json, output to pipeline readable format
# Generated on 2019-11-18 23:40:48
time	A	B	C	D	E	F
0.0	1.7971994354852971	1.2417948860633767	1.2726091371543184	0.2367245678167078	3.296553501975936	1.0631605438290108
0.5	1.8000379981741719	1.8144944932943294	1.6414580566827977	0.20181484056913107	2.4821840217232993	0.6994730084194893
1.0	1.650346770216251	2.196561130998607	1.8603403633977438	0.1842618080201515	1.7708951454440731	0.4782512703390688
1.5	1.2812601441498137	2.4323337435247367	1.7870208076090492	0.19998048525521	1.2772292826488387	0.3439724080267353
2.0	0.8884186374638865	2.558752688374086	1.4740745365892225	0.3008293056171581	0.938467968010577	0.26249827457218633
2.5	0.59764728213576	2.5484720892041364	1.0832821167596995	0.484011127073297	0.7116968397642	0.213074127035014
3.0	0.406404916583346	2.251440561151807	0.7826793295099195	0.7147023741551358	0.5738670555565666	0.18311957962777892
3.5	0.2855104632810621	1.6911813633453523	0.5871787604667567	0.9680792983485739	0.5378804981695161	0.1651242871024343
4.0	0.2103143315696972	1.1566684284183828	0.4718151727169135	1.0365103170570455	0.7323056281555259	0.15546099404588545
4.5	0.16428359902695724	0.7724616065282028	0.40971105964144666	0.9450270493244729	1.1900413902965554	0.15904406513723054
5.0	0.14148260830572976	0.5198634621866384	0.37379185117057573	0.8702635801904561	1.6335519587568843	0.22346444968748616
5.5	0.2941118356162258	0.35866878514570516	0.3526005039412117	0.8228238878404784	2.200676762946837	0.5013847058392923
6.0	0.8468859661757134	0.257310181806007	0.3426176067534511	0.7740564916142146	2.7686499867620804	0.9893535959877368
6.5	1.2536765318208933	0.19684100455189016	0.3646966768432782	0.6362247725801696	3.1246178840500747	1.4297390324028028
7.0	1.5046168035185756	0.17684818018269413	0.4471970970471948	0.48103799382386236	3.3412041590531487	1.7311109164504594
7.5	1.6575082254738922	0.2525738826228701	0.6187337285492824	0.3636643423628539	3.472564259416978	1.8956275311263693
8.0	1.7500918022284286	0.6500620073463791	0.925668798072997	0.2837877535259719	3.540209581668024	1.5557185399870148
8.5	1.8012470239654048	1.3217160329267807	1.321331154983549	0.23151684819105747	3.2125656270164344	1.008638995037732
9.0	1.7931692575288862	1.8707012273716261	1.6790402641539146	0.1986940294306244	2.383177662383272	0.6662266061323593
9.5	1.6150101003072033	2.232150068817014	1.8690317574236934	0.1836917400746113	1.700106831995482	0.45806510058981176
10.0	1.23018640573316	2.453236375798324	1.7580674582600713	0.2065708076719303	1.228761313795294	0.33172338646806465
10.5	0.8468966826785148	2.5667274164884537	1.4266379320334095	0.32007912448275405	0.9053886610323433	0.2550670546887832
11.0	0.5695517651210531	2.5310340658278205	1.0402566243398077	0.5094308800401365	0.6904016567428004	0.20856736034335102
11.5	0.38846316675712345	2.19185964910473	0.7537830662493725	0.7464259526809442	0.5629258872451522	0.18039394782940227
12.0	0.2742969495057022	1.6198051174988415	0.5692044943216421	0.9916680482557383	0.5451448252947416	0.16352504110691693
12.5	0.20338751529638618	1.1015041997339214	0.4621129339846462	1.0278843399020172	0.7789294811114478	0.15489518606214198
13.0	0.16016694948484206	0.7354411868439992	0.4042486892502686	0.9341924683592489	1.248580785797765	0.16169376355237527
13.5	0.141770163496853	0.49604659701049797	0.370567404150271	0.86322006444211	1.6861492200682793	0.2422017062354539
14.0	0.35418905414145885	0.3436136417290621	0.3507131317375657	0.8183560465993184	2.281821340280152	0.5546170225233242
14.5	0.9070208242073561	0.24796388054325746	0.3428481292956933	0.7623732128740285	2.8220140922530064	1.0495084065492453
15.0	1.2912897625660749	0.19196038658389686	0.3711775649902802	0.6161583792250969	3.1571637827451573	1.4739241130677512
