# Time series from syn_net_6D_20191104_a_hillmodel.json, output to pipeline readable format
# Generated on 2019-11-18 22:20:12
time	A	B	C	D	E	F
0.0	1.005149303680649	0.19450489787104497	0.6230344693557405	1.9995201087067793	0.988968281073368	1.2134080416092095
0.5	1.2513815868563316	0.1829079920081171	0.7075151085466727	1.263308871446108	1.0992444569235698	1.4305188514085703
1.0	1.4080344024485878	0.22741186645902065	0.8717909463970436	0.8042498521097381	1.168145423385118	1.5469432000603727
1.5	1.5023553804518448	0.547457889322175	1.356730809594508	0.5200853985867115	1.209670187391459	1.3444051852372119
2.0	1.5245860841935166	1.5386777627521464	2.2935249037255168	0.3455310986083327	1.2082028690376807	0.9327005375862778
2.5	1.4075592620677861	2.4117003645610238	3.0780515287603616	0.24878116063677339	1.037720803426877	0.6767155263725032
3.0	1.1477784272325782	2.970660257756835	3.3699993025578285	0.2314570170795024	0.7840258304977722	0.5213822656533299
3.5	0.8731080686342614	3.310863182290656	3.2312634852131557	0.2828776315651871	0.5751049879246874	0.4271590170977942
4.0	0.6598287433152658	3.5088159417251554	2.9206324708990796	0.3736930790045974	0.42934756432750587	0.3700072177827021
4.5	0.5127105777915485	3.604942872133224	2.469762201211924	0.5459785737476751	0.33378000395600854	0.3353419588203198
5.0	0.41599640858632436	3.550267434996369	1.8139845569652093	0.9195876176401105	0.2736355041677251	0.3143162466570116
5.5	0.35380576475729614	3.083530158074895	1.264542372456781	1.57018798986647	0.2423785928308437	0.30156540896036554
6.0	0.3142683889633233	2.2351329975729013	0.9141771429637048	2.4042324148644925	0.25809531090115734	0.2938472709696976
6.5	0.2893033218705988	1.4847113563365892	0.7392460826250292	3.2386935740016973	0.34618629073572693	0.2892953520874225
7.0	0.2736752383161884	0.9751452052305749	0.6656438164018756	3.926831634474429	0.44443706448782716	0.28761284107651397
7.5	0.26450560536496615	0.6504857194649849	0.6295515097884047	4.4036313153597	0.512901424352916	0.2947902731908341
8.0	0.26418999881548105	0.44716379261428457	0.6100074358018993	4.668132987479763	0.5596888298722321	0.34806449667966005
8.5	0.3225091668169266	0.3207592410446977	0.5993810661048383	4.534526814692855	0.6296582145879724	0.5441881705702639
9.0	0.6205638677617266	0.24270441162918321	0.5960608220697406	3.267204669715219	0.8065355177945812	0.8769845703460214
9.5	0.98053714364073	0.19693224882159713	0.6188458357007033	2.0749124820025555	0.9777647157147661	1.191768689894607
10.0	1.2353251982200901	0.18235880319577652	0.698595575899425	1.3106150615186702	1.0921354988075418	1.4165625961668864
10.5	1.3980006275371337	0.2198253803155347	0.8523316022075531	0.8336120588488729	1.1637530326364356	1.5426594850689008
11.0	1.496890340513545	0.4944562805413452	1.2964080648090117	0.5382181364920032	1.20720521760827	1.3820424231368074
11.5	1.526848193926825	1.454320517367358	2.2156698020766816	0.35652153983393514	1.2128131319499975	0.9593830437731955
12.0	1.4234471994853395	2.3541706947373027	3.0314425726847514	0.2537627534330976	1.0573258683670308	0.6929196228785489
12.5	1.1709775526388235	2.9350350670301055	3.365656996615967	0.22983871865017796	0.8035098200154532	0.531212077471137
13.0	0.8933254388594913	3.2895555562573726	3.2516173238544117	0.277153901854346	0.5894890022246334	0.4331214480210366
13.5	0.6743812599738734	3.4969194721511743	2.9490216417404334	0.3645735600812303	0.43899926380986004	0.37362373173532154
14.0	0.5224498777019724	3.600994709801247	2.515442803475405	0.5264707186947134	0.339991596847308	0.3375355357135531
14.5	0.42231311071044003	3.565402069546279	1.8665984469093206	0.8793130736631992	0.277410479030635	0.3156466941192398
15.0	0.35784016244653694	3.141130472175516	1.3011080906328913	1.5087808215384364	0.24365414446170475	0.30237201787720464
