# Time series from syn_net_6D_20191104_a_hillmodel.json, output to pipeline readable format
# Generated on 2019-11-18 18:39:23
time	A	B	C	D	E	F
0.0	0.40156328455919393	0.5917608559070532	0.49605621400505545	2.235199706928914	0.12627546007693327	0.8118076460498675
0.5	0.8713946592785847	0.5250474656297366	1.1573616705385672	1.494573193456237	0.33691354700345005	1.0343109219867401
1.0	1.2566917931746031	0.640517594964483	2.0793597735300975	0.9781237014013415	0.5071571244481717	1.1653915233423175
1.5	1.482448116068657	1.2827071223333577	3.0073882335162563	0.6620069640539653	0.4298538160651499	0.9755526929847483
2.0	1.3650046403561324	2.1655528030511473	3.7553637916516407	0.4700932345417095	0.3180254764812588	0.6381557544230438
2.5	0.9555384475153623	2.867966693334073	4.1368451661529875	0.3558773537723907	0.21415942508007407	0.4157008334639622
3.0	0.6039867390793867	3.306624168685836	3.87686285740462	0.3092234795461617	0.1423945700100106	0.27907574396475093
3.5	0.37542109951937425	3.373877548677469	2.9519160231066084	0.457842339097788	0.0976480541527018	0.1959004938066331
4.0	0.2345702942751149	2.834556188498519	2.0435144791316233	0.9984774324734003	0.07033558958195157	0.14577260936005124
4.5	0.14875642882353424	2.0340794420346535	1.3955178402517492	1.5565912523149317	0.05375722787787589	0.11825711213818013
5.0	0.09664402639497284	1.420873082028536	0.9870223875380857	1.9306519390485672	0.04381151121769213	0.11958547704516094
5.5	0.06534544441197886	1.0271695322159766	0.7368577797882156	2.1614923711220735	0.03841096297482737	0.19785230110113108
6.0	0.059586829488155586	0.7843668314771238	0.5844985455546536	2.301952773820874	0.03892784763867327	0.4116177529169133
6.5	0.22796924864188806	0.63617668022594	0.49396663163207066	2.3722396935612458	0.07584547855901158	0.6959644795818715
7.0	0.6708115839393164	0.54662115099334	0.7668654434756002	1.8011892039433937	0.233026250591986	0.946967948549507
7.5	1.1064258418686426	0.5440381374072428	1.6842035856795325	1.170809478775015	0.4664700774259799	1.1256678826263207
8.0	1.4117360577090055	0.9390167522307333	2.612531115405121	0.7794410061010915	0.47456774009879615	1.1148810640881992
8.5	1.4712283296223105	1.7932755416887085	3.4690999338166235	0.5412570380494933	0.36744249178933286	0.7705106665832646
9.0	1.1395366669446083	2.595850048501826	4.029578586824197	0.3974825858342874	0.25552841804294574	0.49878841604910507
9.5	0.7395333266892117	3.1518917941112337	4.089504315934968	0.3186289875801663	0.16943218604714258	0.32987222349683926
10.0	0.4609485305784955	3.408165003505534	3.389554903497938	0.349515626886729	0.11430872696094545	0.22677409803817697
10.5	0.28695489725811907	3.1381697658372034	2.4065121722019494	0.7327381887373181	0.08047926732342324	0.1642472709963458
11.0	0.18062424964111226	2.3701410641452947	1.6413283859541228	1.3370903788092257	0.05990544952629351	0.1275463774816356
11.5	0.11598186033031925	1.6552279697427263	1.1393088010411436	1.7904548308607666	0.0474671203530637	0.11371070544026958
12.0	0.07681908510333857	1.1744490281531976	0.8298549384988981	2.0756687975880195	0.040231481738309545	0.14942932103323267
12.5	0.055806846397834606	0.8747197954789129	0.6410846982362293	2.2498176887650048	0.037472954955514996	0.3036174397170568
13.0	0.11464659609877965	0.6912357538337177	0.5264135368961638	2.355061091821019	0.050040973036652246	0.5727602133529136
13.5	0.46459538294664926	0.5795449077267889	0.5227844999833274	2.140058202218315	0.1480259077827397	0.8463868523004577
14.0	0.9316263157938165	0.5226836572243713	1.2862208217614606	1.4083546205052662	0.3713500457567587	1.0590896847676765
14.5	1.298956937678976	0.6935108809156396	2.206906036791031	0.9249527209831288	0.505765982165772	1.1676366765718065
15.0	1.4923845987083642	1.4038410747614538	3.126308028373873	0.6296608949651885	0.4151171719061742	0.9245460291224037
