# Time series from syn_net_6D_20191104_a_hillmodel.json, output to pipeline readable format
# Generated on 2019-11-18 20:58:19
time	A	B	C	D	E	F
0.0	1.0569803908004818	2.5609719903079324	3.352828920410419	0.5817422076883235	0.6864882818753387	1.8525599268904192
0.5	1.0574931171105137	2.9212003008221004	3.5158435602803184	0.6040988146887547	0.47895233751156946	1.1887211139147917
1.0	1.0182095310192567	3.139537499259666	3.354115104778597	0.6239629392914219	0.352837312371892	0.7657011883188817
1.5	0.8421170785157843	3.270573628516259	3.0884515961228196	0.6789697201805243	0.27576158660444694	0.5013342245007908
2.0	0.5809779102354857	3.3462294078167028	2.6141925149393668	0.9689515573814124	0.22551411806083313	0.33741042382813496
2.5	0.3777090658847409	3.360956205260257	1.776751891357951	1.6969551143489445	0.18186312466183013	0.23651015908484577
3.0	0.2468184929938607	3.138311481546826	1.1423110878701181	2.4153716356042287	0.13741313759027082	0.1782127630876775
3.5	0.16630791602704392	2.3978731974096728	0.747154192426057	2.898426099216233	0.10341076072377534	0.17668922977690893
4.0	0.12942999965512167	1.575061363781928	0.5054022999664406	3.1974542411232494	0.10561114407048816	0.42073558448257353
4.5	0.3874966711987185	0.9972536770779469	0.35849875332617	3.3436574368624514	0.15557565817063476	1.2605394151784435
5.0	0.6546085454931252	0.6341948585930841	0.2711401986750978	2.9347648025649398	0.3609406445728853	2.190561437704183
5.5	0.818830781331589	0.41185359716891023	0.24189987934973403	2.23536770856753	0.8442413574337833	2.827503195089045
6.0	0.9186271456337916	0.2769201081950893	0.2607468135335941	1.6196056718515996	1.30565004317184	3.222161444315683
6.5	0.9792034763374232	0.1989153214756354	0.4191699238223198	1.1329696229237372	1.6152867885849775	3.4625292436218214
7.0	1.0159625369894998	0.37531492356930457	1.0459715853909175	0.7914365254508067	1.799827827386655	3.6082103062837714
7.5	1.0382618549343994	1.405414424363294	2.129826082937659	0.5967182456995691	1.3577001063699334	3.456855202323526
8.0	1.051670144284229	2.2090938827533613	3.0102137608234805	0.5678308439089046	0.8896653019401174	2.4529241573132468
8.5	1.0586096584944096	2.7066760346133933	3.4581639262495347	0.5900868099632466	0.6025224145833472	1.5891705212519038
9.0	1.0521278067676223	3.0096986798776157	3.483569844162077	0.6106752500699826	0.42793166433453855	1.0192759814479666
9.5	0.9767779811752892	3.1928548806528667	3.2680439679530178	0.634482894585747	0.32178418612453585	0.6594566969923727
10.0	0.7509654515013185	3.3021075086167158	2.9708502731113757	0.7339555704877813	0.25631513921849214	0.4353481562038539
10.5	0.501326222734294	3.3611579502209703	2.33077524469196	1.1852406184167639	0.21054914404484562	0.2966560965960078
11.0	0.32515028908522764	3.329941550427491	1.5239650299052356	1.9701518055938758	0.16608269644425086	0.21191288973389402
11.5	0.21425055628578493	2.9337783164479045	0.9828900133883993	2.608646360931581	0.12382785326036551	0.16811594237287042
12.0	0.14680962536422343	2.092076846357526	0.6494891232759353	3.019194838747764	0.09713164766889684	0.2121062718181375
12.5	0.173653507752057	1.3454839714492781	0.4458951103443482	3.2707680987013843	0.1179797094935426	0.6489953598545801
13.0	0.49445837748602306	0.8510168787948119	0.3225040944100117	3.283341689875637	0.19588578237798263	1.609154900192005
13.5	0.7210191418275158	0.5442917612217523	0.2540839601810883	2.690926307393077	0.5079657492150269	2.4451378878075247
14.0	0.8592149695036312	0.35718304427471137	0.24239618240909935	2.0095873479986825	1.0203039586119973	2.9868930055035596
14.5	0.9431437719336919	0.24406543200677847	0.28831801513582256	1.434043921789057	1.429451897450257	3.319417943605226
15.0	0.9940814329723567	0.1908775848501961	0.5639592095637318	0.9989494399913716	1.6927428710001973	3.5215930312135755
