# Time series from syn_net_6D_20191104_a_hillmodel.json, output to pipeline readable format
# Generated on 2019-11-18 22:20:46
time	A	B	C	D	E	F
0.0	0.34637364025948936	3.09615159420816	8.145815776442827	0.952492585043751	0.2260267811598757	0.5106118417884409
0.5	0.30490607509207207	3.088843148184407	6.337522788209458	1.433914640154966	0.20633705183707274	0.4764462357871089
1.0	0.2794856303470568	2.908351860415888	4.583517965135892	1.8637192762503154	0.194389244574782	0.45576824730898274
1.5	0.2639332764092303	2.3811177569393918	3.2774187564872173	2.19882200726526	0.18747554970660996	0.44355904816520786
2.0	0.2544354509646986	1.711573642206045	2.4072505258870467	2.442282808148893	0.18559853321459485	0.43834056220136763
2.5	0.24868846569323605	1.18377801084174	1.853892036299317	2.6122509656642414	0.19842414625172627	0.44959042821220735
3.0	0.2456213708182742	0.8334261451992615	1.5433141216648494	2.7275307932261423	0.2583331876618214	0.5374945728396492
3.5	0.250291010768936	0.6152782198734422	1.5574665649890436	2.7976909775071794	0.37185473174691175	0.8855766665314447
4.0	0.3654097636929707	0.4930192294713115	1.9655951624226564	2.6768464384734285	0.5455840056187937	1.5915217798650247
4.5	0.8211085060835072	0.4799541048874106	2.7762450345095218	1.8249113116023825	0.8178762764284225	2.302535720149563
5.0	1.2570642406051615	0.9433706373843885	5.4490562841307595	1.133172805713887	0.9496860775166811	2.1598322787464204
5.5	1.242992276749098	1.7902353861922982	9.860150006826188	0.7097796265454253	0.7352414052953472	1.4997685083063743
6.0	0.9595709439552772	2.355705298086356	12.713948985252186	0.4573195249899942	0.5370082201383025	1.07823590552984
6.5	0.7032214168834185	2.701927428782127	13.235230111402945	0.32432303344739916	0.400621796552816	0.8212128314822619
7.0	0.5285222148626448	2.911086809015667	11.87984948826831	0.32342912939550916	0.31385150466752937	0.6650099008908206
7.5	0.4176028063179807	3.0333779872047844	9.961772190560158	0.5249100163273143	0.2601158924787582	0.5701550294538968
8.0	0.3487414789094618	3.09469710283909	8.221523371796792	0.9313996840298846	0.22715473496522462	0.5125745753032699
8.5	0.3063592243148512	3.091448283164163	6.421635406131114	1.4129006330147083	0.20702428067484813	0.4776361947568964
9.0	0.2803753813943288	2.9232664072496517	4.653414659340624	1.8464355665274392	0.1948025630071849	0.4564852240160887
9.5	0.26447721052821377	2.410780332582468	3.3256634734244614	2.1859084765081116	0.18769302435755347	0.4439623634188849
10.0	0.2547670232945853	1.7394957250085887	2.4385408449156762	2.4331188894343034	0.18551018469038466	0.43837556633988184
10.5	0.24888559744800506	1.203330305945491	1.8732643875144768	2.6059472138027306	0.19715244630747378	0.44825964727864476
11.0	0.24569334838646512	0.8459078951259195	1.5516345620853038	2.7233361420039173	0.2542544438630669	0.5298220015160147
11.5	0.2494526107904168	0.6228184029028602	1.5477247758393802	2.795815992275241	0.36612038880783454	0.8615273985889134
12.0	0.35317302004122963	0.49658831696792527	1.9408578206791303	2.697988671061974	0.5348666530723183	1.555940467170029
12.5	0.7970872335611813	0.47623510714984507	2.7189539805420653	1.8636996747477965	0.8061920745326514	2.2790040322793956
13.0	1.245573627683879	0.9043371672742522	5.265891090603344	1.1575363912007361	0.9540216623613489	2.1924720211551874
13.5	1.25264087284272	1.7581599614956958	9.68180887059152	0.724481380313605	0.7454399911265186	1.5238421212557536
14.0	0.9727259849177654	2.335846370166419	12.635526834165995	0.4658752778721856	0.5445296761713198	1.0929822278682508
14.5	0.7128943903125641	2.689854790389902	13.260092494472383	0.32782462926814915	0.4055299163624426	0.8301816627281553
15.0	0.5347930849141864	2.9038636831148414	11.962120652544701	0.3197019293940653	0.3169166528418032	0.6704576347710288
