# Time series from syn_net_6D_20191104_a_hillmodel.json, output to pipeline readable format
# Generated on 2019-11-18 20:14:52
time	A	B	C	D	E	F
0.0	0.43509031652063446	1.6178614965896176	1.4319422798688672	0.9323924173125527	0.7043743919358186	0.07560944523039637
0.5	0.3165960958247747	1.400821723391713	1.2258547822499808	1.570229765359913	0.6565540046838064	0.07106446292692141
1.0	0.24476768590923226	1.0888873481840187	0.9459261379400655	2.0540888611017842	0.6368092048877857	0.08514443219278259
1.5	0.20464923414742597	0.7529290348976839	0.6893889369352526	2.3517424844897477	0.6831028799811202	0.18920388843196023
2.0	0.7082936722654091	0.49918660997452724	0.5151303668178994	2.2046478387007276	1.0986636162750345	0.5925736112699554
2.5	2.405892361202885	0.3429823315907803	0.7231403322705819	1.3700994755753535	3.888907270576718	1.1751451444880592
3.0	3.577390135066297	0.5334695483549786	1.6109744657399856	0.8481687803177854	6.806567512130923	1.5359281351949476
3.5	4.2860619341272574	1.0228581279291216	2.3722069230009923	0.5315461639779965	5.513522612824685	1.169246822307786
4.0	4.623263509666405	1.3797986451234405	2.866790142083161	0.33952000084095396	4.001043712503115	0.7531494152759806
4.5	4.278836827517314	1.6069419467449715	3.1478245889276764	0.22319127226563884	2.7639720418897076	0.4818758379069036
5.0	3.1128298049027427	1.7472997565134523	3.200931232086754	0.15355752445013093	1.9180036511853062	0.3131949010958298
5.5	2.0163726094777172	1.8303929424506156	2.8910365162015355	0.11597215451728586	1.3913711724300526	0.20942921249413776
6.0	1.2869421389889941	1.8659203039828958	2.319955746639977	0.1104210929421723	1.0700871097365259	0.14590947388453637
6.5	0.835222558638616	1.8396331374518105	1.8627896258835912	0.17686077640322273	0.8749849342714066	0.10734619315159535
7.0	0.559673390423481	1.7331186749824716	1.5701296464067203	0.5052563916489109	0.7569959382418727	0.08466803513040802
7.5	0.3922185253436914	1.5585134953737985	1.3759785734156782	1.1377527198732365	0.6866005689682283	0.0730977347459762
8.0	0.2905855811892476	1.3155959914324091	1.1441655873146042	1.7380169716675689	0.6472687282254043	0.07229373372282227
8.5	0.22910385460362998	0.9813176779940085	0.8606342402980125	2.166546277051477	0.6392393432660759	0.1001490864924341
9.0	0.21124520901523752	0.6644010960212621	0.6251507827974572	2.391885695446827	0.7382138204182996	0.2729070843726959
9.5	1.2437551370198103	0.4405720444405775	0.49879145485536347	1.9169216036346532	1.5755508416697743	0.7732572223218918
10.0	2.826903134230734	0.3333857300888758	0.969102718520361	1.1812419998818025	5.114164930973953	1.329330522939085
10.5	3.8362048915563296	0.6881843091418633	1.874825397572036	0.7335850621635085	6.616467121651993	1.4851526458734314
11.0	4.432056934398963	1.1489506315390634	2.5498812844096364	0.46204758599860785	5.022355678669374	1.025267935437493
11.5	4.61935524903769	1.4612331317182123	2.974434387907639	0.2973858795690064	3.5842085249328206	0.6560792703404575
12.0	3.9704139559301024	1.6576074866326147	3.192034306390865	0.19776962840471424	2.4627788717696215	0.42116586392532257
12.5	2.7388120329799843	1.7780137268829443	3.1526039622997644	0.13891838340996787	1.7280609168669485	0.27577705025091576
13.0	1.7555939956937563	1.8465869123052274	2.7208959997492563	0.11036670944485091	1.2752008887701922	0.18649115975044303
13.5	1.1239660528078346	1.8655645675893586	2.160101407011936	0.118519678260173	0.9994776512142547	0.13192652186220252
14.0	0.7355979325746755	1.8156332659135577	1.7576540522528796	0.23707114041323996	0.8322037590667477	0.09898305934990576
14.5	0.49909404633286036	1.685411880637569	1.5045843873431382	0.6821935828604379	0.7312917713673128	0.08005580424697635
15.0	0.35543997771240715	1.4935078934158625	1.315240388406948	1.3373251853550403	0.6716692414715907	0.07152296256184387
