# Time series from syn_net_6D_20191104_a_hillmodel.json, output to pipeline readable format
# Generated on 2019-11-18 19:20:20
time	A	B	C	D	E	F
0.0	1.46114047231593	1.5688287216460788	2.6499338791189606	0.13189688004479816	0.416926422358955	0.43651168567522775
0.5	1.0633203279782295	1.1912133932309985	1.934886310330712	0.18913661078091554	0.2639518686045594	0.4037510524846536
1.0	0.7824992416403828	0.7907056829432434	1.3844324948604378	0.2294778362577077	0.17407676202886954	0.38406116666823964
1.5	0.5926532089635189	0.5058573721426494	1.0237994628295926	0.2551781467663995	0.14409875764954547	0.373826433289348
2.0	0.4751126308560495	0.32485470955034174	0.79947183687151	0.2709892865820843	0.1807459266004682	0.3832694263802016
2.5	0.49464985157917213	0.2132472262414811	0.663842615052911	0.28038001727326306	0.2674595651837301	0.5052172855866188
3.0	1.1994112105572738	0.14519138525145484	0.7299009942254829	0.25942214736750085	1.0024156880049373	1.0258353466492252
3.5	2.073548170874085	0.11173488463241533	1.4022972457825378	0.1737151768665144	2.603896310580745	1.8569025264910894
4.0	2.6282275528587036	0.17552051014417974	2.1415166368830176	0.11884681654839997	3.7181415052474183	2.2595805946643455
4.5	2.9622582066941767	0.42321478577539184	2.6764955468959317	0.08536600803672391	4.179315696229472	1.6389881522291905
5.0	3.1373197459915705	0.7788882855511153	3.031502101185098	0.06502225495178891	3.218464064684498	1.1357418629533613
5.5	3.1205793396041273	1.1291643160678588	3.26591037541724	0.052819049594523486	2.103387483721365	0.8280237579416981
6.0	2.8092500344984916	1.420425464977907	3.4098854992780896	0.04684887685108479	1.333306817141735	0.6412259961829454
6.5	2.2634386035424683	1.624185712786044	3.3887345617078655	0.055080200141083564	0.8349031377537347	0.5279013407663974
7.0	1.6980904015418052	1.6577181738448477	2.9797608219495593	0.10123731280746477	0.521809644823344	0.4591606719519316
7.5	1.2387508073405933	1.3938634783177224	2.2679931364630304	0.16349701700039265	0.32814912370349886	0.41747345971626826
8.0	0.9045324065085513	0.9716876328506997	1.6232913506281872	0.21219024861268157	0.21054427451121427	0.3922515333616015
8.5	0.6742301942761401	0.6277973467452859	1.1766766609395587	0.24433022601204848	0.1496666544826676	0.37753089489272607
9.0	0.5226813665323486	0.4012427567006147	0.8938052081300827	0.26435755474318473	0.15711910904792675	0.37406058001694
9.5	0.45174645612283976	0.2601550554944482	0.7201636307100393	0.27652703149113644	0.21426039149368692	0.4183259683352546
10.0	0.7452718308169023	0.1736828400726374	0.6276255464518095	0.28200440464267584	0.4561343199506742	0.7095558293636701
10.5	1.6955952505099863	0.12240264360390793	1.0323338409833356	0.2111199181534753	1.8667218589341301	1.4569106745770073
11.0	2.395289796543087	0.12443472453891033	1.8071851239359682	0.1419048948434315	3.2492625136412743	2.194052628267569
11.5	2.8235733904791247	0.28250306726362806	2.445306114188233	0.09941075485279585	4.084471940750284	1.9665452932023104
12.0	3.072254396714937	0.6027723856200189	2.879238324334191	0.07354687009342754	3.8074209561168715	1.3478244803609705
12.5	3.1593795919300938	0.9660371779154636	3.1651220589722167	0.057882673194170904	2.596753888654777	0.9570460230447487
13.0	2.9985960074534037	1.2893147914417378	3.3526230488516418	0.04886062229946304	1.6639975248101577	0.7195208364962236
13.5	2.541554447847953	1.5399549921442173	3.432529733124914	0.04788818954521931	1.0465428593334118	0.5753975917224141
14.0	1.9612061870959587	1.6723362664746821	3.2337288912156543	0.07405263299002442	0.653982341321199	0.4879700955962321
14.5	1.4436496309539444	1.5585097890454551	2.622126404055118	0.13431153085126696	0.40962568016639256	0.4349421573381755
15.0	1.050644466497567	1.174709332643651	1.9101925961929516	0.19099069608601862	0.25951115916593026	0.4028010572037514
