# Time series from syn_net_6D_20191104_a_hillmodel.json, output to pipeline readable format
# Generated on 2019-11-18 22:49:54
time	A	B	C	D	E	F
0.0	1.5945466974250708	0.1871618044413867	2.8031391365369034	1.482099594221591	10.098676833772457	2.434538124140664
0.5	1.6675816180119856	0.28951703358820347	3.6971172696665144	0.9249097411923933	8.883746674474656	2.3682768364102262
1.0	1.7057440606502279	0.44673423641582116	4.25775401193881	0.5864141782640476	6.181616108328836	1.8230029554657086
1.5	1.6766206943651407	0.5980871335975361	4.599551434718095	0.38105226521293084	4.173966661745165	1.2172708073632033
2.0	1.4331721651982103	0.7192833587822857	4.806698163943067	0.2582770372555593	2.7840162385985328	0.7918358120306154
2.5	1.020876153646256	0.8084717279521594	4.92920784746317	0.19926621332993247	1.7807423037249674	0.5194617139017532
3.0	0.6906244016469961	0.8701978322256095	4.974186248232699	0.28897802307510045	1.1238759625658887	0.34933181873559405
3.5	0.4781183485941442	0.9037808899299022	4.827439561719546	1.2510403390625553	0.7180356106182737	0.24413652991168466
4.0	0.3474566945855449	0.8717607664937707	3.89090303672724	4.332521664782075	0.47081116229703945	0.18012389022179182
4.5	0.2679109781883978	0.6848688294853217	2.571283363645059	7.8165503724266046	0.32114551468143254	0.14845053041137066
5.0	0.21965030559680632	0.4899809347455484	1.7131702440061674	10.292968868600731	0.2336027634760901	0.17690784037857735
5.5	0.19229013334200454	0.3577867058740992	1.1656534028635996	11.857767421506582	0.19856592569737166	0.3791452913708707
6.0	0.2671239917111159	0.2756497228853425	0.8381618241485242	12.72629181589273	0.42231244325235734	0.8344456636095843
6.5	0.6769317572328923	0.2255755291230669	0.7507898312836435	9.046616305240681	2.0540906183712266	1.369366073302529
7.0	1.0768732560974739	0.19518223367716642	0.7498656837365593	5.5687153420378595	4.649038468662737	1.8123365825947435
7.5	1.344925479582609	0.17682725739729374	0.9810190084799009	3.4149082615244937	7.191889482566066	2.1286912931221003
8.0	1.5137906371631185	0.16888915438342963	1.9402613585632429	2.100407878154133	9.240942742311763	2.3399345349842515
8.5	1.618381153888673	0.20597958098511632	3.087191963379753	1.3007104306104502	10.104061897052363	2.450926209238076
9.0	1.681572141195507	0.33030918777188345	3.8790476451630562	0.8146950203456292	8.129573605808316	2.260873711052751
9.5	1.708223773461399	0.4904963950317306	4.369031492230649	0.5194918776696459	5.548926795247784	1.6428370249487945
10.0	1.638626143855153	0.634651319153333	4.667101169606422	0.3406206076521108	3.746993831001239	1.0823190570687125
10.5	1.3232133996007547	0.7467683152822181	4.847363196699371	0.2354360665943851	2.4718201566900024	0.7042030391116635
11.0	0.917470289005601	0.8279582873299145	4.950832553799972	0.19902294549618632	1.5692880023698088	0.46446975446558647
11.5	0.6219865077616862	0.8826056406836741	4.962098373708727	0.40072231236050343	0.9920291070356634	0.3152367967371266
12.0	0.43564898074806463	0.9059075742667582	4.715392161004652	1.8946463916581824	0.637549077161057	0.22319494428087047
12.5	0.3215620345949294	0.8327827749521427	3.4816117308181775	5.354185877707597	0.4219527171563805	0.16804818303815125
13.0	0.25218282420009414	0.6261160936055853	2.2959985544237234	8.603615784374428	0.29190639771038535	0.14739387503207185
13.5	0.21017033291803358	0.44758384247671745	1.5378670285615295	10.799324964386882	0.21826923428188835	0.2082480461624127
14.0	0.19106681868290407	0.331123281045367	1.054258120479863	12.168986392735246	0.20508701349614658	0.48214489864462234
14.5	0.35423200753793693	0.2593466053350429	0.7923563421788214	12.363625693567545	0.6970248167438924	0.9833643625819014
15.0	0.7994512479642912	0.21567516677007667	0.744246910941239	7.928300045636422	2.7258914415965942	1.5034128223147802
