# Time series from syn_net_6D_20191104_a_hillmodel.json, output to pipeline readable format
# Generated on 2019-11-18 23:35:38
time	A	B	C	D	E	F
0.0	0.87604411903557	1.541629726072313	6.550609415574517	0.0489523600241292	2.5608173614844483	0.7149194778126453
0.5	0.5710151078204012	1.8678843615141631	6.826863284331221	0.03722789323439912	1.6750590948042061	0.47837271508975404
1.0	0.3655248870856789	2.0566263155545625	5.690468512696014	0.03545364531116646	1.0875301835823974	0.33326059468157504
1.5	0.23802955293943437	2.0846289684416304	3.9972977581316993	0.04078606778513126	0.7230629125123809	0.24485343785747463
2.0	0.16021854106105865	1.7936080511062533	2.7388348061731906	0.060061828298896336	0.5015898016284449	0.1917508299527903
2.5	0.11292349055535252	1.2829588226330986	1.934543274880414	0.11723616615748089	0.3751506566111336	0.16461458363667172
3.0	0.0842293244947827	0.8507445503434479	1.372663831143223	0.193259337279635	0.3513392641004725	0.18713139557578154
3.5	0.06769030298696065	0.5601075482935226	0.9578736514338957	0.2037001875727786	0.5015466024816165	0.40720570806013334
4.0	0.11727647411355616	0.3793221640707043	0.9827966621613	0.14985891720256297	1.3372135190834105	0.9008539316266565
4.5	0.6468669614316015	0.4354856671098016	3.227688305601069	0.10528774065809285	3.317692622889532	1.333315144392192
5.0	1.1255333838652657	1.0465987885441974	5.309605806102683	0.07002070182007145	3.5942250118244177	1.0749805002752824
5.5	0.8650728141499574	1.5520525923085837	6.56825373507535	0.04848362127095898	2.53207358856094	0.7069183945245827
6.0	0.563100122661094	1.8742462103554263	6.8127655438658365	0.037048368774327385	1.6548397320514918	0.47343950917412
6.5	0.36055485672490817	2.0596111260426033	5.641308417143	0.03554306118778659	1.0747996122609744	0.3302494067443076
7.0	0.2349887236460493	2.081235772162377	3.9539579658015707	0.04106501564092344	0.7152716414699658	0.24302686620577416
7.5	0.15836908121221713	1.780139148796264	2.7104203356698013	0.06105336131993542	0.4969247015552286	0.1906879375101248
8.0	0.11180061878531558	1.2686436602299571	1.9163729774558773	0.11939814325788695	0.37287682877015077	0.16432553343512193
8.5	0.08354960481200573	0.8405044924784535	1.3585462381354354	0.19481192872788236	0.353018251920013	0.18956552735168664
9.0	0.06740704346735739	0.5535968710967881	0.9494237546915746	0.2025328764260814	0.5091902232893609	0.4185243444676222
9.5	0.12299815456308229	0.37540882800156034	1.016324529384137	0.14831250697294246	1.3874060062118616	0.9159081097746818
10.0	0.6705087992711443	0.4487934308539934	3.295874521791848	0.10404141725708996	3.3669005453888055	1.338933243626671
10.5	1.123769435659714	1.064097524384809	5.3596023216174125	0.0692184894287228	3.5661077473030636	1.0622672291754267
11.0	0.8549869738291033	1.563693116309156	6.590193736212327	0.048012396176576495	2.5023159323755353	0.6984224149624053
11.5	0.5557003542039263	1.8813788963834273	6.799398408010597	0.03686584439141776	1.633911366070219	0.46820048352933485
12.0	0.35589511013263425	2.063011431754528	5.591114469390178	0.03562189764292048	1.0616277099908145	0.3270506773632163
12.5	0.2321354645664245	2.0777546854983986	3.909971199689775	0.041349691828774085	0.707210271268047	0.2410860849404909
13.0	0.15663321297718286	1.7662958936555866	2.681621755785269	0.06211698823918472	0.49210045853932616	0.1895589383446898
13.5	0.11074660066699296	1.2541466690338354	1.8978846963027547	0.12168453079033273	0.37054987150107843	0.1640254325228353
14.0	0.0829118321368592	0.8301735924280257	1.3440497533318605	0.19641124130890592	0.354839805001182	0.19219080191758703
14.5	0.067171668732858	0.5470356240485277	0.9407813460255379	0.2013517809353605	0.517303047457814	0.4303537335228241
15.0	0.1293266775714389	0.3714858687606335	1.054372933967033	0.1467977478210157	1.4399329443351616	0.9312203467768607
