# Time series from syn_net_6D_20191104_a_hillmodel.json, output to pipeline readable format
# Generated on 2019-11-18 23:26:51
time	A	B	C	D	E	F
0.0	0.14021512723537644	1.5941633528292276	1.0619140618532934	0.5476181038507015	1.1353637040757476	0.13838204963968118
0.5	0.09725798862373895	1.6022887700658517	0.7498839989039459	0.8283870476157921	0.9990754192589838	0.11399314463712759
1.0	0.07118703463236523	1.586902237834179	0.47920235118843085	1.0982462368948749	0.9153487888923784	0.09920773888965996
1.5	0.05536882930727753	1.4368764245817154	0.3006375505707304	1.3232237274906737	0.8649781176500292	0.09068403322325119
2.0	0.045772946728168146	1.0469302776777507	0.1891656463725939	1.492502240737638	0.8422158289714433	0.090065244866562
2.5	0.039961169287105094	0.6785997295609194	0.12069105563068418	1.5856876527825738	0.9020575441503892	0.13257319982249738
3.0	0.03971833509711892	0.4358596663895462	0.08178943463182292	1.3982437360157591	1.680488762087504	0.46448509163029333
3.5	0.3487030129205507	0.28726371366854075	0.10604739512860596	0.9837834349714202	4.453763300024901	1.479055648138434
4.0	0.8172798924315984	0.2935340134448554	0.30494086512005925	0.628437105228808	6.916053216821795	2.5496864811164226
4.5	1.1098845682152465	0.7416704392139621	0.6567054778174467	0.39516105810418833	6.141204863796559	2.069423700565702
5.0	1.2528579637910124	1.083554088996898	0.9379304684251651	0.25281137984745183	4.426774394309497	1.3105391427447322
5.5	1.148339559376669	1.294246976392444	1.1158568007851426	0.16652752108411878	3.316837920075054	0.830179401209097
6.0	0.8132862669458959	1.4226142584630734	1.2210150913431332	0.11565425506639326	2.619558631789784	0.535521728692812
6.5	0.5208443769939417	1.5006497958387992	1.2756690488830422	0.09666862964712954	2.1243715810813137	0.3557405609653728
7.0	0.3302997832530766	1.548034741366889	1.285564350412542	0.148889435311406	1.692545535275817	0.24624168199893917
7.5	0.21291113009175194	1.5767409912630543	1.2364159286921785	0.30482789381634295	1.3592928274675722	0.17960037334361
8.0	0.14141298194455057	1.593891275817637	1.0676445310074933	0.5417879207019679	1.1391090001106763	0.139058551239797
8.5	0.09798513942697404	1.6022398102609412	0.7567775953284486	0.8222220179804819	1.001389417678972	0.11440430127463465
9.0	0.07162827553182027	1.5879425953055515	0.4840555790236875	1.0927860063810266	0.9167616628496835	0.09945522184080798
9.5	0.05563652718646396	1.4431147995616624	0.3037063060574528	1.3189092509597786	0.8657962068085595	0.09080916050060478
10.0	0.04593531581990996	1.0561376550122645	0.19106219054663834	1.4894631964515985	0.8422887006875893	0.08989674507184282
10.5	0.04005888300376902	0.6852344174764126	0.12184546738045868	1.5851347608986068	0.8982853656286678	0.13023286750025373
11.0	0.03930969727782412	0.4400001918159535	0.08226920794284888	1.4080005536755482	1.636377231317099	0.4502181722958112
11.5	0.3367721792098145	0.28971170492499754	0.10399962203904357	0.9919492326099812	4.390068790791122	1.452560084923342
12.0	0.8090998192033285	0.28729565728870815	0.2980995794481992	0.6348759024859095	6.879643775495409	2.535157434919763
12.5	1.105082251826232	0.7323651454198675	0.6493467717261499	0.399115087768008	6.184434949720282	2.0892081792611266
13.0	1.2517218803702617	1.0777152998841832	0.9330084791782031	0.2552149986382575	4.457172278930524	1.3237742618769723
13.5	1.1540988286464344	1.2906818297066385	1.1128641976655895	0.16797664765219678	3.3358246085772074	0.8383432165285214
14.0	0.8207548609784246	1.4204455428355647	1.219318765625757	0.11645910141473584	2.6318217991935335	0.540510118566463
14.5	0.5260570506858798	1.4993322055490854	1.2749402178838296	0.09656697284311448	2.134347478138597	0.3587805614361969
15.0	0.33355250864910574	1.5472352825301425	1.285888811876738	0.14659720573151494	1.7011114956209508	0.24809233527717006
