# Time series from syn_net_6D_20191104_a_hillmodel.json, output to pipeline readable format
# Generated on 2019-11-18 20:28:16
time	A	B	C	D	E	F
0.0	0.7067657829433057	0.5039858807432435	0.5531456063755671	3.756191415455566	0.26560677012036915	0.31265534417699475
0.5	0.5950492198717475	0.33439861160654744	0.3797605982981486	4.08734632491321	0.2653604485637655	0.2835134651407575
1.0	0.5268476522816598	0.22897766799576708	0.2700555357675363	4.288971834025993	0.2764008779127704	0.2716664315383435
1.5	0.4855685315582917	0.16463457191349345	0.20125972140090104	4.411075949475745	0.2849853388584239	0.295366278491911
2.0	0.4632547951255779	0.12553425011474517	0.15845474034995927	4.484824454809366	0.2907194730240734	0.4221957660115961
2.5	0.49642322766132235	0.10180176320529476	0.13244394985522787	4.529103835250179	0.2983692687288517	0.7483462109025746
3.0	0.9035254086793166	0.08740302318241919	0.12592351200553653	4.549622513398232	0.36299483332620897	1.2669122996506583
3.5	1.6516786226974987	0.07867106699145231	0.1387387009971703	4.391585796493713	0.6856561122365803	1.8461790202638386
4.0	2.2468031192462687	0.07337815969183922	0.15019712284902567	3.3947297944712465	1.2256745947465781	2.367016837303376
4.5	2.636392416119925	0.07017313381764877	0.16724336551510008	2.245623092028377	1.7169924148595375	2.7815601671163916
5.0	2.880694588095753	0.06824554136942879	0.20112614221357422	1.4580437441219107	2.0759623994086125	3.089325142396527
5.5	3.031875920654509	0.06719012286064921	0.3027419778405203	0.957053508102475	2.3188497450780794	3.307589814774404
6.0	3.124890538827432	0.07341727811238004	0.7354022740632002	0.6436542138465499	2.4776288941153495	3.421990403765844
6.5	3.177180873081231	0.279418050673099	1.6794917480845277	0.4489603114462527	2.536841402807196	2.534960385224332
7.0	3.1484513067453284	0.6272556696502555	2.5330506653572296	0.33127607735781356	2.130105232079477	1.6312343355233094
7.5	2.8285032801656094	0.861924150236793	2.7631013308448376	0.29031963616276446	1.4364815511544096	1.0823394987396844
8.0	2.160403363492542	1.004259420505845	2.6045814996292203	0.5371652342472544	0.9299593658523573	0.7493916984986893
8.5	1.5409851191327208	1.0690769545201968	1.8105744407558957	1.485782967427267	0.6102066775084491	0.5474436629951003
9.0	1.1159802223940458	0.968491033180449	1.1640521938767006	2.5683948992393573	0.4148583386447112	0.4249565377691449
9.5	0.8471596451467933	0.7016338460036434	0.7644143213269593	3.3417319760574937	0.30305635859613306	0.35068245052661373
10.0	0.6810938462418468	0.46558986722663875	0.513837472674143	3.8322866820434074	0.2629328779241405	0.30578999431460385
10.5	0.5793535565715087	0.31019362103646264	0.3548181582671742	4.133819189239128	0.2673915989066592	0.27980261295119024
11.0	0.5172960072504916	0.214157232150999	0.25436355674657957	4.317153370555416	0.2782992330808374	0.27223373981417576
11.5	0.47991301951218174	0.15562115932177384	0.19146954013486772	4.428110430485155	0.2862521480024627	0.30845219848234146
12.0	0.46182824516112814	0.12006211908472125	0.15240023596764293	4.495096016323552	0.2916733080709257	0.46678839444421893
12.5	0.529029183197844	0.09848137821980597	0.12914251274847469	4.5351158208658005	0.302212651514137	0.8352254391862367
13.0	1.0408906468296864	0.0853890098391932	0.12801330437141145	4.546909867850323	0.3981042621360828	1.377008348321939
13.5	1.7823029219010074	0.07745008169535098	0.14101483477356258	4.277926986523192	0.7811458074793682	1.9521675138351284
14.0	2.335079706987577	0.0726383202903327	0.15264006271061548	3.153584087183082	1.3280077130754955	2.45452553717381
14.5	2.6922139094091695	0.06972614644899051	0.17200536076399325	2.068501693806626	1.7955773849770653	2.8479175769956284
15.0	2.9153426482676217	0.06798123986272929	0.21154455578871942	1.3440800327118376	2.1301201244475756	3.137143000995451
