# Time series from syn_net_6D_20191104_a_hillmodel.json, output to pipeline readable format
# Generated on 2019-11-18 23:44:34
time	A	B	C	D	E	F
0.0	0.2897420365756477	1.2074346196712606	4.365846596028499	0.27936592708713487	1.2088305539223463	0.23536430380874543
0.5	0.22088462437859507	1.1172349986752161	3.794216014166772	0.5511457240533832	0.9900666647711625	0.22500498551151643
1.0	0.17803464984093004	0.9462765693319568	2.987093284344754	0.9913212291874924	0.8545280419668694	0.21875620391506662
1.5	0.15146991011427607	0.6967373029389384	2.1578312537991082	1.5255979351252924	0.7730107746560858	0.21516126948243264
2.0	0.13510319645477098	0.4808633049380628	1.580900874137082	2.025715476248277	0.7379990794004238	0.21431932082045774
2.5	0.12550499368430762	0.33506626737841355	1.2261653339709142	2.3207258865924034	0.7797264746866907	0.22221850108462604
3.0	0.12345379052426607	0.24354031067314014	1.056508306711471	2.221805589190903	0.9186974062670152	0.26787808451774603
3.5	0.165862210810576	0.18751964837548726	1.0671452679995719	1.7580203751681356	1.2975799626136415	0.42367148321386633
4.0	0.5446937236812315	0.15441758885499693	1.2666472468008074	1.176523097014381	3.204365265535403	0.7360518666452016
4.5	1.2090536143382173	0.14104765766958224	1.9029119554434166	0.7330512336590902	5.951961041391785	1.1094541332821728
5.0	1.6957828772470342	0.27198311438098116	3.845622200610947	0.4486880339081067	7.759761417703098	1.1054380693106887
5.5	1.891481529390171	0.6357329086084879	5.916360924138107	0.27540590764513756	7.216022279540082	0.7617523665667629
6.0	1.6910846202108305	0.9234300743221221	7.185166043698527	0.17032403415787187	5.858728072993724	0.5445417028974611
6.5	1.2593880598936955	1.106332365359051	7.271985435073367	0.10747122449892989	4.330461427572704	0.41256671196413724
7.0	0.8692330603475873	1.2116753466393733	6.429054843655539	0.07501198957701322	3.0601762762191234	0.33248278322972363
7.5	0.593056973443767	1.2572163024286933	5.559809072537372	0.08078482988577357	2.1748102370864335	0.2838989935016186
8.0	0.41241704432960624	1.2549352737147255	4.929153648316947	0.13799958535254103	1.5986002344350276	0.2544292958500491
8.5	0.2977307623226838	1.2136649338969854	4.413900368942121	0.26291167830536555	1.2337157553875444	0.23655774874654792
9.0	0.22586510417623407	1.1283737457384326	3.8528198506208033	0.5198472718709851	1.0055500325582276	0.225727296916293
9.5	0.1811260650019228	0.9664778790224388	3.06859627223649	0.9467188130030082	0.8640600114366025	0.2191885343178469
10.0	0.15338208386626279	0.7193648045778871	2.222195367971988	1.4775469444446956	0.7784547106609199	0.21538701516196992
10.5	0.1362712205064638	0.49740920405747063	1.6226085990972388	1.986624662482127	0.7386702330266579	0.2142069577834192
11.0	0.12612919016572596	0.3456864411534558	1.249974715739637	2.309144673775936	0.7716826532953794	0.2206727452269707
11.5	0.12305939799218606	0.25010297296631306	1.0645189789022569	2.248004723107752	0.902297383158251	0.26056643670498053
12.0	0.15572471735328597	0.19149408999181847	1.0572138223476484	1.812160221504869	1.2303795244434517	0.4030100678502913
12.5	0.48858701027709706	0.15667123306816272	1.2427255158977248	1.223376131804525	2.9524333067584254	0.7029172176806607
13.0	1.1537185259409504	0.14073215769638855	1.7939704895760082	0.7663028260060223	5.731974980456483	1.078819104348781
13.5	1.6622375445321413	0.24515176084089021	3.6402274816360025	0.4690748483351806	7.669460810712635	1.1388028635123697
14.0	1.88926958631266	0.6040136542549357	5.755727240495431	0.28779225902505795	7.3212472979208645	0.7872716202686248
14.5	1.7240076034777796	0.9021452720359187	7.114297811169483	0.17781518822168177	5.995064119156673	0.5600839157360076
15.0	1.2993923557818952	1.0933446645995784	7.316190891038923	0.11184932452825354	4.463265620672943	0.42200048690904585
