# Time series from syn_net_6D_20191104_a_hillmodel.json, output to pipeline readable format
# Generated on 2019-11-18 19:30:07
time	A	B	C	D	E	F
0.0	2.2441746262316022	0.5201367448661988	1.4692180734682811	0.07049532981445294	0.40121764930832243	0.29574903664429814
0.5	1.5638176301864628	0.5343981713517203	1.3607029076160468	0.06955714024656251	0.36074306409214624	0.26489652820633697
1.0	1.098586079236897	0.5420952224806244	1.2368507012198473	0.07522437366585145	0.33618342684579333	0.24618345468888747
1.5	0.7920223522370464	0.5441069823469693	1.0401447255856089	0.10673439181460738	0.32128253726421196	0.23483335423552001
2.0	0.5937225965831446	0.5333968837175508	0.7772975723418892	0.1986430933693	0.3122425290072701	0.22794923369550815
2.5	0.4667672617186883	0.4699684095469665	0.5128470297740516	0.3384643230048652	0.30675960429256766	0.22377442012979637
3.0	0.3859979883171213	0.33531635096063833	0.32851371548174557	0.4706151241770496	0.30344586527431117	0.22124800663630348
3.5	0.3348496145665296	0.21754721596091955	0.2136970564204083	0.5697224595636071	0.3015539602432268	0.21976997306232995
4.0	0.30278613068364557	0.1408449581030268	0.14335717086512176	0.637244234590436	0.30147531178234344	0.2193648488910697
4.5	0.284688219372074	0.09366911198199308	0.10061377666323827	0.681288003793264	0.309779479556255	0.2230079997588395
5.0	0.29046699708795387	0.06496411837323124	0.07611141259445903	0.7086899656831172	0.3636104193040471	0.24973888902533936
5.5	0.47117703052310267	0.04754016411374675	0.07376330360884636	0.7112124241460883	0.5564098675746484	0.37232259284416686
6.0	1.6707612739382744	0.03701598413156651	0.13026197465040523	0.5131848142750662	0.8984143352215	0.7022564883751292
6.5	3.144672051155276	0.03150939719478247	0.2213490503159227	0.33007142697410624	1.3183780308759434	1.1896758003255465
7.0	4.10597697408334	0.044395140653161635	0.43682103769428177	0.21018115078119942	1.778551424114765	1.4627716256091807
7.5	4.6777840220987885	0.18191698469282783	0.9042026860977479	0.13787974346097626	1.3232268689209405	1.0114213321270824
8.0	4.913889414170331	0.32513195748562923	1.329593801100514	0.10259876549424861	0.927091871351682	0.6990528731068667
8.5	4.647027300743608	0.41645113776520454	1.5671300155496506	0.08606639195212662	0.6809783622284481	0.5095207318936258
9.0	3.8046777695056346	0.4723916883028563	1.6130243580506713	0.07732224059220834	0.5307062622303137	0.39455792714878446
9.5	2.7978171532697047	0.5062306782796393	1.5373904137443635	0.07237409746223311	0.4393524246504725	0.32482800636774317
10.0	1.964993485947495	0.5263515229944943	1.4288291467274017	0.06979800121250479	0.3838872499986093	0.2825341629261829
10.5	1.3699512755225383	0.5378836994708827	1.3195440548742328	0.07035306746693462	0.35022680763866676	0.25688138824572215
11.0	0.9699100955332556	0.5435927046292648	1.1748898271854986	0.08201857096720884	0.32980288551397036	0.2413220455240891
11.5	0.7084703005399395	0.5425860237434075	0.9482261644203035	0.13245513814515364	0.3174115440266181	0.2318847791502226
12.0	0.5401117749273282	0.5199641824312375	0.6735490768462306	0.24774378831868343	0.30989432479695334	0.22616093025533368
12.5	0.4326109587369212	0.4239668561283306	0.43493758021776097	0.3903773410165537	0.3053369633409602	0.2226906383775808
13.0	0.3643396682994043	0.28690560383717173	0.27953323850062206	0.5112766578524879	0.3026008974754099	0.22059895386899087
13.5	0.32119632329078285	0.18494153866700505	0.18362733286734742	0.5979157619395006	0.30121064117967994	0.21945400453965122
14.0	0.2945197027056956	0.1206709625610148	0.12502322861147788	0.6558056851285385	0.3027030352252577	0.2198355297423971
14.5	0.2822783005858905	0.08137904501744143	0.08968807966731467	0.6930992115829023	0.3203752315073523	0.22799457895446634
15.0	0.31339613897868507	0.05750131953950165	0.07159771854742135	0.714911984474627	0.41359518566364595	0.2774381791508078
