# Time series from syn_net_6D_20191104_a_hillmodel.json, output to pipeline readable format
# Generated on 2019-11-18 22:22:43
time	A	B	C	D	E	F
0.0	1.9486473090682765	3.650910552120733	3.1507853810034963	0.02613264102978991	1.3223496484203243	0.17269610772162705
0.5	1.3775647232190702	3.805676097052058	2.739534720592087	0.05906305746664974	1.00616620648295	0.13237202681336926
1.0	0.9729203625905601	3.6948505512703798	2.013416462154773	0.1790617474698041	0.7872474717372964	0.10790867783247493
1.5	0.7112784514158662	3.0244923280879874	1.3577575043135828	0.3441659321603069	0.646823545280796	0.09317839155802479
2.0	0.54732540193535	2.154373205089069	0.9316396203643041	0.48110452270701565	0.5645475653020777	0.08506336694523718
2.5	0.4464803588867277	1.5092682117822405	0.6667393048352785	0.5747034695004071	0.5479509351824453	0.08531659176785109
3.0	0.3904079725518108	1.0974754572657777	0.509380672213435	0.6256738692313596	0.677249370075767	0.11110238038120003
3.5	0.47337438295670137	0.8440207312802632	0.45272371779623133	0.5787124147265614	1.1923718921555673	0.21207308526970003
4.0	1.2018326386591647	0.6903343666783684	0.501885346417307	0.3946188032311888	2.448683583903693	0.4382805600256853
4.5	1.9142895839459444	0.6041676470395497	0.7581391514302263	0.24903180925578278	3.562481184403633	0.752010645125316
5.0	2.361635296891196	0.6214087446545006	1.1668356672921312	0.15546015815316394	4.296959763888216	1.0124459702839772
5.5	2.6337782349047907	0.9958867584051204	1.7682737693010104	0.09778239076609076	4.414516735176496	0.9202823024903369
6.0	2.7946268650424666	1.843225340464996	2.3989126743026934	0.06254866337177499	3.3891371902700884	0.6098475701790528
6.5	2.8553045399107284	2.635934430852833	2.843634877257699	0.04123117726919057	2.4801697646277785	0.3991916252670571
7.0	2.6918560474504827	3.197857910263112	3.1108744226078233	0.02896166927057046	1.8849839697807216	0.27006627029023655
7.5	2.163797633835092	3.563420022810048	3.1906131394062567	0.024630046618676155	1.4498643167481975	0.19151251179246148
8.0	1.5528980055110626	3.7728804955923985	2.926186845777402	0.040557792150357104	1.1017125708259856	0.14379595467288872
8.5	1.0911377602250334	3.781662418140817	2.2774869169697336	0.1286363587048866	0.851073696652691	0.11483406751699865
9.0	0.7864960051296205	3.308825167219137	1.550720108258417	0.28936914429863236	0.686940986010438	0.0973148950574574
9.5	0.594143281746379	2.43139191843766	1.053885823421246	0.43979589086646703	0.5863426438800333	0.08711367394023427
10.0	0.47500774153915515	1.6973494657484358	0.7420277200848198	0.5477509272872405	0.5432149410165368	0.08376250419708917
10.5	0.40424183521317414	1.2150650081212648	0.5523401873119393	0.6140484163010232	0.6087879409757926	0.09722324408220896
11.0	0.4016285318332707	0.915943839305403	0.45789637935504485	0.615955458006974	0.9349359686504877	0.16545091313796606
11.5	0.9083022728627449	0.7337053597922155	0.473245621844668	0.45589343380489583	2.001486549820594	0.34797484971036535
12.0	1.7074028627017082	0.6258899613993386	0.6459149330546488	0.29173996081679926	3.228707495202607	0.642992998271571
12.5	2.234612343133743	0.5955505328231397	1.0148524083430466	0.18218148687096303	4.092701957279729	0.9447483868047983
13.0	2.5567993202865478	0.8021756074413674	1.5430862125621232	0.11417452299410186	4.505675743773725	1.007454620280469
13.5	2.750537459901171	1.540053779173934	2.2035778878190784	0.07254015055579206	3.772323949812611	0.7057060180714488
14.0	2.8494993699753293	2.393508471629147	2.7152663913702213	0.047233873325851355	2.745127872747952	0.459241548724618
14.5	2.7872731363750267	3.0330097647120975	3.0389584980138777	0.03226045783319776	2.060292936931989	0.30669048158768847
15.0	2.371596969803723	3.458765206885419	3.191025493276746	0.024993541817419588	1.586377802741618	0.21377430110416729
