# Time series from syn_net_6D_20191104_a_hillmodel.json, output to pipeline readable format
# Generated on 2019-11-18 19:20:13
time	A	B	C	D	E	F
0.0	0.17836321209422595	0.06160954546752466	0.44518957072755255	2.1123905874122344	0.5114883133197189	0.9371377565900524
0.5	0.35869938316431205	0.05277616699258528	0.5656582309552587	1.5478387250092684	1.2132018929679793	1.2087753699158637
1.0	0.5191135898919859	0.04785650489346768	0.8707020104075849	1.104477848553678	2.0133953209961732	1.397041878083115
1.5	0.6339683959006132	0.04651218676231097	1.1038099482564736	0.7784979289295764	2.667131142812225	1.5187684956115084
2.0	0.7106083456711599	0.04890553639464291	1.3064388585151396	0.5487435052248689	3.1381749175240654	1.5911501813651243
2.5	0.7599114182951471	0.0582054317859502	1.6009842087363269	0.39700781477212677	3.4553432074653894	1.6185913521267987
3.0	0.7884024396975923	0.08891343987409021	2.008097932497665	0.3000336006994225	3.6319264097393114	1.5195810562997039
3.5	0.7757417088341535	0.15879677863709227	2.380696277167684	0.2408292877063837	3.454705129631492	1.1048961643587485
4.0	0.6386045848678837	0.25802808966865987	2.636571276840959	0.2201086454474706	2.6019140860363583	0.7115525589402162
4.5	0.4400769369434192	0.3542647893520959	2.7369583108533457	0.2648174873819933	1.713228679156829	0.4607275839918255
5.0	0.2932809177566539	0.40704530107677334	2.575309624958924	0.3535176018047456	1.1126957587583717	0.30738179261526893
5.5	0.2007334914675149	0.3675334406342602	2.031137011577834	0.5083010627458249	0.7412349652470417	0.21433231895428867
6.0	0.1441148766831546	0.2670498450244074	1.4264662591441826	0.8622112808949864	0.5179215386562085	0.1590975231155912
6.5	0.10969478302864502	0.18246886131800064	1.007582895206201	1.339959649279276	0.3836728902757532	0.13447730095820035
7.0	0.08882230251612548	0.1270236027566878	0.7457734757818888	1.744371090474527	0.3024982389156324	0.17030362577338348
7.5	0.07695990188094892	0.09264814542057188	0.5853390238340299	2.026028899705053	0.25494867699215523	0.35633268446956895
8.0	0.09427769818468966	0.07163302047266522	0.4877458900803682	2.1977449102235647	0.280760381205233	0.6880820477326386
8.5	0.22295734682942922	0.05884143379722397	0.442564741669275	1.9751258870542385	0.6616392466211877	1.0168643476130008
9.0	0.40494291069580407	0.05113692490736306	0.6476711023800878	1.4163316506868329	1.429083965723298	1.2657445869140362
9.5	0.5535791803899508	0.04715728788633894	0.9392903185705319	1.009122623474259	2.202929886499078	1.4346474003798082
10.0	0.6573194461450602	0.04675257315322672	1.155847921963438	0.7093501329588235	2.8076943096663496	1.54200431747935
10.5	0.7258085398384998	0.050361489724214635	1.3697288130852725	0.5023408095665103	3.2349164706001154	1.603203086533956
11.0	0.7693634503320637	0.06327027818939679	1.7021642875619234	0.36710502747703116	3.5166495123177555	1.6136285309930518
11.5	0.791526939887562	0.10323359219930087	2.1145686959833325	0.28127144808928073	3.6406964268668376	1.4363864234876247
12.0	0.754440080212251	0.1831314922092954	2.460538828865683	0.2308729103659749	3.2835554051675286	0.9870149868554653
12.5	0.5851386151656339	0.2850744103150083	2.6802111467846297	0.2247853389713822	2.3450234955367635	0.6335518675316626
13.0	0.3953947043191896	0.37430008599735937	2.7275781951315947	0.2857035038518249	1.5282955849478657	0.4128403961781278
13.5	0.2645059569939144	0.40693754290158013	2.46555162537287	0.3828803974956271	0.9966378488956456	0.2782646698699745
14.0	0.18305688433348039	0.34290510286381004	1.8599164789185092	0.578467970585899	0.6711126788386886	0.19678802831176476
14.5	0.13335809870188395	0.2419033384096271	1.2978833465991142	0.9855874830508254	0.4758792862265968	0.14944524515328764
15.0	0.10316518993589537	0.1653537001165019	0.9261671471140871	1.4576860432246141	0.3582742860900422	0.13524062830641212
