# Time series from syn_net_6D_20191104_a_hillmodel.json, output to pipeline readable format
# Generated on 2019-11-18 23:25:09
time	A	B	C	D	E	F
0.0	0.4396378252386195	0.2081576940645159	0.2933467345047679	2.13840651755836	1.2377163511594207	0.5420962552723341
0.5	1.1124266829860692	0.141453373609226	0.3029446277925754	1.936247240580695	1.9040295659644964	1.0582044352323772
1.0	2.6477978984822146	0.10228816621275001	0.37139704602500256	1.3230593016933339	3.22745071651775	1.5275183374114325
1.5	3.8772928526286154	0.0814784804200163	0.4266765815438692	0.8359728293948115	4.2644203811350385	1.8440667072214763
2.0	4.686448800546812	0.07252669677027737	0.46889590871487125	0.535573851085369	4.942612902535136	2.042310085747231
2.5	5.197808579403099	0.07389125897891197	0.5475597132268286	0.35257007188259104	5.369889693421734	2.163592237062115
3.0	5.516472355032482	0.12505700055864113	0.823896845224293	0.24132113336243732	5.635564763070865	2.226082876480946
3.5	5.6914288568786855	0.41384722470602264	1.334592437329819	0.17374110432579815	5.759356373478919	1.7773366328471336
4.0	5.527718523288223	0.7933834222054771	1.8153784323628952	0.13274268695529656	5.137947609428755	1.1748159985184732
4.5	4.578112629469039	1.0678152474343496	2.1501242959992126	0.10819535022372874	3.824311880180153	0.8031286306627609
5.0	3.246158139700853	1.2442595402128136	2.3367854843318048	0.09578710386267592	2.657770843369062	0.5773132697053198
5.5	2.1934953289889423	1.353590538625248	2.353686605580319	0.10617492633258611	1.8527106669163231	0.440268650544443
6.0	1.4979959319606115	1.41819481039684	2.1917302719145018	0.21345526942659776	1.3413713827954796	0.35711883816573886
6.5	1.061279825531523	1.4366869737194425	1.5994712283830113	0.5606911012350432	1.0248371679386712	0.3066752794102448
7.0	0.7916087734564332	1.3299228973730854	1.1118919736478285	1.1229556360500392	0.832756205946061	0.2760900083056634
7.5	0.6261776020519586	1.0391429863078547	0.8000819591362162	1.7833952822997299	0.7300143476540726	0.25764667604518154
8.0	0.5250111503526377	0.7110919866657368	0.5907709214055253	2.331733446512758	0.7430254141189712	0.24728487184796602
8.5	0.4633801877875893	0.46255997974641755	0.4463222005566859	2.445087920515131	0.9109440411256361	0.24809096916539117
9.0	0.42750472055049415	0.299368594936957	0.34844331577651594	2.289805876057688	1.0969227146701075	0.3056246588920008
9.5	0.4593520536669953	0.197288938190804	0.2879058355752624	2.1166991660071055	1.270396854286894	0.6010474267632724
10.0	1.3022823582929353	0.13491538435933653	0.31122268820457194	1.8778240995612894	2.0717131229483754	1.1284036425409365
10.5	2.837452241997661	0.09863746367499608	0.37993926946636075	1.2449903615374718	3.388108827038663	1.5779556217252477
11.0	4.006315949785946	0.0797211945883435	0.432596741933032	0.7871274733046142	4.372743210932277	1.876136082585788
11.5	4.768716408830974	0.07202028953332637	0.47514817889338123	0.5057675192138135	5.011421007679846	2.0620750434687065
12.0	5.249286786106874	0.07557927120795632	0.5681541865522577	0.3344423704441557	5.412845548074221	2.1754751281683644
12.5	5.548259399920789	0.14561633943142868	0.8829215834440421	0.23030686931810784	5.661992184716778	2.2225300221376436
13.0	5.69830936307052	0.46697722715879886	1.4049926876010408	0.16705295928770564	5.744754790282961	1.6817969792789573
13.5	5.452536187818915	0.8364576191851036	1.8684895532744719	0.12869800042910415	4.978166193879578	1.1142955518274418
14.0	4.402636764265467	1.0961380526295323	2.183475604586575	0.1058596618432327	3.6512806822683537	0.766321523019338
14.5	3.0845978265585186	1.262029075067016	2.3493932720111452	0.09524251696493771	2.530439722659533	0.5549713669831726
15.0	2.0824936248346044	1.3643635295263206	2.3434352197615076	0.11185017473308732	1.7703252187914245	0.42671221438786644
