# Time series from syn_net_6D_20191104_a_hillmodel.json, output to pipeline readable format
# Generated on 2019-11-18 22:04:40
time	A	B	C	D	E	F
0.0	1.9609397729662659	0.10901512131618862	0.4376597778187946	0.7191780830866246	8.102142654671681	1.8415752877787726
0.5	2.073066793628953	0.09445084300794468	0.9035216053521851	0.5736298004158071	8.35173595028449	2.049723977810646
1.0	2.141076877772418	0.09655077569595805	1.6887978228502971	0.4769863400862278	8.503151608226046	2.178378332237881
1.5	2.182327468375083	0.19395259638730483	2.5757822549488	0.4139860307456662	8.594492474175373	2.2182956222392414
2.0	2.207345300247517	0.495818843630105	3.3570640786161445	0.373345939125657	8.587893229106209	1.646617183142033
2.5	2.2224868947168135	0.9018725269791428	3.959486628061581	0.34736664500787207	7.577429498923148	1.0183385498324118
3.0	2.231299419891554	1.2688350794588517	4.3920520378352235	0.33147168203463195	5.489803032051491	0.627963263119645
3.5	2.2326387601807975	1.5497131683252425	4.6852594899407105	0.3261748531550915	3.772774502747812	0.39054709192477965
4.0	2.1954841989120766	1.7477331117835275	4.839979585024824	0.3514724590174112	2.6221083331433235	0.24642671631090798
4.5	1.95546220334641	1.8677664933338283	4.627893467993647	0.48761683968347286	1.8882952357725364	0.15897646576624389
5.0	1.437887650162949	1.8076368397528606	3.3899109021415077	0.919555660594199	1.4315613082788012	0.10592816640162885
5.5	0.9645546720762094	1.3643930078865723	2.129645244983533	1.715734185769269	1.1944119455662379	0.0738326895594062
6.0	0.6471053459212869	0.8889589557904671	1.3332965017527336	2.4089361559516984	1.350819173258526	0.055211054132309464
6.5	0.44974931868070706	0.570534030639065	0.8435294973673992	2.5272428998518763	2.0807160017774247	0.051842354972705756
7.0	0.35089832395812237	0.374321097567786	0.5447423617102438	2.0489881022937717	3.7555720880267933	0.11071193880398103
7.5	0.8700985952213552	0.2549937069096429	0.3698243288406001	1.6004365158574703	5.677346504813087	0.40589512700910635
8.0	1.4100015792259812	0.18258224407100018	0.2830567015528605	1.2618062135982306	6.877176969684607	0.951360199876028
8.5	1.7388678373192479	0.13865785615324716	0.2701488951362736	0.9693122620585072	7.60801282085786	1.4518979325616175
9.0	1.938368874063974	0.11202221279653897	0.39698714261272877	0.7468192776557371	8.0518766577716	1.8005476317700941
9.5	2.0593769808239597	0.09609584162210766	0.8087578039341752	0.5922654172584001	8.321238798352045	2.023982030897632
10.0	2.1327734310371604	0.09347562087257948	1.5556161332055698	0.489231790036284	8.484654456035855	2.162799513400055
10.5	2.177291141871488	0.1667714059353232	2.443608983484425	0.4219226778975908	8.583539930089081	2.2283550373496683
11.0	2.204291460806778	0.4383892654240621	3.2488395466487727	0.37844679914353885	8.611131949564891	1.7646057182504034
11.5	2.2206458222067305	0.8400184605223179	3.879194528868789	0.3506033319779771	7.847711714933813	1.096759239015695
12.0	2.230308362266946	1.2180726397283128	4.335742686929837	0.3333242996688526	5.802443468136661	0.6758164812344155
12.5	2.2333694684721888	1.5124932623872915	4.648634069079749	0.3259313969240145	3.995658702667179	0.41961021256554387
13.0	2.207831277078993	1.7223758401066014	4.828510907952828	0.3434506219057022	2.766757935458761	0.2640643846988512
13.5	2.0149884802860885	1.855650931813679	4.714276447751307	0.45376935368250176	1.9795488592709476	0.16967767574591444
14.0	1.5213374442891534	1.841154494589817	3.6192365025921434	0.824851337758267	1.4872175115990356	0.1124175955303683
14.5	1.0265663074502613	1.445515830203257	2.288705062673347	1.587469551343283	1.2135510472539275	0.07774093972340011
15.0	0.6866311314487842	0.9515494544769644	1.431386320183512	2.3284337252540857	1.2871063025939702	0.05730456916042867
