# Time series from syn_net_6D_20191104_a_hillmodel.json, output to pipeline readable format
# Generated on 2019-11-18 23:08:22
time	A	B	C	D	E	F
0.0	0.2816080208862895	2.277019701200588	0.8945744898656287	2.821747053248982	0.4770426507622605	0.11989791891783476
0.5	0.25553693749616463	1.625293572747505	0.5897724374205117	3.2264339800701274	0.40801251361239743	0.1663206719461881
1.0	0.24623152793327155	1.0433433987798462	0.40065226429037676	3.483270305683479	0.44943735415898306	0.5469874294416374
1.5	0.5083061024399755	0.6580360342194695	0.29513794889429784	3.3841148119061395	1.0241506561853202	1.3844653925491888
2.0	0.8792962037747389	0.42285287759951745	0.39735544401463946	2.3308822744431468	1.4747556106986466	2.114143309814438
2.5	1.1208280107280975	0.6195567169750424	1.2941621166418398	1.4550643208676384	1.7885898737268018	2.574908640903121
3.0	1.2684447037660267	1.4025444795069084	2.959444682879625	0.9023190060791476	1.9155292019159837	2.286917518988177
3.5	1.3444545205925829	1.9092341697574844	4.488015608163998	0.5625276875785952	1.9896575089691435	1.5442320933196143
4.0	1.2978033965369213	2.2174838010702205	5.501156085368142	0.3553223436638657	2.0202648866285613	0.999285415347647
4.5	1.0374712880497936	2.404546337276476	5.5463929412692705	0.23392161962755956	1.9375228715346515	0.646728702091036
5.0	0.7439112223849729	2.517893120097751	4.516166824727342	0.2010614402459592	1.5848184818518276	0.42491080946811727
5.5	0.5400286488470462	2.585831626302303	3.2589518417863568	0.45228801822352127	1.1442895788717562	0.28675983553431816
6.0	0.41286665193910327	2.6215575432452085	2.23152883233431	1.2127316165465385	0.8229444760064183	0.20119840045857001
6.5	0.33523121353654667	2.604469382962274	1.4864692663714856	2.0716381519650007	0.6192511314423113	0.14890448963660338
7.0	0.28805629733868027	2.3685267103863725	0.9684628686074428	2.72563388643305	0.4941794633462821	0.12150813487300485
7.5	0.2594372452835766	1.7516641060492228	0.6360413295669828	3.164132615966254	0.41821590170840545	0.14541757063239766
8.0	0.24407477372154643	1.1359726811487538	0.4291873454186708	3.444933518465508	0.40348629032091016	0.43115289590127787
8.5	0.4304954502996116	0.7165658299664054	0.30701021474016676	3.486506267700208	0.9198396061632382	1.2229939174306876
9.0	0.8206969482970432	0.45695141899636466	0.3433819221650781	2.533328844400931	1.4012175049299154	1.9994939601872574
9.5	1.0842611866942522	0.4846114131781924	1.0412984893273038	1.5900314330206058	1.7532906901437488	2.511864447429157
10.0	1.2466158800880893	1.2780853380966404	2.6413470342873464	0.9858268065058777	1.8968232622908454	2.4185621860766906
10.5	1.3363373820146516	1.8330864857286888	4.235474963455407	0.6136828992699002	1.978948096657305	1.6705661711187343
11.0	1.3223553720951309	2.1712422656106463	5.367355932062641	0.38633928838021275	2.019084568067317	1.0840213813570503
11.5	1.0960392468190856	2.376496636694574	5.636037104626233	0.25099866154211603	1.9700892082318977	0.7005949695517398
12.0	0.7922768357540841	2.5009239806683796	4.748365263381686	0.19622602688065188	1.6677279922928783	0.45860296183245525
12.5	0.5711895117637966	2.575819615617215	3.482030920311339	0.36569261392924873	1.219093146722279	0.3076868047274176
13.0	0.4320169364024494	2.617422381886609	2.3983925313270515	1.047786076945045	0.8725504026577524	0.2141240692848903
13.5	0.34688596601078975	2.615729553471145	1.607046197559183	1.9243517481196053	0.6500319573268412	0.1566699008350836
14.0	0.2951324734750288	2.4436364699406954	1.0487873256972011	2.6219497371902034	0.512976174080762	0.12449125745997627
14.5	0.26372522643403173	1.87964138897568	0.6865841480941319	3.096427456773985	0.42954627110906274	0.132244823857595
15.0	0.24528140868291065	1.2358799326740089	0.46044097506709997	3.4022841868894513	0.38926361680430954	0.33765394225517886
