# Time series from syn_net_6D_20191104_a_hillmodel.json, output to pipeline readable format
# Generated on 2019-11-18 23:30:46
time	A	B	C	D	E	F
0.0	1.714291451871834	0.3528384644875568	4.944779063590031	1.7058952000628778	3.85419127344126	2.010884494956402
0.5	1.3688844078938405	0.49217217518461387	7.10068952010998	1.174638855097564	2.6267187674085086	1.3631665991249173
1.0	0.9641354046301615	0.5778296125018381	7.358357292400027	1.2334699150338955	1.641747416566377	0.9304648292533726
1.5	0.6816491339450328	0.6293176699147979	5.932648270099809	3.0444199746251472	1.0154329101846948	0.6599999261241528
2.0	0.5044200230009792	0.6547022113885403	3.9233230340049263	5.948438423700418	0.6306782367149745	0.4933288520477892
2.5	0.3958405031834091	0.6330431602210456	2.6193507633486077	8.151484538330786	0.39674999841826564	0.3920338776049165
3.0	0.3297377468294721	0.5258018256199112	1.8226291720051455	9.554333593878606	0.2600155223465133	0.3363558752308635
3.5	0.2895930372735114	0.38910743835697115	1.3382924805540897	10.418077054168256	0.20356171376945426	0.3371031326510919
4.0	0.26541737364193735	0.2837368057876222	1.044184781209376	10.945458040702782	0.23506405485926704	0.4811855849282207
4.5	0.2549183845072329	0.21423229850143263	0.8657126045816258	11.265052833499269	0.3309168200143091	0.876202800322412
5.0	0.2987735107626453	0.17048358923303522	0.7584235338119864	11.430971664781076	0.6237943293537157	1.3921321764174281
5.5	0.5047696868621313	0.1434680362653602	0.7385607258987399	10.520077468339833	1.4060213265299286	1.8344348346408914
6.0	0.858509119922579	0.12774089388642826	0.9076164909593011	7.442815558487535	2.408158700615423	2.1507556653589908
6.5	1.2324713540670513	0.12157394169572	1.1727904312556936	4.876762406096735	3.2798839623283884	2.3592322549292875
7.0	1.546973431633682	0.13884294881721174	1.8247680089967813	3.1250696596420133	3.9238109229405587	2.4809487181661303
7.5	1.7364710588231305	0.28414415534842036	3.876137139728385	2.0031644531226642	4.132913761144653	2.271230431089534
8.0	1.5274150521195482	0.4477980302604256	6.504324690611136	1.3268401051096375	3.088802431643389	1.5793765078878677
8.5	1.1025716253045685	0.5508015260371979	7.469042801839326	1.0919891497928802	1.9611885581837123	1.0688916102798556
9.0	0.7724325810719007	0.6132690723378771	6.670864383925107	2.107784577067784	1.2142702757089505	0.7458963684197712
9.5	0.5606144451501871	0.6486481696679106	4.590124403524624	4.902886971959733	0.7523301253162278	0.546099419769605
10.0	0.43015163403463164	0.6499251081801142	3.0324000118447287	7.43740255400215	0.4703723065137275	0.42378715585057436
10.5	0.3506040101393249	0.5744171778905043	2.074208913956824	9.108530916141657	0.3015205710808227	0.35208788779534966
11.0	0.30225502828961737	0.43792316567762535	1.49114048416852	10.144790267865362	0.21459439526879703	0.32704438370937033
11.5	0.27296950506991735	0.31837288871496394	1.1369808193569173	10.778880903126115	0.21391679745378983	0.40124708519183183
12.0	0.2565133864486184	0.2365291433436235	0.9220017420868483	11.164655448701488	0.28768648028271565	0.7020857405984462
12.5	0.26930961894465266	0.18440359527318276	0.791800248991693	11.39157409184296	0.46647161745909554	1.2013129094334638
13.0	0.4053472708145712	0.15200346464752765	0.7257676644440142	11.19756047772344	1.0630559980239138	1.6842238215378023
13.5	0.7177674449805054	0.1324680529020564	0.8317994427587052	8.60589826100492	2.038053210057252	2.047104808464084
14.0	1.0975136869642343	0.12264416847315608	1.0570892265195333	5.731105356201376	2.9805093603160957	2.292380582847507
14.5	1.439228510046608	0.12605341065855702	1.4858701239857806	3.691993007215912	3.7115794545597374	2.4463276376606795
15.0	1.6937577488265982	0.2129935700563206	2.907251977701702	2.3608550411601135	4.170824295461765	2.446730245320764
