# Time series from syn_net_6D_20191104_a_hillmodel.json, output to pipeline readable format
# Generated on 2019-11-18 18:32:41
time	A	B	C	D	E	F
0.0	1.6337145530596608	0.3318068451679084	0.6697733910097063	3.2334135495113636	0.005781522429814477	1.0826900628878617
0.5	2.462445639016833	0.24703961031521837	0.9504577098747011	2.0908401317574983	0.011246936418476178	1.3098572656709835
1.0	3.066619263046794	0.22600519868564278	1.9173046528703008	1.321211247099706	0.023717445268514332	1.4517098363387566
1.5	3.466949830164102	0.5247396540030874	3.168364715151013	0.8427745981856548	0.021347878948580003	1.5144642224687803
2.0	3.661707954016986	1.1262047907595802	4.146067032743293	0.549395001670082	0.01594924935801407	1.189977635782763
2.5	3.3718257016735937	1.646285354978772	4.737193214184136	0.3717723210771287	0.012112984207293292	0.7954186522326804
3.0	2.5683869676160964	1.996108839870659	4.7452956934651995	0.2745832718181074	0.009059652553884094	0.5384754746322538
3.5	1.8266487763099069	2.1528639381799475	3.939881841661844	0.28113432930195276	0.006939485565077129	0.37985525604815756
4.0	1.3268644087799875	1.997087565289914	2.899476640929808	0.5647790288965953	0.005602921110234424	0.28364626863616726
4.5	1.0144725823428362	1.5274745646569847	2.0983128431935105	1.347703614062038	0.00478309340409453	0.23006255599247344
5.0	0.8233820629753712	1.039683650154911	1.4847885782303982	2.4070086660051873	0.004285452664012148	0.2317311039252311
5.5	0.7164373289283739	0.6879234560081079	1.0541754147865516	3.349032529152349	0.004002777427666267	0.39985837146979625
6.0	0.8847624627787398	0.4643275363454635	0.7852827047971505	3.915622629645189	0.004169814838145986	0.7643094749560446
6.5	1.6749349563073235	0.326886842690408	0.6705381560315232	3.1761430709288603	0.005917296656903991	1.095426189117081
7.0	2.495293346391049	0.24420332085425933	0.9791313061355952	2.0474341275810044	0.011677200515461117	1.3179692284803302
7.5	3.088985647651571	0.229370936228773	1.9747239259901346	1.2938754057321107	0.024119315227237047	1.4566592335761994
8.0	3.4811697011132825	0.5494862503925156	3.2208836838816564	0.8259515104691189	0.021050452216818796	1.5115898952540248
8.5	3.662244474233897	1.15333902971866	4.18204047148453	0.5391254059197719	0.015750672093293068	1.1691832802868973
9.0	3.342303252880908	1.6660908271078663	4.753127100532449	0.3656860540346041	0.011955880286411579	0.7808559846428842
9.5	2.529807566352714	2.0079390417347938	4.7252605228592515	0.2720381113814256	0.008941970086005046	0.5293967726899856
10.0	1.798630236538693	2.1538624795806482	3.8911668274284708	0.2859319648280023	0.006863392396893355	0.37430141346608686
10.5	1.3090427937932665	1.9806822955980032	2.856694429411468	0.5891880064983851	0.005555936468332171	0.2803410311014205
11.0	1.0034973575061077	1.5034650926758397	2.067096847133579	1.3937082506563383	0.004754446796895645	0.2285887590945955
11.5	0.8167411115684039	1.0203083353120495	1.4608208364778528	2.4547703697146135	0.004268235241846659	0.23444568609226046
12.0	0.7141963937665495	0.6752142439839549	1.03876790445819	3.3858676427529315	0.003995310828144955	0.4137035326358572
12.5	0.9095352028660418	0.4564514317505366	0.7760671458298053	3.919528162985158	0.004205558146126096	0.7815717840076337
13.0	1.716015323002543	0.32208404569329474	0.6722010376541117	3.1187606613107914	0.0060603065485951395	1.107908095288116
13.5	2.527594624218967	0.2414665234746725	1.009352569868325	2.0049235326876325	0.012127974747955291	1.3258973100563944
14.0	3.11090600177301	0.23348391637078683	2.032592005134378	1.2671589159172054	0.02445399042354249	1.461481844276382
14.5	3.495003536241395	0.5748420325454965	3.272663333753582	0.8095171605697175	0.020757247030936458	1.5074890616735446
15.0	3.6617102647118593	1.1801892699856418	4.21718528039911	0.529097834076806	0.015555027993894183	1.1485396010336395
