# Time series from syn_net_6D_20191104_a_hillmodel.json, output to pipeline readable format
# Generated on 2019-11-18 23:10:22
time	A	B	C	D	E	F
0.0	1.2997204337180117	0.155376518431077	4.700026675504067	0.25370707343415116	1.1247399702596563	1.75344756880684
0.5	1.6022860609571956	0.3168395064593783	8.583842052901474	0.17718038796608623	1.3470697168557957	1.9298028555126863
1.0	1.7824616305365077	0.525079364211718	11.844234106935422	0.13032218491631262	1.4237962217193159	1.6609062427703953
1.5	1.8177541877278949	0.666920939890825	13.826652816671496	0.10193934803935932	1.312561931221401	1.1803989393878314
2.0	1.571484768325722	0.7555963094115794	14.243280022381018	0.08537030022598895	1.0591611794225877	0.8019929422349592
2.5	1.1225574133605178	0.8077359738392643	12.369157677524147	0.07903494098690206	0.7494322826927036	0.5458092999062669
3.0	0.7489027776049121	0.8257046654542665	9.309862064812968	0.09023394700484462	0.5069499698702442	0.38114012444787415
3.5	0.5039536975683591	0.7834930373314294	6.913502077809995	0.1297488154266072	0.35122017071548495	0.2841180572986466
4.0	0.3525098679014694	0.6559901690783028	5.322276963618932	0.22879066268352155	0.26267837542400463	0.25857330997261296
4.5	0.26295572378437687	0.48130631219410097	4.01048226660744	0.3787907245948854	0.22830575035427994	0.39044269101785856
5.0	0.3120724588536728	0.3205969050813172	2.906295041972044	0.4942283421210398	0.32132656160692874	0.8336638652331347
5.5	0.78507294075833	0.20827934063842313	2.4545745434298003	0.39222423076492563	0.7296214307526772	1.3545020710167952
6.0	1.2563357801366075	0.15324731467098862	4.309801634100318	0.264926706593748	1.0921007730197092	1.7217425027421358
6.5	1.5745845981340385	0.2908552727238141	8.149976218999498	0.18409711043725452	1.3278027162757307	1.9249975354003925
7.0	1.7679623849562962	0.5047737862232287	11.535354628551007	0.13453716449771289	1.424925653578365	1.7129398806567593
7.5	1.8248118805569433	0.6539088209855374	13.671711049408495	0.10447198859181885	1.3331250302441404	1.2314744476036021
8.0	1.6155355701845613	0.7476162016497843	14.29849010601478	0.08676738469299748	1.09336140595447	0.838225294560324
8.5	1.1727779255424957	0.8033937409604851	12.68968603362849	0.07908524881165382	0.7825381086172237	0.5696322397887864
9.0	0.7843266834122149	0.8259208757066652	9.639033641184046	0.08777512175828853	0.5297402755207746	0.39609856120166936
9.5	0.5262514551619495	0.7925896823442895	7.1383269351682355	0.1231071446853611	0.36513769391477546	0.2919824829488107
10.0	0.3661296565740273	0.6739067304173086	5.476657033197684	0.2137971145067286	0.2698206980506287	0.2564155705647121
10.5	0.2702947565986125	0.5015305710171142	4.155866157777721	0.36176934234892955	0.22956753614964404	0.36131688096377645
11.0	0.28547749136108685	0.33652557148543566	3.009352882848232	0.48777645491842947	0.2923887625166991	0.7716457147245569
11.5	0.7236658126927233	0.21854503898912772	2.4341350177127996	0.40958197076364056	0.68074654638301	1.3021938960629427
12.0	1.210899554419535	0.1540167459766853	3.9474993166038126	0.2767571041541618	1.0578155752356144	1.6881834659988153
12.5	1.5453342257571747	0.26539128502549564	7.707829054526171	0.1914082837242803	1.3069200553765479	1.9142857219979446
13.0	1.7518734057135086	0.4835388836530339	11.210031094716042	0.13899707077829523	1.423414789295805	1.7618151306736674
13.5	1.8283720685564824	0.640188946636425	13.498315464358944	0.10715874328529902	1.3518493871654067	1.2840261069794925
14.0	1.6561227761842123	0.7391626916152644	14.323513113312005	0.08828279716046857	1.1264840765335278	0.8761064009242204
14.5	1.2240997089617074	0.798655847893661	12.989878709661902	0.07934108687509721	0.8165743350198498	0.5946730506112078
15.0	0.8215127926642021	0.8254502864712573	9.977892379168997	0.08563717177173234	0.5537000878130419	0.4119282778352705
