# Time series from syn_net_6D_20191104_a_hillmodel.json, output to pipeline readable format
# Generated on 2019-11-18 22:18:42
time	A	B	C	D	E	F
0.0	0.19469272869671983	0.41408660693082383	0.8780870672832942	2.037789474902308	0.13578658249452907	0.493941573092563
0.5	1.0262547380308167	0.3060757776541289	1.5173321141360274	1.5908557501106821	0.5955930508488919	1.0341215962578554
1.0	1.9784199343798499	0.3133666429464565	2.9616964224336795	0.9708811691819396	1.0977266338884417	1.5072782483735472
1.5	2.5829697444405553	0.7157508670376799	4.7037750820896465	0.5902022948012956	1.3244802680180896	1.3161691226707604
2.0	2.8288862699980015	1.2117617293629284	5.941013444326259	0.35948307668420426	1.0913240654826581	0.8596427329466074
2.5	2.4806912495590994	1.5727778203729035	6.67776249888223	0.2219961486530937	0.7890539243700728	0.5665569406388634
3.0	1.7421690582454206	1.8059774751319064	6.7981504830079125	0.14251416671174602	0.5234607449179659	0.3872333250907758
3.5	1.1296921102058934	1.9355409038084506	6.044079650286144	0.09847620165722391	0.3376377881957212	0.2780986451628588
4.0	0.7273279964786871	1.9608036758406702	5.062361469882714	0.09505471908268562	0.22027698399156595	0.211804714204594
4.5	0.47708908555920015	1.8578126091187144	4.109090062192033	0.2425813514864427	0.14821110907318463	0.1716474038359686
5.0	0.3237614857748782	1.544426293448633	2.9957647879897937	0.7167225695013044	0.10455376709084489	0.14772692384062286
5.5	0.2302968841957562	1.0900108139166307	2.011318601598222	1.2741108657984799	0.07993574290274301	0.13641346856357126
6.0	0.1736349327085462	0.7277266075274589	1.33066368114004	1.6844000489540247	0.07509168675500226	0.15423263175253785
6.5	0.14595734486044684	0.4948259240319912	0.931707251565456	1.9481633094270654	0.09353546490867726	0.30555915514751186
7.0	0.49104428588728594	0.3524471450993041	1.1396808558941187	1.984727380934714	0.3072572632196369	0.7490146699406304
7.5	1.5428511633743038	0.28074572048360596	2.093104560229431	1.2464131839116888	0.8689993508920338	1.298033862861357
8.0	2.319234606944503	0.4669336290446262	3.8748270583061424	0.7584225198351522	1.2659636817267563	1.535729005365097
8.5	2.759583674533554	0.9749116918983765	5.384842688769903	0.4611387058306178	1.2369776293577828	1.0685282662719684
9.0	2.7419095461868137	1.4089106314413389	6.367178873868116	0.2821172478440582	0.9405374314672995	0.6964497756847317
9.5	2.120004799405735	1.7025116331967787	6.840016395815586	0.17703115098219196	0.6484811525809392	0.466494868429562
10.0	1.4101661910422234	1.882724957265597	6.510955785803616	0.11694927570201075	0.42118953444339285	0.32630499910693345
10.5	0.9068499848787237	1.961895340410865	5.543132500661232	0.0889795618361461	0.2723690986349863	0.24107363354807285
11.0	0.5879935317715783	1.9291860875478846	4.605130000717576	0.134686652572192	0.18007441244294795	0.1893526726537103
11.5	0.39157363975760084	1.7335373070074012	3.565576356446572	0.44163307330685225	0.12375805832779489	0.1581519125068302
12.0	0.2715943556322386	1.3184261462404134	2.4718287611774614	1.0054718491750165	0.09020140694243366	0.14037126941026104
12.5	0.19859191170387736	0.8924781803104547	1.6357740080651353	1.4986085944523524	0.07458921463693204	0.13851292708007484
13.0	0.15511096487226894	0.5982413322246904	1.0989687021569619	1.8307812335007054	0.08135962650550527	0.19998848709207906
13.5	0.19277162855447272	0.415118271486367	0.8769228390866055	2.0367393795691466	0.1345277499921779	0.49062210671217316
14.0	1.01819160100827	0.30662853848604166	1.5110046197357139	1.596508060826016	0.5913057886497122	1.0300233155529637
14.5	1.9727719636390213	0.3121024426546586	2.948114056161011	0.9744094782164472	1.0947889058922613	1.505041612528846
15.0	2.579727241717247	0.711890485158892	4.692728752156402	0.5923504059748874	1.3248287515873174	1.3199689256059253
