# Time series from syn_net_6D_20191104_a_hillmodel.json, output to pipeline readable format
# Generated on 2019-11-18 20:22:00
time	A	B	C	D	E	F
0.0	0.29272281877907796	0.513467168352991	0.5840676787920551	3.2300435993014434	0.40024631553230067	0.4660523066316102
0.5	0.7469014466383905	0.37482424220326355	0.5183779286176357	2.422700062615087	0.7530028122288643	0.6209277040463989
1.0	1.1389858430963435	0.29246515227634695	0.8804694849900581	1.6929281244579066	1.3193920327237614	0.7207682778894254
1.5	1.4114208541536333	0.3006645070224312	1.7209592033693544	1.224866375349795	1.9460306207029605	0.782344263358108
2.0	1.5889066775721092	0.7157225831920278	2.9917299830646265	0.9390713788897789	2.1021625428224553	0.801093845161148
2.5	1.6666032649586708	1.3275144598569848	4.392667272078215	0.7656131914064974	2.0385256174046233	0.6222192288163372
3.0	1.4919746597713028	1.76627363092967	5.481342033256653	0.6611243192196847	1.6190199169623756	0.40998064958965835
3.5	1.0513525488516822	2.0425758397319878	5.726834399382105	0.6034698114015303	1.1371949272998845	0.26599432714018584
4.0	0.6647965350275119	2.203256146675281	4.618957936705714	0.6003680586107601	0.8032348494115575	0.17505676603694423
4.5	0.41232583332872486	2.241385216443532	3.2644761319253233	0.7264973606219572	0.5955038235675687	0.11883165472664144
5.0	0.25684687956079805	2.0270474722228884	2.253077461005141	1.2307097958174296	0.4688534160627077	0.08563923062102378
5.5	0.16221775456837667	1.509825854910646	1.5043728709277953	2.0425695302641804	0.39194888672614275	0.07517967096653703
6.0	0.10512025372479235	1.0182663830181382	1.0264730335002563	2.6952090658347205	0.34541630753849073	0.12746076233527182
6.5	0.09843845615366989	0.6871473668561467	0.733822759198032	3.1225929054708943	0.32566474790898736	0.3020857252554484
7.0	0.3740713014752395	0.48101886563950014	0.5570809881922195	3.121348521951773	0.4456510600556288	0.5008758852038094
7.5	0.8320442742480995	0.35510785190706196	0.5449200893914966	2.260584701906291	0.849119526200412	0.6440462395768726
8.0	1.2005655701743303	0.28258937454826466	1.0092817978589208	1.583889932938603	1.4479879589974876	0.7351838391549276
8.5	1.4522836722921517	0.33739953060151007	1.936135292275361	1.1579056366613463	2.010995568201258	0.7909308796676228
9.0	1.613822238554496	0.8397097120201797	3.2680015898787547	0.8984010523209698	2.1092880901352262	0.7851586980205965
9.5	1.6598208118137203	1.4275833972383	4.639554037466281	0.7409786031752833	1.983757402654244	0.5765383592037052
10.0	1.4172753331226406	1.8306848258805337	5.619945158973593	0.6466193226816109	1.5181618451571575	0.3769727893139775
10.5	0.9660453161606892	2.0817656617094897	5.605349444347491	0.5975817495046881	1.0604648521558595	0.24490060811066056
11.0	0.6062906951628074	2.222166226756774	4.336493405777	0.610375643298664	0.7547223759886528	0.16192813310879137
11.5	0.3759682175384572	2.2257396147520008	3.0449863493479503	0.7839105512204587	0.5658355514488883	0.11084286470442588
12.0	0.23467385508390998	1.9433547138155558	2.0857281856968433	1.38244870473868	0.45082527051181626	0.08148248717965943
12.5	0.1487594080439385	1.4036167068422856	1.3930819948411903	2.1878309944116543	0.3810136358370329	0.07788455678321975
13.0	0.09744293714725671	0.9420462808746528	0.9580032421901745	2.7939039086408157	0.33893570620991487	0.15222315719996618
13.5	0.12028092897576505	0.6390680987678605	0.69210757929481	3.1829071806714335	0.3304495474861839	0.3430472420768161
14.0	0.4618933437570922	0.45152783661925705	0.5343288462514278	2.9653125645425673	0.5030755691566522	0.5333681513211704
14.5	0.9130641949718494	0.3372652391284259	0.5924171122383614	2.107539087611359	0.9519557098626742	0.6651993143035417
15.0	1.2576685018156757	0.27587149976112046	1.154086484180648	1.4844542044377438	1.5802970124917433	0.748299558041009
