# Time series from syn_net_6D_20191104_a_hillmodel.json, output to pipeline readable format
# Generated on 2019-11-18 20:24:14
time	A	B	C	D	E	F
0.0	2.7741671849821596	0.10197146483547315	0.9263770180577097	1.5876903653032062	1.94915608892273	1.1774997048898939
0.5	3.04025806674621	0.08103802396762827	1.101864597562939	1.0825254682308336	3.2365339988757404	1.3745739065699611
1.0	3.2016641719904033	0.0824125319562216	1.264872336502029	0.769894151645192	4.1994381449479254	1.4948364690100095
1.5	3.2995661541215573	0.11925251246021167	1.5604253626904292	0.5780600846527671	4.855663048859073	1.5658244398398258
2.0	3.358947657417951	0.30304891920987986	2.1553803918653034	0.4606311360751578	5.268634764457141	1.5059731400141092
2.5	3.3949310301816356	0.8465691545031833	2.9797711587544455	0.3888378018071778	4.846699513186654	0.9970884062389871
3.0	3.4163631316829344	1.5486737296579374	3.793005990668399	0.3451586132505218	3.1219777131395214	0.6301923329188929
3.5	3.4257801246664377	2.115378500591345	4.424768771539529	0.320870292221547	1.9000798067413707	0.4069736698600597
4.0	3.4043199874999965	2.4994127193717897	4.639492753810957	0.32919763806422875	1.1538523717608764	0.27153823702427154
4.5	3.247504254042619	2.720035769744662	4.173428032736296	0.4180060498999302	0.7006720227705042	0.1893832306622731
5.0	2.7775099249925055	2.7606053185279333	3.362052834642816	0.5406590794410572	0.42567613849738045	0.1395513398830517
5.5	2.1119240542892084	2.5176318909794926	2.5742285721825597	0.6970643798830641	0.2589762120262694	0.10932863637666776
6.0	1.52493440951208	1.956964578857165	1.937060914147776	1.0574689067486296	0.15868021814092068	0.09101380405916884
6.5	1.101906978392567	1.3389810985921413	1.4907961515119459	1.705914763382753	0.1035500763859158	0.08002581477793473
7.0	0.8207520562912269	0.8639589092305474	1.1721275464374385	2.3498958569562656	0.10354187094673883	0.07443557927939617
7.5	0.6493929610710163	0.5438681741365156	0.9190442328086015	2.8133462264121185	0.17127067477341532	0.0815590048775452
8.0	0.8075704553716267	0.33989784461181566	0.7487267178155037	3.1030932532416027	0.24219167011674111	0.1738540552159192
8.5	1.774198601343467	0.21452029828442323	0.7601125081042811	2.877015101910917	0.31349249755859737	0.519889950729317
9.0	2.4331294111883555	0.1390940805683559	0.7970374488197779	2.1687465246662376	0.8849717957495775	0.9319711462602851
9.5	2.833369074185594	0.09625729734717574	0.9622466283373422	1.4767898359213139	2.202609549131724	1.2211164905719052
10.0	3.076170385960331	0.07967987776133766	1.1298743412277992	1.0133523959870991	3.438942845719102	1.4013410028319582
10.5	3.223446987840174	0.08534930746601584	1.3031570089972047	0.7273867855228979	4.340413745572499	1.5110166809743062
11.0	3.3127784798102797	0.13542717749691244	1.6446401920012748	0.5520242000926234	4.948970979512345	1.573853374439999
11.5	3.36696040186978	0.3732990802099756	2.2960421188505955	0.44470661261034167	5.305079364490319	1.426778396337166
12.0	3.399768327967091	0.9758804059908694	3.1359887785963783	0.3791131655764051	4.547342772266562	0.915800851679175
12.5	3.419072064740093	1.6662657293978531	3.9262176895765877	0.339344263319854	2.8521798083429704	0.5805555318556295
13.0	3.425499991931518	2.1988379496189263	4.507291114907798	0.3187826482786204	1.734228792316086	0.37685120629198005
13.5	3.3912095440751813	2.5516726420201232	4.601689710458396	0.3388005686955954	1.053078321779816	0.2532653205406166
14.0	3.1876235150888217	2.742746857074468	4.036662668516859	0.440286875181402	0.6395085389802364	0.17829940265734423
14.5	2.660582971864356	2.741382715286042	3.2097269463359437	0.5639246377740693	0.38857665229725524	0.1328286279103215
15.0	1.993420935944111	2.4344599914171394	2.4442278746683757	0.7407542359729078	0.236533879933591	0.10525228536978068
