# Time series from syn_net_6D_20191104_a_hillmodel.json, output to pipeline readable format
# Generated on 2019-11-18 20:06:23
time	A	B	C	D	E	F
0.0	0.5216980485025667	2.0189334837087625	5.171617577549524	0.26484648131981936	0.10922203817327636	0.5723566617740101
0.5	0.3722698046636819	2.0034550787565575	3.875574143385943	0.33425706779259906	0.06821355253838615	0.47567676238777523
1.0	0.26976817086684524	1.8021687158492714	2.739158065420511	0.4200973335642261	0.043294810266613214	0.4215072945343711
1.5	0.20455780314038657	1.3587825142859837	1.9337522640259788	0.6050224093193654	0.028364726788538564	0.42313825890170553
2.0	0.17982811986128605	0.9162814480140234	1.4183628583060646	0.898697394827496	0.020921068769186688	0.6339053868869412
2.5	0.34247283553799795	0.603518969091081	1.1357365766367116	0.8968811277311779	0.045600373458615055	1.3273363995832228
3.0	0.5746817891582423	0.4088875134179921	1.2285335384981704	0.6801782433442951	0.31364061129204146	2.1315095053725113
3.5	0.7263785199341511	0.30441733983869257	1.4983365567698255	0.45502547994644266	0.7132295807045166	2.7022751560243496
4.0	0.8196679720890391	0.29987442197189396	2.0351816273646826	0.3151062561365494	1.0215639272448938	3.059661054454328
4.5	0.8765769505675437	0.5497884800541822	3.1028336639309453	0.23009032514294325	1.1891055921412954	3.234975336009706
5.0	0.9109440879628169	1.0501959708210375	4.613944547539845	0.17851326452143376	0.9723384021633483	2.753701235282611
5.5	0.9291296759772053	1.4547895152472312	5.64980771617689	0.14742486452619397	0.6612805400218488	1.9240232647485727
6.0	0.9230115161100867	1.7150120933487822	6.038009566768556	0.13030094261546252	0.42807073338444174	1.3266518408875072
6.5	0.8495749402386457	1.8760618251660899	6.186577713795912	0.13470948080195932	0.2674293236026508	0.9437787885427492
7.0	0.6828591843633182	1.9737936355610544	5.997989388769657	0.19368437173996564	0.16532312418089196	0.7044623669482447
7.5	0.49876256722564566	2.0222321146187414	5.002956251223574	0.27495643532139563	0.10244409691787519	0.5563515250707555
8.0	0.35589300451393907	1.9910708405812927	3.7060614663023688	0.3434840245357155	0.06408799365311103	0.4661054257658129
8.5	0.2590426303438316	1.7531618883177698	2.611040627912196	0.4371481806984911	0.0407977795967883	0.4174118502123065
9.0	0.1982155504209815	1.2936846997479312	1.8493750037582732	0.6410151398253909	0.026923132401626672	0.432604695862892
9.5	0.18491439307055627	0.8662696225373145	1.36629475447244	0.931161206053085	0.0206927787643878	0.6982411048609202
10.0	0.37759493891552326	0.5710762159222916	1.1253996082038247	0.8697427181004186	0.06170903851284094	1.4428639101518332
10.5	0.599530512652216	0.3900673079069129	1.2577592895490393	0.6446337684582553	0.36811899448574437	2.223248459871896
11.0	0.741767415317602	0.2966393267133107	1.5502644621567891	0.4318929473350989	0.761487456090534	2.761210218269035
11.5	0.8290714311193794	0.31301279990364556	2.141036669254596	0.30103488459669514	1.0541632924317617	3.095178508536511
12.0	0.882298364763823	0.611539061390694	3.2960566097748165	0.22154877382848864	1.1870353486328142	3.2277013916628787
12.5	0.9142987323948867	1.1139670879349235	4.8000537856494905	0.1733397355311194	0.9267357449483348	2.636802222562186
13.0	0.930219649632781	1.4973430131780499	5.728951007084024	0.14436215054887563	0.6254129297416927	1.8285386681972566
13.5	0.9184356525147308	1.7415186979575163	6.067461760905727	0.12912036513847472	0.4023639070251259	1.2642472747864102
14.0	0.8317247226191917	1.8923433990889362	6.191664492708275	0.1389231267362152	0.25070467037529715	0.9045475056370808
14.5	0.657024721872772	1.9832299919155307	5.91136361253539	0.2049633024715302	0.15495189007708646	0.6801033900022202
15.0	0.47665085270492624	2.0242635626182413	4.829744152351545	0.284730576182595	0.0961036857461993	0.5413649345843318
