# Time series from syn_net_6D_20191104_a_hillmodel.json, output to pipeline readable format
# Generated on 2019-11-18 21:40:53
time	A	B	C	D	E	F
0.0	0.44981693303562037	0.1759471861127842	1.0647922488493993	0.3013287910421535	1.3427937547001823	1.643774199941051
0.5	0.5282872213229243	0.18286204449604282	1.1440775590284535	0.2035711188526374	1.4988126141786589	1.6842650556213687
1.0	0.5871244032032904	0.2258177529477744	1.4439029774760337	0.1440587493804635	1.434901519667001	1.7072105227678804
1.5	0.6252476893602356	0.4170364317523531	2.2239454140559545	0.10866582186881081	1.1156078454443494	1.685014950205836
2.0	0.5926486845121745	0.68976138388084	3.244397385314323	0.0907253233369909	0.8544113063479858	1.3940923416999425
2.5	0.4520759611013072	0.8888434308525222	4.033778573405443	0.08917029372784847	0.6833608909836999	0.9894661816666094
3.0	0.3125386945919684	1.0149015376148143	4.315046917052994	0.10778937038720314	0.5481479242938382	0.6865266754576617
3.5	0.2171088129556292	1.090176580569157	3.7450893181926443	0.16347727386168434	0.4339509051924294	0.48624027196233843
4.0	0.15743812765446882	1.119931475157088	2.752361930454897	0.29783002532204716	0.3531880753006059	0.3589811380763995
4.5	0.12092360478705279	1.0711790586551941	2.011021465237909	0.5078390588520485	0.30166891433920934	0.28263322916349476
5.0	0.0987113145568447	0.9016917057544448	1.5071246918914711	0.7109981676208873	0.2699214641001268	0.2530476572012571
5.5	0.08525176244149649	0.6715041635775822	1.1644171730837685	0.8641587917063506	0.2509705241911131	0.3148771781500752
6.0	0.07772972725181057	0.4737461568381177	0.9367661122603942	0.9682387647008636	0.24560787603765966	0.5729141838574004
6.5	0.08317824853631027	0.33525255358238926	0.8255031103215807	1.02970124430659	0.28991835275454964	0.942855060011181
7.0	0.1287832208319536	0.24890350519522939	0.8575478990229376	1.0088933899917263	0.41198254058856787	1.2400459299492854
7.5	0.2200264064164581	0.20205475642157653	0.9434087143641475	0.7722609580330173	0.6519633118205055	1.435500863053544
8.0	0.32878881634712337	0.18149258119416428	1.0090166497270754	0.5059853118297597	0.9852278092149425	1.5572562019333789
8.5	0.4299953224363173	0.17590457348050553	1.054937086534819	0.3297736202141088	1.2892086630113946	1.6318447255924378
9.0	0.5128709611988109	0.18010360533064115	1.1178050927881928	0.22096716771558333	1.4778875570542895	1.6771004592061534
9.5	0.5758518442108808	0.2090340005469568	1.3431353431785733	0.15460844871439372	1.475913442428225	1.7036008691369173
10.0	0.6195494952669901	0.35953238800537757	2.015169819533359	0.11476464403672842	1.1874732690908936	1.7020551194289277
10.5	0.6109982802887121	0.6348930727651801	3.0289945936397342	0.09327387465737445	0.9015614760301518	1.4820931973229274
11.0	0.4862044605210361	0.8525257220222318	3.895842432003132	0.08803978780368855	0.715743493018765	1.0709815853020352
11.5	0.33930663198936467	0.9923929970322303	4.313430946594146	0.10151896509484823	0.5762058424493895	0.7428226935987952
12.0	0.23437078497336886	1.0773807352978813	3.9427233574093314	0.14640530385107683	0.45612225097896003	0.5226793597318539
12.5	0.16808221203389226	1.1182487672913866	2.9531273543828784	0.2601137504644581	0.3679371217345008	0.3818091945930861
13.0	0.1274133807861363	1.0914473506607536	2.1485899453724406	0.4598639610419485	0.31088698486580146	0.29555857962499416
13.5	0.10265407020634217	0.947562671315389	1.6007941743918612	0.6705064777424132	0.2755529982761641	0.25453714386794285
14.0	0.08763144112763704	0.7209723051504742	1.2279195532268328	0.8353213112653295	0.2542129511875554	0.28814951335866384
14.5	0.07883103527203011	0.5117425713168795	0.9776391214450202	0.9492267450094304	0.2445701098337784	0.4993692272273677
15.0	0.07963921743898485	0.3604893247732696	0.8370470826473233	1.020380439796519	0.27400850809673605	0.8649017954222297
