# Time series from syn_net_6D_20191104_a_hillmodel.json, output to pipeline readable format
# Generated on 2019-11-18 20:51:17
time	A	B	C	D	E	F
0.0	0.1593463914683371	0.8560189768374252	2.093620372479525	0.729111071728455	0.6274700265909846	0.06152694194296382
0.5	0.13060699867281858	0.5391163875059084	1.393157376612595	1.0907205344184197	0.5903109738493293	0.05125911603270179
1.0	0.11312789035689552	0.33283940655895045	0.9643668749715515	1.5306953319197605	0.5677724763432306	0.045031502440200794
1.5	0.10250954889289518	0.20577774621251158	0.7034917772446767	1.9535824104675434	0.5541085792735806	0.04125621227387039
2.0	0.09606222569737219	0.12839225631900575	0.5450046806510445	2.3021448786963323	0.5458926242222168	0.03898726996805851
2.5	0.09214852274369995	0.08138919839835548	0.44876494753850427	2.5651045813314886	0.5416191213259711	0.03781800867346293
3.0	0.08977438170423907	0.05286256907405241	0.39035006512834686	2.7505067486669184	0.5452228294781918	0.03893559994609275
3.5	0.0883514033157543	0.03555429176490642	0.35502236637361095	2.850939023581036	0.5889118937532203	0.0528134693098857
4.0	0.0885947270302474	0.025053889304286956	0.3346695687405951	2.7390370170830756	0.7641823564221608	0.12500886982611079
4.5	0.15585236831603488	0.018684179137056497	0.3298910525951818	2.1466961373917366	1.069309016533881	0.3138491366232869
5.0	0.34182858967800983	0.014822268527732071	0.38379651625740907	1.3895414219450837	1.502143817814247	0.5585778601267977
5.5	0.4764493039706004	0.012501866869685123	0.5557136509255451	0.8889851459317805	2.169897798663285	0.7664518256555644
6.0	0.5600564674175734	0.01122760702584881	0.7750077098455197	0.580052806634953	2.790724018142907	0.9139949452688804
6.5	0.611165217124644	0.011298211078820404	1.175834061734156	0.39182755160755073	3.2384213104340276	1.0093682831486337
7.0	0.6422513874444392	0.03339260766926047	2.386148134593279	0.2774562275130666	3.3441092016354066	0.9476097241833085
7.5	0.6594300480997024	0.3250028951765174	4.481577746012854	0.208545685119553	2.4320097905787854	0.5913993637292116
8.0	0.6531780368879466	0.7815038573142998	6.08611740647878	0.16986936081670664	1.7383589995129538	0.3726429841438126
8.5	0.5694531763716367	1.1031452936241593	6.4863133948877785	0.16116051783607283	1.2714580995852958	0.23996049528187097
9.0	0.4184749271981323	1.2970569953637339	6.125615205751868	0.20161968772143365	0.9817996830865133	0.1594844905657307
9.5	0.2944184454679858	1.3810893478118358	4.948418844605834	0.3065973060489197	0.8053465995653717	0.11067332314917405
10.0	0.21368425726606582	1.2597322520798993	3.3709047137504546	0.4653230815591965	0.6982192610710672	0.08106785179470187
10.5	0.16377519501572815	0.90059668334467	2.2010252124692076	0.6947124104798296	0.6332261713681905	0.0631112258325729
11.0	0.13330339991336848	0.5705097354880794	1.4594303281693668	1.042161951367645	0.5938022939937241	0.05221999288179456
11.5	0.11476662054657778	0.35246675119038595	1.004756498274951	1.4779463508755073	0.5698899661151214	0.04561425652549149
12.0	0.1035047567469183	0.21777101658542722	0.728040472721594	1.9069338301200325	0.555391101010744	0.04160913971219349
12.5	0.09666641556074396	0.13568265775546454	0.5599140628631559	2.2655190846641893	0.546651289842815	0.03919573118539409
13.0	0.09251523998286462	0.08581497464576163	0.4578173624384044	2.538291696143266	0.5418943755625317	0.03789049479808383
13.5	0.08999659255168176	0.05554813166080784	0.395841639526261	2.732465867840075	0.5438475845872921	0.03852143304254762
14.0	0.0884805146331812	0.03718361526334524	0.3583223031944861	2.8455456274070103	0.5789367895694321	0.04950742631500411
14.5	0.08817954829319723	0.026042313004811947	0.33640032216920146	2.7734699924927457	0.7344636885235706	0.11081954599126946
15.0	0.13712883715210386	0.019283729250584823	0.32917908211703906	2.244295492664503	1.029887219509876	0.2862059971346514
