# Time series from syn_net_6D_20191104_a_hillmodel.json, output to pipeline readable format
# Generated on 2019-11-18 23:33:02
time	A	B	C	D	E	F
0.0	0.19234181115574092	0.14438427199640927	0.4826547537031022	0.27395858075055995	0.30547076238472437	0.2437541678392516
0.5	0.1667919251252854	0.09486975230668734	0.37084989824756165	0.401459808265923	0.30564501642544606	0.7802862954601912
1.0	0.22525515600060358	0.0639404541324727	0.30276753138622214	0.3280513569489741	0.8026378412832537	1.6295572326638281
1.5	0.5612923487795662	0.044951258913249664	0.2635296978134479	0.2449759621157262	1.4041929141100578	2.3051036727746603
2.0	0.9830546084105325	0.033366871880009245	0.24767190753195872	0.18981535897394275	1.801739449823329	2.7428205242572252
2.5	1.3205366040715283	0.02633911438279755	0.26233383499434354	0.14559093803936424	2.0490975652850154	3.013379144539073
3.0	1.5576970773744936	0.022212042340533138	0.3388879606888593	0.11217263698177701	2.2011801284543058	3.1786170207097832
3.5	1.716580771565328	0.020992267016940635	0.5120836515414379	0.08936104816238229	2.2943093737029074	3.279128380183926
4.0	1.8206784172417894	0.02966243079149474	0.7461702330012873	0.07447152148317086	2.3512357262672094	3.3397052054834897
4.5	1.887407374635259	0.06906137418290684	0.9682693926623103	0.0649390257602451	2.3859148394777656	3.3473816574310913
5.0	1.8981882009625706	0.15237492269056357	1.14263052655867	0.05893844204700527	2.402004521777759	2.7409633030464433
5.5	1.6411440926495484	0.2624067518407984	1.2630556347657007	0.05596091649377577	2.3278260788883047	1.7411633777349078
6.0	1.1415966646384073	0.36659393663743506	1.3130938816590418	0.05977643839782918	1.9096102780247524	1.0700013553496261
6.5	0.7513207621743432	0.4282196427441292	1.2618221777157237	0.07451364445353945	1.281190692213837	0.6573548984068338
7.0	0.5054250327450022	0.42102440130751884	1.1243423825110803	0.0902729850045349	0.8180058789889909	0.4064558262953463
7.5	0.3554597859516394	0.35293385524786247	0.9498921150738666	0.10574758066785128	0.5405749548290399	0.25544595366184947
8.0	0.264426321305205	0.25924149016651704	0.7492720088000894	0.13996928973552933	0.3954568862320323	0.17122981785721053
8.5	0.20920515438069573	0.1739940431259899	0.5515807046549807	0.22092189506759927	0.3250989005280571	0.1724258458341032
9.0	0.17580832546510428	0.11393479456739002	0.41390515094607	0.3492198554650578	0.2894535447373155	0.47303593515346065
9.5	0.17361291895851816	0.07575282554917974	0.328766383670673	0.3756326554905917	0.5113258763462099	1.2583790628558582
10.0	0.3839945902340808	0.052184376065000954	0.27798425048093756	0.27612198335789606	1.1647859718562235	2.039673737905097
10.5	0.803052420787287	0.037773639027346935	0.2518546152466421	0.21178263402748282	1.6491323147070487	2.575049325484811
11.0	1.1849785189167144	0.029005337492235713	0.2510124361110734	0.16365988243191823	1.954709997210672	2.9103004107137638
11.5	1.464387727411767	0.023735108651565827	0.29492662065380326	0.12531981658909214	2.143252505817193	3.115774739978783
12.0	1.65462961641452	0.021019072634082345	0.4249398216135596	0.09817013600668892	2.258863075381491	3.2409368259513873
12.5	1.7802842031209412	0.02360318082711888	0.6416620137902904	0.0801782148752185	2.329577195284082	3.3168902278319616
13.0	1.8618966175439797	0.04658993086876444	0.8761441379599503	0.06858002414318412	2.3727654642631197	3.3586836652405845
13.5	1.9074468970387506	0.11109723294046929	1.0730199350795595	0.06120631119461399	2.3981466621890286	3.1448933803830728
14.0	1.8039638753960963	0.21303457281731164	1.2174119930020035	0.05680924953661575	2.384770485281534	2.1428841423457436
14.5	1.3590237644018202	0.32413829386596066	1.3023007049127295	0.056747653747010685	2.1455908576086706	1.3241936864430548
15.0	0.9013817686312516	0.4087569834221206	1.2970460321392692	0.06723911489938066	1.5470759669337313	0.8127246134580306
