# Time series from syn_net_6D_20191104_a_hillmodel.json, output to pipeline readable format
# Generated on 2019-11-18 22:37:48
time	A	B	C	D	E	F
0.0	0.25539913933596914	0.8482679773360083	0.9889447535266761	1.6921995531587373	0.031195126096772257	0.080643602370682
0.5	0.2436081986328084	0.5833852713098487	0.7532769175431168	1.7720152603290027	0.029214007005921642	0.1802791039957463
1.0	0.24307111289437158	0.4077073522081897	0.6090769674778446	1.8207062269286316	0.04980399102385953	0.4171105880132395
1.5	0.3285697394249281	0.2973016533048348	0.5311509210747356	1.7520528662158057	0.1927295003069463	0.6619237038513622
2.0	0.5873290945461213	0.2315889202268711	0.734252159374391	1.2607378189446234	0.5287023357940825	0.836837090973022
2.5	0.9169681872154741	0.24856556520367226	1.312805016973645	0.8609723066867988	0.8730488154249122	0.9472210562150428
3.0	1.1962929217223128	0.49189854396935934	2.059984218206615	0.5795888372406061	0.9370609936096784	0.9672344700270923
3.5	1.224614838833007	0.8595963073184409	3.5381093834250863	0.4019694475009157	0.6493854467158859	0.7273077337924744
4.0	0.9462383584202284	1.128533138183747	5.350054476005868	0.3017134469722839	0.4143791372812344	0.475978698462299
4.5	0.6783203517185447	1.2948471056724846	6.015094584697689	0.28730089890200483	0.2592028292727227	0.3088831244697759
5.0	0.5019476915984095	1.3955736112145245	5.204342558290151	0.45957662117697945	0.16311654167096215	0.20395584419979298
5.5	0.39331968552224283	1.4525186371405898	3.576468580174907	0.8612830431844434	0.10457495891823196	0.13900337094710066
6.0	0.32722066583696435	1.4544567539060822	2.371044129307126	1.2325537950069156	0.06902660086221798	0.09918620328574937
6.5	0.28709762397579575	1.3083040642238715	1.6074175091487075	1.4842791042284365	0.047492246422819795	0.07608574166821806
7.0	0.2627564607492288	0.9908215782571613	1.1338008172660774	1.6432838381296273	0.0346974010358877	0.0708769087032139
7.5	0.2480022040672734	0.687213119333449	0.8422079610346854	1.7418640303099835	0.02874726379946162	0.11893284769185826
8.0	0.24019282134390732	0.4747960372070982	0.6633306842820217	1.80251301091172	0.03543343850984859	0.3030793943467255
8.5	0.2711207023196895	0.33909506093266595	0.5559660119139291	1.8316093281603485	0.10318518772429197	0.5622227315136851
9.0	0.4567016074563418	0.25523603204804524	0.5739253371584553	1.470153733132116	0.36856818166682714	0.7694093455254871
9.5	0.773334171586713	0.22164147527347797	1.047667487380956	1.0220474457721251	0.7338620732187905	0.905997429769634
10.0	1.087728905664351	0.35461147259789855	1.6858357359712102	0.6878155463037025	0.9788281577354853	0.9804751130248828
10.5	1.2628882000128678	0.7039480355357138	2.7769250162745047	0.46880478050507673	0.7770756107371951	0.8533383328229125
11.0	1.0817606187110718	1.0261515641818357	4.623718577367876	0.3367136686986263	0.5065139323250676	0.5749882997050771
11.5	0.7838672979534114	1.2322274056049831	5.915439513697694	0.27969540764139655	0.31821704474191853	0.37262461738290126
12.0	0.5688324859507295	1.3578355914156468	5.732904718365455	0.3499373220933645	0.19933095538712867	0.2437126065839815
12.5	0.4342342832138079	1.432548528885684	4.269967403991855	0.674340086188449	0.12659972451816384	0.16354935824344385
13.0	0.35208382803733435	1.4639800239333505	2.833181411829849	1.0850649604075882	0.08239418336284181	0.11416028360549049
13.5	0.3021854935303847	1.39861413572865	1.8970411713685191	1.3879554812033386	0.05557758158472026	0.08437407148955996
14.0	0.2719088531660111	1.1388392634112348	1.3128481574342155	1.5829936052027465	0.03942283968082602	0.07005684323716238
14.5	0.2535449632505015	0.8094272832591975	0.9522860811733547	1.7045961726517072	0.030418034051591214	0.08613765735609064
15.0	0.24255117788302227	0.556541513883368	0.7307889213976945	1.7796432413854808	0.029924414826203838	0.20407603044422984
