# Time series from syn_net_6D_20191104_a_hillmodel.json, output to pipeline readable format
# Generated on 2019-11-18 23:07:19
time	A	B	C	D	E	F
0.0	0.24944071778870636	2.15493928581065	3.91526600471341	0.7544959596000935	0.7494190341637211	0.02158555789860405
0.5	0.22649321447995022	1.8537534616441858	3.0753605727349904	1.027242577302234	0.6683911156844512	0.014011217510152999
1.0	0.21257485585991862	1.4033233245100516	2.431328100858886	1.3143994476943455	0.6192540328840627	0.009431696879436895
1.5	0.20413294937135443	0.9845408441546262	2.0057556889712247	1.5776659655068446	0.5895060795179002	0.006745075611583036
2.0	0.19901267283131036	0.6750795796406232	1.737459264185181	1.7959395532672235	0.5718336656391876	0.0057262332134982215
2.5	0.1959070679051517	0.4665486390902077	1.5710723214993174	1.9623129851844214	0.5635066211622093	0.00902616415017138
3.0	0.1940235836063472	0.3313432355135526	1.4686590228192227	2.066387450105887	0.5717426692070269	0.032120201003261205
3.5	0.19303377972628505	0.2452466667334353	1.4062472674765993	2.0521351584842877	0.632677511525485	0.12379526935958225
4.0	0.2189839123976212	0.19097837038986096	1.3711999981457943	1.7779781291776788	0.9960977210821229	0.32867527022921894
4.5	0.5548552954709629	0.15999726617121934	1.590664735950584	1.2908069662026138	3.3083473245981314	0.5863550740878327
5.0	1.0716095577424118	0.21638165417966604	2.548640233741158	0.8587516723844357	5.566743775168908	0.7309778021432619
5.5	1.306446087119002	0.655992902885552	4.303829687443292	0.5894865126092517	4.829328852874771	0.4989616606158873
6.0	1.0599523489824982	1.3212458082703222	6.367669906204866	0.4263257844447814	3.6214813877934438	0.3038859944103313
6.5	0.7412407356206648	1.7910876546927228	7.090909108655725	0.3311217800025305	2.4862964200277906	0.1852514319350906
7.0	0.5268238248880928	2.0744356616599817	6.481762446802286	0.29337366229681416	1.7288964539583296	0.11328052703857049
7.5	0.39491087057178126	2.2225983516391046	5.666938736318803	0.3306249839777669	1.263084091622634	0.0696249110848389
8.0	0.3147410059394332	2.2701192036890623	5.011897628864761	0.4485264481192564	0.9799973013589443	0.043145588091719804
8.5	0.26610132120867663	2.2268045666355	4.333070768492197	0.6356837884907676	0.8082472282604675	0.02708506946972687
9.0	0.23659854551403273	2.032914648456117	3.4835156951886233	0.8856269916065626	0.70407167293451	0.01734501451684909
9.5	0.2187040709946971	1.6362851815625286	2.7250075381134806	1.170991793766557	0.6408892206646342	0.011443456494488208
10.0	0.20785051317259454	1.1830725250877043	2.1958671080881893	1.4501068206919157	0.6025887073445967	0.00789963515717143
10.5	0.20126749027741203	0.8164919425631827	1.8565013322333164	1.6924994941657467	0.5795002906897423	0.005984391176237382
11.0	0.19727468390284203	0.5604202110938127	1.6446988111407481	1.8854255436212652	0.5664445809696805	0.006382296262115884
11.5	0.19485292912369015	0.39179826208700175	1.513898851745153	2.023578258379016	0.5642872577262797	0.015969808045201084
12.0	0.19338952951552627	0.28361189488742533	1.433678436405919	2.0809690956978457	0.5912967433694845	0.06481883067741115
12.5	0.19514645586816404	0.2151004102983034	1.3855615135492663	1.9602256042514854	0.7185251978581533	0.21264798481912922
13.0	0.3273264629026707	0.1722589186631442	1.3823100927615515	1.5451137490227136	1.8539159112810697	0.4573119065122167
13.5	0.8242288460890569	0.16569402253228446	2.0094096551687115	1.052728826979302	4.774836179672432	0.6929075551516336
14.0	1.2492592668668592	0.3658917476152146	3.293315316192823	0.7081822549791905	5.342089073425243	0.6341267685185331
14.5	1.223409546782603	1.0018924748033278	5.410643789006389	0.49801765542170023	4.25886943341297	0.3899629398319739
15.0	0.890028544968945	1.581949146250967	6.948593483794051	0.3718715814560825	3.01289709292941	0.2375010549382794
