# Time series from syn_net_6D_20191104_a_hillmodel.json, output to pipeline readable format
# Generated on 2019-11-18 22:18:44
time	A	B	C	D	E	F
0.0	0.0752001663430967	0.5646317556941108	0.6014730340843245	1.2061928840845904	0.16050658076505595	0.25613407521483716
0.5	0.08687581479058562	0.441906583745217	0.4466592830633181	1.226288340302576	0.19147962794006368	0.6281362004234482
1.0	0.4778448345785311	0.36745418606772007	0.38934407941212695	1.2362274512075069	0.5946341372430971	1.1042040937662312
1.5	1.3100702388049088	0.3238804881985472	1.8019923471323573	1.0252025843827528	1.1914455621005369	1.5281858619473243
2.0	2.012517550486043	0.5688358053393334	4.613732662566821	0.6559616653998854	1.6280752638444134	1.6591712075740666
2.5	2.2144876861410547	1.5867918220474277	6.77602305617706	0.4090359217941563	1.7563208366065448	1.0636183125913687
3.0	1.6795928426840452	2.5398409018262456	8.023735956812716	0.2661793603610623	1.3752631921634968	0.655823633149278
3.5	1.0741579223789142	3.174941965461368	7.948877037539111	0.2561133006162658	0.9140120157709715	0.4078743744767577
4.0	0.6696908592641182	3.4284033656556443	6.0429905530160895	0.4824761706614064	0.5970481762450057	0.25741934375178993
4.5	0.42068966334538543	2.9680661248721933	3.9432570208591162	0.761143022293413	0.4010891918135597	0.16617526094391485
5.0	0.2692851131544501	2.0699478375440643	2.5094505080958887	0.9535102229909903	0.28308261077131724	0.11106875176507364
5.5	0.1774102605217577	1.3755183469093266	1.6153492801089686	1.0727044425776353	0.21701962520922602	0.07961893420818048
6.0	0.12168001336569198	0.9361248011432491	1.0664880825661636	1.145280805670443	0.18402931258495592	0.07439132444853533
6.5	0.08789118570667655	0.6675305203344397	0.7307073813437408	1.189337254818112	0.16656243630139084	0.14204733293797686
7.0	0.06960919034047074	0.5043496680433444	0.5255170673068589	1.216064769108935	0.15972954072980136	0.39155481946994364
7.5	0.1718207343682424	0.4053334718569696	0.4011674969061965	1.2322616448221537	0.3000010928344611	0.8310029930635283
8.0	0.8234883458988884	0.3452769481836638	0.6365975029631614	1.2054743500041942	0.8615191820250631	1.2981833464483705
8.5	1.6447268590103976	0.33749222212086677	3.0214184566236857	0.854010324642959	1.4025797857104798	1.6695241829791827
9.0	2.19340463268404	0.9616878109124878	5.6545193901367075	0.5353462208077049	1.7438352719248535	1.398531525151516
9.5	2.0435009591023845	2.0325946191818405	7.426842152525965	0.3359307620362505	1.636021132592568	0.8635814742047951
10.0	1.3973273285697934	2.852126583187107	8.214906190988662	0.23850937428018568	1.1634097278076927	0.534047180007386
10.5	0.8769784329732323	3.3431778448649245	7.2915514101391485	0.3273281950603768	0.7598774177627652	0.33397061233332404
11.0	0.5475248916058313	3.3353481407333794	5.0715941390054216	0.6101938995071349	0.5008994678342913	0.21259033246605263
11.5	0.3463319400622951	2.581768504104747	3.247073181567401	0.8546300521613183	0.34276251252816753	0.13903060494623903
12.0	0.22415559095287804	1.7360180583121798	2.0719563061943105	1.0119526971709973	0.24936100819227325	0.09501236075380046
12.5	0.1500340937383823	1.1604825280354714	1.3463807723535492	1.1083425416860775	0.20002421653937624	0.07299924639921794
13.0	0.1050760968869601	0.8042828755291657	0.9018707965508537	1.1669205294588423	0.17527659107647311	0.08900865596999687
13.5	0.07792749318764558	0.5873857796073018	0.6300922541628741	1.2024661722915908	0.16171989970054162	0.2211430269869616
14.0	0.07683553428538696	0.45571261494539933	0.4640951170675139	1.2240282738039086	0.17598441504251827	0.5650638393884198
14.5	0.3814592500811325	0.3758287539350185	0.3785382594291734	1.2364072026487567	0.5108637862529476	1.0377457268293155
15.0	1.1925076846589298	0.3278424154026164	1.4401872593190816	1.0803109333285483	1.1147929393978036	1.4747887853242794
