# Time series from syn_net_6D_20191104_a_hillmodel.json, output to pipeline readable format
# Generated on 2019-11-18 23:16:27
time	A	B	C	D	E	F
0.0	0.008165397833805564	1.461879092264207	1.6035825953548624	2.10370354908958	0.3044724708152073	0.12448778348042469
0.5	0.006464952750241873	1.0126204255734943	1.3103966236322382	2.3923437702963453	0.31555790124913546	0.23624241057067596
1.0	0.008007513379684252	0.6833380864329125	1.1461360434240262	2.0505785827367795	0.688047659216866	0.6918569117558161
1.5	0.13372299093725315	0.5054000415392778	1.6831174127928499	1.3338881161305933	1.8611726609638388	1.429498190253848
2.0	0.49280059747493343	1.173779562216812	5.646405650095745	0.8947447667806482	2.653854517308401	1.4553766455534536
2.5	0.455394342777552	1.742847287615094	8.42262953385759	0.6275763066411193	3.019695765085579	0.9637485565953074
3.0	0.30025526832450244	2.09059792331633	10.120553751908973	0.46633037735093114	2.8672812359397177	0.629386171508079
3.5	0.18646577211643406	2.3018968460139435	10.942831745140765	0.36881392683523373	2.1959343893189947	0.4207352081661869
4.0	0.11500462589273705	2.4300651953565793	10.138935087379094	0.30998291636072395	1.4906596871838962	0.2923222010011973
4.5	0.07132488419627055	2.5070719752946893	7.69456463371571	0.27653121364964234	0.9978038626491897	0.2136439366114344
5.0	0.044775879739964435	2.5491281063102917	5.475593455263251	0.27119686268384147	0.6855528722023196	0.1655439346751971
5.5	0.02866137845754705	2.54948255557218	3.9088090224672998	0.3452409201151161	0.49291503597038455	0.13623959564806865
6.0	0.01888431454761701	2.449506864248294	2.9006505900090023	0.6455663149625694	0.37809950215174826	0.11875653542391756
6.5	0.01295322557336338	2.1610392426633735	2.2608182465385105	1.2470109638365314	0.3192684650985268	0.10988880492505981
7.0	0.009355639288124802	1.7017750226557389	1.7867107600055245	1.887524056289541	0.3027940819496069	0.11262426472614433
7.5	0.007175543749488911	1.2130955063793536	1.4325612822062892	2.30103975517663	0.3081050141296647	0.1593432607080132
8.0	0.006045773119801412	0.8239795677978955	1.2006507347921438	2.393001745796606	0.36717313428095244	0.4165094084178906
8.5	0.033615867104733056	0.5631923440963442	1.2430167882600534	1.6394989175017658	1.3308217838277672	1.0797210266729842
9.0	0.34866822269247827	0.8003703624942078	3.8311080131377895	1.080635511788715	2.3299749485557464	1.635256429651881
9.5	0.5137790973412836	1.5061327720501145	7.261166752109725	0.7404443990813163	2.9023902239923527	1.1820123302593506
10.0	0.3726461963987929	1.9464546317950295	9.422261617710573	0.5344120735323284	3.0152059203366126	0.7700455810088876
10.5	0.235122827126267	2.2143563564981865	10.675952673626243	0.41002001786899267	2.5559372549770667	0.507910509362026
11.0	0.1451185126577727	2.377006591116186	10.819632088921495	0.3347620473911366	1.804633466198442	0.34586871498536526
11.5	0.08967803077442868	2.4754197032502425	8.93319312070097	0.2899725282085046	1.2065788892898675	0.2464247317115388
12.0	0.05592349727588409	2.5331464808803035	6.465749346425507	0.2689826723804103	0.8163034511404261	0.1855724357429215
12.5	0.03542637488214941	2.5567525362450865	4.583428520680182	0.2930479660516214	0.5731232008772017	0.14841711560023715
13.0	0.022988535660206064	2.516580040421067	3.3273429885162695	0.46268553252880906	0.4249697016972143	0.12591712051848106
13.5	0.015442904716172608	2.325873894685048	2.536156893455253	0.9323580696114547	0.341131652222532	0.11307616323376327
14.0	0.010865713923779585	1.9371862834351177	2.0013278146378912	1.6006474363369925	0.30637745106244046	0.1091030911910491
14.5	0.008089834588454189	1.4406572184695423	1.5857988090280095	2.1390547006800227	0.30410982050193347	0.1260898724566618
15.0	0.0064220550545699235	0.9950693868157083	1.2978715523774609	2.4132895073678315	0.31637446454179213	0.24681290554823476
