# Time series from syn_net_6D_20191104_a_hillmodel.json, output to pipeline readable format
# Generated on 2019-11-18 19:51:39
time	A	B	C	D	E	F
0.0	0.8351762629710214	1.8889912255229002	1.8342807088411286	1.3365915879157089	0.21833393218586145	0.162738471292663
0.5	0.7318388581864919	1.2796449123044635	1.1946794103572689	1.7064411762312859	0.20329644154872487	0.19269905541905932
1.0	1.0654752579023876	0.8843915336160278	0.807201988150527	1.8165981682889139	0.3651812060006503	0.3741245119187896
1.5	2.1825539270701277	0.6417387035855325	0.7833875807456646	1.1759022827978016	1.260197614287185	0.8499915978459478
2.0	2.968726010528399	0.5361834134660683	2.2682259895634593	0.7208893835790274	2.2847787762746625	1.4154427540492929
2.5	3.448113412749876	1.276036214673065	6.463321383798183	0.4424785785558439	2.332682143809078	1.3589292805592266
3.0	3.735786751702573	2.034156145365615	10.72454503078014	0.273074500002344	1.7735885083479863	0.9048136239189959
3.5	3.886193722246145	2.5006105505371505	12.208440941200527	0.17018433043875816	1.402205877403487	0.6097559813109515
4.0	3.8484904597936165	2.7836272586281323	11.36459897400871	0.10787073875549862	1.1428816488821134	0.4283489382896908
4.5	3.449891915260298	2.9537133339045862	9.40536768775096	0.07070710580479528	0.9045020705151936	0.3176108990705253
5.0	2.7446895724551776	3.05026727325219	7.326365356898627	0.05170146197626348	0.6755642337621621	0.2501604621955022
5.5	2.0475942012642476	3.0849332605375435	5.699190974166891	0.06541344399234225	0.4941400567373633	0.20913448607690469
6.0	1.5143264607104485	3.0341199890877677	4.475195548768769	0.21841586369592864	0.3679204523639186	0.18426417389717248
6.5	1.14655703954432	2.8012919818974567	3.346213231191696	0.6346607232950798	0.28513029511089194	0.16945609929467675
7.0	0.9050224246337423	2.186319290943115	2.19159610949981	1.149274999719267	0.23275938306410654	0.1623160766758997
7.5	0.7588623271124691	1.4981293948157417	1.416283799975283	1.574492081490545	0.20455296570844023	0.17241234619968737
8.0	0.8000914937985787	1.0216651593359873	0.9386847443102223	1.844853999511853	0.2398474178367612	0.2691137720706316
8.5	1.7480650779569065	0.7254116435364484	0.7008614970753203	1.4294035818203075	0.8362425446377438	0.627481467302219
9.0	2.696611932939375	0.5492122239824181	1.4116214146914767	0.8784861735999933	1.8981803925710299	1.1991065343238376
9.5	3.2829035075755555	0.8834478176963779	4.472118008571269	0.5385964056683927	2.5335619884666096	1.5312113055120604
10.0	3.6377017715028046	1.7700873420581626	9.281731664225418	0.33151565147163325	1.9764065854373742	1.0686802658754246
10.5	3.841859735560476	2.3396668266768517	11.9554701647702	0.2056594974168672	1.5330044377251058	0.7121497687147577
11.0	3.896580666866706	2.686147315664138	11.903702832892133	0.12931704120119863	1.2406767340453682	0.4910560668670712
11.5	3.6614491991318983	2.8955139791674815	10.262323139206776	0.08333694769928904	1.0014375314358344	0.355850480057426
12.0	3.0453801480071827	3.018741037684029	8.12777262190982	0.057162964863625314	0.7640101184737504	0.273441323608258
12.5	2.312975118394613	3.0789206476069677	6.294611484966555	0.05249151014805761	0.5604257034922715	0.22328661425040564
13.0	1.708001175391462	3.068562709411656	4.937335384577311	0.12737099436920382	0.41283891427737945	0.19282443344461375
13.5	1.2774654363936828	2.9299250918687822	3.824587467375818	0.43985879470642053	0.3142331711590526	0.1744795976270672
14.0	0.9898674848000987	2.4766269710395252	2.617453927582493	0.945484680831766	0.25089115303761356	0.16417248595195846
14.5	0.8068593641893248	1.754471813443679	1.6859809798292855	1.418825994954198	0.21278659844368494	0.1642644684474982
15.0	0.7321457445028219	1.188314511677177	1.1034389470834602	1.760252240845859	0.2072558414625156	0.20962016846665862
