# Time series from syn_net_6D_20191104_a_hillmodel.json, output to pipeline readable format
# Generated on 2019-11-18 20:36:37
time	A	B	C	D	E	F
0.0	2.7262319496586125	1.7326259533438417	5.741054334764531	0.09716658385144497	2.0678741944298613	0.11010937507091158
0.5	2.5322211197948636	2.1656613890604017	6.492614878280803	0.061620027329344795	1.5593674031288092	0.07421834835350828
1.0	2.0160364204631125	2.4432254716917092	6.883333536042114	0.04839471262426569	1.2024366577909709	0.05244468209743125
1.5	1.482115467064933	2.616467852033922	7.026389156623384	0.10181229329957311	0.9571543634495749	0.0392369300298377
2.0	1.0972840800008474	2.7167221223935347	6.204611606962436	0.36060299096484544	0.7925504419829115	0.031225526285853265
2.5	0.8482629093965588	2.7084621608862847	4.579320149327273	0.9221520064809219	0.6873184606504381	0.026366216372336188
3.0	0.6924763581158407	2.45618780708017	3.3260625789115665	1.6722596475931788	0.6379936918350858	0.023419334035387346
3.5	0.5962293299548956	1.89283112310057	2.4262998897455264	2.2044584133764804	0.6644574436367052	0.021635269402711037
4.0	0.5370925568174874	1.2912333502181634	1.8187232509119495	2.1872700509288885	0.746740767580465	0.020578174873518807
4.5	0.5008904800177723	0.843851450941602	1.4229485407149043	1.8703068916013836	0.8199355692108277	0.02014967856876602
5.0	0.4791012916294484	0.5508048364740511	1.170064276253814	1.5305692188029631	0.8679580397234681	0.021699372882111993
5.5	0.47320905973652544	0.3667853889303762	1.0110112391631085	1.2558290378470112	0.8975277892313849	0.03601576524198555
6.0	0.862754781785487	0.2533097505505451	1.0116510457652808	1.051558979552808	0.9173960353881077	0.109074780050903
6.5	1.6553605076135498	0.1977760420980524	1.6465554653596797	0.7989634766616877	1.1584770093267154	0.2706792799133924
7.0	2.1542624373572217	0.23779316169506715	2.221688373711241	0.4968721245211454	2.6230647323557346	0.38324806563728103
7.5	2.456957631129469	0.4279231101518431	2.8084966009754337	0.3041634024045126	3.63022479172486	0.3073540357389959
8.0	2.6381745196579867	0.890109079595984	3.9324697370067923	0.1863846379932525	3.0746270932275	0.19763489633675482
8.5	2.726289465578074	1.5376376098835198	5.35654362729877	0.11471066429009881	2.290249040082207	0.12741014131706532
9.0	2.641156467393456	2.0358368259106325	6.283865550186133	0.07167147040302145	1.7162617991347244	0.08471630156494586
9.5	2.2152830126129732	2.3610996675296345	6.777534068783549	0.04951787221249075	1.3119358448824818	0.05881286475443149
10.0	1.6531062128292706	2.5655787321648575	7.007998653027198	0.06852091751743702	1.0317384317733949	0.04309974121364775
10.5	1.2134776464608295	2.6903183067550667	6.739901963767581	0.23806266466920079	0.8421659648177181	0.033568569425203976
11.0	0.9221228010438796	2.7298283887052497	5.102854741255325	0.6942865913161856	0.717833306110686	0.02778735604890324
11.5	0.7383931263369713	2.5827732967814487	3.7194955842479924	1.4098758002534642	0.6478558539534839	0.024281026902025632
12.0	0.6245232676650484	2.1105517070204898	2.701753711062159	2.077219905667189	0.6457786375845497	0.022156019305786426
12.5	0.5544542382968577	1.4867133144918285	2.0017173040055405	2.24773845413703	0.7166440849171966	0.020879302110062725
13.0	0.5115001462310886	0.9797792714153118	1.5411179578402008	1.9921848367224062	0.797466803398511	0.020205375622029356
13.5	0.4853666950958164	0.6378934148998411	1.2451987641072504	1.6431294224441608	0.8537855962638642	0.020663418958209126
14.0	0.47152721835012945	0.42104216597345334	1.05778664771999	1.3426668151768097	0.8888611287377707	0.027809874395185306
14.5	0.5986735127588245	0.2864979317481332	0.9561850835698603	1.1163796914518245	0.9104896565631946	0.07249777757976743
15.0	1.4158587647932102	0.20887304650291066	1.4137270072700328	0.9080200103895405	0.9827713246228869	0.21012911160474398
