# Time series from syn_net_6D_20191104_a_hillmodel.json, output to pipeline readable format
# Generated on 2019-11-18 23:10:20
time	A	B	C	D	E	F
0.0	0.02666598770047612	0.37573419581516	0.8329447168533285	1.0480989252660502	0.03447975491057731	0.1405591286482321
0.5	0.019589040147626337	0.27155691982745966	0.6020293249812966	1.1029984499967531	0.03559925528710162	0.3390640192371531
1.0	0.029647218129360102	0.20791100103039567	0.46067718282964576	1.112994036218959	0.20921800291581966	0.6859565907018506
1.5	0.145020534605215	0.1692542458466173	0.617629870211472	0.8251978107205945	0.7599945394908897	1.0218556316592005
2.0	0.3952244641436352	0.16339224922624146	1.8137997065936713	0.5837108246873399	1.266912510004206	1.2666617998807699
2.5	0.6335918182762051	0.3110466405404379	2.729906728340796	0.37356128055053	1.4412426041363962	1.260919763289731
3.0	0.6142043750966901	0.5748410884473604	3.2443694567141312	0.2397191345609361	1.018776026672696	0.8564414140393248
3.5	0.418975825192141	0.8008174122238092	3.4171444729553415	0.16641202398940913	0.6416637297671234	0.5453684152915949
4.0	0.2622630650470392	0.9531211365298979	3.455800743827035	0.1676057995368667	0.39397779908578673	0.35168894843526166
4.5	0.1627574331619912	1.04285235631338	3.3691210571405974	0.2718686865732458	0.2403663736204814	0.23326953298588302
5.0	0.10189019255860374	1.0370017395794975	2.8269582445618484	0.5196107003581445	0.1467705596818266	0.16123251011418313
5.5	0.06490434541895213	0.8438528657057822	1.9707460429747525	0.7669957204569441	0.0899795925223201	0.11819083031661537
6.0	0.042460590025578795	0.5901128209655149	1.3169745798673713	0.9310715359752791	0.05580682576029347	0.09776068231796287
6.5	0.028847731363259358	0.40619438523546514	0.9006011618760005	1.0318992607061839	0.036825965149309234	0.12168368766212244
7.0	0.020707176598166812	0.29029401424917833	0.6435839945527044	1.0931715234047457	0.03256635162844954	0.2784086956980037
7.5	0.022978640532113112	0.21932246130777844	0.48593227490709523	1.1275148886829185	0.13120397069861076	0.6054592376741735
8.0	0.10535855440774847	0.17615450492855567	0.464644620690545	0.8844259324010747	0.6307636466782929	0.9546553923217925
8.5	0.33491254522958036	0.15716188594777555	1.5611592804216796	0.6376803282468984	1.1710023142921633	1.2226612069248237
9.0	0.5936802262185329	0.2621014212156011	2.562367303286941	0.4128083810088669	1.4656331948134311	1.3120382940402155
9.5	0.6455129780516422	0.5165686372585304	3.1663413514283145	0.2635453039297986	1.119910132297438	0.944005382399437
10.0	0.46160601178949545	0.7576706827243612	3.396829953699247	0.17735108491427334	0.712460525921489	0.6020447166730957
10.5	0.2912328940503455	0.9253202443023202	3.4534356940066706	0.15935034423551087	0.4389982970633381	0.38652582935534663
11.0	0.18067585784923051	1.0286414684415595	3.411548471238603	0.2371215916688074	0.2679568912364578	0.2545166364237659
11.5	0.11280096759423623	1.0522448515755138	2.9972273060161427	0.4580459496760655	0.1635397210114181	0.17412325182302352
12.0	0.07152827874257517	0.8997206866717794	2.150060347943322	0.7197514446949588	0.10014053584652952	0.12570757342798838
12.5	0.04647923996334323	0.6413257944459689	1.4377347463292174	0.9014146245725071	0.061855518188812506	0.09999124026009905
13.0	0.031284350510154435	0.4399705176574064	0.9758492571145021	1.0138207584110117	0.03983999013651528	0.1092314322203986
13.5	0.022110009872743485	0.31117355381084166	0.6898496603824756	1.0821992992695377	0.031809108864423195	0.22716412956307896
14.0	0.019857130698519472	0.23205367136717173	0.5142539033445012	1.123415488423208	0.0802380760095096	0.5255560160285291
14.5	0.07395442590589751	0.1838855924511242	0.4226674727973652	0.9496585428025665	0.5008216382659567	0.8832212600438811
15.0	0.2761088998204938	0.15699108952796598	1.2932790930629556	0.6907824676521204	1.0652688769314034	1.1724823510217361
