# Time series from syn_net_6D_20191104_a_hillmodel.json, output to pipeline readable format
# Generated on 2019-11-18 20:17:58
time	A	B	C	D	E	F
0.0	0.10714103082034607	1.6096708045985382	4.224056715768923	1.849921259532274	0.4945026477731716	0.1628631381419172
0.5	0.07098554146699705	1.33604768773311	3.222070639117362	2.744507524792498	0.43362047519360974	0.18060599963341972
1.0	0.05283105067539864	0.9695559095008928	2.4823441778722555	3.371739369597234	0.40091000077299455	0.2866329083728363
1.5	0.12838269834371785	0.6594811902395209	2.0082326540903797	3.7152072534084573	0.47462644524186126	0.5399873542806594
2.0	0.5371008758910167	0.443838766443247	1.7667591342990652	2.7196656311843883	1.2671685325798654	0.8028496409228608
2.5	1.023446725888139	0.33201189035791284	2.6420566958281113	1.7481661633831205	3.830956455920974	0.9851476368050052
3.0	1.3877001234544406	0.6103711466947624	5.1535631691630535	1.1549853290005203	5.096847904514979	1.0871177812361845
3.5	1.6097750727673146	1.0705400862043377	7.539359335752825	0.7951955023015768	4.463685220181101	0.9794645415521082
4.0	1.6183153822082652	1.3887078176224088	9.140360920361283	0.5770162485940803	3.716876696594403	0.7261839538592321
4.5	1.3195249794547466	1.5882527226646093	10.002026571371182	0.4449067866454118	2.74639575680312	0.5173766419603366
5.0	0.9031581076428604	1.710526304601618	9.924579508105902	0.3663143816873006	1.886991222625945	0.3741104931614676
5.5	0.5761746507608158	1.7816161131407995	8.49847592825386	0.328804990098109	1.2971891370626698	0.28071359041895866
6.0	0.3608448984011829	1.8094349952859097	6.77622956529839	0.3573087288617119	0.9248121130454002	0.22142062189403708
6.5	0.22614601825932867	1.7861342491125334	5.579161547746941	0.555226453878616	0.6954846620466862	0.18540153224780695
7.0	0.14331242641139674	1.7046127922826757	4.795704848453457	1.1973467678869063	0.5554525055303362	0.16661486481470422
7.5	0.09278518957655674	1.536787436833819	3.873734959768224	2.1791493780552433	0.4703385014932313	0.16443920697793823
8.0	0.06261086799719787	1.2132343504872394	2.937158605597357	2.9862380706229845	0.41940263626341656	0.2011822061639862
8.5	0.05592351596445757	0.8543578587277578	2.296712765546363	3.5280298549723286	0.4005517291272373	0.35923304103657994
9.0	0.2307387581898425	0.5763594817840567	1.894066542903725	3.524961230321584	0.6108056269264558	0.6359127261413705
9.5	0.7102656059619723	0.39085412555379984	1.8391070673068675	2.3385678825424927	1.9002160290679073	0.8737923521182436
10.0	1.1620194907730426	0.3610903741210024	3.394059881769732	1.5136366689155702	4.792065896504514	1.0295350372141403
10.5	1.4800530582673936	0.7772214815131796	6.03858503253337	1.0127219848653064	4.88998510173306	1.084305945136811
11.0	1.6433693035970296	1.1943499505202593	8.168187818773891	0.7089178211574495	4.2378921889428405	0.8952468898764904
11.5	1.5493893620320807	1.4671429522565105	9.514106775864418	0.5247231093601084	3.4013130182311873	0.6478290682145299
12.0	1.1766750101111543	1.6366062321630683	10.10759685503517	0.4134263299050354	2.427735728091151	0.46222111557725454
12.5	0.7790224333339064	1.739502420334396	9.579519708702495	0.3488805807841111	1.6582608199043203	0.3378158664069048
13.0	0.4922047198015464	1.7960296823627553	7.875685934391084	0.3280315225122659	1.1509394065462728	0.25749016261492635
13.5	0.30788958391393156	1.807859428725957	6.309729744199697	0.39630500230907484	0.834387162926416	0.20702595753685116
14.0	0.19348132868403892	1.7650871691043424	5.284190044411986	0.7063754008087182	0.6401823810718325	0.17729552593961992
14.5	0.12334401563213224	1.6621717798351925	4.528660580893602	1.5244949069518605	0.5217915530239953	0.16375481564483726
15.0	0.08069677818987539	1.4429109610890567	3.5277281672745087	2.4830598822571948	0.44999089092771266	0.16982390401788378
