# Time series from syn_net_6D_20191104_a_hillmodel.json, output to pipeline readable format
# Generated on 2019-11-18 20:43:30
time	A	B	C	D	E	F
0.0	0.5924305782932785	0.8265102128507644	2.024210830584898	0.2011429904363664	0.17324331471934248	0.4961074436448331
0.5	0.39904104386296274	0.5606600665157239	1.3517338731185808	0.3605938532199541	0.13226157217395254	0.402765299608986
1.0	0.27952919653233554	0.3711309866392946	0.9077471188816297	0.5139500118474001	0.11091279208816321	0.35402225766245843
1.5	0.20671840340660233	0.2522072812030187	0.613795283555138	0.6194162447780652	0.09854945915077856	0.3772199562262354
2.0	0.16788427732744637	0.17952889828285834	0.4220183373480609	0.6858290515155487	0.09160663378326264	0.6100577967139089
2.5	0.2562412776675529	0.13536921603897623	0.2994814832833694	0.7257666381348085	0.09940143421622187	1.1382546324654865
3.0	0.7029773548039813	0.10857300557547919	0.237939677352979	0.6737714558523191	0.18884235238520902	1.7302629233092317
3.5	1.1860120738882625	0.09234431734864058	0.567651579915557	0.47853441610348346	0.36214587951894534	2.1981915841189856
4.0	1.530032650541836	0.08940285980802534	1.5759611025699927	0.322246474052889	0.5259253393707597	2.5172496919720357
4.5	1.7507679735555348	0.1848936843671686	2.5135265350055076	0.22164686248285387	0.6430778070714694	2.490297320097024
5.0	1.8264438938679852	0.4565555560044074	3.152060090730277	0.15970321614084207	0.6443579382364575	1.6989182428717973
5.5	1.5935791282916112	0.7777955356386539	3.493113498944483	0.12350637992221829	0.4888575013992708	1.133084821863838
6.0	1.1397417941327377	1.0041561193991873	3.342035034457495	0.11215709488672483	0.3255631290133065	0.7881808433342569
6.5	0.7571637165181266	0.972462286894806	2.542956968510872	0.1445499492356687	0.21507194843317098	0.5788793716267957
7.0	0.5026853117183163	0.712526827428811	1.7180939221079676	0.25987870177372907	0.15301150051816012	0.45218338915882506
7.5	0.3433503393868431	0.47354438813492894	1.1488340228283687	0.4281169184583509	0.12206719575996698	0.3776290422428424
8.0	0.24544472101148157	0.3157459400441546	0.7733771282015085	0.5624618450788563	0.10509906483208901	0.3500865742966213
8.5	0.18660052967974552	0.2182639431105151	0.5256077568562832	0.6502927436696962	0.09512448614876157	0.43530227888240647
9.0	0.17152140032174754	0.15889178764076586	0.3653631945878439	0.7048281815144642	0.09099845318680203	0.7972663877552606
9.5	0.4038926120380829	0.12284464983198407	0.2644850426480997	0.7305251936802215	0.12110331420236653	1.3868119684429183
10.0	0.9133216645444225	0.10097583469487245	0.276967328787205	0.5955170722130624	0.2552213871626026	1.9389795831168033
10.5	1.3428439407559551	0.08808109462961361	0.9406714893459447	0.4075786660251781	0.43312058477085685	2.345279764097115
11.0	1.6329912622753608	0.10723320102188286	1.990910801871431	0.27556319344838276	0.5803469524091972	2.5950211927155675
11.5	1.805908144743242	0.2785266991693165	2.8086657067310887	0.19271232714934128	0.665350671242924	2.17410074258399
12.0	1.7771129973058652	0.5900723338664811	3.3294074374836318	0.1423150741416243	0.5923381395195146	1.435289430299287
12.5	1.4145681050110746	0.8892736549313713	3.5146777053069034	0.11526881447077479	0.4170830712235391	0.9719246681499446
13.0	0.968202705787621	1.0311821329555546	3.0684803066931354	0.1183502918781569	0.2741454538461307	0.6903486335905582
13.5	0.6397328085166388	0.8776022677616383	2.1799917207198423	0.17938905842030523	0.1847126075009862	0.5195788687832052
14.0	0.4285884890495434	0.6055843897812369	1.4574774358038223	0.3283192917985102	0.1379122672892309	0.416640683112673
14.5	0.29767453603672384	0.4004466526515355	0.9775015554101412	0.48880464954602454	0.11404108773562982	0.35956964671864455
15.0	0.21766244201539856	0.27027271955911636	0.6598473255127736	0.6031019227738912	0.1003985544176542	0.36286922224996726
