# Time series from syn_net_6D_20191104_a_hillmodel.json, output to pipeline readable format
# Generated on 2019-11-18 22:35:51
time	A	B	C	D	E	F
0.0	0.3850605015581566	1.8271172337153019	2.3874778873365026	0.8153728182853374	0.13483159455082755	0.5409035530675292
0.5	0.26529554953267204	1.778472354561968	1.6767763960154858	1.0144265174648126	0.10991782124788059	0.42155839200427303
1.0	0.19225475457617347	1.5504879696334453	1.2086936694463404	1.149996098816244	0.09457730452311511	0.3925238049795839
1.5	0.1484517226491918	1.1631755505310672	0.913412764097568	1.2372331911627001	0.08564068058210132	0.6015664369048247
2.0	0.15445781535632228	0.7998126304569975	0.7297471103986363	1.2909142072882325	0.09386675866200724	1.367902195942247
2.5	0.4615122707508677	0.5362606082710384	0.6170946786464573	1.3022752639851753	0.14360487933410243	2.397064031734185
3.0	0.879810339189023	0.3631075334116995	0.5740494823268116	1.1624387870316766	0.24550092532466503	3.1769930773347967
3.5	1.1809051024102204	0.2635506502181844	0.6984410462210803	0.8252083870224465	0.5162511313602552	3.673973071338728
4.0	1.375554217426069	0.3394218356169725	1.2627407884031738	0.5694826468117238	0.7663322519423631	3.9772283097075936
4.5	1.4973670507272272	0.8248252666144703	2.3579518783712943	0.40274234952806237	0.5856723947899642	4.006487015923181
5.0	1.5607175483969298	1.2358374899115372	3.4343455101625264	0.2974483489075696	0.4390941057630799	3.2244161143125223
5.5	1.5227692426923023	1.4942364747503598	4.186931292238683	0.24074235721945816	0.3482207500961347	2.26892663269997
6.0	1.2643346031864606	1.6523341618404943	4.489542720204352	0.24382812239522142	0.2863485171143384	1.5486821368232646
6.5	0.8830487516586999	1.748130487328798	4.1206072879496105	0.3460335835130371	0.22865936333058076	1.0619122502809406
7.0	0.5822557801186254	1.8042315207078394	3.314883757489279	0.5615880092459699	0.17445628042377076	0.7449513666753348
7.5	0.38714658916254613	1.827116720174942	2.3990815884133307	0.8121831030121108	0.13526164648952135	0.5430619993613748
8.0	0.26657184672134887	1.780101081889062	1.6847556231060423	1.012145296923051	0.11018546325402842	0.42268673268506135
8.5	0.1930301839173377	1.5550799301668123	1.2137820942111213	1.1485023315128722	0.09474007426650445	0.3919331733051001
9.0	0.14889280433748514	1.1686808844656302	0.9165921267730146	1.2362875023028226	0.0857198656904587	0.5954793418050407
9.5	0.1530934959177489	0.8041538226455752	0.7317163886533485	1.2903841838161652	0.09341543505605103	1.3538853717552881
10.0	0.4554436689675518	0.5392137805384242	0.6182576801543643	1.3026751893138941	0.1427482179255681	2.3841403148731333
10.5	0.8747901609331988	0.36497227972399265	0.5738590795656583	1.1663952991683122	0.24321034668501032	3.1683933417148156
11.0	1.1775750324863006	0.2643539489759351	0.6946667430251084	0.8294906844152072	0.5114083608304385	3.668652472218652
11.5	1.373441927611507	0.3350974831410997	1.2505445556895307	0.5723119004166515	0.7667527952800853	3.974084418493196
12.0	1.4960833161272369	0.817969825998448	2.341809979589304	0.4045669096417438	0.5881990352557019	4.011324415585155
12.5	1.5603231090554854	1.231352021040845	3.421511840542328	0.29855441318825376	0.4406652811418633	3.2381921375042997
13.0	1.5245423357058439	1.4914768170293056	4.179212042601	0.2411826469119634	0.3492113306618139	2.280626533583758
13.5	1.269337567627624	1.6506536531180056	4.489615705069083	0.24320929767472088	0.2871240578051395	1.5568406057860997
14.0	0.8879548581500621	1.7471212141879744	4.129646753845582	0.343816733393821	0.22946347778137835	1.0672921729019966
14.5	0.5856060213070464	1.8036743580494148	3.327428709154986	0.5581210007378805	0.1751080040007984	0.7484142985927712
15.0	0.3892428015405795	1.8271033147061329	2.4106978639115395	0.808989544809436	0.13569354149946966	0.5452321597142817
