# Time series from syn_net_6D_20191104_a_hillmodel.json, output to pipeline readable format
# Generated on 2019-11-18 22:51:20
time	A	B	C	D	E	F
0.0	0.2916019438306427	0.4353981015400723	3.2362511703289583	0.4351793514762665	0.5750663442293314	0.29958705322150514
0.5	0.1993588490121981	0.42439248343377245	3.0190354572962272	0.4646668822856894	0.45341703429310126	0.2648122712571417
1.0	0.14327715615699385	0.37722220230223324	2.6981313970103002	0.5700951310009594	0.3757478736097402	0.24374479963558537
1.5	0.10920504153367343	0.29533889613369474	2.143094485550501	0.8868869243593968	0.326954054668376	0.23108890281240713
2.0	0.08851279924418022	0.19839990680029915	1.4385200835639822	1.5522878211108397	0.29660992496547584	0.22436400748444302
2.5	0.07595790399752066	0.12629627074427607	0.9422280779071901	2.4587560040369607	0.27851147482477184	0.22949450114191886
3.0	0.06847808351522054	0.08081617925843833	0.6310934688599668	3.3328190912826128	0.2758734032001735	0.3091436980148514
3.5	0.07083189230441292	0.053016394660747854	0.44175699802651275	3.5093704133659	0.4426670064911581	0.6704027175490257
4.0	0.23867013379919627	0.036127314727659586	0.37178012526805565	2.535766558307188	1.1454223646042099	1.2302584741532157
4.5	0.8184253937316001	0.02587999190471101	0.3489655271525686	1.704895241058947	2.0049400953621355	1.6770606246030513
5.0	1.46773467714396	0.019664604799471495	0.37350839476980996	1.2002269699548123	2.6673777745310168	1.9680351931653546
5.5	1.9718165389325293	0.01590639717372988	0.534981873029408	0.8941198455886294	3.1024324909680474	2.148483833181938
6.0	2.322287497136883	0.013840814781247567	0.9390138101247957	0.7084544284432986	3.3748933436650796	2.2589031861295736
6.5	2.5558870383732333	0.015305736378095994	1.5079386374031816	0.5958419321475595	3.5413642373927225	2.3259973598622294
7.0	2.7081645539929156	0.030467445973103517	2.059787792857884	0.5275386928069498	3.5937690665201973	2.360478790437424
7.5	2.786442608893446	0.07269504676514316	2.5007051339553823	0.4861114490042612	2.9657500966084545	2.1230864631059156
8.0	2.5805892388448233	0.1403352117006915	2.821179879392518	0.46099148904351245	2.2072736184622967	1.4476732209137277
8.5	1.9121062011442538	0.21839915116344077	3.042685941667665	0.44578082397050967	1.7245064978791018	0.9660271046713413
9.0	1.2455909548520143	0.29271007438097363	3.190441867437383	0.4366256628829721	1.3936231012805635	0.6697208229842236
9.5	0.7895859141602236	0.35550557223225865	3.2832608401795715	0.43129498334334615	1.097399497956344	0.4894753070024929
10.0	0.5039184544103645	0.4034019757843924	3.3230864221306518	0.42903018396069764	0.8266758187443697	0.38003092556633983
10.5	0.32872682204401227	0.4320084108968824	3.2753193919243113	0.4320725519304934	0.6219656520219704	0.31361193413121924
11.0	0.22194731730340636	0.4314639029996511	3.0946830626352835	0.4515798345728324	0.4838828760557319	0.2733175661881907
11.5	0.15700555708300143	0.3946838446387216	2.8055678939522166	0.5250982750936072	0.39504090418720145	0.2488919828353631
12.0	0.11754423873945231	0.3230070741804733	2.3437011512841264	0.7605592018263249	0.339025216154412	0.23415123498594737
12.5	0.0935765152414003	0.22539585630634898	1.629926149747374	1.3209182928739869	0.30407949737839174	0.2257071650165544
13.0	0.07902707017097381	0.144387245534752	1.065611949049532	2.1820769330059275	0.28273774031042664	0.22531120703291124
13.5	0.07025245006788235	0.09199557468974272	0.7079662468413457	3.097650630664781	0.2734916666417297	0.2677485723633362
14.0	0.06694666394117185	0.05982356703619324	0.4863308036591855	3.625739592038455	0.34175765058719176	0.5266238378364957
14.5	0.14654632106704674	0.040259261046334385	0.3840247564942519	2.8614144794414824	0.8979995820681074	1.0687601139058946
15.0	0.6213011932566975	0.028386717124832483	0.3525979945278183	1.9084035992596367	1.7641580906735996	1.5630907445946278
