# Time series from syn_net_6D_20191104_a_hillmodel.json, output to pipeline readable format
# Generated on 2019-11-18 22:45:02
time	A	B	C	D	E	F
0.0	0.6693051189693282	0.7366403414640099	4.71360828311523	0.6973263990646837	1.619869667383089	0.47019920296561013
0.5	0.424104076183329	0.7397242750812796	3.717881048102793	1.2017634030917264	1.1120493269078155	0.39702848778563743
1.0	0.27240103376150687	0.5886420165873246	2.607854171104704	2.1664627723787824	0.7822857287881525	0.3531323716945039
1.5	0.17933567998156258	0.41065802845547716	1.8423154916037958	3.075925853137011	0.5752750499484283	0.33060321846498486
2.0	0.12272307593214395	0.28291748388432003	1.3650313440170765	3.707608539190892	0.45716581574346254	0.3436298549093708
2.5	0.09112799933889228	0.20166392497912142	1.073714729004218	4.1046464411183985	0.46924193278650445	0.4732877620943924
3.0	0.12094085150561182	0.1515410242428482	0.922623382339708	4.046816493646288	1.325413579313523	0.8223532230449014
3.5	0.51689106650413	0.1215182133805182	1.3049662487061071	2.7858893889360656	4.201564288488014	1.2781062499780542
4.0	1.356390228657759	0.11401406591642338	2.2255310672599284	1.906650909607536	7.5974724919696754	1.654431915822741
4.5	2.1298951500939967	0.15324668391388407	2.8844668033206977	1.3307904749051487	8.532689064423655	1.7974592451960334
5.0	2.523725388168537	0.23713120269909627	3.3463296440172634	0.9776226844437753	6.59074544283443	1.5074776135776458
5.5	2.266080279825247	0.3506176417981119	3.7965524936718924	0.7636670000639089	4.665729375298822	1.0848405418520668
6.0	1.612424500205247	0.488384567948481	4.323515634352416	0.6384534743557075	3.3231368432241095	0.779489234840011
6.5	1.0446921086643435	0.6311565062017482	4.781686397868528	0.5923998688021612	2.3360116542178555	0.5863833063308928
7.0	0.6612631141777109	0.7385220240168727	4.698492797476018	0.7039431135545983	1.6037180392193957	0.4677682774565555
7.5	0.4190972372467316	0.7374918669612863	3.6858614082010663	1.222908654604061	1.1013517046144934	0.39555441700193356
8.0	0.26932076910882846	0.5836512324442639	2.5831109619832056	2.193182489595333	0.7754719399376677	0.3522729306799547
8.5	0.1774522890058162	0.4065868244121733	1.8265470482138693	3.0961621057374167	0.5710998926585724	0.3303336241156348
9.0	0.12159187466015671	0.2802520226837662	1.3553570242004862	3.7207379377972765	0.45524977774030145	0.34497357746265095
9.5	0.0906701191049571	0.20000650514245485	1.0678446434628652	4.1124852701746555	0.47400962644638606	0.479544280645451
10.0	0.12449077306728164	0.15052664770415483	0.9235190684667012	4.018265451517422	1.3763274500571043	0.833963278462276
10.5	0.5353376657489836	0.12095136167385068	1.3249909440799545	2.757931777860063	4.294826824334484	1.2896339530769647
11.0	1.3794355560732854	0.11436680499105396	2.2468991994800733	1.8878062287380775	7.6682058783382026	1.6620799037272314
11.5	2.1463298938651008	0.154962270872385	2.8983080211562187	1.3190753008436313	8.504588227698378	1.795639640953249
12.0	2.526087212956787	0.23977261547410145	3.3575645813574146	0.9704974307628337	6.5329036010550965	1.4959669057705387
12.5	2.251184882563951	0.353958617091391	3.8095071660845803	0.7593833829640413	4.623819166290996	1.0751014160286954
13.0	1.5952829436510791	0.49221804884903375	4.337681187705775	0.63613297192914	3.293568128054658	0.7731482278596368
13.5	1.0323509608747563	0.6346495850441262	4.789470363341789	0.5926811098329662	2.313586302343258	0.5824603768442016
14.0	0.6533284129934364	0.7403339676866535	4.682654578837434	0.7108266496132175	1.5877605459537727	0.4653727038568878
14.5	0.4141601030728908	0.735148635398875	3.6539494342126178	1.2443795360095393	1.0907977228960681	0.39410234546627715
15.0	0.2662839813477931	0.5786704848321761	2.5586938545720463	2.2197706824132206	0.76875480451052	0.3514286219771899
