# Time series from syn_net_6D_20191104_a_hillmodel.json, output to pipeline readable format
# Generated on 2019-11-18 23:34:17
time	A	B	C	D	E	F
0.0	0.15501988597610794	0.5524065832673313	0.9824708325034105	5.166289406170211	0.49602233893353154	0.04241393548153467
0.5	0.1268959057569998	0.3795599690060828	0.6225054674828235	6.1069151289326875	0.5279464345930281	0.029055303626192602
1.0	0.10983781652100584	0.2738986772794502	0.40426614603959443	6.453187055889318	0.5569131077572549	0.029700232473104687
1.5	0.09949186746090079	0.20972555821355865	0.27198563655405616	6.489866536962515	0.5761257912111335	0.0617806801281808
2.0	0.09324509141899297	0.17079233064021143	0.1918194711237592	6.399306776923338	0.5882619102316373	0.1529126589327711
2.5	0.09061304735107509	0.14717666864277643	0.14325150872351244	6.259388335998081	0.6019285088907009	0.30538376717078486
3.0	0.10328228064679157	0.13285278183281982	0.11402409331649492	5.889830066080992	0.6813187572096544	0.48378601920631614
3.5	0.1746465469335385	0.12416484335634004	0.09846290928926243	4.685799137734332	0.9690534489409356	0.6505163441588098
4.0	0.3439727783953952	0.11889533125482586	0.0998816382881154	3.240404509281659	1.4268074621537479	0.7872577024299645
4.5	0.5844451798202188	0.11569922808526624	0.116599247586795	2.224394519798868	1.8785700318615763	0.8911883076419026
5.0	0.83640727323175	0.11376076673626226	0.14734459648609297	1.5665637752273014	2.239129973539444	0.9665862801488021
5.5	1.0593139876104685	0.1125857739195346	0.24603453477893694	1.1158689523471312	2.501472820014869	1.0196453423474103
6.0	1.2386736532077216	0.11194469084015087	0.6525992510290908	0.791829043495041	2.6841045229587377	1.0561269944858838
6.5	1.372283450270904	0.12310891605332251	1.7534298037415834	0.5623154437559502	2.806980432878911	1.0667464809582858
7.0	1.3250483224260403	0.32788426841082025	3.1761653355329837	0.4118984707253503	2.7980042427089655	0.787570721079323
7.5	0.9458407900760484	0.7275905678853241	4.1901739671007014	0.37407438449140146	2.250950040917016	0.48047661136852476
8.0	0.6175322327397383	1.0452856834110595	4.4986507498011825	0.44882846219819816	1.5153481903813524	0.29285551480752187
8.5	0.408367077077025	1.2216985795008526	3.8823135151971577	0.6617626132021004	1.0022192991682086	0.17901430031365453
9.0	0.2806400032197707	1.1528314970944615	2.584341771637888	1.5213737650079566	0.6843388005941651	0.1099623134241005
9.5	0.20309552674046688	0.832805190901748	1.5976789025318268	3.3891943532774667	0.5197043820752317	0.0681068977741465
10.0	0.15605589793774396	0.5587137101631628	0.995693171018936	5.128150391385915	0.49538548201609367	0.04295106556165176
10.5	0.1275243251774258	0.3834470472467151	0.6305236735058883	6.090204871448653	0.5269567563460863	0.029280304824105232
11.0	0.11021899724947763	0.27626253593836614	0.4091269303477767	6.449131025338863	0.5562124869853736	0.0293674722936889
11.5	0.09972302845311425	0.2111600237596782	0.2749315683459772	6.491530469336663	0.5756818236403105	0.06014562856805541
12.0	0.0933819156126676	0.17166246913152167	0.19360462731606978	6.402940694175763	0.5879699329077065	0.14933092204468876
12.5	0.09059353982740341	0.14770444744580088	0.1443321812328664	6.2646454623161425	0.601202564790393	0.30041791968645215
13.0	0.10237634939740568	0.1331728977393133	0.11466335840226148	5.909970842257714	0.6766855519981233	0.47867470455883543
13.5	0.17127493905002686	0.12435900459213943	0.09870680617554978	4.730136010231699	0.9575420743807957	0.6460933387623803
14.0	0.3378263483261376	0.11901309577402308	0.09957440220547696	3.2765117790806526	1.4130158090301006	0.7837898202533973
14.5	0.5770949803587907	0.11577065478840458	0.11598400880449683	2.247839900252329	1.866682041171866	0.8886234894584583
15.0	0.8294358288992458	0.11380408474246423	0.14600960864965368	1.582035158241123	2.2301840215231983	0.9647580280811947
