# Time series from syn_net_6D_20191104_a_hillmodel.json, output to pipeline readable format
# Generated on 2019-11-18 20:36:23
time	A	B	C	D	E	F
0.0	0.2210178791135508	0.6801412061317796	1.3784130704989606	0.7243301751329289	0.9140970222099868	0.09178296614284573
0.5	0.1617389104653642	0.4960478956065014	1.020951251777478	1.0789952826796492	0.7601685681263805	0.08650845549565067
1.0	0.12553866670305228	0.3278705689872964	0.7418323552652739	1.3491008523146037	0.7163077341315949	0.08331571904882575
1.5	0.10345599932418972	0.21279352396919712	0.5533430621658504	1.4852528124682405	0.8605943135125009	0.0814359995765903
2.0	0.09000239226567555	0.140320214655154	0.43442178142010185	1.4231412386530196	1.0938863592462802	0.08076311239257508
2.5	0.08188033200369407	0.09576171063749006	0.36540954016259586	1.2298638573897644	1.270561381016895	0.08359689391721051
3.0	0.0775759826846787	0.06857314303087772	0.3273839002472918	1.027395213533727	1.3841212693460565	0.1022841589901154
3.5	0.08446736092670801	0.052026982229440355	0.30656917087270535	0.860998384786153	1.4730594399998471	0.17024580281650661
4.0	0.27141346051743315	0.04198221302562628	0.3480562763745244	0.7022439593118099	1.9179960702328678	0.3121716940788864
4.5	1.2404215816432869	0.04149072480165855	0.8894973450155735	0.4996086507924405	4.452244073330513	0.47329738539094973
5.0	2.12674084840704	0.10023535719814097	1.3321037942793925	0.3575402334911944	6.93452411444154	0.4026096512527143
5.5	1.9093827991702235	0.2612398934556924	1.6121169230612378	0.27125204014765736	6.021754787258849	0.2760021991077907
6.0	1.3236811774956134	0.4598183694557	1.745155699418858	0.21925377976202182	4.082715594165665	0.19825556576553233
6.5	0.8615514356828406	0.6185228539418905	1.7761809443838257	0.19064840945436123	2.70670692568246	0.15108768770234052
7.0	0.5586874418008355	0.7198855818535304	1.772761468038226	0.19488423592270362	1.8473701778017144	0.1224779923877065
7.5	0.3692469691647473	0.7685997636145381	1.7214453431949075	0.30082092793288373	1.320535740477628	0.10512514402710506
8.0	0.2525103161463189	0.7299333085002588	1.5089205737040448	0.5851368384601472	0.9996790122553184	0.09460009643993163
8.5	0.18099172048823656	0.5697064221410395	1.1521284775575849	0.9503551437288497	0.8077768651048542	0.08821666415741063
9.0	0.13729053201093175	0.38594139698865176	0.8366949515545263	1.2589568638795898	0.7156045499104929	0.0843477204475634
9.5	0.1106226553724652	0.2508005591479812	0.615897695985004	1.4537632811923977	0.7827446559059683	0.08202586258986447
10.0	0.09436490987428725	0.1639552252628305	0.4728458281676799	1.4700935424758674	1.007921132323008	0.08082981550764406
10.5	0.08449086766732947	0.11023638003041045	0.38710606423767635	1.3097435255253709	1.2117294123021152	0.08169405939376927
11.0	0.07875132906164778	0.07739367532208921	0.3392761154489481	1.1013127253149337	1.346660125240843	0.09163360841257591
11.5	0.07835648461768319	0.05739219838433361	0.3130280712113957	0.9200101652375637	1.4363330022036425	0.13586133037533887
12.0	0.1419158841134797	0.04523002674836372	0.30218005828423633	0.7683260442298214	1.622634061883086	0.2503354538071963
12.5	0.7844911097902592	0.03895120071272921	0.6860350039886268	0.5743190432654289	3.1913922260615566	0.42020780465964896
13.0	1.909161395522104	0.06566641293901129	1.1820303863498804	0.4036307370499157	6.376169412940374	0.46019989332445016
13.5	2.0892943851440715	0.19023537109503075	1.523413797091488	0.2991967909841792	6.658840970033252	0.3174712118519695
14.0	1.5428076795712227	0.38564591639512846	1.710662650634411	0.23598377448910607	4.778637684768618	0.22344703435796323
14.5	1.017231826797525	0.5650165652900887	1.7708240877935306	0.19895362277370582	3.159438065465619	0.16636845170596545
15.0	0.6582131603238477	0.6873862148127828	1.7767700425318391	0.18685921757103416	2.127156230280834	0.13174642704559067
