# Time series from syn_net_6D_20191104_a_hillmodel.json, output to pipeline readable format
# Generated on 2019-11-18 23:06:25
time	A	B	C	D	E	F
0.0	0.29902155080749954	0.6194342662877479	10.922392586476173	0.2927357107010026	0.6871476718717062	0.4810225611584153
0.5	0.19418640972009318	0.6614704794134528	10.44945498876367	0.31276799869646854	0.4530227770889109	0.3196361872302575
1.0	0.13032830148971153	0.6836518474543007	8.186069419320166	0.3376077974327695	0.3024755368112725	0.22143465979639113
1.5	0.09156004344358928	0.6740799041550852	5.65899807580215	0.42188838676952184	0.20996114715599634	0.16180833339275336
2.0	0.0680399672299011	0.580353242468883	3.774124564528334	0.707785596113267	0.15366157207542436	0.12620077021462586
2.5	0.05377312920329924	0.4170299086025964	2.4525426787488094	1.2245896310364166	0.11957028255488023	0.10934687245836264
3.0	0.04511989619140432	0.28427551869884327	1.6223248808687933	1.7593550847533856	0.09960474999001342	0.1331492724839257
3.5	0.039894367525654915	0.1989097154258269	1.1158481808703686	2.167036513115101	0.09269272293331345	0.3195970878652908
4.0	0.04018485231721102	0.14648341658044892	0.8175313963834138	2.130672721728586	0.235082120826417	0.8424198404565897
4.5	0.12189295926427171	0.11503076937881834	1.6040089941731939	1.4359288107018353	0.9235163924000123	1.527566862949765
5.0	0.40470362080550165	0.10473613242692947	2.621228169903282	1.0024644555205777	1.676074381718791	2.0872309280088803
5.5	0.7176687480970261	0.13675774907090266	3.7390465717901855	0.6934926839468115	2.018316892427728	2.3648067448389023
6.0	0.8813115061521485	0.2687137942772608	5.960456127286814	0.4575686287451789	1.6678537139663716	1.8955416141486663
6.5	0.7263318354246108	0.4320559902405892	8.531410271467708	0.31556975176937874	1.2964668054905357	1.2101003336173826
7.0	0.4805991976231822	0.5451967787108924	10.148910665165689	0.2750963774940831	1.0049740651137333	0.76604920228018
7.5	0.3070533915418262	0.616187829999526	10.904135732783239	0.2914420547622998	0.7039341417293602	0.4934229612389283
8.0	0.19909897905418922	0.6595409614482334	10.531056391519488	0.3116298940319207	0.4644456581240291	0.3271860984492508
8.5	0.13331315681569325	0.6829310228850846	8.348020046814568	0.3354042771121588	0.3095742211365133	0.226025497263683
9.0	0.09337126737853625	0.6763588851537087	5.792160946117607	0.4128637488579333	0.21429263468237802	0.1645878560355793
9.5	0.06913869812873837	0.5889699260405539	3.8707422283826673	0.6829015240078556	0.15629208736655925	0.12780757576308033
10.0	0.054439586432571914	0.4265255999210127	2.5160436109278472	1.1909436945917136	0.12115406905033752	0.10969401436116405
10.5	0.04552408014687486	0.29075627198496534	1.6612678525249043	1.7303002773378762	0.1004736347189242	0.12915039297462788
11.0	0.040133307732107666	0.202933942938545	1.1395300755094233	2.147285818620039	0.0924621063018645	0.2997704605946195
11.5	0.039534249860156585	0.14893782004042777	0.8280175225394983	2.175496406760649	0.21012728172065995	0.8030831152874894
12.0	0.11108513210823547	0.1164130794644154	1.5335957609744582	1.4690842966840059	0.8754216740575885	1.4882567006384526
12.5	0.3848248162190865	0.10450261154825496	2.5657577144151262	1.0233127292369546	1.6378795694397816	2.0600406038219616
13.0	0.7013425116836038	0.1326906239465242	3.64996276595476	0.7102524943694617	2.01955899817072	2.3622268513559512
13.5	0.880136091218745	0.25829052770160915	5.797420936045038	0.46908438112207246	1.6943347766444319	1.9419901967634514
14.0	0.7414546018732016	0.4236233578388147	8.400960507606943	0.3212337442632801	1.3150867796037276	1.2438791891314607
14.5	0.49352571075483687	0.539789850609639	10.07914273986731	0.27509762039315167	1.0226600851554521	0.7869688670385067
15.0	0.3153228220295856	0.612842998680182	10.88224961384818	0.2901486648543264	0.7209923431159281	0.5062022824531205
