# Time series from syn_net_6D_20191104_a_hillmodel.json, output to pipeline readable format
# Generated on 2019-11-18 18:29:39
time	A	B	C	D	E	F
0.0	0.27702673415082485	1.3936368415758353	1.107850742114035	3.7597451179203674	0.19607130799094233	0.19375300105621035
0.5	0.23755463751308473	0.9743648482445317	0.856275521457468	4.061998169876431	0.18317644741154776	0.4609563646074039
1.0	0.24177459630029496	0.6978003822070263	0.7035565729487218	4.247284281593182	0.2503920368362875	1.1314770929301385
1.5	0.5676408956110227	0.5239982553132483	0.6208016135985938	4.303512527112284	0.7370238312473291	1.8735650095504535
2.0	1.2001667435709347	0.42162278374903556	0.853556529909641	3.366412807349904	1.7654396875209841	2.4281777086892733
2.5	1.7524939295425208	0.42527750460635444	1.3727411129858231	2.1426715896081823	2.7325939398830728	2.785895983480053
3.0	2.137828101889456	0.751015458614527	2.194750151261345	1.3255994359661896	3.2587885314537597	2.8937695808497153
3.5	2.296784452254706	1.383002806786161	3.8804889133458325	0.828034137053895	2.6717761138561387	2.1990334844764483
4.0	1.9595594280521222	1.863156347251916	5.561698407635185	0.5529027038242282	1.837359602803955	1.4129417986630841
4.5	1.3566852040744666	2.1604657306825295	5.742332065824935	0.45036693149967383	1.1828458282297363	0.891396207272464
5.0	0.9033109890914384	2.337763476066024	4.587403321059479	0.6916369157703639	0.7599230070087635	0.5650879413143353
5.5	0.6183385225173564	2.4221674212796676	3.22408962328558	1.5577574326347168	0.5004534242808946	0.36381657295071385
6.0	0.4444449688565163	2.3317932098971017	2.1620864042257018	2.5626899478251826	0.34278831426240636	0.24164662584613175
6.5	0.338855701528354	1.9090462642531023	1.498534454345513	3.3007318228246274	0.24777627388032647	0.17681064592296297
7.0	0.2748020526747621	1.3716586719810722	1.0937675787733419	3.776536484115213	0.19449561819949712	0.19825232016784938
7.5	0.2362726149857293	0.9592487041164272	0.8477201500159206	4.072353688526284	0.18390640188923427	0.4829830864769088
8.0	0.2460459264068542	0.6881745020299591	0.698373468585733	4.253524985784188	0.2583030151087092	1.1662986470126229
8.5	0.5930399319570758	0.5180335490726641	0.6204701832607007	4.2937989599693545	0.7757052418913915	1.9028651978476827
9.0	1.2280029959610799	0.4187541140842504	0.8727098713769805	3.305274345169073	1.8131895754179463	2.448030596825647
9.5	1.7732327135230923	0.43064490346656537	1.400509025054293	2.0977859895882696	2.7689317788699657	2.797720692187659
10.0	2.1509918258485463	0.7763870178863149	2.247998485885294	1.2974469187428852	3.257269812053656	2.8830713315032614
10.5	2.294251889103269	1.4091313899501556	3.9698801805068205	0.8116471427479091	2.6337337700259194	2.158993715251348
11.0	1.9334872893014976	1.8797745669426629	5.608512781917208	0.5446314925618905	1.8030925378072098	1.384358839220041
11.5	1.332296013616058	2.17055565646769	5.709751368817241	0.45100758675136343	1.159444209302322	0.8733030773016732
12.0	0.887450886000564	2.3435208609710334	4.526752257397086	0.717234647949451	0.745420264313931	0.553879501997216
12.5	0.6086075807041424	2.4232041941595237	3.1669580561707176	1.6049104536752379	0.4916216801850153	0.35694131384592936
13.0	0.43853069711524234	2.320267831550896	2.1250907913777426	2.602045687637188	0.3374360694411327	0.23758753923483786
13.5	0.33526708485638596	1.884705785098453	1.47588950927472	3.3269275220829013	0.24459975666569075	0.17534823281543516
14.0	0.27262592204588887	1.3499662705854567	1.0799911225287535	3.792977656840656	0.19299945427404033	0.20325141557497717
14.5	0.23503793266622214	0.9444147554186735	0.8393521868084514	4.082487523141677	0.18477071961423705	0.5059562275800893
15.0	0.2510506272689026	0.6787450009006272	0.6933066035819448	4.259606206331602	0.2670742484585973	1.2011806731241743
