# Time series from syn_net_6D_20191104_a_hillmodel.json, output to pipeline readable format
# Generated on 2019-11-18 18:25:16
time	A	B	C	D	E	F
0.0	3.3569535956836205	0.07942223086259749	2.4952764595272106	0.43802135395095965	3.2627276957596183	2.443895375969915
0.5	3.4565325391682213	0.27468092087520735	3.2194795948553776	0.2661348026087926	2.689593045368012	2.23982193112701
1.0	3.5118850179264207	0.6267704611858611	3.689441578750857	0.16196578119825764	2.018505912841647	1.4347991616511444
1.5	3.489952448191045	1.0207517878246615	3.9715192955354164	0.09932457078196813	1.4043265048229787	0.8945813012752667
2.0	3.1217188898849724	1.3647879753097305	4.108278444418982	0.06462154509309503	0.9839658995496907	0.5654366071498841
2.5	2.245821995352268	1.5940410513351386	4.050623434713774	0.05893968949612002	0.7236794129612181	0.365646097297805
3.0	1.4441062446799995	1.6258333905300744	3.7121389558564646	0.13810243600262723	0.5652499802783063	0.24444092246666793
3.5	0.9132599904139079	1.4117091584461816	3.112428200021794	0.6637300410815334	0.4690927454702978	0.1709456757628499
4.0	0.5848201721574481	0.9983710128794625	2.1583886921208664	1.7823089592993768	0.4107620281891553	0.1265598825392135
4.5	0.38450449505634243	0.629855398096041	1.450179420998734	2.795910465247156	0.3753870043719943	0.10165520567934819
5.0	0.2628410252217317	0.38739067236896535	0.9925145482278345	3.4969601771003376	0.35399758929490893	0.10876454557433772
5.5	0.197989624597251	0.2376869162699887	0.7053676061683175	3.9522154380903003	0.34180468766964844	0.2993390984275642
6.0	0.8646503366396936	0.14648368736544679	0.551316331841411	4.140793034627687	0.34788396619639145	0.9119157385767084
6.5	1.9091866973916125	0.09114088493465822	0.6327674262926776	2.9145552746617676	0.5548336000615224	1.5368898526608321
7.0	2.5741541143320257	0.05803618576955451	1.00563147792286	1.792704851212262	1.3133402144254434	1.9526758318226856
7.5	2.9806356040606685	0.04047405875743459	1.3413739904149722	1.0883792683338362	2.2179829650532956	2.208519170976733
8.0	3.2279995084128696	0.0390004619158405	1.823264102373373	0.6606444285813368	2.925632508083541	2.364048357349188
8.5	3.3783500280655923	0.0999492907774058	2.6406666082831105	0.4011572419502524	3.2323418699046598	2.455092091162732
9.0	3.46933330162626	0.3282007582127122	3.3195043031465254	0.24378232069638717	2.5717516167585575	2.094826082579234
9.5	3.516531210079438	0.6964797298544091	3.7507778227227733	0.14844576673121446	1.8998260143751375	1.3194842745290325
10.0	3.4638938991557526	1.0869359752595462	4.006146020016781	0.09137597211583204	1.315823937680209	0.8240272991937856
10.5	2.9912019511024535	1.4155489651119084	4.115301613338106	0.06115894048681668	0.9283218758311383	0.5225924772785605
11.0	2.0859085679453577	1.6165560093536926	4.011972527971589	0.06282359684223987	0.6897272227544132	0.3396509932315222
11.5	1.331938910845809	1.6056100709248495	3.626336637712527	0.1803578676404427	0.5446341656070193	0.22867407048344265
12.0	0.8430815946494628	1.3488897720759585	2.94841067629049	0.8366253360584237	0.45658566841375275	0.16139379819658076
12.5	0.5419072173991136	0.9244701212612075	2.0121200170169655	1.9823601077695174	0.4031759337859829	0.12087317069939657
13.0	0.3584095931058732	0.5785745265980684	1.353645020213008	2.9412561824974466	0.37078913465463187	0.099377656852955
13.5	0.24705581850276098	0.35539307833300876	0.9315720497624721	3.592565820389925	0.3512483462862885	0.11987405598580723
14.0	0.20765580936066233	0.2181474346022112	0.6674642530832409	4.01319827540809	0.3406149506906389	0.37974736737112286
14.5	1.0758256945702853	0.1346129755752674	0.5523820713069898	4.01426994438735	0.3576927345864211	1.0348809201743168
15.0	2.0509915169532005	0.08395773642732401	0.6813027133149219	2.6851936290410667	0.6491149124868555	1.62490573746984
