# Time series from syn_net_6D_20191104_a_hillmodel.json, output to pipeline readable format
# Generated on 2019-11-18 20:17:56
time	A	B	C	D	E	F
0.0	1.7518809470247871	0.8074903009592445	8.106411349634381	0.24879768793199958	3.8294101081834517	1.20812029831077
0.5	1.9884077774164257	1.267793140326047	10.66698472434932	0.17340776956773823	3.5583705710715936	0.8327898212440114
1.0	1.7907854823063012	1.5627317482395267	12.064206941477623	0.12768922039310815	2.889296345643881	0.5935296442000972
1.5	1.3340772462840893	1.7443680341943826	12.177921925238461	0.10024744980358442	2.1463534245070632	0.4469194072149823
2.0	0.918538786860005	1.8512974482619855	10.520879933344464	0.08552282703470217	1.5888007957284387	0.3575691448540691
2.5	0.6248536548551927	1.8928887473232552	7.850923919401229	0.08855191854669713	1.2214724216617558	0.30322215542663067
3.0	0.43327955709114313	1.7986550688158693	5.443373212306527	0.13978176126771316	0.9895428992699867	0.2702994866555374
3.5	0.31201790089279513	1.4384969242669376	3.72610245492372	0.2537634691936933	0.845562956287855	0.2511281720628244
4.0	0.23659951650157998	0.9904330182429776	2.5971144062502454	0.38296679618523594	0.7578203697472022	0.24590730262768257
4.5	0.19344526665361086	0.6553396846114654	1.862602300902985	0.4926197441693125	0.7131827394778307	0.29153081720251606
5.0	0.25618726566284444	0.4399720315804499	1.3891336590800982	0.5576004887890577	0.8148308795972875	0.560238819072307
5.5	0.9313449249348492	0.3111569141077319	2.542450811891868	0.42616443018011163	2.3968603437448683	1.1344571166799622
6.0	1.6024562612438509	0.6264000229245885	6.986250810009808	0.28185994747544096	3.834547268851617	1.3431479510322004
6.5	1.9560419923576924	1.1411777543470383	9.990189916130477	0.19349365180503517	3.6888859361127846	0.9362713018509173
7.0	1.899214135038189	1.4834481537531716	11.737289859979315	0.13985337497466993	3.132512154583942	0.6575971526312705
7.5	1.4850539141602541	1.6959875837666878	12.318708117648201	0.10747063467816444	2.3680564003801585	0.48605061742012035
8.0	1.0381436829794175	1.8239294398711317	11.229278499460733	0.08888107521640833	1.74363394883015	0.3813958172456324
8.5	0.7058088252496452	1.8883550230004205	8.719722633319364	0.08441609290676255	1.3211689708694927	0.3177045919141368
9.0	0.48528140769183065	1.85362579896994	6.139602672137226	0.11575165395098087	1.051966786282753	0.27903894544878644
9.5	0.34470952989573667	1.578571977210092	4.2003763872250035	0.21315118614373266	0.8841404817474038	0.2559840554917937
10.0	0.2567620430191242	1.1251324187232705	2.9053271704971824	0.3429072857157036	0.7809758691598536	0.24530203267718664
10.5	0.20372984406956293	0.7475739535014796	2.0640211627597793	0.460829199523598	0.7221291494796541	0.26487284011651163
11.0	0.20040190653237375	0.49789249435705474	1.5141652811418889	0.5460953087294135	0.7352139369015075	0.43491016974356045
11.5	0.6702605016267308	0.3428310944314023	1.5387842539609762	0.48605019156513324	1.6406624623372237	0.9374199210270654
12.0	1.421001092455725	0.45005053901396597	5.693753259522093	0.32056827312252745	3.7332326873336417	1.416139801849174
12.5	1.8814120525800362	0.9958510262758482	9.188651728209358	0.21704228794382688	3.7754623205622773	1.055337648502859
13.0	1.967824516592965	1.391104107262407	11.298473540837858	0.15413321895595122	3.353533562879091	0.7324398711920674
13.5	1.6351266508718654	1.639186473331154	12.283887326109374	0.11604742193848593	2.606874329824531	0.5318609256084944
14.0	1.1704137217297603	1.7904471689037516	11.781168806335975	0.09352268982062925	1.919592657187991	0.40930786337334835
14.5	0.7982491701888493	1.8749526090951405	9.589249129510193	0.08365061353151454	1.4363864824254196	0.33468090420868424
15.0	0.5453486176344885	1.8826183391706124	6.9065800149939145	0.09927448749511414	1.124561685271017	0.2893250911041805
