# Time series from syn_net_6D_20191104_a_hillmodel.json, output to pipeline readable format
# Generated on 2019-11-18 20:43:32
time	A	B	C	D	E	F
0.0	1.0110669469639282	4.343218815498599	4.145930414543437	0.2969312719052053	0.8621912375979783	0.13348448956698378
0.5	0.642033219417995	4.8289853788656725	3.4281574604813523	0.4391303977037244	0.5255471106282821	0.09050495315332796
1.0	0.4029289914797214	4.977214739153539	2.6638881684349873	1.1484563108503993	0.32073872165205497	0.06443646812633026
1.5	0.25557355656356406	4.469679300735636	1.7765486177371297	2.0815078044757716	0.1964232540226053	0.04862514015499101
2.0	0.1657613151117151	3.1816464680961047	1.1418669758912932	2.7412281080248597	0.1210262315418989	0.03903520994779817
2.5	0.11118245444954707	2.0482082804971293	0.7470180785615672	3.1506211244515434	0.07550566832002838	0.033219861588540074
3.0	0.07804650962670436	1.3093999138374794	0.5052102105597482	3.3997876798561335	0.04987565842769772	0.029704536218685722
3.5	0.05793653606379396	0.8547471741458047	0.3576925057630367	3.55099411004242	0.04757344565596206	0.027675301842516056
4.0	0.04573492457645264	0.5780276829203861	0.26782686963645935	3.642608893461047	0.0808387617707266	0.02719832340791441
4.5	0.03833963911846593	0.41001446538337705	0.21312003605736743	3.696885487099452	0.12538272149140814	0.031234517726612315
5.0	0.0339710487764983	0.3080687243357727	0.1798357599259865	3.7250067530329694	0.15906542633281898	0.05141863274324785
5.5	0.036293216492856384	0.2462234514390794	0.15960571326376571	3.7330042268266386	0.1899448319314626	0.11036289180406983
6.0	0.17011601049808336	0.20870797751655304	0.14745217130988258	3.5444891094601334	0.4576336307309994	0.2198043299546623
6.5	0.669426126055454	0.18595237074681883	0.15135491435351336	2.435309530823127	1.4512378369746106	0.3590570234970443
7.0	1.1380650571674364	0.17219557169222108	0.3061826303850206	1.5938101669582785	2.4042529577465586	0.4961152602520325
7.5	1.4483067919798744	0.19270313833760394	1.1359325335425194	1.0230986250208716	3.038882699983842	0.5955666731741506
8.0	1.6270356618025001	1.253515873142285	2.62198869236232	0.6637046471962313	2.8960093704942573	0.4059827380422512
8.5	1.604238728498102	2.873594030288914	3.8111709019652675	0.4432584129151825	1.8005657630189773	0.2557889737501909
9.0	1.2395403842618402	3.9659509974209994	4.272963406991207	0.31924377264349957	1.1049426359789973	0.16468650866503776
9.5	0.8099345069771251	4.626077558320549	3.8239128544276073	0.3223543714925712	0.673989323515395	0.1094299010415331
10.0	0.5090018089200308	4.949074393168445	3.0541854626262666	0.7110425816915849	0.41094586657548976	0.07591503543553856
10.5	0.320596274727314	4.851514660748035	2.208101223524547	1.6349542405101039	0.2511629978337671	0.05558723525821881
11.0	0.2053392610935755	3.8630951577169643	1.424660253484773	2.4470553294667865	0.15421659497772833	0.04325783876428101
11.5	0.13522417556286673	2.566185455016258	0.9215060919671964	2.9700256383782224	0.09547530562376225	0.035780073453918364
12.0	0.09264056745347644	1.6370597105605287	0.6118864710358879	3.290047964386519	0.06050343358308667	0.0312484200463367
12.5	0.0667929619573328	1.0552621338747141	0.42273428293434057	3.4844168159406688	0.04476925605130872	0.028535174845597373
13.0	0.05110803900241505	0.6999256528778197	0.30743937035126895	3.6023133604375324	0.060239955285259716	0.027173821703476646
13.5	0.04159374710575352	0.48400449622924246	0.23723106417854728	3.673395455438688	0.10373989225036265	0.028211324164799205
14.0	0.03584761895540405	0.35295991471567173	0.19450231196201126	3.7136843031872218	0.14373472687872685	0.03800305336034466
14.5	0.033068135714204756	0.27345580188094093	0.1685163235065752	3.7314031594361303	0.17221679708264434	0.07447648539167845
15.0	0.06222633220020046	0.22522696035774953	0.1527413432585191	3.7205667733505043	0.24702772632878292	0.15909540447968878
