# Time series from syn_net_6D_20191104_a_hillmodel.json, output to pipeline readable format
# Generated on 2019-11-18 23:35:05
time	A	B	C	D	E	F
0.0	0.22614086238414138	2.2857416374149273	1.5164825290781156	0.22785686427941543	0.11203295975962396	0.18423415812331714
0.5	0.14311925764774638	2.0353562415045725	1.1082236096526124	1.1476067755589017	0.06910525916981079	0.17006248054211656
1.0	0.09212844500783661	1.4762316311375292	0.7636847815077356	2.6266962050865863	0.042793164578664424	0.16148146928481139
1.5	0.06089295600283471	0.9636112025578637	0.5544186918117691	3.737237331812493	0.026704749213187606	0.15641000347014594
2.0	0.04180576392769534	0.6153211901400834	0.4274820815058522	4.437280304942465	0.016922281703911305	0.154600685295207
2.5	0.0303544014564569	0.3960244435310327	0.3504894198816125	4.865158530593563	0.011336252825900063	0.16485326171133394
3.0	0.026845387619184556	0.2608775143736792	0.3037904791354694	5.12513340166212	0.012451521494869769	0.24782616880684896
3.5	0.14543699372395055	0.1781961034345326	0.275471322283547	4.940512283451845	0.15343235882563877	0.5269384770805636
4.0	0.7422667911018266	0.12783448107200773	0.28706609057571686	3.0529896781942463	0.711177070807917	0.8932541896533829
4.5	1.3063049089684244	0.1015622068889468	0.5033156828120215	1.8753982757491794	1.187848007334251	1.176574189900582
5.0	1.6776910760590655	0.15304667929835536	0.8465327893464243	1.161109912254876	1.4934784237479584	1.3405894604703958
5.5	1.8977371831929708	0.46598785811127275	1.1994900566790134	0.7278684005556434	1.5189244928475805	1.0510635980748946
6.0	1.9188778202216927	0.9948601387080905	1.5641443130405848	0.46509391275431683	1.1745532756100427	0.6983430451733537
6.5	1.5953985350459914	1.532191571336015	2.0694248286682133	0.3057165315919492	0.859986188651434	0.4819803001310014
7.0	1.105145722329704	1.9286518792665666	2.395476279989936	0.20907622925213207	0.5751537075494738	0.3506669623337941
7.5	0.7098003128841924	2.1799965412009445	2.3722727371855123	0.15072026329428814	0.3642208609126732	0.2710107611487875
8.0	0.4458864297543504	2.313181183935915	1.9989586303856879	0.11814408814351857	0.22612046191325408	0.22269407811245856
8.5	0.27915731572103003	2.324155858358926	1.6395735812534402	0.13538250193518533	0.1394951908424309	0.19338782879381985
9.0	0.17578107518450317	2.1947286107209028	1.3228439752069148	0.5861886838701381	0.08598104562654699	0.1756133105647456
9.5	0.11216810861824306	1.744352943789113	0.8988931444841443	1.9745805170007467	0.053127924077820375	0.16483789655623035
10.0	0.0731613363674718	1.1759690884798162	0.6364520093565774	3.2928405371145306	0.03301940873590361	0.15835075321540837
10.5	0.04929335338593158	0.7541961596113775	0.4772400659083328	4.161946372039989	0.020746216218730736	0.1548725615478749
11.0	0.034773962794083464	0.48257285706729475	0.38066968449994976	4.69740349005982	0.013401292977231227	0.1570335182503461
11.5	0.02677393505834332	0.31403959027551515	0.32209591594629866	5.023285743165905	0.010198746411124952	0.1926653144461531
12.0	0.047568003893389846	0.21067894149541516	0.28656883243891673	5.2195866930293375	0.040165576877378234	0.37502841977257184
12.5	0.4395096890055284	0.14756747700011127	0.2669484746205389	3.813745081725931	0.4425411980534759	0.7317402953742703
13.0	1.0759201713063902	0.10999541467125457	0.3812204135293026	2.337150289545782	0.9952354307064841	1.0617569263100468
13.5	1.5303317380253045	0.10969576478509097	0.6846026750002058	1.4411832224325734	1.3733137259208517	1.2852710328473702
14.0	1.8161307496823458	0.2842669603647336	1.042557389618724	0.8977424190451606	1.582569849863023	1.2499692180581783
14.5	1.9441586097709056	0.7431799355230754	1.3825739673324433	0.5681275378523125	1.3284651426007819	0.8378613314647093
15.0	1.7845817352636495	1.3002279458631518	1.8403197950660506	0.3682072320576115	1.0008279840139331	0.5668435572953646
