# Time series from syn_net_6D_20191104_a_hillmodel.json, output to pipeline readable format
# Generated on 2019-11-18 23:32:48
time	A	B	C	D	E	F
0.0	0.09969246853017717	1.441748108558657	1.2513623956955497	0.8471514697870048	0.021878010825619635	0.0733141870181183
0.5	0.08410325220016072	0.9582838212724684	0.8392091368960561	0.9973282359630701	0.014902954742796426	0.06349068743513678
1.0	0.07464782836696406	0.6246450374517409	0.584122873251701	1.0995994484415892	0.02042193214825844	0.07608964392576813
1.5	0.06903342341426273	0.4162092791604527	0.4275442128501442	1.1659224101130239	0.07442897916731327	0.2113170050139606
2.0	0.11642200047083245	0.28875900300768526	0.3332313593974917	1.1767004978321824	0.33934257668259316	0.7441601099281933
2.5	0.40831208142116077	0.21142413846299418	0.45562923722259674	0.7626370764021041	0.9444183203662898	1.5923956065193365
3.0	0.6312655174176486	0.2689446780634236	1.8916094978139668	0.4648620379523764	1.3687333617893136	2.270238256903117
3.5	0.7656895550393888	0.9513986872142769	5.258721289819499	0.284092387047172	1.018436878978108	1.553449295403483
4.0	0.8147293109902054	1.4275027599771835	8.237292526021946	0.18090255558121968	0.6228402447782018	0.9606834650513598
4.5	0.6985048820551326	1.7172292324325937	9.592219102531166	0.16434519254796365	0.3793447126556235	0.5996258134206658
5.0	0.48502690444047974	1.8929728201688334	8.541609138850724	0.2358928704050867	0.23073221220760198	0.38040605524699656
5.5	0.3224536691174201	1.9988657113696502	6.033485198599432	0.30944931607519693	0.14030254895942862	0.24737168041956104
6.0	0.21979440628996547	2.0571082788041886	3.9902788897343795	0.37885124331685505	0.08540256581314017	0.1666530411952971
6.5	0.1570347793713491	2.048348962333309	2.6413951926966224	0.5019038921874592	0.05209508418506519	0.11768618540580887
7.0	0.11889826392946107	1.827390452201028	1.7413159680841022	0.6953405740107095	0.031914444344943435	0.08802570060345062
7.5	0.09575459199120703	1.3312575974133058	1.148326334858967	0.8828819762230296	0.019886956144866894	0.07041814201032268
8.0	0.0817144807369704	0.8757660865533988	0.7751190891812645	1.0223681722561069	0.014466342157317761	0.06314094715573583
8.5	0.07319996383463667	0.5722701194048115	0.5447112818052231	1.1160323289685339	0.02575936900545821	0.08732298501405333
9.0	0.0685196717982476	0.3840680361594053	0.4034149046030294	1.1763363467152275	0.09705089665906089	0.2810390458247178
9.5	0.16825414662314161	0.26919259650761707	0.32464468754443815	1.108771072550184	0.468083403138311	0.912029332040702
10.0	0.4638364085008195	0.1999032856165825	0.577912267713936	0.6876562484274307	1.0515093256938663	1.7644072497623062
10.5	0.6658287793648473	0.39916951086448005	2.504748835368261	0.4191088243618009	1.3872329374788164	2.213920278278573
11.0	0.7843242717541338	1.0712569137802224	5.9761226783320645	0.25674270020928286	0.9197967277683141	1.4043109793788924
11.5	0.8070748314074593	1.500659738477225	8.679215208511755	0.16869844314611498	0.5614937535698187	0.8695369380275135
12.0	0.6543586485097951	1.7616329301720564	9.593427805016338	0.1749338068207085	0.34187717987478483	0.5442656400401439
12.5	0.44527007491040893	1.9198571935628277	8.047582260161658	0.25278133252139096	0.20790407121807158	0.34680732545120274
13.0	0.29667550273132764	2.0147136731850313	5.541735794637148	0.3230108001296861	0.12643746763152885	0.22698474244869155
13.5	0.20396204135476267	2.0630112516735157	3.6581676831427568	0.3978593224896638	0.07698935301916338	0.1542842879301318
14.0	0.1474050561325498	2.0276283655792953	2.4228066361391103	0.5385549842695085	0.04699294363539622	0.11018587197170569
14.5	0.11305300712370786	1.7376841819978963	1.594625858733846	0.7375288001409358	0.02883549849402143	0.0835047126966842
15.0	0.09220830526635854	1.2241604600122693	1.0548860571565242	0.9163501416715087	0.018158093191911553	0.06792557284106991
