# Time series from syn_net_6D_20191104_a_hillmodel.json, output to pipeline readable format
# Generated on 2019-11-18 23:14:40
time	A	B	C	D	E	F
0.0	1.070829543223032	3.4670578734251962	8.858629169677599	0.15107116743235052	1.3892515162215233	0.685230443138197
0.5	0.7535114116619837	3.695364180955734	8.151620678875307	0.1729431001796548	1.0830122609268305	0.4352793075987039
1.0	0.5578452577287054	3.8319261311093977	6.947384602453305	0.2166120479795575	0.7812284048366358	0.2816399795970335
1.5	0.4388293074434676	3.9091673714020168	5.678185080597923	0.3458669951667814	0.5756602107184652	0.1875047215815673
2.0	0.3666032292341468	3.926776195781023	4.0681293750506144	0.6172576768169403	0.4478078530826461	0.1300167584020666
2.5	0.32279062307990875	3.776412101098209	2.851975780424437	0.946839439300463	0.370456160346852	0.0956284758710061
3.0	0.29621611507590634	3.251946248026782	2.0938491145388194	1.2278683979589151	0.32794235513975156	0.0789601656147398
3.5	0.280097802842071	2.486420798378844	1.631023553063562	1.4252870016434214	0.3180036303395722	0.09128409418545998
4.0	0.2703268123980644	1.8076850428029398	1.3494928998768314	1.53806017764561	0.33756357038410734	0.20488331532217216
4.5	0.26561673960455445	1.3190429500525709	1.1784912099072355	1.544708191853945	0.45510242010287544	0.606556521777808
5.0	0.33444313124861175	0.9940055305596975	1.0772141580178858	1.1476514367521462	0.9481666338169432	1.3044795603472426
5.5	0.7667919633881456	0.786996142961156	1.066390737873819	0.7848898821401231	1.3242224929763462	1.9841188235309346
6.0	1.3429016089150878	0.6995334720791112	1.4557842930515916	0.545208660885422	1.5565782400914985	2.479644850688623
6.5	1.7894586846221245	1.0431734677176703	2.520335335808098	0.36901381003487554	1.6973071350403737	2.7249034067995583
7.0	2.019612645323942	2.0520466804493207	4.822753433935704	0.2446130441514301	1.750607122823627	2.129440014047005
7.5	1.7918017987854136	2.8272622586356797	7.268260101876272	0.1691901236096937	1.6591396267695908	1.364980511897706
8.0	1.283516786257309	3.306677230458123	8.691020550639175	0.14637158254287613	1.4947185907679241	0.8583344623118918
8.5	0.8897728277241382	3.5983375015337913	8.633722208416268	0.1609364988969992	1.244237012124224	0.5421240417540252
9.0	0.6412383100295075	3.7742831150341627	7.5354280892876035	0.19009708469791475	0.9175613775163385	0.3472356983813522
9.5	0.4894909166676243	3.877712941332154	6.337513511567278	0.26621545820834336	0.6642338031627241	0.22766748524653663
10.0	0.3973409761264286	3.9285247046822196	4.8472448320684896	0.4693515591595286	0.5023653585353683	0.15450448291542596
10.5	0.3414354510461602	3.884758990646885	3.3773686099005387	0.7873230935897388	0.4031559498667267	0.11006154336005324
11.0	0.3075250141736568	3.5587500606535496	2.417375311129375	1.1004965494664787	0.34475751227411905	0.08479159663851542
11.5	0.28695696895785283	2.865108810747839	1.828183518602127	1.3398639955206482	0.31855774010999016	0.07950813137822973
12.0	0.2744823204495928	2.1161406541468013	1.469363332827914	1.4932590703302338	0.32537899576316126	0.12728944924476313
12.5	0.2670026762389658	1.53399143847526	1.251264688922375	1.5644501274395177	0.35999986045376686	0.36308543480948746
13.0	0.2755336673725586	1.135087387863865	1.119244443923195	1.373035193258978	0.7015074488716903	0.945897924225195
13.5	0.5076665901892032	0.8754547565071988	1.0506191931157953	0.9422476929985725	1.162597843285482	1.6714505761400635
14.0	1.0703238381371838	0.721027405407979	1.1979420870964619	0.6515209221395448	1.457504514198894	2.263210234517543
14.5	1.5924370352351729	0.7734335741680586	1.8768887169492399	0.4483621148446613	1.6377683518703876	2.6523116167367293
15.0	1.9461302544592827	1.5498695049526718	3.5644569671941926	0.2989761360302603	1.7404402807676522	2.5322302944565216
