# Time series from syn_net_6D_20191104_a_hillmodel.json, output to pipeline readable format
# Generated on 2019-11-18 22:26:53
time	A	B	C	D	E	F
0.0	2.9569863342542417	0.4487278584114046	8.812147766279073	0.8750624623498507	4.729797851272734	2.8201170059874103
0.5	2.8091347751194333	0.667610888992159	10.539607702850088	0.7698488584722208	4.070266114389122	1.9249126033536834
1.0	2.1153041846774627	0.8257558021076586	11.686809643355812	0.707309624627797	3.4532208274187703	1.3107004781550486
1.5	1.3911957416315957	0.9309472948015456	12.41303041970591	0.6720016798938063	2.967758960340966	0.926450532911228
2.0	0.885466815076002	0.9986111902374316	12.770900208930207	0.6568003673045271	2.4675464407604126	0.6899258102152152
2.5	0.5658636690491828	1.039909598410739	12.476439634325661	0.6689820671992911	1.9229758335705096	0.5450735318301165
3.0	0.36904992323645963	1.0598292319032538	11.546397080285127	0.7476005058337678	1.4520726991040849	0.45661069116090514
3.5	0.2488160391033127	1.0609732389908364	10.505062043640713	0.9358454402261741	1.1081373137277943	0.40277948949105674
4.0	0.1755828068759255	1.040132227600977	9.183990305969866	1.1915505234000214	0.8760312397140905	0.37031009391691755
4.5	0.13103601597881592	0.9716511123918512	7.419225615482162	1.4994083317078168	0.7256209066170366	0.35155406677740797
5.0	0.10396383967152147	0.8052107211502062	5.4017836274988875	1.9970105006931729	0.6335519250256851	0.34472240726921527
5.5	0.08757073097033702	0.5777756095695189	3.5800591669624118	2.8514607432198877	0.6008110397442015	0.3695387383875545
6.0	0.07839059793454385	0.3995735778155467	2.3078629665072823	3.9865486665700582	0.7462446067678505	0.5494936066060577
6.5	0.10037205395304491	0.2859132151790994	1.5482173322983617	4.126489335107842	1.7843242848439926	1.1235999893243696
7.0	0.47323410637345803	0.21634199921863823	1.156351145170406	2.8060112029564506	3.0638556179820045	1.9263515693038153
7.5	1.3094453568104731	0.17411108144153017	1.4487106143603932	1.9430084476759106	3.9162146901287254	2.601319338907313
8.0	2.0654025333498054	0.15080442396195287	3.1066500981794114	1.417788211105411	4.446782417720313	3.0676681264351453
8.5	2.5981043024991655	0.19318489661736485	5.8176642770088085	1.0987737934858697	4.768402716646273	3.3457846351603426
9.0	2.9243816500915014	0.3969663300546357	8.356262918809149	0.9051372089225903	4.812308426654894	3.0182233336814446
9.5	2.8959234338695174	0.625862788830962	10.22660594334284	0.7879424167208301	4.221926153029105	2.094695290055701
10.0	2.286199820659476	0.7970701070880368	11.482999787233496	0.7179195387724303	3.57070226571701	1.4195081758674586
10.5	1.5297003881257054	0.9121968044552797	12.288082623147593	0.6777126295512313	3.067463423154376	0.9938056673485794
11.0	0.9760762180458394	0.9867034431554486	12.733719134059777	0.6583142722074438	2.5810642362980065	0.7312610170380902
11.5	0.6221910002397786	1.0330177384385058	12.614026860749274	0.6627236406020307	2.0370666520264535	0.5703540697499938
12.0	0.40356795330596984	1.0572598183860036	11.763409589738947	0.7221260613166537	1.5423792867056687	0.4720299615453114
12.5	0.2698665144841065	1.0622972321612976	10.739466466533692	0.8873318556727297	1.171285005285207	0.4121400922310561
13.0	0.18839500591411373	1.047239152590797	9.505658082344905	1.1341516529473186	0.9177881045256594	0.37591117775264393
13.5	0.13882642616738738	0.992880417770381	7.828018741855964	1.4242652008662775	0.7522741754629272	0.3546238836751984
14.0	0.1086955734727619	0.8500564792079891	5.836749498777001	1.8640271647795972	0.648941864160911	0.34486940985168424
14.5	0.0904214838888338	0.6247591085155435	3.9284245582868333	2.63605582150099	0.6006445306599346	0.3582445259221149
15.0	0.07972556177752341	0.431741660499901	2.533225556394406	3.7394153750006978	0.6781421992509058	0.48449354648563336
