# Time series from syn_net_6D_20191104_a_hillmodel.json, output to pipeline readable format
# Generated on 2019-11-18 19:07:32
time	A	B	C	D	E	F
0.0	1.0866438256291098	1.537491268348521	3.720002137772474	0.17307867587664016	1.4954527165353224	0.6970232533463538
0.5	0.8572279065695623	1.712162909064858	3.6399263770455463	0.42243966763951946	1.096750965705844	0.5016322881769079
1.0	0.6062974642019477	1.6127546002136652	2.758179273562465	1.0629727673833649	0.853414921555075	0.38310822473711986
1.5	0.4182088660763722	1.1496552185382898	1.8010718838471917	1.7890207227673065	0.7236340519291723	0.31138083244965953
2.0	0.29388884703814216	0.7459118149837738	1.19732078239679	2.2990720530514754	0.7901395130476134	0.2694717488590224
2.5	0.2155544842374574	0.48398755079317285	0.8397212983533757	2.2089101425131683	1.3279781399165718	0.258190259045413
3.0	0.17238616921139555	0.3227900875432563	0.6296959257411242	1.5689612751506063	2.0640338364758266	0.353857908146896
3.5	0.3004146627545838	0.22462202535811127	0.5288297914930166	1.0715047108915077	2.60942528488616	0.8549952251078038
4.0	0.646297227401203	0.16505768577539948	0.6115823110436165	0.7505932644635867	2.9744526857291316	1.8902274660784297
4.5	0.8751358852357533	0.1303276139951315	1.108721864904584	0.5346021568588172	3.381681766715847	2.947248392724973
5.0	1.0145223780349102	0.13558369530728065	1.901607476519187	0.3823778949413813	3.9300432380424075	3.6920467701829405
5.5	1.099120395460554	0.272967602755872	2.6013123427215055	0.2774862257102467	4.369196359835612	3.548586216307669
6.0	1.1501777859955635	0.5778156092777761	3.0950779607810186	0.2074070168801626	4.126510925696684	2.3472741613034316
6.5	1.178504731221841	0.9468064460507779	3.419004191425441	0.16249200468486216	3.0374830870391523	1.507027771261966
7.0	1.1751716425382688	1.2851304970121535	3.622349858729681	0.14138037504000492	2.085578590544637	0.9934140120679381
7.5	1.0757003122776478	1.5519231764342596	3.7226290736472567	0.17951331789506542	1.4639949506412924	0.681484329040318
8.0	0.8403751486185386	1.7181962705712255	3.6177376638866767	0.4522154875578513	1.077366758472329	0.49220436492711045
8.5	0.5922101933470398	1.5891972070807603	2.6861112554790885	1.1111512836813286	0.8418824410690615	0.3773917080644237
9.0	0.4085800644537944	1.1197077214253295	1.7532344357744967	1.829884701551119	0.7197693431024303	0.30794253230404817
9.5	0.2877221229962406	0.7253465421942332	1.1684292353747	2.318493202390965	0.8082025264496189	0.2676583365916769
10.0	0.21176837128765377	0.4712025322834115	0.8227415349911019	2.173053810276393	1.3756393550233414	0.2593904309041768
10.5	0.17139595159179885	0.31498592588953084	0.6200266217544672	1.5310467485908459	2.105617272171072	0.36919743905243646
11.0	0.32302331370229564	0.21987968987455161	0.5267989349077198	1.0465637265011454	2.6367793222668627	0.908285535302196
11.5	0.6644097181137525	0.1621916344092179	0.6286637094700575	0.7343868191270836	2.9957923760568597	1.9625646790239284
12.0	0.8862212875357895	0.12893819610669602	1.1550737409305738	0.5232399235044007	3.414149123614702	3.00561414672843
12.5	1.0212549471724137	0.13915868220645475	1.9516002821719003	0.37443279566041776	3.964538456365395	3.723807621006749
13.0	1.103201911020013	0.2880358736608348	2.6387911601274423	0.27211151452065535	4.383044977299759	3.4780406578094323
13.5	1.1526049332928923	0.6006866079416938	3.120167834954981	0.20387540317927058	4.07242425554449	2.281130356769618
14.0	1.1795372543102434	0.9699098440917646	3.4351133878682405	0.16036665439424402	2.9667542806943192	1.4662121171476536
14.5	1.1727748968795417	1.3044753265222149	3.6319312170180718	0.14122642635528676	2.037001005885975	0.9686039395328794
15.0	1.0641023147666067	1.5659801603240158	3.724595020342663	0.1868364903796038	1.4334555774960807	0.666426702354892
