# Time series from syn_net_6D_20191104_a_hillmodel.json, output to pipeline readable format
# Generated on 2019-11-18 18:11:33
time	A	B	C	D	E	F
0.0	0.1512761404312815	0.5460917848752287	1.3457483320719432	2.0429836161035446	0.06729236508137783	0.10294814147614537
0.5	0.3377874099214062	0.3434831303566158	1.0973414917413506	2.135219190516893	0.21305732839517447	0.26787987416592407
1.0	0.649368605250656	0.2464053936011995	2.6928506683893847	1.6675273835352993	0.7574837378414397	0.5484436826736383
1.5	0.845342402631745	0.4008236490091975	3.9739143180763508	1.1619883137910354	1.0614710439302104	0.6868723719163314
2.0	0.9639516422541823	0.7525808658989751	4.777696754436043	0.8272100942995473	1.01287393052253	0.5126602020114213
2.5	1.0313756666762477	1.100373379264212	5.271539356858092	0.6189782160121856	0.9482446719686031	0.3425956462200949
3.0	1.043672449728112	1.372657775564659	5.572645131564274	0.4918807557548835	0.8579449444881629	0.23445637612133727
3.5	0.9485212477110114	1.5676548999648643	5.7516901408711645	0.4182643615230672	0.6832191512823333	0.1680451940556095
4.0	0.7442159781705703	1.7003145434627596	5.833529524062966	0.3913443061691006	0.4792683542728948	0.1275254260276344
4.5	0.5351307337181491	1.7803972327350797	5.724255115415324	0.46063365485841695	0.319454718851478	0.1028558818117269
5.0	0.3771922271403672	1.7788244169018101	5.0233889571606305	0.7663598063765302	0.2118557221903594	0.08786410156175564
5.5	0.2704398572636675	1.553874277521703	3.682311436306627	1.2483200223941848	0.14310006375759848	0.0788596515940543
6.0	0.20151694045394375	1.0979572920412521	2.4702465542805756	1.6604308242551669	0.10010988512335832	0.07431335851359738
6.5	0.15964486563449357	0.7000696340232936	1.6495288062964784	1.9393545732992774	0.07412970041645467	0.080475769923884
7.0	0.1827502475886408	0.4388649461557074	1.1383351333198415	2.113233861197301	0.07941676749999156	0.15489348841211031
7.5	0.4992297166735302	0.27999764876102784	1.7890685520375411	1.9734452722114915	0.456126969128665	0.40048359280721385
8.0	0.7532844721621887	0.2802358997746214	3.36375762079697	1.4091619027710107	0.9673539417333668	0.6497476927729893
8.5	0.9084670543710043	0.5561177480028101	4.398794199118568	0.9858672679605246	1.0488606696550513	0.6228441833510064
9.0	1.001168548287012	0.923028078778747	5.039288442813157	0.7170809972609001	0.9820034530005933	0.42431795717170645
9.5	1.046148782159815	1.2382318034802646	5.431356837800958	0.5514192953526326	0.9137177789132325	0.28544667125845946
10.0	1.0161424629712794	1.4728109727793701	5.668936424441983	0.4517714621020417	0.7864215785985046	0.19926770218363174
10.5	0.8604682930362106	1.6366525795285323	5.8031879169433	0.3989589756069911	0.5849819748589877	0.14655965219721126
11.0	0.6414518679814877	1.7445322823897609	5.821898372124662	0.40457259278797375	0.39739660372514457	0.11444006966524448
11.5	0.45410136382776667	1.7951437022892711	5.501184160500159	0.5678836332193331	0.263250208017125	0.0948983197234863
12.0	0.321573255894974	1.7128564195765388	4.42708777559272	0.9880429589116219	0.1756868007788709	0.0830521859878372
12.5	0.23424508816659126	1.3500323153469913	3.067026911723374	1.4580994841606172	0.12039740515881542	0.0761432655889121
13.0	0.1788471238971214	0.894002949658739	2.039961040951864	1.8064679708989793	0.08614244704392893	0.07460562311858512
13.5	0.1511588522744571	0.5624108741359182	1.3777577303709143	2.03206416213386	0.06763317563316537	0.098759789751762
14.0	0.3152451009987438	0.3534983940017019	1.0619292973355312	2.141179458475147	0.18706739286278	0.25172125233836584
14.5	0.6335014239508121	0.24704082887321185	2.5928270541198875	1.7043819431147291	0.7235920858335051	0.5322186587983248
15.0	0.8356728757035098	0.382748456226584	3.909312614815888	1.1885561488798708	1.058539497830347	0.6890044625537327
