# Time series from syn_net_6D_20191104_a_hillmodel.json, output to pipeline readable format
# Generated on 2019-11-18 21:19:00
time	A	B	C	D	E	F
0.0	0.09906557637668131	1.0236316414544406	4.614605052936533	0.3237500742229322	1.9429051476492316	0.6773174312137896
0.5	0.06244151313352543	1.0606345125444916	3.90602548701347	0.30802754386037423	1.5736363519172019	0.41486577566575666
1.0	0.04014357420232711	1.0049384996285684	3.4367512104604514	0.44412692791342817	1.1238949803213674	0.2556909694383485
1.5	0.026611885758458475	0.8911369054223354	3.0284529785516874	0.9343007723324287	0.8064390570439703	0.15922850316311019
2.0	0.01840384570935839	0.7186268063844177	2.445504541660319	1.6177006993708498	0.609336674258778	0.10102495256674798
2.5	0.013425355302852961	0.5047912247573709	1.7436480669687302	2.1866321195025	0.4893576119307881	0.06762410373024087
3.0	0.010405742099749614	0.3302593507180361	1.1850318101667119	2.5780039188800328	0.41660587737070753	0.06340691387124474
3.5	0.008574314208579214	0.21596484633441343	0.8078037334086859	2.830423488154907	0.3734332108621149	0.1805009525664933
4.0	0.007527670227747296	0.1454150263537524	0.5765732314108697	2.9771629361789986	0.5335335697327077	0.7001333937701903
4.5	0.011841457062030394	0.10249276353271608	0.6118814683277195	2.5901345286444264	1.1476163846392538	1.5061003860168205
5.0	0.051227991226061406	0.07676983351407729	0.9129584695586661	1.7539504872765637	1.8318275038072513	2.168144402440592
5.5	0.13810195829360708	0.06581198947570074	1.5349563552644243	1.142714219146691	2.5150767175859388	2.606702711785198
6.0	0.2372387565936587	0.14185601920429275	3.0892091400417088	0.7596352292418239	2.7154430550824444	2.810326227085596
6.5	0.239217560060334	0.5334131761651131	5.477005761413815	0.5294945300885862	2.364518214262177	1.8566445647124443
7.0	0.16061234082229955	0.850968675128621	5.572769460643514	0.39710551040342085	2.1407055245948436	1.131166943305901
7.5	0.10086422824670706	1.019906147104733	4.648261250832612	0.32555991420927016	1.952154265623534	0.6902288939089198
8.0	0.06354142431968862	1.0612640503896373	3.9282444150477516	0.3070326601719164	1.5916211833073532	0.422697071839348
8.5	0.040811487068218806	1.0083721845456102	3.4523640639236803	0.43324517432004667	1.139038166351766	0.2604393595021384
9.0	0.027017064395902977	0.8965341985290275	3.0461064608784674	0.9093448657839596	0.8160998618961405	0.16210321464298583
9.5	0.018649605174105306	0.7265269937261633	2.4721908848074357	1.5924643595930355	0.6152414458371236	0.10274573197591694
10.0	0.013574416468259682	0.5127189646850656	1.7688954772422703	2.168192221468478	0.49294290268621455	0.06850000883030531
10.5	0.010496152200561857	0.33580602886249716	1.2029260026426225	2.565860700495376	0.4187750211382231	0.06249835991970275
11.0	0.008629136201699054	0.21944039161505757	0.8194772155971086	2.8227209945918363	0.3745997501759006	0.1704917863105799
11.5	0.007547808781935053	0.1475387802975876	0.5818127430832417	2.974893284481718	0.5131728548126251	0.6713890381778552
12.0	0.011292545522818656	0.10377937601247343	0.6060746876616363	2.6212101146438775	1.1230560891021948	1.476115766273143
12.5	0.048695291115781525	0.07751644468661173	0.8947921192317853	1.783040272234915	1.8040235584470454	2.1469846416240372
13.0	0.13425357124213652	0.06579290055043203	1.5040255506017841	1.1615305521149843	2.4920561210483894	2.593345265638171
13.5	0.23384463119749277	0.1325690031547843	2.9936384563436937	0.7711613012813285	2.7295878397263436	2.81814371149793
14.0	0.2418513644527833	0.5180651319555275	5.42032066596809	0.5362639742194865	2.3753864887813956	1.8923995362353987
14.5	0.16344589687957659	0.8415982863853692	5.603093791873294	0.40090867631847416	2.1478060743439777	1.1529800026923906
15.0	0.10270063596927474	1.0159100903179215	4.6820606604886095	0.3274436907814087	1.9611195414775782	0.7034673779255823
