# Time series from syn_net_6D_20191104_a_hillmodel.json, output to pipeline readable format
# Generated on 2019-11-18 22:41:15
time	A	B	C	D	E	F
0.0	0.8614165556076298	0.32946690495613523	4.120833329694568	0.43681896462031666	4.237417235136813	4.371138900967567
0.5	0.8716685262950022	0.4583651430431358	6.581715150472405	0.27080297124784763	3.517020560622837	2.9117108883530602
1.0	0.6614793359236826	0.5372221449879103	7.780284367372435	0.17541455340675838	3.0417733323142864	1.9146733734538983
1.5	0.4445075668806345	0.5851107855893899	8.044303987279024	0.14944967096028652	2.741350769418325	1.2871376098486558
2.0	0.29757723324747276	0.6141563030805283	7.8628364980616166	0.18888387619072133	2.5288790157743697	0.8986259293781207
2.5	0.20619312176671134	0.6317501165838004	7.456831350740235	0.24020494430658587	2.2956929879807455	0.6594737194756906
3.0	0.1503783146367531	0.6423678814416345	6.858397009467268	0.28683230084881756	1.968719125950689	0.5126454359879797
3.5	0.11644215954522025	0.6486896623237409	6.129062894783061	0.3492673802162527	1.6195634873007267	0.42262955185619105
4.0	0.0958363138155045	0.652243111642773	5.266068984948293	0.472750120849312	1.334068207931742	0.3675055035039698
4.5	0.08333057448200588	0.653304224290255	4.058884834990382	0.7078874214540134	1.1296910806256315	0.3338260138082359
5.0	0.07574235487654699	0.6467711319274413	2.8046963705162695	1.0571987723846445	0.9919745414758849	0.3136207212690886
5.5	0.07113852233841847	0.6028485606543075	1.9095044767711278	1.4590875131440024	0.9025627893078694	0.3041768448891876
6.0	0.06834625142817848	0.4767021878624632	1.3336504284259219	1.8369845201234	0.8510798058422346	0.31952931940636403
6.5	0.0666655608445812	0.32260285653422544	0.9706612939162622	2.09778869165634	0.8939762512920063	0.4887544496318823
7.0	0.06804864699716844	0.20463296802764594	0.7538755841346045	1.7503731111228622	1.6979305644800597	1.4535982605804043
7.5	0.20505145161832042	0.13037366925535396	0.8942215101202076	1.1970855398404097	3.1828377238853625	3.3206657911402195
8.0	0.5483870991796632	0.12530034285729183	1.5303244116812236	0.8068996129028962	4.425007312190238	4.813957151811306
8.5	0.8110894182959203	0.27720478575171553	3.2848474589292955	0.5057737541113307	4.483185534400249	4.828998091352271
9.0	0.8977729921184026	0.425409045249638	5.950862772217282	0.31294782168751895	3.709832880408561	3.3111061604060072
9.5	0.7355475141355312	0.5171716731871417	7.540889878451458	0.19786822775375226	3.1642845233122316	2.1727899726002593
10.0	0.5035609643801559	0.5729421531442753	8.028877718945322	0.14890508703907257	2.8195351912447677	1.4480605992225266
10.5	0.335476802423209	0.6067785827372097	7.946751971345834	0.173269479458033	2.5902841432188644	0.9979547126524749
11.0	0.22950402198706657	0.6272847196624773	7.601435958555829	0.22525953319060008	2.3760166821178386	0.7205376423562293
11.5	0.16457809694690043	0.6396805086421861	7.059315428264638	0.2723760925610732	2.0762973856107885	0.5501108773947802
12.0	0.1250692980844036	0.6471060359971829	6.360896490543981	0.32627126986370675	1.721846802042739	0.44558854888762406
12.5	0.10107330966531013	0.6513998429063074	5.555484763498617	0.42517436407788933	1.4123718083722152	0.38155821834937365
13.0	0.08650859271528079	0.6533358826350016	4.463751378422415	0.6226719056989376	1.1840966508213375	0.34239510055699157
13.5	0.07767061358625728	0.6505229099632794	3.155264783944052	0.9413716334665219	1.0280955979366735	0.31865257339202463
14.0	0.07230835372958197	0.6237833521125814	2.1435471804593047	1.3357092718704617	0.925625235661038	0.3057205710780129
14.5	0.06905551407732664	0.5227925572229132	1.4823667124960154	1.7283077361343715	0.8625558936252925	0.3093209242559929
15.0	0.06708683928466488	0.36721483129565596	1.0640565498098413	2.0437990224641096	0.8537380014841561	0.3977959586839267
