# Time series from syn_net_6D_20191104_a_hillmodel.json, output to pipeline readable format
# Generated on 2019-11-18 21:35:57
time	A	B	C	D	E	F
0.0	0.32788035695831336	1.8275969765787972	2.310140626064917	0.33370739327220295	0.4794180038643681	0.3415879771970292
0.5	0.2647839176796737	1.873425650772975	1.7068894460313022	0.6490981188022644	0.35714756585105834	0.2719347575514679
1.0	0.22625502780531015	1.8877745154998307	1.173956331320045	0.962423944901634	0.27432612693994923	0.22873641159694963
1.5	0.20280925208233513	1.8259486846881408	0.8257867395985397	1.2074951617635068	0.2140868870971502	0.2031680151426784
2.0	0.18856431066604734	1.577287897930355	0.594872939205058	1.3803422193459067	0.17099947733488755	0.1944940940449551
2.5	0.17993945600009556	1.1597456239350088	0.4344400630593344	1.4966044520961783	0.15182644252183128	0.23048275353135259
3.0	0.17533631158525811	0.776525026367164	0.34270493727252754	1.5727698313328653	0.19254337967384866	0.4272403591615331
3.5	0.18905746910707424	0.5158455758290204	0.3208525785788906	1.6154010984316813	0.4433336348115776	0.7804843237102551
4.0	0.2880790972627232	0.35402209193315304	0.3160991158139145	1.4244869008823067	1.304141467139316	1.0758948983532979
4.5	0.4843361670100855	0.25672111369033246	0.3298988774448523	0.9301276343126221	2.523407514580879	1.2687014991769183
5.0	0.7040995484623117	0.23814411367172142	0.47819422915056536	0.574555594779231	3.4849407061413777	1.3876759271729893
5.5	0.8923138610378069	0.668909044501287	1.225773820144721	0.35264598063606356	3.2247928580785445	1.4314114960900737
6.0	0.9274832973908881	1.167916524067608	2.482641804597534	0.21724731450993098	2.0698887674288047	1.1495035785321637
6.5	0.7411588546704999	1.475603765557066	3.1878547774197785	0.13712112533041731	1.3332046213277866	0.8092919977688584
7.0	0.5378716965130971	1.6623617298968107	3.057950721295509	0.10711861938711063	0.8829460230370849	0.5703196218991378
7.5	0.3961049938135106	1.7754386172238474	2.6200197145308675	0.1794092372919878	0.6083606111025076	0.4158865824146019
8.0	0.306755894367802	1.8434308276082887	2.1617151032004696	0.41593506904192507	0.4391955891167399	0.3184045961634598
8.5	0.2518611479323709	1.8813508385428834	1.5348967935638598	0.7426921108679507	0.3306486070542615	0.2574953059986253
9.0	0.21838592736422802	1.8819456732198623	1.0592119490683154	1.0397172408965498	0.25536584229772885	0.21992801724672492
9.5	0.19802619029636748	1.7789543846625104	0.7511734180164781	1.26327844652753	0.20013786858071528	0.19868624002292182
10.0	0.18566178720610668	1.4677691060597606	0.5431553700982852	1.4182776808667124	0.16230014792671393	0.19728592942339923
10.5	0.1782098156299854	1.0403565403629962	0.4005067347581537	1.521650990317188	0.15486454915514525	0.2630238149396943
11.0	0.17547658248714218	0.6901914522242683	0.33157242596144376	1.5887238358432314	0.22758500602465045	0.5221237114283861
11.5	0.20531251442460316	0.4617241860690032	0.3189244437228235	1.6122975229285341	0.6134187385083046	0.8751794100188454
12.0	0.3366558857090603	0.3208528391515607	0.3164131798921717	1.2800696644800715	1.6483733778625655	1.1399737590458545
12.5	0.5473673916356495	0.2393191522470826	0.34727510081910995	0.8128908899005124	2.836109659026637	1.3085931485006712
13.0	0.7624466360653934	0.2897835043947788	0.6002362224188903	0.5003058374918598	3.6571270457223903	1.4117273470187355
13.5	0.9282501322170432	0.8334548562209295	1.5815082574020851	0.3071568086577693	2.8557480976781915	1.3870058784024586
14.0	0.8886928448964199	1.2712189724490857	2.7696508035419747	0.18980055356153364	1.8234086406573697	1.0445912240751265
14.5	0.678647513506235	1.5383574051066804	3.2215918539841804	0.12260840148029792	1.1821645564392422	0.7312457357030743
15.0	0.49127044818331117	1.7003951672848243	2.9394787883900237	0.11336297992946993	0.790892606463858	0.5192352461531773
