# Time series from syn_net_6D_20191104_a_hillmodel.json, output to pipeline readable format
# Generated on 2019-11-18 21:21:09
time	A	B	C	D	E	F
0.0	0.41541341213907945	0.7749542420454524	4.549659336266691	0.38536789763483437	0.9539259464068002	0.3115527654437665
0.5	0.27710899356742685	0.8253453600612798	3.8260883003963504	0.8155043812155116	0.6349932204494562	0.21650662871175122
1.0	0.19306244794677038	0.8388177374355529	2.95576543755677	1.258605048106811	0.4412775345421606	0.15867791418519067
1.5	0.14205886796140207	0.7893136528905075	2.2067002922376475	1.5640024959195882	0.3237391913817445	0.12369813011617098
2.0	0.11111798615003414	0.639308606092328	1.6012907693838383	1.7558052530908443	0.25245277512670666	0.10347812977661669
2.5	0.09235006449063118	0.44439902253949226	1.1477058695678675	1.8735691549551787	0.2093160753701715	0.09860004050979689
3.0	0.08096967816219067	0.2895826826852866	0.8363852732541842	1.9453922384557822	0.18405299183291163	0.154236899230286
3.5	0.07486947866889132	0.18761834301084257	0.6350368233538204	1.9890854052976352	0.1781387834827966	0.478316095572686
4.0	0.14103407143752486	0.12420952520112696	0.6129763343422987	2.0140948947620982	0.486889897461386	1.0839631238274683
4.5	0.5929598984464309	0.09439685536638026	1.22713839667877	1.5770840876862837	3.150672950250893	1.5942980210452073
5.0	1.234474470304627	0.15628687002183342	1.831342653830459	1.0072662794185359	5.220651336695928	1.8687215603788956
5.5	1.599841710280418	0.2976126072795882	2.228312168825045	0.6551989968133868	4.345793990493082	1.5353291810771068
6.0	1.3420504845445589	0.45064475318312036	2.646044352957762	0.44178937959325126	3.1678850425805094	1.0072329652701832
6.5	0.8957303601125567	0.5969351771015202	3.4090528090910994	0.3157727108617679	2.0691824518176305	0.6463301494128766
7.0	0.574929724017265	0.7135586639860867	4.300155916810243	0.27361284872357916	1.3223482006570688	0.42131695131750907
7.5	0.37450086699301494	0.7906378356690686	4.440472403122232	0.4692600095953052	0.8595370678989249	0.28344894880691357
8.0	0.2522235003956639	0.8325199199694704	3.6052894180625437	0.9357231483003733	0.5776233759707414	0.19939201596904643
8.5	0.1779574318183197	0.8342189251821472	2.756305302463748	1.3471657700515707	0.4064619651654006	0.1482899794947386
9.0	0.13289498957641482	0.7616767993407517	2.043221575503495	1.6204392109260752	0.30262014804721143	0.11750095863804225
9.5	0.10555927543077974	0.5907469375507322	1.4744227400286514	1.7905932829234121	0.23965249922797763	0.10044155194818176
10.0	0.08897852467040844	0.4007896600078636	1.058393549989995	1.8948136825128625	0.20163366833493865	0.10249362280127541
10.5	0.07893206505559568	0.25983598212889486	0.7774963722456366	1.9583243821982155	0.18013272066923577	0.19790073977731915
11.0	0.07598141004913454	0.16889747599852617	0.5995035477538547	1.9969377513148516	0.18733697042950487	0.6181348083100783
11.5	0.20987891181213086	0.11298596196793076	0.6959873834917477	2.0030326085571333	0.8482431202821518	1.2280003616035735
12.0	0.7533103804548876	0.09856947689978693	1.4040932312006196	1.412170499430875	4.048152910015633	1.689538163753581
12.5	1.3704315600920527	0.18734804824494167	1.942774317540485	0.9030452359999953	5.08328698043347	1.8565162511291384
13.0	1.5901042193948562	0.33572360763878417	2.3168820868919746	0.5918980883111266	4.071901225385053	1.3932146337061038
13.5	1.2268709998239467	0.48808360664151773	2.796291433975415	0.40368448756407693	2.8686895004732285	0.9021071754078108
14.0	0.8027520831224683	0.6295403092478559	3.6427048513078635	0.29560102960274254	1.851365816313293	0.5800182940629411
14.5	0.5157923037016131	0.7361737326888456	4.457661403187549	0.28916987756625034	1.1856411233750255	0.38057040757533084
15.0	0.33830792785974795	0.8041967688640107	4.261134056412159	0.5731653084140272	0.7760715066070121	0.25858039679914013
