# Time series from syn_net_6D_20191104_a_hillmodel.json, output to pipeline readable format
# Generated on 2019-11-18 23:35:54
time	A	B	C	D	E	F
0.0	0.1772250432106633	1.7866382426569962	3.3466264336707017	0.2211312927864691	0.9096178625303937	0.20984347484674523
0.5	0.11498016052812249	1.6190624481208087	2.4132346159441873	0.21681946167064758	0.5818184572790941	0.17117277914565862
1.0	0.07580601798414092	1.244821979359133	1.8132619130385101	0.40148069684319354	0.378406934350177	0.14806475582363385
1.5	0.05159859278159842	0.8952445828204161	1.438542021940506	1.0132620206490908	0.2607832085774894	0.13609394216253254
2.0	0.0368264876038883	0.6426735230470637	1.1303124457183025	1.7448657030197015	0.21959699120295548	0.13966452698301862
2.5	0.02853448249836733	0.4745068466432548	0.8683981340896232	2.1718974508878897	0.26978017641416535	0.18748852866940693
3.0	0.03628107310940785	0.36835193932824606	0.7077096691735998	1.8283214325568151	0.6755099353283174	0.3344602819616985
3.5	0.1543920429697982	0.3053900578065353	1.1645370121035694	1.2356909357291468	2.079427432771106	0.577540827477923
4.0	0.3546648825734969	0.44720750504061807	2.7144807871581205	0.7959745870066642	3.2902748781168243	0.7072269742587494
4.5	0.43660856214787946	0.9900605547871932	4.200427047013016	0.5265586157095515	2.839427336212592	0.4994276893152856
5.0	0.35883386374711795	1.444253200445855	4.847622350830676	0.36318601189111765	1.9412905752594456	0.3477389503129073
5.5	0.24499273239844008	1.7167722682269784	4.212093228542948	0.264953698777931	1.2720075657298888	0.2548967000823587
6.0	0.15937961042258095	1.7758534554647942	3.085477630496922	0.21275206030748467	0.8145656605518111	0.1984715713030549
6.5	0.10363183079036417	1.536668351384079	2.2390064848977236	0.2348135192512095	0.5221199342649095	0.1643108706075678
7.0	0.06876374102049528	1.1516321117661048	1.7056820015150826	0.5103028916102826	0.34242860998515384	0.14413288067800548
7.5	0.04727749024347249	0.8246866132383622	1.3629910771662757	1.2043697782838267	0.24317143321036708	0.13500276482933252
8.0	0.03424267234115214	0.5945973708167989	1.0583615895725376	1.8889970149730673	0.2223603392510701	0.14532054322089594
8.5	0.027686277066309446	0.4437339020459999	0.818285913224661	2.1860659075615736	0.30615713834552216	0.21245896033138123
9.0	0.049078993572932494	0.34932473600240327	0.6970529998019174	1.6684251972598965	0.9482950294439463	0.387662432570844
9.5	0.20478522974407945	0.3011504602690646	1.5125238408008381	1.1094808740180306	2.4393852293244382	0.6394167965565265
10.0	0.3910289110789923	0.5642092295026583	3.1068279782461183	0.7175244988836279	3.3707231133342472	0.6623091628553067
10.5	0.42871679762742093	1.1177395616183357	4.467442584151646	0.4789508573268233	2.601719929576167	0.4555200131567586
11.0	0.33014093197689953	1.527214912628728	4.803922347731931	0.3343870110581595	1.7572151839889172	0.32070100023916276
11.5	0.221035629301474	1.7546934868227166	3.935944378604313	0.24815853963159448	1.1422966249025586	0.23844814559307104
12.0	0.1433857928064264	1.7450578556527259	2.845806052174716	0.20814056904378903	0.730240797400576	0.1884932547802587
12.5	0.09354947215691994	1.445668605650686	2.0844244792863558	0.26654874692674063	0.4695999271728443	0.15831699720550182
13.0	0.06252794107619766	1.063075067643973	1.6104109496632566	0.6489256327227542	0.3114264095312447	0.1408496451574773
13.5	0.04346292040167927	0.7602398556095409	1.2878743801523689	1.391093931772416	0.2303529257875961	0.1349444493868243
14.0	0.032013021038268426	0.5514077487881667	0.991340168418365	2.0101589265648827	0.23061648344224162	0.15417442516811034
14.5	0.027826881235643627	0.4163994267624923	0.7746047754892321	2.133556588121104	0.36737274321639607	0.2442558414830446
15.0	0.0716742382680111	0.3325626342174911	0.7324372555292223	1.52231739879788	1.288564940595432	0.4457887311131339
