# Time series from syn_net_6D_20191104_a_hillmodel.json, output to pipeline readable format
# Generated on 2019-11-18 20:22:35
time	A	B	C	D	E	F
0.0	1.5723930760743103	1.8595367171314479	5.044393917796803	0.27965583885755735	1.9836520155382042	0.35288543464910166
0.5	1.4520845357627783	2.0187954414276286	5.718967115431218	0.26026046961685645	1.320852973108211	0.23906624267729565
1.0	1.1451419479116138	2.117531122911836	5.72712871910688	0.2554523433535169	0.9059340567899578	0.16848558169644887
1.5	0.8082726455955358	2.1739195606231907	4.787175018855244	0.29614204602726	0.6521928436689696	0.12498814280118827
2.0	0.5594939226672538	2.177740149759193	3.3108381883360627	0.5306218612142678	0.49788497251142994	0.09835484883741594
2.5	0.3974683605541444	1.9852865072587311	2.1239682405401297	1.1538796656899413	0.4044159559536323	0.08292869518630028
3.0	0.29657000866693917	1.4868081636356334	1.3781183399018087	2.019973038355459	0.34979331820256954	0.08110625308440306
3.5	0.24499637661528334	1.0143993466500598	0.9216087431831907	2.8120403089974833	0.3326091274777429	0.132177980737402
4.0	0.5068449315279286	0.6987801947408724	0.6504348173486986	3.051264453251608	0.43684167224840664	0.3615182985152328
4.5	0.9342588033803837	0.5045882946862058	0.7951083411504136	2.09835992412439	1.8204246988596813	0.7488065031064917
5.0	1.2028199212667063	0.41337858357946927	1.2858869592780218	1.3733099914954554	4.841967285516078	1.0854539022962144
5.5	1.366091690011249	0.45186157332599547	1.6554907934106715	0.9259305262291497	7.107181567434121	1.2999579161709218
6.0	1.4651760466318384	0.6064194034866565	1.9429714177241366	0.6525845069076772	7.481962313887553	1.3678330393430274
6.5	1.5252579712900705	0.8505887299283991	2.3003127783319766	0.48601786514513057	6.111408422199378	1.2079767188093309
7.0	1.5614825685711604	1.1921047939629354	2.9419228321197957	0.384627389103763	4.477339905224751	0.8779591606037369
7.5	1.5816610663455966	1.5471170859511494	3.876746808532793	0.3229519828849043	3.19157027843885	0.5842192651381359
8.0	1.579687102854705	1.8146982614825722	4.8535725878645835	0.28552333428113397	2.1667913369965626	0.3852476556760943
8.5	1.4942911773378817	1.990405682309662	5.612709300839903	0.2634188593895933	1.439552888789139	0.25925490199233386
9.0	1.2212375837449838	2.1002383630708863	5.80494640292673	0.25462637181648706	0.9790915024589483	0.18096287474346276
9.5	0.8748069854700755	2.1649881898082057	5.0603800793747915	0.2789437110148449	0.6967713413041571	0.132662435699832
10.0	0.6049755646180068	2.18500426056063	3.6288342202854023	0.4504863696348078	0.5249621149524621	0.10302477836532516
10.5	0.4263802648352337	2.0570527472343714	2.3373044138392376	0.9885229865404332	0.42075014130759475	0.08540416287082075
11.0	0.3142755048108921	1.603759795219771	1.5096543390210364	1.829020701600715	0.3588336140746336	0.07949477472873334
11.5	0.24982087600844755	1.1028306905490268	1.0018021881912214	2.6632992103138386	0.33170943811219034	0.11137717723651219
12.0	0.40260289806819055	0.7549182489032799	0.6947300893580173	3.1102831707227105	0.38701710087618085	0.292148289400851
12.5	0.8569757452089247	0.5381341123757354	0.6913176883353095	2.3029849825059814	1.2970706630382136	0.6639526723530194
13.0	1.1556415995260558	0.42293640431052143	1.1890750666354806	1.5017994080637607	4.19665278755513	1.022766545718564
13.5	1.3374461720420363	0.4323417999829263	1.5858601600926747	1.0046934071481026	6.7502126864693635	1.264501650829523
14.0	1.4477967274884147	0.5653737893797358	1.882132354163084	0.7006311682211538	7.588012428141176	1.3693527612866794
14.5	1.5147272694733471	0.7897351256984437	2.205865355710373	0.5152782127372108	6.476120353713523	1.2635764436722539
15.0	1.5551854066566289	1.1124130636521163	2.7736081380693682	0.40243313539068315	4.801988148260147	0.9515128140783901
