# Time series from syn_net_6D_20191104_a_hillmodel.json, output to pipeline readable format
# Generated on 2019-11-18 21:07:48
time	A	B	C	D	E	F
0.0	1.213853699034054	6.899313992054261	6.9831886830775005	0.2793161274602111	1.1762358881392316	0.11292333351794069
0.5	0.85164309617473	7.315712864367359	7.283683263780717	0.2298038168623664	1.1288266185495825	0.08187103117577704
1.0	0.6040610438970578	7.574621006247279	7.342195092086086	0.23174462294117568	0.9820056971516052	0.06301213483356748
1.5	0.4479058243123703	7.726039706690929	6.960855731498648	0.3559612059494034	0.7757020661265955	0.05156169073710512
2.0	0.3516135519403296	7.778406564051976	5.939025381176818	0.6868295718247247	0.5859308252737235	0.04461130941869603
2.5	0.29268779370162457	7.634349374390879	4.591100810339852	1.1453438495906179	0.4422516512751762	0.04039767372502036
3.0	0.2567397844814968	6.955444661937172	3.4226227251713714	1.576234151654051	0.34235107047973196	0.037867580769665315
3.5	0.23484365573512944	5.4825964466406045	2.5510075944851627	1.910808289221328	0.2757934994943776	0.0364865835540344
4.0	0.22153567166356922	3.789744307470421	1.9413810261354958	2.1486150805627724	0.2336332189066529	0.03674226808990475
4.5	0.2136768042517825	2.459032618128429	1.5299267816184179	2.3103252013565605	0.2213811681146741	0.046298451652124664
5.0	0.23595218184056815	1.5636304858607617	1.2973473914352627	2.4091621375020993	0.44048139778456297	0.1307847893142962
5.5	0.8139984336057268	1.128964836895276	2.2229393275997387	1.823798734212446	0.7609363806275201	0.48703406625985846
6.0	1.3012398256930613	2.008756164137604	3.5864741947044627	1.1711407901609194	0.9529507792705685	0.59189757450132
6.5	1.5926667261826808	3.7473335747389216	4.731294706624642	0.7690133203702427	1.0619108248948403	0.38806753902482
7.0	1.7276135611176213	5.211041243651226	5.6999487011112615	0.5227580002758289	1.1275395073311205	0.24990588405842748
7.5	1.6044348141156777	6.2277951460962075	6.460367518517721	0.3720205681930641	1.165472764549982	0.16518994784828797
8.0	1.2211571984009384	6.889973704301797	6.975964550466877	0.2805544355855201	1.1764064453243586	0.11363065870184087
8.5	0.8570921411990479	7.309848573377623	7.280140270695268	0.23033564243104326	1.1304968808639106	0.08230047787133524
9.0	0.6075682356286762	7.5710349474727385	7.344142443607816	0.23096290604225725	0.9854009825393415	0.06327293145396477
9.5	0.45008239588094656	7.724139394796977	6.973138723268056	0.3520318970242072	0.7794052747211189	0.05172003056080344
10.0	0.35294874169523144	7.778620405091613	5.962061624662057	0.6793179432872914	0.5889356106021485	0.04470739393637656
10.5	0.29350320391460827	7.640188005702008	4.614374107788503	1.1370594557384048	0.44440490868276655	0.04045580477850509
11.0	0.25723676482574487	6.974834930035519	3.4408591534160387	1.569334108748998	0.3438099642602356	0.03790187534368194
11.5	0.23514615154504828	5.513358391619227	2.5640712248180813	1.9057440207178082	0.2767479843108999	0.036501426805545405
12.0	0.22171887454144928	3.817553055380204	1.9503253004410877	2.1451126024114706	0.23419449471904463	0.03670542895812281
12.5	0.2137747607433544	2.478712788074803	1.5358677759743238	2.307982768371292	0.22094020275653323	0.04586996206007461
13.0	0.23317639213802702	1.5762950544335217	1.2974762990544422	2.4085590217257327	0.43368983786592813	0.12742622081769348
13.5	0.8029789170502928	1.1286752791516936	2.198469686648385	1.838332832188368	0.7563285582562166	0.47939668976317296
14.0	1.2945176155732459	1.9803701313306055	3.5638145384315605	1.1802454896080412	0.9504534466263932	0.5954022540115363
14.5	1.588802856813944	3.717330288669696	4.712683524082898	0.7745906309723987	1.0604132626187863	0.3911733000673433
15.0	1.7269379364182398	5.189005117120742	5.684208779501158	0.5261733508886588	1.1266415930494627	0.2518302216157945
