# Time series from syn_net_6D_20191104_a_hillmodel.json, output to pipeline readable format
# Generated on 2019-11-18 19:26:51
time	A	B	C	D	E	F
0.0	3.0266973729408577	2.637293127586631	11.09757098954913	0.3863253783991434	1.1955632747314642	0.34641066327332376
0.5	2.20472571023803	2.7430150168241494	9.86375548489586	0.41469983447691716	0.7560645200013032	0.28487741313361803
1.0	1.5564230897841884	2.79265063509422	7.820951342377518	0.5352942555109387	0.47669520709113816	0.24748708158879035
1.5	1.104577697339124	2.762171156485138	5.854597870022793	0.9195401073949033	0.3028470881197831	0.2247993213460161
2.0	0.8054733075058864	2.5063375883943118	4.130776485283857	1.502630136706389	0.19568923737826657	0.2111705426046202
2.5	0.6125746396221209	1.9367325963415363	2.979444025583642	2.0061680832498716	0.13040548364305754	0.2038620471505136
3.0	0.49252286746519214	1.351773024077436	2.2599208198069065	2.3515840092636537	0.09360340856363442	0.2059322823913706
3.5	0.44293856320879693	0.9245521091409074	1.8040798007075354	2.571031663166998	0.08545708337309171	0.24853334335618973
4.0	0.7712949363557267	0.6458461418320226	1.5432982438007863	2.688633384334408	0.21202698544596282	0.4459104394534414
4.5	1.9798632317280025	0.4716052542321197	1.4795467914269504	2.1829847092411017	1.402603427636003	0.8448840326766008
5.0	2.9419514855156144	0.3744816674130633	2.0063803742751274	1.4921319515363118	2.9400254390056144	1.2450452213355228
5.5	3.541189573741572	0.4059966897543928	3.0867340024178396	1.00176192974034	3.979168861265785	1.5180320465362043
6.0	3.906233996337683	0.8603523384975454	5.116241167819728	0.6701805123571459	4.508102850748456	1.4157355662945805
6.5	4.117469193232758	1.5681744707770766	7.667986427920139	0.4712797624469345	3.8698895817407855	0.9679218419676849
7.0	4.174009415408294	2.080459012500531	9.624090717733843	0.38848938844423053	2.9056469874722897	0.6649890321896369
7.5	3.9166996778862173	2.404331553348052	10.816881116473033	0.3749875128832958	2.029870531398238	0.47886248638990747
8.0	3.221615833747794	2.6038545538529925	11.17657316520748	0.38318388066874487	1.3255656082478082	0.36543269899044406
8.5	2.382182016657249	2.723835470088718	10.26555003221608	0.4045244573625075	0.8406821403046036	0.29644027003190354
9.0	1.6870344976356895	2.7864495996457164	8.294499805637027	0.4907452344679632	0.5298326486050225	0.2545107988562855
9.5	1.1930774574495353	2.7807807243137317	6.301934942026241	0.8034126043519594	0.3357501720154011	0.2290553335271128
10.0	0.8633001237107626	2.597073194137652	4.477156331635131	1.3680232089899529	0.2159059935708309	0.2136936460075657
10.5	0.6495256740443379	2.0814888314906317	3.198472371249246	1.9045980523925823	0.1425879557867832	0.2049931361321889
11.0	0.5147191571579932	1.4740885893191684	2.3972158169592994	2.28496269648829	0.09979993893019387	0.2038994878934644
11.5	0.44464561866793034	1.0081383233914312	1.8905269022412425	2.5294828419543007	0.08399511020773125	0.23078998000514087
12.0	0.6034658149557456	0.6990940277831289	1.5891334733154008	2.6757415343902657	0.14165367835439274	0.3793515113555783
12.5	1.6982883647400642	0.5044271679223448	1.4578146790832678	2.365081100302899	1.022000833454674	0.7448907431838971
13.0	2.757932814923897	0.38967772953514973	1.8307224491836551	1.631317838868368	2.6287504568483304	1.162032029898382
13.5	3.4282446657052903	0.3769610456019036	2.7796208713247843	1.0991779640214496	3.7817613661960667	1.4701440287002647
14.0	3.837879105621579	0.7061253690296261	4.551622446499844	0.7341555215729222	4.459027688098357	1.505175909738288
14.5	4.080667724545805	1.4180829215372306	7.111970477143382	0.5057336950565877	4.091443071350393	1.059743479036781
15.0	4.180024134978655	1.981861349341184	9.243839693958408	0.399268185110378	3.1200618594950127	0.722345478105067
