# Time series from syn_net_6D_20191104_a_hillmodel.json, output to pipeline readable format
# Generated on 2019-11-18 23:44:06
time	A	B	C	D	E	F
0.0	0.33603689304435275	1.6944498418643372	0.7073480324572945	0.14705609878731393	1.5699599537379547	0.5029571961888133
0.5	0.24155380281267416	1.7427383276033916	0.664000812450091	0.3806312382722038	1.1187423102305527	0.4422996879002763
1.0	0.18226678219094264	1.7719483330756385	0.49911125551021135	1.2111911119696304	0.8307729408893385	0.40550874980236573
1.5	0.1454697398976428	1.7885966340829622	0.30975102547231426	2.6718421056774146	0.6498582187656714	0.383193785614709
2.0	0.12274972069666354	1.7867249451794778	0.1909076330028016	4.175268935688047	0.5371072260026414	0.3696590329157218
2.5	0.10875964549220943	1.6817542471907005	0.11819537547030233	5.3501670006970485	0.46739703374277636	0.36145005343503644
3.0	0.10015840818075657	1.2863331449636082	0.07387822961127641	6.166385648079885	0.42712423180655773	0.3564742235617058
3.5	0.0948754099453397	0.8301393360764477	0.046937757474297716	6.6918362221176215	0.4305930252801238	0.35348991843621136
4.0	0.09163494165447898	0.5150480299045376	0.030959583823254807	6.8376840824092335	0.6140037953746555	0.352052396694415
4.5	0.08967591022489811	0.3196984985741843	0.02571951350431128	5.621521978464038	1.0254343095059084	0.3552573274976157
5.0	0.0888315615590134	0.20134051142104192	0.0303122591722237	3.7834916844834487	1.387901490942615	0.39824040590087467
5.5	0.09855989846857412	0.13129130633453615	0.03707221781573279	2.4116825171374465	1.9650457019262735	0.729188107366594
6.0	0.37439595636971396	0.09468247199880511	0.04870259006821129	1.483607583771074	4.583525610069499	1.848222469839228
6.5	0.7777449462555677	0.19012670307558688	0.10738588592682471	0.9110386050235432	6.744954524670003	2.5108321457123512
7.0	0.9978417038197958	0.766311233661004	0.3002203255062052	0.5578382304196496	6.740955120548128	1.6712110616136724
7.5	0.9817435513734514	1.1789324409615372	0.5072880864866359	0.34213305561986274	4.941342457761808	1.1509227828321558
8.0	0.7667128363786776	1.4299807181769304	0.6286620045997842	0.2139060620089669	3.564473502070574	0.8353174909584276
8.5	0.539075421045361	1.5823174583304953	0.6853266054754448	0.1446295157867693	2.511171195433389	0.643888492276679
9.0	0.37357146482203213	1.6747303440224184	0.7076393032141521	0.13138263222470994	1.7464534785431183	0.5277794990543012
9.5	0.26539441430623384	1.7307819653611394	0.6856601657077455	0.2679923512038973	1.2332795737721978	0.45735523563326924
10.0	0.1971422424255543	1.764742201351912	0.5648141310835664	0.8817819754024842	0.9032971393554504	0.41464045953159256
10.5	0.15467840118448617	1.7848376068941372	0.35787544903823804	2.2025822172651393	0.6952471970795313	0.3887324799946106
11.0	0.12842797170276135	1.7911308553484815	0.22050986348849647	3.7531741089758963	0.5653304290460575	0.37301842196870805
11.5	0.11225349982553631	1.737151777249819	0.1362695136141524	5.039445216294514	0.4847402004686991	0.36348746586820974
12.0	0.10230551467250219	1.429791383917927	0.0848843576090887	5.956364594368224	0.4362553034896121	0.35770820977711654
12.5	0.09619375142928116	0.9533830878363323	0.053616886027525804	6.5627064054430075	0.42078959281254014	0.3542194779013064
13.0	0.09244260075669662	0.5943572750695159	0.034773310555931504	6.870084224074975	0.526762477937854	0.3522850205347345
13.5	0.09015486372566217	0.36823831291890013	0.025897166607596687	6.1522661179982965	0.8985047967008372	0.35311759085637856
14.0	0.08891605301088776	0.2305703163045944	0.02850652674209561	4.293983300111085	1.2896001800466415	0.3745599356660891
14.5	0.09128993964372718	0.14830640050350177	0.03490988488420721	2.7710616584955803	1.6713113159576576	0.5655696977989995
15.0	0.24128801371345962	0.10218031931296855	0.04382616703204396	1.716255955269896	3.7338171691948507	1.4394272810904625
