# Time series from syn_net_6D_20191104_a_hillmodel.json, output to pipeline readable format
# Generated on 2019-11-18 23:32:02
time	A	B	C	D	E	F
0.0	0.2379294065367222	2.3652415370990676	1.5264480835310001	0.322353591535023	0.368481464474064	0.1896409380424263
0.5	0.15879923583339658	1.972666788197252	0.9712048781204614	0.475345632243467	0.29894420057600746	0.17481823077403982
1.0	0.11045052788437204	1.3762863292776024	0.6229575408462917	0.5733579962880828	0.3519652149992959	0.16612022457473832
1.5	0.0809772935735065	0.9289724772478571	0.41004606914796515	0.6239924794387675	0.4845279148630536	0.1630809908542414
2.0	0.06318909278161224	0.6466131190798076	0.2809082242949396	0.6292481612360599	0.5948624220771271	0.175074079219542
2.5	0.054016920191727845	0.4739228919558884	0.2033492288323851	0.6023701034544227	0.6724134777583657	0.2405901785239492
3.0	0.07424886359311499	0.36895876462450666	0.15805729089102696	0.5516829323233116	0.7991283067707425	0.4123677509459614
3.5	0.33385892030517456	0.3052537683923792	0.14466181436836176	0.43974879601952327	1.2310496080893687	0.6604383580664557
4.0	1.0531390811254702	0.2667293663499735	0.28174544019261993	0.2836537316933281	1.7401217415976609	0.8999346624670786
4.5	1.8313588631726032	0.39227036513756197	1.366304744171054	0.17736160651962507	2.10271032294385	1.0424787453769322
5.0	2.103041773346231	1.2013355435273114	3.6691417961851953	0.11267674109145741	2.246705114534507	0.7242566613959208
5.5	1.6596679033957702	1.7449576829340647	5.080842670074862	0.0734884750945151	1.9012202970059429	0.4995610027830344
6.0	1.105872561198259	2.0752336726409544	4.628415383984729	0.05033210522892785	1.34738440389937	0.36285999024492854
6.5	0.7048272945824116	2.2737161839843085	3.448066953782295	0.0416728798988422	0.9072636855127916	0.27987776632579936
7.0	0.4473301854270543	2.384128358144575	2.522030589293077	0.08212430753620072	0.6124843977564571	0.22952467780176528
7.5	0.287349724729646	2.409083957615582	1.8388120942677337	0.23965399759846046	0.4253555422318207	0.19897669427380407
8.0	0.18905068841926986	2.200273051130907	1.1870513512119252	0.4148482743217321	0.31798694144847717	0.18045743199057282
8.5	0.12892155034546723	1.6321248377767446	0.7562563547386562	0.5361722395967837	0.31148689207892105	0.16933849796783282
9.0	0.09222621504279913	1.1033562914542543	0.49131350530754103	0.6073824863532352	0.42487974958550323	0.1635217925987844
9.5	0.06992379699805513	0.7547502443571885	0.3300766827786292	0.6320089754104306	0.5510377347511685	0.1663978699737245
10.0	0.05691477845817419	0.5398369230625225	0.2327597626295709	0.6170143191496729	0.64047150235803	0.20097734872801024
10.5	0.05646169352201932	0.4089928363771406	0.1748739454441495	0.5784552067431082	0.7218426120853553	0.3225097419109766
11.0	0.1618617052021742	0.3295454543072423	0.14460153819609103	0.4975052926619005	1.0018965675946025	0.5471995476259158
11.5	0.6976643510073581	0.28135474780989	0.17924191242651744	0.34936498028562485	1.529587916000599	0.7991419136805868
12.0	1.5072549463421048	0.25940622702541466	0.6774788650234839	0.21797195540657305	1.9614330955966592	1.0107068802988808
12.5	2.090099838472255	0.8640160413887826	2.632806040409555	0.1373479071147839	2.2282929181159465	0.8636737121873583
13.0	1.905255700156266	1.5373489567157057	4.678822090817499	0.08840658558853189	2.111408485596587	0.585390686545601
13.5	1.336430594044941	1.949369457648633	5.018951814054825	0.05895723344997464	1.5877185766083004	0.4150039270311038
14.0	0.8617921656716632	2.1986172991993613	3.965620894640359	0.04311979621577401	1.08238650483771	0.3115247019090365
14.5	0.546512293474534	2.344845147075209	2.8856676733718607	0.0522940186571095	0.7271268120322497	0.2487265904508828
15.0	0.34865853012457615	2.4113335333424755	2.1421169886685205	0.15852927027240007	0.49719394172552817	0.21062520175178615
