# Time series from syn_net_6D_20191104_a_hillmodel.json, output to pipeline readable format
# Generated on 2019-11-18 23:15:08
time	A	B	C	D	E	F
0.0	0.6537368857051421	0.5896516607690301	2.6288568506314984	0.3685531322067191	3.661396330968088	0.046822155454167284
0.5	0.5424319352934368	0.5648237952133398	2.337859579513849	0.6078248818311965	2.5820834558964343	0.036273604912126466
1.0	0.47484987975269827	0.4541299430210091	1.8871300044487478	1.6368158350177011	1.7844434961280664	0.02987559238103711
1.5	0.4338400428255583	0.3149424699873562	1.450091009856785	3.5461041611088877	1.2619046688050914	0.02599516178515775
2.0	0.4089598317733565	0.20307235917245078	1.1104317014812033	5.338827185249519	0.9280673223875923	0.023642996360807012
2.5	0.39386659725698514	0.12763663276672332	0.8675768502560639	6.612090772978042	0.716920155039356	0.022230920453651572
3.0	0.3847109154778288	0.07988655719935192	0.7003671408084109	7.442959954484491	0.584719204118241	0.021526823943411755
3.5	0.3791577469698314	0.05035569202476444	0.5876557077120466	7.970488148787303	0.5046819661703351	0.02264059559239154
4.0	0.3758046555128572	0.032259184036870676	0.5127283797988377	8.30136347423169	0.5079284995557005	0.03727100598544996
4.5	0.38017909588744436	0.02121461755839019	0.47227127712832373	8.167255792733103	1.795833012975371	0.13337671898523212
5.0	0.9356903988748637	0.014869498196315925	0.8977621959827232	5.659703873982681	3.272743406080579	0.39643001972048825
5.5	1.8400067133756064	0.02584294435117058	1.6292202904915796	3.4789516155210145	4.172373680153408	0.5474884138335815
6.0	2.3308250218897317	0.09039074597963585	2.1017529053614346	2.138286656028463	4.717957388961999	0.35277674510180507
6.5	2.190588119849376	0.20491390830868955	2.3947502079321863	1.3229937030271588	5.046872572723245	0.22188149745742236
7.0	1.6213369256969938	0.33388174066105797	2.5739091791913085	0.828767029799328	5.2213180770909675	0.1424535204361249
7.5	1.1490683441199294	0.4501606906778771	2.6774771866368052	0.5349656146194568	5.186300705945199	0.09427703806998447
8.0	0.8455315231484687	0.5397996146545022	2.713268496393544	0.38334507708057936	4.71689517294685	0.06505645945214537
8.5	0.6591365785357554	0.5889397185896942	2.635408730797201	0.36604790872426085	3.7047676647680134	0.04733326043931715
9.0	0.54571221949667	0.5674525928088013	2.352735802902427	0.5892518330022246	2.6184099565166967	0.036583593608000876
9.5	0.4768407779995912	0.45933942386389787	1.9049030555254727	1.5770026608539187	1.8090401376805085	0.030063609777486563
10.0	0.43504797941310785	0.31988878582511115	1.4649982527823981	3.47062147662281	1.2777087839019226	0.026109186105255058
10.5	0.40969263001310335	0.20660630365801752	1.1214058991987381	5.280330464356276	0.9381115582987609	0.023712022988093044
11.0	0.39431113029420567	0.12991927450236077	0.8752430240837312	6.572942090617745	0.7232405701732834	0.022271420075204964
11.5	0.3849805661495861	0.08130899659163367	0.7055797925638907	7.41788387899232	0.5886488087276789	0.0215371253059611
12.0	0.37932125027844515	0.051230072722000225	0.5911418599821455	7.954678376786254	0.5068905150693965	0.02250530642714788
12.5	0.37590146919971246	0.03279363376817034	0.5150316190178458	8.291536968600392	0.5015489689976441	0.03598279298372497
13.0	0.378779756380272	0.021540179240198996	0.4719433089574868	8.219819913544423	1.7256381142813526	0.12665541439037373
13.5	0.8967043771907942	0.01499484001001329	0.8656918155888291	5.762033783333987	3.229104640547954	0.38496157240422907
14.0	1.8125961746560662	0.02462922085052436	1.6066821185393214	3.543833694944091	4.145901770165558	0.5526393751581296
14.5	2.3219003487452254	0.08684906492593865	2.0876582005219695	2.17780166365347	4.701911896872759	0.35911344982518745
15.0	2.208176585384031	0.20009748223242824	2.3860695162578125	1.3469946477075312	5.037362544791746	0.22573536143516376
