# Time series from syn_net_6D_20191104_a_hillmodel.json, output to pipeline readable format
# Generated on 2019-11-18 21:50:28
time	A	B	C	D	E	F
0.0	0.06109937751480141	0.14044868278428835	0.3840641841829531	4.4383616545347095	0.42250836986682017	0.0736041116249049
0.5	0.07484869881093778	0.09153376570203539	0.39761152723678256	4.120386064267014	1.8103221329171766	0.19195411772403995
1.0	0.505917471199112	0.06475292757678652	0.5058480913813327	2.7361205566184212	3.2460781497663342	0.3624805932089797
1.5	1.4162466973228	0.161283763289955	1.117548531732036	1.7776897237330147	4.129144468706506	0.40971871664612775
2.0	1.5407997883030493	0.37288252760414864	1.5452469274240983	1.1835727282132986	4.517645367741053	0.27010347062367024
2.5	1.0983721875886436	0.5338161765922658	1.8809061519006178	0.8254122493864662	4.029409968211869	0.17981818552561935
3.0	0.7084886971627877	0.6411302490801329	2.3054554853483755	0.6265653383088964	3.088801850913717	0.12488427651269435
3.5	0.4534177273167012	0.7097408405665198	2.5062434916596628	0.6046200329235643	2.17261239738676	0.09153486215183844
4.0	0.29556598843634746	0.7495030978135816	1.9706123508115971	1.0538981673104324	1.4369354971032662	0.07129790840165587
4.5	0.19915476197506557	0.7567201501664449	1.4015589075336603	2.1018293791319027	0.9236215068724379	0.059020513843027304
5.0	0.14049547028074766	0.6952295446276319	0.9995988470644909	3.047089036957575	0.5945700158761685	0.05157735950856106
5.5	0.10485415784660625	0.5396497709348087	0.7288183069988287	3.6659689915971443	0.40449453038545974	0.04709486780226071
6.0	0.0832114400947663	0.3684259153363467	0.5592909242128076	4.04644101694369	0.32673919706071497	0.044621239595487285
6.5	0.07007767749603436	0.2392379307154962	0.45572768980719636	4.277813132651602	0.30891837701467184	0.045237625681303094
7.0	0.06218287269315741	0.15347667509918253	0.39298998507611715	4.418039460067065	0.36118033661193477	0.06326611604661417
7.5	0.0643270677888338	0.09934907663649872	0.38803188970119024	4.3395507785024865	1.449061417767601	0.15977792115770853
8.0	0.35090838268617436	0.06825091029043803	0.44365602767711526	2.985937922206966	3.0098253017845815	0.33022391341906904
8.5	1.2608463997659118	0.122637514116186	1.0067391567254131	1.9353936314342435	3.9864241039290484	0.43213956124790426
9.0	1.5929584591327488	0.3331832621367856	1.4726260282330348	1.280350157470199	4.501156392372596	0.29412862543547996
9.5	1.191554284803727	0.5063852246483393	1.8113707574343214	0.8827843117450006	4.187981015201276	0.19451378014811593
10.0	0.7750714520331258	0.6231456032983239	2.2129994953626766	0.6550666760333679	3.283337910844791	0.13381097345835327
10.5	0.49537008685672573	0.6985238276584907	2.5290750704025187	0.5866943891976352	2.3449774197262667	0.09695260992352976
11.0	0.32130815183327216	0.7436853503106423	2.1029499118613226	0.9030577679179179	1.566269371628228	0.07458516547644257
11.5	0.21483999137254017	0.7590285808337031	1.5005252427276787	1.8794955535507227	1.0099744653324962	0.06101456953420646
12.0	0.15003112022372433	0.7157214890011299	1.0689605074330508	2.8850124943854936	0.6482593221372114	0.05278518505644228
12.5	0.11064610907127545	0.5753428859845721	0.7737440190926715	3.5644796272848147	0.43270130795388506	0.047815297584830704
13.0	0.08672785423247478	0.4000528383168119	0.5869517480061278	3.984526756012325	0.3354307721955003	0.044962123274250004
13.5	0.07221014052260494	0.2613072790770338	0.47256575759760333	4.240214312834841	0.3099769607222102	0.04459897920982264
14.0	0.06343830899434726	0.16775023034525194	0.40309744413381954	4.395340711745305	0.33224792344764287	0.05614070871584723
14.5	0.06066515908144258	0.10810439865756528	0.3789411235402251	4.446617874046845	1.0880481711547805	0.13112599939027955
15.0	0.230421801674232	0.07298875795775242	0.4241946553821002	3.256178632257842	2.7493333120248358	0.2962751896607959
