# Time series from syn_net_6D_20191104_a_hillmodel.json, output to pipeline readable format
# Generated on 2019-11-18 22:39:32
time	A	B	C	D	E	F
0.0	4.642516297379687	2.8088754956275457	5.881455583201815	0.4792840845437862	1.214431427274034	2.782269279956471
0.5	4.089595372764165	3.093482119099746	6.588398617528586	0.443122682151328	1.1082324064592333	2.089814099775399
1.0	3.085733724201121	3.2715193711100845	6.979334695014718	0.4419745773467293	0.887243429535788	1.5736224523006774
1.5	2.0804078303664784	3.3809641682502383	6.990884837256435	0.549077681261407	0.6417018512214259	1.2142317645327005
2.0	1.3347987150380793	3.4431301270894323	5.948838322081072	0.9230223099903223	0.4501963541943803	0.9725252577777764
2.5	0.8423547744015812	3.435514796029341	4.119104568251086	1.6234281606498921	0.32092445483815474	0.8178733815902148
3.0	0.5320714649887189	3.1463244719195615	2.6894098742606363	2.383715332623882	0.2386866376037886	0.7618010657963686
3.5	0.3529416512807912	2.3433981504994317	1.7758817363940032	2.9552488553984326	0.19179833695187426	1.0147236208040473
4.0	0.5146703711844158	1.5208198265788366	1.2192699011932238	3.3081131678006948	0.24565762759579693	1.884199259296003
4.5	1.586914091672324	0.960846954131011	1.1804426505458747	3.0388172121795245	0.5204947243582454	2.810103173691363
5.0	2.738385021560129	0.6715249060584161	1.6103056154164617	2.2022143009540227	0.7923663591138309	3.4351494667836877
5.5	3.5638374281448675	0.6252918889193362	1.9400994360328039	1.5278493983721324	0.9911478060641896	3.820246276314254
6.0	4.106196707669177	0.7733420582758912	2.2641054454288074	1.088257431297923	1.1127890876208468	4.0521354582466875
6.5	4.45219053511319	1.1557866621479624	2.8319923094820596	0.8134066552577504	1.1794354486786973	4.173470772559568
7.0	4.6642762098764035	1.7934439272254386	3.81577227474009	0.6435780956798178	1.2174870705899676	4.07890587548038
7.5	4.753555773489662	2.402260888672922	4.958927261494284	0.539268390218871	1.2336100353517514	3.5156100209767818
8.0	4.622886860151865	2.831575743756123	5.93676672068706	0.47612138448760155	1.2109096600356777	2.7325461046685993
8.5	4.034413019405385	3.107813188119401	6.623457494039767	0.4417237658113126	1.0969417336689586	2.0508432964980305
9.0	3.0154574370372127	3.2803977979144094	6.993768340116196	0.4441614597715245	0.8707184766952916	1.5459039498487324
9.5	2.0232454500345782	3.3863366754473425	6.967471764308878	0.5636737447653577	0.6272442218322724	1.1953516132360174
10.0	1.2957872159816919	3.4455151589280244	5.83432780380997	0.9594873919434412	0.44002310420878915	0.9600462086971037
10.5	0.8173921281778113	3.4295104729705996	4.00907355062777	1.6752794709269117	0.3143255126157551	0.8105898051556301
11.0	0.5166828916427175	3.107907993396271	2.6158458458822937	2.4275916350219586	0.23460210373284132	0.7644306724503858
11.5	0.3465242287343035	2.2843219571787086	1.7305095621747575	2.9849280276132677	0.1902789269771214	1.0532562540401422
12.0	0.5587205036868104	1.47604645617665	1.192828709698011	3.320299315051723	0.2583059299063812	1.9507922508357087
12.5	1.6688596197713461	0.9338700458964128	1.2079061700587612	2.989056037044589	0.540078515034312	2.859998859017555
13.0	2.802282207314879	0.6617004329846822	1.6347742731502621	2.1506138184968604	0.8075830609352163	3.4663890151540846
13.5	3.606727553484573	0.6293222880936549	1.9594145140429657	1.4928022251620228	1.0013430921708086	3.8392400334921724
14.0	4.133818137583026	0.7898317859273933	2.2902581850852948	1.0661373303550474	1.1184279694335668	4.063294881372931
14.5	4.469584278620308	1.1912522808314359	2.8838199272728016	0.7996941420277858	1.1826005193878262	4.176743821308837
15.0	4.674125513708705	1.8371692641162427	3.889662728449367	0.6351345435331418	1.2192406147479884	4.057331617058195
