# Time series from syn_net_6D_20191104_a_hillmodel.json, output to pipeline readable format
# Generated on 2019-11-18 23:01:42
time	A	B	C	D	E	F
0.0	0.3010454690423191	0.6291547855075645	0.5385109261036359	6.931107104339831	0.9481326912942956	0.7181753889128122
0.5	0.761247351932231	0.38734623337659313	0.513049136879909	4.885512813799168	2.0525531683427056	0.9111033453098198
1.0	1.244616984449603	0.254178620424273	0.985242605068629	3.373319148312167	3.1206372062147087	1.0309169963368436
1.5	1.623972941816927	0.3736584539674501	1.6955770472882148	2.4466949540746263	3.9002887202634793	1.103679762896239
2.0	1.889819962756108	1.0181468741436694	2.6393293954868415	1.8836375838416497	4.046129495583732	1.12455420484377
2.5	1.981231325637511	1.7256555498535144	3.642796508152414	1.541972851832998	3.4225970342503906	0.9303811300231225
3.0	1.7067522272864664	2.21636512322541	4.391178879020764	1.335086250935778	2.719314029317499	0.6704349455699974
3.5	1.2058925408332004	2.5255852994121732	4.6845000850198995	1.2121333458751022	1.9718128325461604	0.48111618216966895
4.0	0.7821945663027249	2.7121410325283675	4.268952399555086	1.156897181773129	1.3840811472749053	0.3573159484845075
4.5	0.4977661428167206	2.79653411347886	3.1685028936325206	1.2703078952254552	0.9947347194678783	0.2789759651196767
5.0	0.31887688512385354	2.676187913774919	2.1669367268919744	2.0445921141704657	0.7508593575172425	0.23165942924271923
5.5	0.20877091289701052	2.113765860091367	1.4290200954307413	3.768585200619978	0.6014173023304292	0.21546293609638972
6.0	0.14332140970317425	1.391569877597106	0.9533596469946708	5.834921163212646	0.5166538642446652	0.293056134693722
6.5	0.15069588881574605	0.8648835148555368	0.662762705987639	7.357133031873622	0.5739369858441365	0.5451974953090913
7.0	0.4400777171717794	0.5318723127265879	0.49286818647368325	6.25258468595034	1.2905744230361247	0.7947155106957035
7.5	0.9360914559785553	0.32888514168960803	0.6273620128294595	4.280713936670307	2.4489895092805187	0.9592679618853192
8.0	1.3888689481798486	0.24737619788868767	1.2096218526374398	3.000345891528474	3.423706893406192	1.0602739220190873
8.5	1.7282597234922252	0.5458949202353102	1.9946965380440533	2.21991481656515	4.083571771403289	1.1207162097275842
9.0	1.9505386021774294	1.2822369465545016	2.997149533330971	1.745984125252342	3.8460042697567585	1.0856120540642464
9.5	1.9326511095728376	1.9196488645079601	3.942000882590741	1.4585256880377795	3.1925975297191935	0.8353013491123473
10.0	1.5394535004494823	2.340232243931936	4.552011063618058	1.2848729933529228	2.4548099237625323	0.5964824729568077
10.5	1.0436589113122274	2.6015880678999586	4.642047378863334	1.1846057238688377	1.7450362986092167	0.432038612162908
11.0	0.6694758970412921	2.7539974095091346	3.9239183078771807	1.1631973490886196	1.2294961833040334	0.3260362295595375
11.5	0.42616601066689036	2.790119345874141	2.790689576706133	1.426735992908922	0.8970456113405806	0.2596008970696019
12.0	0.27461973117336275	2.535667919735843	1.88170816000794	2.5522860689911813	0.6906550853697382	0.2216070879698931
12.5	0.18185973117600607	1.853447147241166	1.2382829403074604	4.482637011279353	0.5653907927010738	0.22466948810592738
13.0	0.13106786567459583	1.1841639480430206	0.8363566597566428	6.487852373677139	0.5057374902884703	0.36547154293374834
13.5	0.2096687878542773	0.7314645030138424	0.5918193124720859	7.332868758071358	0.7212213261932879	0.6403217188666178
14.0	0.604431336021273	0.4497907325394599	0.4765656738273343	5.50692230014595	1.6860889535213182	0.8604957707621159
14.5	1.103811933559613	0.282407522089389	0.8011170932042483	3.766475501966969	2.818245089612762	0.9999210270093157
15.0	1.5190530348098685	0.2845334769073436	1.4540845092588375	2.686117567640176	3.691226763222327	1.084967207374088
