# Time series from syn_net_6D_20191104_a_hillmodel.json, output to pipeline readable format
# Generated on 2019-11-18 21:32:47
time	A	B	C	D	E	F
0.0	0.2114377114689724	4.314550186997659	8.711315095578852	0.5434204870275545	0.2764413359473366	0.4479169458733946
0.5	0.13553837800897656	4.3927188358201885	6.311843248326152	1.0241792946046022	0.18692777542006403	0.3497547495400061
1.0	0.08930377031056455	4.293384949445246	4.263947531854001	1.4252754989080876	0.12862495250625205	0.2902176398457041
1.5	0.06120638551730036	3.6893074813796667	2.923864557264935	1.6843616775017431	0.09213122372242549	0.25527631463469586
2.0	0.04414770168975337	2.6752426472194264	2.093471168442585	1.8436188245014904	0.06964690373337584	0.2430519483726973
2.5	0.033813777421097785	1.7998755995983011	1.5861086956310995	1.940547593160649	0.05627488002337712	0.3014663201092363
3.0	0.02870350404549014	1.2043878817407543	1.2776436688000667	1.9994019405294081	0.06753197543404982	0.7007276132863747
3.5	0.11504547031811344	0.8278355101196422	1.2138485532274572	2.0316247126135556	0.2248057353055789	1.7318531378065745
4.0	0.4454175789007759	0.620806074587803	1.6914359832553418	1.5961425497565556	0.3602398252012517	2.835036917068996
4.5	0.7189397514291258	0.6365250974254958	2.397609088534137	1.071311561089735	0.4468050684497782	3.595273859474793
5.0	0.894361368732939	1.0876680298901447	3.3289575599601444	0.7367728796321253	0.4944030235163722	3.7544897077789567
5.5	0.9892324918139889	2.0458008031438646	4.991041859882451	0.5263040954206522	0.52127978216234	2.7280937893772035
6.0	0.9485923569785537	2.9725160513271267	7.2565604813945574	0.39427522822110966	0.5360191901194575	1.7652042386512863
6.5	0.712456763623436	3.5921996294496092	9.09261037105897	0.3132972553679559	0.533249474523528	1.1551061422939113
7.0	0.46300498100009124	3.9764452911709043	9.76469965977809	0.2764190138302875	0.4774523246997886	0.7807589655418068
7.5	0.29171350452157213	4.209890975889746	9.476953658801913	0.33754275973336156	0.3590641779106823	0.5523755048993275
8.0	0.18470676283883736	4.347417923766618	8.071269991746476	0.6786730226365043	0.24596455333194717	0.413302014681099
8.5	0.1192345310572424	4.392178986092616	5.620578093770898	1.1599966182768786	0.16664166444232062	0.32871783012943645
9.0	0.07939146317126909	4.180923811873884	3.796563519685824	1.5159734317641314	0.1158361427213538	0.277589227363431
9.5	0.0551868953028911	3.3999831732905377	2.631869523126396	1.740459174537867	0.08422061958021053	0.24876539341150752
10.0	0.04049570413555408	2.3847169954414658	1.9146738102478869	1.8778076730777502	0.06482824226028215	0.2476287834236598
10.5	0.03163159111339332	1.5941678675676096	1.4772365095534497	1.9613150723506279	0.05403266088200161	0.3629393160637923
11.0	0.0315788619292399	1.0723163238177815	1.213407807777886	2.011988788586595	0.10251523455390299	0.9533618632759814
11.5	0.2040916069607197	0.7485534729344824	1.324155691830114	2.0002110536117637	0.27149141706902735	2.085893680894157
12.0	0.5386725827879285	0.5948506647523748	1.8817693633071506	1.4153959907426439	0.39069711825223813	3.1028611055565376
12.5	0.7804440248655831	0.7148546793858034	2.639659279175457	0.95467416561334	0.4643528132163186	3.738460113911425
13.0	0.9314015248174206	1.3348259785176446	3.724187095539929	0.6633183834310832	0.5039734580180307	3.5328105202686944
13.5	0.9971199842260537	2.3520850791031838	5.6512242740594685	0.4801630592047982	0.5268600846692181	2.3985508869492302
14.0	0.8932505739060943	3.188398877526142	7.891575851633183	0.36552878220909407	0.5378869868949495	1.5511180084394205
14.5	0.6312071649340236	3.7273788755723243	9.434409617527214	0.2971229929788986	0.5244740254493785	1.023304553242245
15.0	0.40358361341625415	4.058961181676054	9.743372012877355	0.278397319085777	0.4458721505258976	0.7002748820562922
