# LEMpy target file for E, replicate 0 
# Run configuration file:  ../pipeline/src/syn_net/syn_net_6D_simulations_202110_with_G/p270/results2/edge_finding_20211014212318/lempy_20211014212318_config.txt 
# Time series data file:   ../pipeline/src/syn_net/time_series_with_G/syn_net_6D_20191104_a_data_p270_transposed_with_G.tsv 
# Computed on:  2021-10-14 21:25:22 
 
model	loss	pld	inv_temp	prior	rhs_param_0	rhs_param_1	rhs_param_2	rhs_param_3	rhs_param_4	hess_eigs	hess_det	bnd_params	pld_time	opt_time
tf_act(F)	16.912709254835658	0.99727	1.0	0.07142857142857142	0.3	0.12366995642215875	13.78858479320243	71.64013938831683	10.0	[1, 1, 8.257213670788069, 187.10865876343829, 1610234.744450515]	2487806521.1316576	2.0	4.347900000034599e-05	0.37122725999999995
tf_rep(B)	16.69717856673312	0.00272955	1.0	0.07142857142857142	0.18610852827365015	0.0990649860096419	100.0	0.14176456268219978	2.6787276187707727	[1, 10.422873748980301, 209.6296388063574, 109246.61917997761, 5865504.6966352975]	1400082270330230.8	1.0	4.8835000000302387e-05	0.68893037
tf_act(A)	431.2176271100782	0.0000000307162	1.0	0.07142857142857142	0.3	0.5342540580618861	88.08768094522321	100.0	1.930164300302569	[1, 1, 1, 5441.318724830045, 1652547.5247810143]	8992037790.262476	2.0	0.0002409270000001129	0.3339532460000001
tf_rep(C)	433.45430679765013	0.00000000351664	1.0	0.07142857142857142	0.0	0.02895703030024215	94.00689842442608	4.014862679153085	10.0	[1, 1, 108.78924358514165, 3497.832584555708, 1618955.5357104167]	616055582515.0015	2.0	4.485400000042716e-05	0.6120969540000001
tf_rep(D)	728.5997239445392	0.000000000663688	1.0	0.07142857142857142	0.08899898226015687	0.0010640379795238252	0.0	1.1415241871219908	9.916849364364813	[1, 1, 1, 186.7817193157407, 1610110.7099300055]	300739246.68941426	1.0	4.467599999991023e-05	0.3628300040000001
tf_act(E)	683.6310459965362	0.000000000547322	1.0	0.07142857142857142	0.3	0.05161924547385821	14.573065235112525	95.86695161795575	3.3526658552825985	[1, 1, 7.967866529487433, 187.26140163439297, 1610212.4934391933]	2402555961.4044495	1.0	4.3601999999864915e-05	0.31443515999999994
tf_act(D)	665.6468132453275	0.000000000254896	1.0	0.07142857142857142	0.0	0.010312687832242028	2.085559594775738	100.0	10.0	[1, 1, 4.0337663494228675, 213.03097602851705, 1610165.37782942]	1383642775.816975	3.0	4.542900000004124e-05	0.5716006060000001
tf_act(G)	728.5997239447507	0.000000000224403	1.0	0.07142857142857142	0.08899767163545004	0.0010639966651147918	0.0	100.0	1.173585554041813	[1, 1, 2.0368242187180963, 200.52028445273766, 1610233.6601952931]	657658993.0304903	2.0	4.508399999991752e-05	0.2983487679999999
tf_act(C)	728.5997239445892	0.00000000018555	1.0	0.07142857142857142	0.0889984355835357	0.0010640206477976694	0.0	99.68129397974164	1.047245115955371	[1, 1, 12.651656145062578, 188.8743674745437, 1610174.4464834288]	3847630271.2686543	1.0	4.6608999999975254e-05	0.5615097549999999
tf_rep(F)	728.5997239445383	0.000000000165922	1.0	0.07142857142857142	0.08899899791854742	0.001064038505353836	0.0	0.001	10.0	[1, 1, 1, 186.7817193153585, 1610110.7099300066]	300739246.6887991	3.0	4.044300000050072e-05	0.2804708200000001
tf_rep(G)	728.5997239445372	0.000000000165922	1.0	0.07142857142857142	0.08899906809686532	0.0010640406428916113	0.0	0.001	10.0	[1, 1, 1, 186.7817193151459, 1610110.7099300069]	300739246.68845683	3.0	4.405099999971185e-05	0.27569232300000035
tf_rep(A)	678.6785179813986	0.0000000000751795	1.0	0.07142857142857142	0.0	0.007288436157134851	100.0	8.766519649965478	10.0	[1, 1, 18.669860619891313, 320.03840167474897, 1610304.3283848194]	9621684871.289518	3.0	6.280699999994255e-05	0.574593299
tf_act(B)	728.599723944553	0.000000000070332	1.0	0.07142857142857142	0.08899876092373493	0.0010640309252755874	0.0	100.0	1.0058865495812819	[1, 1, 21.871666583688526, 190.11059681020976, 1610140.1342657069]	6695019979.072738	2.0	5.416499999988389e-05	0.5161363209999998
tf_rep(E)	652.2197047672696	0.0000000000432457	1.0	0.07142857142857142	0.0	0.00967307688065042	100.0	3.8615182491778186	10.0	[1, 1, 42.83926252511269, 1174.7890858465926, 1611511.467817804]	81102695666.0346	3.0	4.2850000000704824e-05	0.3685174820000001
null_model	728.5997239445787				0.08899846603921874	0.0010640224674375233								
