# Run Manifest for ../pipeline/src/yeast_data/simulations202110_Orlando_2/extra_nodes_no_annot/results4/
run_step	run_input	run_output
lempy	/hpc/group/harerlab/bc187/GIT/pipeline/src/yeast_data/simulations202110_Orlando_2	/hpc/group/harerlab/bc187/GIT/pipeline/src/yeast_data/simulations202110_Orlando_2/extra_nodes_no_annot/results4/edge_finding_20211013094900/summaries
netgen	/hpc/group/harerlab/bc187/GIT/pipeline/src/yeast_data/simulations202110_Orlando_2/extra_nodes_no_annot/results4/edge_finding_20211013094900/summaries	/hpc/group/harerlab/bc187/GIT/pipeline/src/yeast_data/simulations202110_Orlando_2/extra_nodes_no_annot/results4/seed_network_20211013094900
netper	/hpc/group/harerlab/bc187/GIT/pipeline/src/yeast_data/simulations202110_Orlando_2/extra_nodes_no_annot/results4/seed_network_20211013094900	/hpc/group/harerlab/bc187/GIT/pipeline/src/yeast_data/simulations202110_Orlando_2/extra_nodes_no_annot/results4/network_finding_20211013094900/dsgrn_net_gen_results20211013094900/networks20211013094900
netquery	/hpc/group/harerlab/bc187/GIT/pipeline/src/yeast_data/simulations202110_Orlando_2/extra_nodes_no_annot/results4/network_finding_20211013094900/dsgrn_net_gen_results20211013094900/networks20211013094900	/hpc/group/harerlab/bc187/GIT/pipeline/src/yeast_data/simulations202110_Orlando_2/extra_nodes_no_annot/results4/network_queries_20211013094900/queries20211013094900
