# LEMpy local minima file for target WHI5, replicate 0
# Right-hand side of tf_act():  p0 - p1(tar) + p2(reg^p4) / (p3^p4 + reg^p4)
# Right-hand side of tf_rep():  p0 - p1(tar) + p2(p3^p4) / (p3^p4 + reg^p4)
# Run configuration file:  ../pipeline/src/yeast_data/simulations202110_Orlando_2/no_annot/results5/edge_finding_20211012220709/lempy_20211012220709_config.txt
# Time series data file:   ../pipeline/src/yeast_data/time_series/orlando2008_WildType_r1_trunc.tsv
# Computed on:  2021-10-12 22:10:37 
 
model	loss	p0	p1	p2	p3	p4
WHI5=tf_act(SWI4)	15.901307205746406	0.3	0.06600461883227796	10.815483290225478	51.41059075094594	2.295661239582238
WHI5=tf_act(SWI4)	15.933522724494813	0.3	0.0670326931139642	11.109399753435033	52.225764140059454	2.2022748302561332
WHI5=tf_act(SWI4)	15.899364980976307	0.3	0.0658597778144472	10.75235494767873	51.16457681006289	2.3225644300917954
WHI5=tf_act(SWI4)	15.899738410058124	0.3	0.06577702038902411	10.721509201162075	51.05813634301455	2.334437635121725
WHI5=tf_act(SWI4)	15.899365000538879	0.3	0.0658593684911649	10.752260689129775	51.16437559175261	2.3225973456479156
WHI5=tf_act(SWI4)	15.903503086772094	0.3	0.06610502232070672	10.85360714690403	51.53738331724872	2.2839659114502338
WHI5=tf_act(SWI4)	15.901032407259105	0.3	0.06565050033320614	10.683193703036727	50.945197988680164	2.3488298659505014
WHI5=tf_act(SWI4)	15.91479428409113	0.3	0.06539642476595123	10.568216263918362	50.50579774288612	2.397637612605133
WHI5=tf_act(SWI4)	15.899364991831385	0.3	0.065859548306924	10.752310268408989	51.16452784878284	2.3225708496050497
WHI5=tf_act(SWI4)	15.899364976646378	0.3	0.0658598879169065	10.752364934320818	51.16454896539366	2.3225609187442293
WHI5=tf_rep(SWI4)	246.99302962549118	0.3	0.0027135498337805745	66.81965817060122	0.46667394306467913	10.0
WHI5=tf_rep(SWI4)	246.99302962551525	0.3	0.0027135496039068807	67.27459737029804	0.9028737016990404	9.989176584888067
WHI5=tf_rep(SWI4)	246.9930296254591	0.3	0.0027135504442766523	67.6355466923791	0.6041953428680684	9.994422981365096
WHI5=tf_rep(SWI4)	246.9930296253356	0.3	0.002713555991196386	67.3401937415352	0.6493954301272693	10.0
WHI5=tf_rep(SWI4)	246.99302962549044	0.3	0.0027135498469563948	67.20231303424501	0.3429300242495744	9.957960177410973
WHI5=tf_rep(SWI4)	246.9930296254657	0.3	0.0027135504264348223	66.78377258451258	0.8399289171063499	9.949785315593349
WHI5=tf_rep(SWI4)	246.99302962549118	0.3	0.0027135498337805745	66.3713763635958	0.44471165341886026	9.908712214429224
WHI5=tf_rep(SWI4)	246.9930296254585	0.3	0.002713550451977917	66.45753564781032	0.001	9.928012024267804
WHI5=tf_rep(SWI4)	246.99302962545858	0.3	0.002713550448101724	66.03045052772066	0.001	9.94259552841286
WHI5=tf_rep(SWI4)	246.99302962545852	0.3	0.0027135504495321454	65.80593088876043	0.45355058897010225	9.959705228342024
WHI5=tf_act(HCM1)	38.7981629199884	0.29997094429947874	0.15061770103508584	31.62559545101297	100.0	1.007585899499472
WHI5=tf_act(HCM1)	38.79779635446932	0.3	0.15039812314634707	31.581577004809535	100.0	1.0078230365924055
WHI5=tf_act(HCM1)	38.797796406537316	0.3	0.15039665939999292	31.581356090450875	100.0	1.0078298598686435
WHI5=tf_act(HCM1)	38.83116876702492	0.3	0.14894258719031409	31.388877079201894	99.95534075328014	1.0175625355844444
WHI5=tf_act(HCM1)	38.81548357829542	0.3	0.15041102808535525	31.527721983361793	99.6534713986402	1.00891464708209
WHI5=tf_act(HCM1)	38.802178866145425	0.3	0.15025113656171007	31.540122284094963	99.9165320301907	1.008359887359034
WHI5=tf_act(HCM1)	38.82223596086077	0.3	0.15040588842279284	31.50526983762251	99.52220307193066	1.0093399452520184
WHI5=tf_act(HCM1)	38.797796406025675	0.3	0.15039666482162534	31.581363017879145	100.0	1.0078303091915068
WHI5=tf_act(HCM1)	38.807763536325375	0.3	0.15001922395849027	31.48065468163061	99.82212865287353	1.0090808472451611
WHI5=tf_act(HCM1)	38.79779637981288	0.3	0.15039730927273467	31.58147485474038	100.0	1.007828764592058
WHI5=tf_rep(HCM1)	246.9930313838619	0.3	0.002713549223292495	70.79088506525781	2.8346026657790513	9.255536871568177
WHI5=tf_rep(HCM1)	246.99303641957016	0.3	0.0027135500783488998	71.24582426495463	3.2708024026970435	9.244713476690807
WHI5=tf_rep(HCM1)	246.9930324136344	0.3	0.002713550860773714	71.60677358703569	2.9721219720239214	9.24996194740387
WHI5=tf_rep(HCM1)	246.99303268330868	0.3	0.002713556439883465	71.3114206361918	3.0173220592843437	9.271790342415818
WHI5=tf_rep(HCM1)	246.99303085961583	0.3	0.0027135486692332765	71.1735399289016	2.710856652962621	9.229750520897612
WHI5=tf_rep(HCM1)	246.9930355183882	0.3	0.0027135512489036635	70.75499948213924	3.207855528776934	9.221575670953367
WHI5=tf_rep(HCM1)	246.99303152092452	0.3	0.0027135489949789795	70.34260326122246	2.812638234372689	9.18050260012449
WHI5=tf_rep(HCM1)	246.99302993477895	0.3	0.002713550495814956	70.42876254543698	2.3192198840480107	9.19980241018193
WHI5=tf_rep(HCM1)	246.99302991604813	0.3	0.002713550493975392	70.00167742534732	2.313247658884574	9.214385914514496
WHI5=tf_rep(HCM1)	246.99303107619662	0.3	0.0027135506673629894	69.7771577863871	2.7657982476694682	9.231495614374836
WHI5=tf_act(NDD1)	246.9930296254382	0.3	0.002713550874142231	0.0	100.0	1.0065314737826028
WHI5=tf_act(NDD1)	246.99302962545863	0.3	0.002713550451388548	0.0	100.0	1.0
WHI5=tf_act(NDD1)	246.9930296254584	0.3	0.002713550451234284	0.0	99.70213151002861	1.0
WHI5=tf_act(NDD1)	246.99302962535336	0.3	0.0027135534666204546	0.0	99.7473315991279	1.0218292720974154
WHI5=tf_act(NDD1)	246.9930296254905	0.3	0.0027135498458058624	0.0	99.44086619325022	1.0
WHI5=tf_act(NDD1)	246.9930296254685	0.3	0.002713550256661813	0.0	99.937865086107	1.0
WHI5=tf_act(NDD1)	246.99302962549058	0.3	0.0027135498461261917	0.0	99.54264782241951	1.0
WHI5=tf_act(NDD1)	246.99302962545852	0.3	0.0027135504506561017	0.0	99.04927480935083	1.0191763272124847
WHI5=tf_act(NDD1)	246.99302962545855	0.3	0.00271355045084988	0.0	99.04330256060638	1.0337487577544568
WHI5=tf_act(NDD1)	246.99302962545855	0.3	0.002713550451052366	0.0	99.49585313946748	1.0508537598786276
WHI5=tf_rep(NDD1)	136.50018405665458	0.0	0.004111421419136999	75.04152146631193	17.415190736904638	5.051994835110269
WHI5=tf_rep(NDD1)	136.5074977240438	0.0	0.004014052609502177	75.41522947862133	17.53360849204682	5.130177619591031
WHI5=tf_rep(NDD1)	136.49988939544815	0.0	0.004106616024682887	75.78321009580966	17.38454351230623	5.055056578083016
WHI5=tf_rep(NDD1)	136.5017785085699	0.0	0.004079524351635853	75.48812596532044	17.435383051328696	5.076145850806178
WHI5=tf_rep(NDD1)	136.49689208060713	0.0	0.004192971775816162	75.36763768175182	17.284892283241113	4.988170092969238
WHI5=tf_rep(NDD1)	136.50185818348672	0.0	0.004086100095533468	74.9048191489637	17.45788405022446	5.072362204100736
WHI5=tf_rep(NDD1)	136.49725296969342	0.0	0.004225025092128935	74.51183361533134	17.28611734544874	4.965289220529745
WHI5=tf_rep(NDD1)	136.49718950258992	0.0	0.00424672099671774	74.6196180666379	17.251027024391327	4.948968307665249
WHI5=tf_rep(NDD1)	136.49751895378228	0.0	0.004239935833214547	74.19438673676322	17.282782754458008	4.954646033012524
WHI5=tf_rep(NDD1)	136.49902758781164	0.0	0.0041568345532465726	73.95342458951576	17.408909231228577	5.01797114187743
WHI5=tf_act(SWI5)	246.99302962545855	0.3	0.002713550450199374	0.0	100.0	1.010411919745838
WHI5=tf_act(SWI5)	246.99302962545855	0.3	0.002713550449060104	0.0	100.0	1.0
WHI5=tf_act(SWI5)	246.99302962545852	0.3	0.0027135504504005262	0.0	99.76569559880897	1.0
WHI5=tf_act(SWI5)	246.99302962545266	0.3	0.0027135505684644412	0.0	99.81089568345602	1.0218268682569662
WHI5=tf_act(SWI5)	246.9930296254905	0.3	0.002713549844990521	0.0	99.50443027757834	1.0
WHI5=tf_act(SWI5)	246.99302962546668	0.3	0.00271355028922485	0.0	100.0	1.0
WHI5=tf_act(SWI5)	246.99302962549064	0.3	0.00271354984438311	0.0	99.60478273631252	1.0
WHI5=tf_act(SWI5)	246.99302962545855	0.3	0.002713550450401715	0.0	99.11142150322733	1.0193453688112044
WHI5=tf_act(SWI5)	246.9930296254586	0.3	0.002713550450563418	0.0	99.10544927962817	1.0339286371281853
WHI5=tf_act(SWI5)	246.99302962545858	0.3	0.0027135504495496557	0.0	99.55799986259032	1.0510350694840336
WHI5=tf_rep(SWI5)	43.671776115882494	0.0	0.026678239318264657	4.087549515824311	43.891274919674224	3.9122173238423987
WHI5=tf_rep(SWI5)	43.672151511309245	0.0	0.026684578955098324	4.088992606697117	43.865935736548636	3.894173409346635
WHI5=tf_rep(SWI5)	43.69463236552952	0.0	0.026483483577361744	4.082380250278776	43.52432675643193	3.817802329186359
WHI5=tf_rep(SWI5)	43.684856189318964	0.0	0.026564050380205973	4.085391081748698	43.638263804927256	3.8308435224028305
WHI5=tf_rep(SWI5)	43.70559781630053	0.0	0.02638430402484035	4.077929599517969	43.40874867694535	3.8163681415602535
WHI5=tf_rep(SWI5)	43.67189541747836	0.0	0.026708965107756725	4.08924224789083	43.92382108880303	3.9132944242405863
WHI5=tf_rep(SWI5)	43.67680668918804	0.0	0.026646189518133998	4.088980835628212	43.75919048187319	3.854221826911906
WHI5=tf_rep(SWI5)	43.671776117242004	0.0	0.02667820824135558	4.087545515259239	43.89126166664709	3.912212646528812
WHI5=tf_rep(SWI5)	43.6726230062788	0.0	0.026761182434675478	4.092112191111687	43.97761148208295	3.9136823240113285
WHI5=tf_rep(SWI5)	43.71289869146973	0.0	0.0272499020666977	4.118526666196026	44.48944625145153	3.9231394204678804
WHI5=tf_act(NRM1)	246.99302962545852	0.3	0.002713550450920383	0.0	100.0	3.833300011491963
WHI5=tf_act(NRM1)	246.9930296254586	0.3	0.0027135504497766663	0.0	100.0	5.96120071944121
WHI5=tf_act(NRM1)	246.99302962533403	0.3	0.002713555208373239	0.0	99.73423055391704	6.088809541004837
WHI5=tf_act(NRM1)	246.9930296254585	0.3	0.002713550450693679	0.0	99.77943067283995	6.110638188514
WHI5=tf_act(NRM1)	246.99302962549046	0.3	0.002713549846308405	0.0	99.47296526696226	6.068598365924973
WHI5=tf_act(NRM1)	246.99302962546787	0.3	0.00271355026639899	0.0	99.96996415981904	6.060423504107348
WHI5=tf_act(NRM1)	246.99302962549046	0.3	0.002713549845319106	0.0	99.57474689613156	6.019350402943223
WHI5=tf_act(NRM1)	246.9930296254584	0.3	0.0027135504526629556	0.0	99.08221400072951	6.040885968274788
WHI5=tf_act(NRM1)	246.99302962545843	0.3	0.002713550450998957	0.0	99.07624178753025	6.055469563132118
WHI5=tf_act(NRM1)	246.99302962545852	0.3	0.00271355044948022	0.0	99.52879242194116	6.072579617091583
WHI5=tf_rep(NRM1)	212.91289611019693	0.0	0.029841040706408438	3.2742030242020213	99.92969751847569	1.0
WHI5=tf_rep(NRM1)	132.73839547191372	0.0	0.008502144070524777	2.959805926899936	29.614981847033516	10.0
WHI5=tf_rep(NRM1)	132.7383955661732	0.0	0.008501821019693346	2.9597483280249026	29.61484069314586	10.0
WHI5=tf_rep(NRM1)	132.7383954751738	0.0	0.008502227722830207	2.9598279875654105	29.614976541416706	10.0
WHI5=tf_rep(NRM1)	132.78169455146988	0.0	0.008528975244219451	2.954225231185348	29.718717702597612	9.959926615331337
WHI5=tf_rep(NRM1)	132.7383954721288	0.0	0.008502140876117273	2.9598052641984576	29.61497561514447	10.0
WHI5=tf_rep(NRM1)	132.7383954744304	0.0	0.008502131921133404	2.959811038854037	29.614935275282097	10.0
WHI5=tf_rep(NRM1)	132.80257114481486	0.0	0.008320102626831355	2.962372782030492	29.111303974277924	10.0
WHI5=tf_rep(NRM1)	132.73839547180592	0.0	0.008502153600356997	2.959806943521218	29.615015683473	10.0
WHI5=tf_rep(NRM1)	132.73839547190826	0.0	0.008502143564212104	2.9598048281729428	29.61499134150967	10.0
WHI5=tf_act(CLN3)	242.1020208031338	0.3	0.018922302126322385	2.1148599518297684	65.04536467586004	1.0
WHI5=tf_act(CLN3)	242.14120622011913	0.3	0.01893537251788274	2.144124072938731	66.95057665153874	1.0
WHI5=tf_act(CLN3)	242.14404608446793	0.3	0.018781225437510526	2.126433408986319	67.13841816255311	1.0
WHI5=tf_act(CLN3)	242.144562206462	0.3	0.018695150282964552	2.115520528582247	67.17183066592902	1.0
WHI5=tf_act(CLN3)	242.13558032071427	0.3	0.018794676791502707	2.122093369620289	66.71042395763656	1.0
WHI5=tf_act(CLN3)	237.155565058639	0.3	0.03227367423162182	2.1321514248248	0.001	1.0000000161969251
WHI5=tf_act(CLN3)	237.15556409819723	0.3	0.032273059531256726	2.1321062964369504	0.001	1.0003966191996196
WHI5=tf_act(CLN3)	237.15552070856202	0.29856876089199125	0.032273685237354424	2.1335775066016347	0.001	1.0196584183223767
WHI5=tf_act(CLN3)	237.15549176956236	0.2977219922243771	0.032273195839124705	2.134385495101058	0.001	1.0349314497963653
WHI5=tf_act(CLN3)	237.2385447797958	0.2973061593295987	0.032165936382800984	2.135401673500348	0.45249832332135775	1.0726347772626283
WHI5=tf_rep(CLN3)	204.93271651176954	0.3	0.09584234174349743	73.76532285614047	11.287398314896256	1.1801500224628916
WHI5=tf_rep(CLN3)	204.96807147201918	0.2978860271247618	0.09706227843563675	73.994179163103	11.687864837891569	1.195865123645951
WHI5=tf_rep(CLN3)	204.92840751578478	0.3	0.09566038911337106	74.28226414757016	11.137398411861758	1.1771099463141028
WHI5=tf_rep(CLN3)	204.93049967083212	0.3	0.09565465211989596	73.98841926798127	11.187786377367946	1.1776278520644807
WHI5=tf_rep(CLN3)	204.95501882422874	0.2991812884308074	0.09458553451586178	73.62428607060039	10.84800624915014	1.162869612351023
WHI5=tf_rep(CLN3)	204.9377274009055	0.3	0.09555779055151403	73.01682713346965	11.315734048690114	1.1775989978665429
WHI5=tf_rep(CLN3)	204.98447153835227	0.2993324420320218	0.0941297431196926	72.42247892314687	10.893177398939185	1.158901400952098
WHI5=tf_rep(CLN3)	204.93905440228983	0.3	0.09564660551025679	72.81404996183572	11.394884857323984	1.1797170964698473
WHI5=tf_rep(CLN3)	204.94205952027437	0.3	0.09564220323648542	72.41145115022289	11.467346214971823	1.1804459765631452
WHI5=tf_rep(CLN3)	204.94458320151355	0.3	0.09563822670912674	72.07708478813443	11.527592715801433	1.1810272920088558
WHI5=tf_act(WHI5)	245.1641608390689	0.3	0.03291985112403691	5.109178855638772	95.14514974607455	1.0
WHI5=tf_act(WHI5)	245.17796186643756	0.3	0.032834501064616446	5.118737572690626	95.9352802822322	1.0
WHI5=tf_act(WHI5)	245.1777730522696	0.3	0.03284736384054335	5.120529762654618	95.92289268530627	1.0
WHI5=tf_act(WHI5)	245.17766464277273	0.3	0.03232595001583553	5.032852534957742	95.95349107673125	1.0
WHI5=tf_act(WHI5)	245.173250008688	0.3	0.031573812946242535	4.896078413333951	95.64602685916734	1.0
WHI5=tf_act(WHI5)	245.1807428681311	0.3	0.032301923386454795	5.03397937765073	96.12810730928364	1.0
WHI5=tf_act(WHI5)	245.17219414514673	0.3	0.03242889699419347	5.041046411692088	95.64239827921554	1.0
WHI5=tf_act(WHI5)	245.1634194903016	0.3	0.03228185554112305	5.00152077123315	95.1535776814098	1.0
WHI5=tf_act(WHI5)	245.16284619322587	0.3	0.032313692185828184	5.005943727561135	95.12139038395394	1.0
WHI5=tf_act(WHI5)	245.1706107711297	0.3	0.03232619653393736	5.021005823254639	95.55572615517744	1.0
WHI5=tf_rep(WHI5)	175.03612669087403	0.0	0.0025882575001037367	75.31670271499111	29.15305291373765	8.183699666866392
WHI5=tf_rep(WHI5)	175.03816372866598	0.0	0.0026118889668094738	75.7229892897356	29.08453532811825	8.144308819410304
WHI5=tf_rep(WHI5)	175.04694059842544	0.0	0.002695364045653973	76.08884929799365	28.889239020276058	8.00533957282005
WHI5=tf_rep(WHI5)	175.03853632863385	0.0	0.002609966330446385	75.78595021723478	29.08497133547097	8.147248839696001
WHI5=tf_rep(WHI5)	175.0390786248109	0.0	0.002649801540804084	75.65950612145338	29.013875883757652	8.084290756641549
WHI5=tf_rep(WHI5)	175.0357378480094	0.0	0.0026371422509309356	75.21715570274708	29.063143812820538	8.105793063410987
WHI5=tf_rep(WHI5)	175.0326976943663	0.0	0.0026095365693488757	74.81702902380854	29.13905524364796	8.151089140876643
WHI5=tf_rep(WHI5)	175.0348641483735	0.0	0.002652169861882212	74.92266469158031	29.048599842143012	8.08216824695814
WHI5=tf_rep(WHI5)	175.03241397482137	0.0	0.002652992106621747	74.49683560092991	29.06803834173301	8.080762737800706
WHI5=tf_rep(WHI5)	175.02976287562018	0.0	0.002585226137374819	74.25711806936458	29.21887600954349	8.192867931571005
WHI5=tf_act(YOX1)	36.45246452078796	0.3	0.11672458241790924	24.07835007363674	82.95530276799491	1.0
WHI5=tf_act(YOX1)	36.45770402654547	0.3	0.11619883893472893	24.09948670399819	83.68482653305595	1.0
WHI5=tf_act(YOX1)	36.45715802259217	0.3	0.11622832509884784	24.096395186172792	83.63321835594775	1.0
WHI5=tf_act(YOX1)	36.456185116408065	0.3	0.11627415075945571	24.088537296781485	83.53622012654775	1.0
WHI5=tf_act(YOX1)	36.45319268256571	0.3	0.11650689318113862	24.067378759210747	83.14806716761716	1.0
WHI5=tf_act(YOX1)	36.456473438169766	0.3	0.11623590467540738	24.0861099486952	83.56759184092053	1.0
WHI5=tf_act(YOX1)	36.45233752808456	0.3	0.1165924622036882	24.05586299429351	82.98520427473743	1.0
WHI5=tf_act(YOX1)	36.45127561118708	0.3	0.11686242542184135	24.028726270627125	82.52350567478878	1.0
WHI5=tf_act(YOX1)	36.45140166513618	0.3	0.11696584135141389	24.018562488713794	82.34854823458932	1.0
WHI5=tf_act(YOX1)	36.45138684255456	0.3	0.11678123086017883	24.03729004039393	82.6643922697106	1.0
WHI5=tf_rep(YOX1)	193.43561445663363	0.0	0.0001094126496943634	71.94685615425092	6.872333511484719	9.266390196185556
WHI5=tf_rep(YOX1)	193.4264956662544	0.0003040885627977228	0.00015233786968742383	72.2838637833838	6.875728040703602	9.299855802589898
WHI5=tf_rep(YOX1)	193.43005594811595	0.0	0.00014832998256466385	72.64784686122772	6.86380517657904	9.252602144538765
WHI5=tf_rep(YOX1)	193.4278710673459	0.0	0.00014828955275658507	72.35205786179729	6.871773499804188	9.280449329904641
WHI5=tf_rep(YOX1)	193.43584612328502	0.0	0.00014861856561581023	72.21730423364473	6.857523975222604	9.18428540317646
WHI5=tf_rep(YOX1)	193.43279728522768	0.0015219390586387244	0.00016940992470615375	71.6428107862722	6.871767163860374	9.230303352966711
WHI5=tf_rep(YOX1)	193.38448164279183	0.0	0.0001454820607699598	71.2381539336259	6.993592223967639	10.0
WHI5=tf_rep(YOX1)	193.38797620944743	0.0018994100053398026	0.00017160974586284564	71.32900927610572	6.984367032137752	9.943453014483309
WHI5=tf_rep(YOX1)	193.3865100712958	0.0	0.00014552737150494983	70.90206687407152	6.991129030940034	9.956337639999678
WHI5=tf_rep(YOX1)	193.3855987368015	0.0	0.0001455051044148985	70.60460938979146	6.997408283620441	9.976820946214412
WHI5=tf_act(ASH1)	246.99302962545858	0.3	0.002713550449689212	0.0	100.0	1.0105196964704615
WHI5=tf_act(ASH1)	246.9930296254584	0.3	0.0027135504520426896	0.0	100.0	1.0
WHI5=tf_act(ASH1)	246.99302962545624	0.3	0.0027135504963575574	0.0	99.70160686313494	1.0
WHI5=tf_act(ASH1)	246.99302962545516	0.3	0.0027135505171162104	0.0	99.74680694669944	1.0218261858894102
WHI5=tf_act(ASH1)	246.99302962549058	0.3	0.0027135498461406263	0.0	99.44034154082175	1.0
WHI5=tf_act(ASH1)	246.99302962546662	0.3	0.0027135502908859797	0.0	99.93734043367853	1.0
WHI5=tf_act(ASH1)	246.9930296254906	0.3	0.0027135498449421774	0.0	99.54212316999104	1.0
WHI5=tf_act(ASH1)	246.99302962545843	0.3	0.0027135504517233375	0.0	99.04876184005904	1.0193346236565248
WHI5=tf_act(ASH1)	246.9930296254585	0.3	0.0027135504502305884	0.0	99.04278961471238	1.0339179413757558
WHI5=tf_act(ASH1)	246.9930296254585	0.3	0.0027135504504883098	0.0	99.49534019566146	1.0510231016360967
WHI5=tf_rep(ASH1)	166.69764493803723	0.14925999260355113	0.015388189745356348	9.0528262840016	3.1212964827311365	1.0
WHI5=tf_rep(ASH1)	131.62868468599018	0.2999999732804271	0.06416376401766233	6.189039534497659	90.42206049935396	1.0000034980855603
WHI5=tf_rep(ASH1)	131.62760839722085	0.2793623142310912	0.06342773682083434	6.127951129891691	89.69252541031669	1.024018296988046
WHI5=tf_rep(ASH1)	131.6251697287477	0.3	0.06358722192354548	6.10359723830993	89.76115073562708	1.03311411318164
WHI5=tf_rep(ASH1)	131.62823956916287	0.3	0.06370550154506943	6.144094645116202	89.52895827521233	1.0119118835460281
WHI5=tf_rep(ASH1)	131.62401068321725	0.2999814083409604	0.0636457685776321	6.097637767687045	90.042729612453	1.0392583105331505
WHI5=tf_rep(ASH1)	131.62588911592857	0.29997230868716257	0.06348950754616724	6.089398529238272	89.65820881332697	1.0385918962645497
WHI5=tf_rep(ASH1)	131.63072303828898	0.2985794432570786	0.06318369232356966	6.06006382378404	89.16167470060948	1.04685659312452
WHI5=tf_rep(ASH1)	131.64570299003532	0.29775107528430994	0.06278904065541023	5.971442584831938	89.18507361698148	1.0934795706868927
WHI5=tf_rep(ASH1)	131.65926887762154	0.29894583711624184	0.06291255675432025	5.943826953013348	89.65435836823455	1.1216282646197089
