# LEMpy target file for WHI5, replicate 1 
# Run configuration file:  ../pipeline/src/yeast_data/simulations202110_Orlando_2/annot/results5/edge_finding_20211012160145/lempy_20211012160145_config.txt 
# Time series data file:   ../pipeline/src/yeast_data/time_series/orlando2008_WildType_r2_trunc.tsv 
# Computed on:  2021-10-12 16:04:23 
 
model	loss	pld	inv_temp	prior	rhs_param_0	rhs_param_1	rhs_param_2	rhs_param_3	rhs_param_4	hess_eigs	hess_det	bnd_params	pld_time	opt_time
tf_act(SWI4)	33.722459513732254	0.995926	1.0	0.955642325503684	0.0	0.05709130009143679	6.715492876936814	28.548426753668775	4.4158983421399896	[1, 1.7008006834705507, 5.060443615540814, 8.308411560490047, 13556260.144451227]	969393063.1098502	1.0	0.0001274829999999838	0.4465452280000002
tf_act(YOX1)	41.089644510410146	0.00279385	1.0	0.0219822986106487	0.3	0.1273880891046651	16.508779237649645	22.12670025812165	1.0	[1, 1, 2.8942238228170862, 124.26458194793564, 13564090.96902544]	4878318716.806365	2.0	5.144400000034466e-05	0.331286097
tf_act(HCM1)	78.88905661408525	0.00124657	1.0	0.0203968433758125	0.3	0.10652345628053474	11.02736679579357	30.268575739829874	3.379135095100852	[1, 1, 3.796450194318817, 11.687824055612754, 13557044.859975306]	601556474.0721657	1.0	5.743799999891053e-05	0.508895839
tf_rep(NRM1)	76.45166425751883	0.0000208612	1.0	0.000432457252391844	0.0	0.001104626161371297	3.1675288044536742	21.234883102431255	10.0	[1, 1, 1.059215411058949, 22.169593934750807, 13555130.17960967]	318306657.5420722	2.0	5.173099999922215e-05	0.39463176499999975
tf_rep(WHI5)	90.81416251060911	0.00000815176	1.0	0.000237776357434967	0.0	0.0007729299341874144	4.956443086223366	57.32112026956599	10.0	[1, 1, 1, 9.653289333428422, 13555111.802559953]	130851416.1770817	2.0	6.481600000007859e-05	0.4364002519999999
tf_rep(ASH1)	168.2404327006848	0.0000046655	1.0	0.00121600121496498	0.3	0.0003796026484637347	0.1033973494940773	0.1066701547284708	9.966538074761706	[1, 1, 1, 3.1627612571079453, 13555098.412878318]	42871540.09653694	1.0	4.9178999999455186e-05	0.26509556000000023
tf_rep(CLN3)	117.11048757039256	0.000000199909	1.0	4.87335669812149e-5	0.3	0.05613912079742085	8.35767119033634	99.95219053001767	1.0	[1, 1, 2.912646775187232, 17.466076354867724, 13556160.126340946]	689635904.7407888	2.0	5.0334999999179786e-05	0.2877094610000004
tf_rep(YOX1)	168.2404326309334	0.0000000335	1.0	8.7313358598892e-6	0.3	0.0003795977514810036	0.3297533137159583	0.5494103967634167	6.717529812912087	[1, 1, 1, 3.1627612624998553, 13555098.41287831]	42871540.16962479	1.0	5.0648000000208526e-05	0.26189040200000013
tf_act(SWI5)	168.24043270070766	0.00000000699538	1.0	1.02851937228875e-5	0.3	0.00037960091144097164	0.0	88.12181679992021	9.289325671286704	[1, 1, 3.0752955956574866, 8.181799048308266, 13555135.887392376]	341066881.70621717	2.0	5.4619000000144524e-05	0.28781287199999994
tf_act(NDD1)	168.24043270070564	0.00000000548033	1.0	8.13095157513424e-6	0.3	0.0003796009973499654	0.0	99.76937476731283	1.0075938797538162	[1, 1, 3.1622904919365613, 8.10203752353839, 13555347.893316876]	347301517.21677107	2.0	5.9774000000345495e-05	0.287168742
tf_rep(SWI4)	168.2404327006848	0.0000000040919	1.0	9.81973756090476e-6	0.3	0.0003796026448858945	0.0	45.53306128376345	9.14756070397655	[1, 1, 3.081002470207059, 21.755602942788958, 13555723.978591686]	908627522.7638024	2.0	6.959099999903628e-05	0.33702435799999986
tf_act(ASH1)	168.2404327007386	0.00000000328148	1.0	6.59689936305154e-6	0.3	0.0003795999322208917	0.0	99.55933404637396	1.1022625931197216	[1, 1, 3.1587547296666436, 14.892000428894224, 13555236.766293855]	637640733.9027725	2.0	4.955700000053298e-05	0.3078591199999998
null_model	168.24043270085417				0.3	0.0003795977508911992								
