# LEMpy target file for HCM1, replicate 1 
# Run configuration file:  ../pipeline/src/yeast_data/simulations202110_Orlando_2/annot/results5/edge_finding_20211012160145/lempy_20211012160145_config.txt 
# Time series data file:   ../pipeline/src/yeast_data/time_series/orlando2008_WildType_r2_trunc.tsv 
# Computed on:  2021-10-12 16:04:21 
 
model	loss	pld	inv_temp	prior	rhs_param_0	rhs_param_1	rhs_param_2	rhs_param_3	rhs_param_4	hess_eigs	hess_det	bnd_params	pld_time	opt_time
tf_act(SWI4)	61.97598649404921	0.999433	1.0	0.99532676745974	0.3	0.20953000028327273	41.08604640171251	100.0	1.310074856909903	[1, 1, 1, 2686.800342803976, 5425372.08465572]	14576891576.89211	2.0	0.00020750199999941543	0.35345961699999995
tf_rep(NRM1)	131.13581632468438	0.000555553	1.0	0.00358079264304708	0.0	0.024550124490485905	4.82100618597384	28.38892364787836	4.98494213737733	[1, 1, 17.601261354677668, 20.136685204491815, 5365622.911544351]	1901743411.2759604	1.0	5.9731999999534935e-05	0.4399524419999996
tf_rep(WHI5)	184.03618225493292	0.0000113377	1.0	0.00079399472816129	0.0	0.015421663632486883	5.8367162465375815	63.666879638148046	10.0	[1, 1, 8.52318221930696, 17.876912694190338, 5365532.805538918]	817536491.9788365	2.0	5.843399999960752e-05	0.37107957700000016
tf_act(YOX1)	238.89307402785067	0.000000251273	1.0	0.000208169332153331	0.3	0.09312065164127363	21.352038918727523	100.0	1.747851547246191	[1, 1, 1, 485.72570380184993, 5373861.843860837]	2610222826.2432117	2.0	6.912899999989008e-05	0.40097616100000044
tf_rep(ASH1)	260.5618865868894	0.000000025956	1.0	2.01460544511615e-5	0.3	0.06074652280580964	4.350355405165803	55.61356424429541	1.8939137096383445	[1, 1.568800596752512, 8.586499313691224, 32.165736035445086, 5366317.819159577]	2325164957.7789116	1.0	7.648600000020878e-05	0.22614170999999983
tf_rep(CLN3)	324.7639599642166	0.00000000880728	1.0	1.79367643266299e-5	0.0	0.0016170362698966355	0.0	41.00289465061661	2.6317340433433154	[1, 1, 1, 17.392459928811007, 5365541.240233175]	93319961.01713842	2.0	5.86580000003778e-05	0.358684486
tf_act(HCM1)	304.0728415583482	0.00000000543969	1.0	1.29748061412218e-5	0.3	0.012224059240005344	5.319947469426472	100.0	10.0	[1, 1, 1, 19.15999362861097, 5365491.602491737]	102802784.91810735	3.0	6.768699999959438e-05	0.2979158799999997
tf_act(ASH1)	324.7639599641774	0.00000000347864	1.0	1.04422535643805e-5	0.0	0.0016170380537095575	0.0	99.70111111574256	9.068440985715995	[1, 1, 2.0364015405454707, 18.555151336722055, 5365497.479301832]	202739286.10872844	2.0	7.84259999999648e-05	0.22422904600000004
tf_act(NDD1)	324.76395996421667	0.00000000217088	1.0	7.00838030223801e-6	0.0	0.0016170362678857638	0.0	92.31511993656429	6.414641313556582	[1, 1, 2.3365665337295436, 18.704395362007794, 5365515.260600787]	234494823.61129028	2.0	6.413300000041033e-05	0.20255352100000001
tf_act(SWI5)	324.7639599642163	0.00000000165496	1.0	8.14602863291055e-6	0.0	0.0016170362795945427	0.0	92.86699016802572	9.842804502916628	[1, 1, 5.785854121537469, 17.559384067549885, 5365511.895757663]	545114732.6314077	2.0	6.0501999999296174e-05	0.3399678850000001
tf_rep(YOX1)	324.76395996421655	0.00000000100359	1.0	6.35938853092017e-6	0.0	0.0016170362696490191	0.0	40.31144345521781	9.193327214716161	[1, 1, 5.42837074079689, 31.015401109509952, 5365831.754018601]	903408046.1686966	2.0	8.589099999944949e-05	0.31625727700000006
tf_rep(SWI4)	316.3796651412396	0.000000000578817	1.0	7.2621609493184e-6	0.0	0.004606816197846777	100.0	14.714389852784391	10.0	[1, 1, 15.161679110456058, 17.385021902302622, 5365518.858825182]	1414276316.0861423	3.0	9.042800000003126e-05	0.337023619
null_model	324.76395996414993				0.0	0.0016170409616431463								
