# LEMpy local minima file for target B, replicate 0
# Right-hand side of tf_act():  p0 - p1(tar) + p2(reg^p4) / (p3^p4 + reg^p4)
# Right-hand side of tf_rep():  p0 - p1(tar) + p2(p3^p4) / (p3^p4 + reg^p4)
# Run configuration file:  ../pipeline/src/syn_net/syn_net_6D_simulations_202110_with_G/p779/results2/edge_finding_20211015114553/lempy_20211015114553_config.txt
# Time series data file:   ../pipeline/src/syn_net/time_series_with_G/syn_net_6D_20191104_a_data_p779_transposed_with_G.tsv
# Computed on:  2021-10-15 11:47:44 
 
model	loss	p0	p1	p2	p3	p4
B=tf_act(A)	226.21298206288958	0.0	0.03751617997374834	20.695119782871394	100.0	10.0
B=tf_act(A)	226.21298206292784	0.0	0.037516178214255964	20.69511764660122	100.0	10.0
B=tf_act(A)	226.22982915863125	0.0	0.03743535970337066	20.591510096632085	99.95381826611192	10.0
B=tf_act(A)	226.23142632943842	0.0	0.03743549761357002	20.584707135394044	99.94843144914384	10.0
B=tf_act(A)	226.30769241693648	0.0	0.037357725617833674	20.268175498677675	99.72986487741709	9.999307571153722
B=tf_act(A)	226.23920271726828	0.0	0.037753025112241545	20.790668754845374	99.98885482200612	10.0
B=tf_act(A)	226.21298206269196	0.0	0.03751618662802099	20.69512207722811	100.0	10.0
B=tf_act(A)	226.29199437300323	0.0	0.03739617783428699	20.481779444425243	99.9147199889168	9.958412069927114
B=tf_act(A)	226.2129820628836	0.0	0.03751617963601572	20.695118405638922	100.0	10.0
B=tf_act(A)	226.21298206307986	0.0	0.03751617651074134	20.695114059841842	100.0	10.0
B=tf_rep(A)	897.9913109839605	0.006776444187204027	0.0	0.17862425367893753	0.001	9.987493143025139
B=tf_rep(A)	897.9913109839608	0.00677646290978911	0.0	0.20455226424808826	0.2239030331993095	10.0
B=tf_rep(A)	897.9913109839607	0.0067764480834384185	0.0	0.34404023096670455	0.001	10.0
B=tf_rep(A)	897.9913109839608	0.006776454272621861	0.0	0.39325432635950863	0.001	9.989529549955634
B=tf_rep(A)	897.9913109839606	0.006776442739834694	0.0	0.21786277120477315	0.001	9.946187290835034
B=tf_rep(A)	897.9913109839606	0.006776461168893114	0.0	0.17260862356200468	0.09987242826357756	9.93625353468798
B=tf_rep(A)	897.9913109841007	0.006776447316959953	0.0	0.6446185092425457	0.43819914712002583	9.925408398312587
B=tf_rep(A)	897.9913109845306	0.006776445031491969	0.0	0.36339516627788315	0.5316707748238366	9.90207306037744
B=tf_rep(A)	897.9913109839605	0.006776443190958913	0.0	0.7963142942825558	0.14174615358912773	9.92948841428352
B=tf_rep(A)	897.9913109839608	0.0067764425012866135	0.0	1.3384495893404824	0.04072135958675577	9.886408189009362
B=tf_act(B)	870.1776104727749	0.3	0.05517031493729629	5.026754646274184	45.323300460695506	10.0
B=tf_act(B)	870.1480452966375	0.3	0.054724134740175075	4.997343743337495	45.55341988709533	10.0
B=tf_act(B)	870.2184301396843	0.3	0.05538867583544701	5.040731398237806	45.20549182866476	10.0
B=tf_act(B)	870.1479973853474	0.3	0.05473989346612631	4.998332326358933	45.544509020509565	10.0
B=tf_act(B)	870.1479973725143	0.3	0.05474181178732653	4.998519534927978	45.54449045493157	10.0
B=tf_act(B)	870.1514675978508	0.3	0.05476812733734391	5.005924374291463	45.61596799527031	10.0
B=tf_act(B)	870.1479977053403	0.3	0.05473583937277945	4.997933052344635	45.54452845191893	10.0
B=tf_act(B)	870.1486944057623	0.3	0.054701662869427126	4.996744989401571	45.57835220048995	10.0
B=tf_act(B)	870.3077687217988	0.3	0.05843755165057801	5.368945200164925	45.53403688400648	10.0
B=tf_act(B)	870.1479973814999	0.3	0.05474035862097613	4.998385311858448	45.544564536768654	10.0
B=tf_rep(B)	887.3703811567949	0.0	0.0034347481170971415	11.277941913367973	15.877289395897707	9.951439662486584
B=tf_rep(B)	887.3420987700382	0.0	0.0034742457557093475	11.274582517912862	15.9148419115297	10.0
B=tf_rep(B)	887.3827075563472	0.0	0.003426403332326362	11.45547458317258	15.835704394823214	9.925508736648307
B=tf_rep(B)	887.3933310405612	0.0	0.003439326858540408	11.514919114935468	15.825099840001329	9.903762642388777
B=tf_rep(B)	887.4595771312955	0.0	0.003425192177302717	11.396030119126632	15.79600133492611	9.79234140310684
B=tf_rep(B)	887.4647748453043	0.0	0.0034504487817322888	11.336908035534131	15.815176341095109	9.783944307629575
B=tf_rep(B)	887.3348784737085	0.0	0.003477015581259644	11.758877773396177	15.84104805085876	10.0
B=tf_rep(B)	887.3390905262856	0.0	0.0034753952898495355	11.46993799585238	15.884604062552393	10.0
B=tf_rep(B)	887.3322287227649	0.0	0.0034779106426542066	11.950584405264228	15.812702897012008	10.0
B=tf_rep(B)	887.3252518505943	0.0	0.0034805132952412297	12.49678111012942	15.735131605967283	10.0
B=tf_act(C)	2.854884664813734	0.3	0.15191354525327017	16.147302785546973	29.34751919680908	3.1000222190661177
B=tf_act(C)	2.8548846606147493	0.3	0.15191361623859578	16.14729285993154	29.347463319147394	3.100032223380086
B=tf_act(C)	2.8548846609070004	0.3	0.15191360611779298	16.147290555037	29.347460166129828	3.1000341235396767
B=tf_act(C)	2.855829865570069	0.3	0.15189825256451087	16.129151840410444	29.299531670452193	3.1112102301447897
B=tf_act(C)	2.8548846578155973	0.3	0.1519137203599811	16.147301835052186	29.34745609060533	3.100030746989655
B=tf_act(C)	2.8565457677349055	0.3	0.15194481604417087	16.172586827320615	29.411152249957848	3.0851912115254736
B=tf_act(C)	2.8548846608310754	0.3	0.15191360845372545	16.14729044223781	29.347459084293867	3.100033925985794
B=tf_act(C)	2.8548856099944744	0.3	0.15191407531913756	16.14787041138112	29.348998365190724	3.0996778107781484
B=tf_act(C)	2.854884660738806	0.3	0.15191361144207893	16.147291085778434	29.347459975868688	3.1000336508085784
B=tf_act(C)	2.8548846554888665	0.3	0.15191382208143422	16.147318822280145	29.347476187035625	3.1000243529750118
B=tf_rep(C)	897.9914730872465	0.006775873243487128	0.0	2.332814692736041	2.9639896640579133	9.971480161435274
B=tf_rep(C)	897.9916418066075	0.006775266636591944	0.0	2.3587425391484125	3.1868913277446898	9.987581547681138
B=tf_rep(C)	897.9914173218413	0.006776089657115437	0.0	2.498231372298251	2.833189364519916	10.0
B=tf_rep(C)	897.9913946570146	0.0067761424416253185	0.0	2.54744547026928	2.756555387601275	9.98952955724078
B=tf_rep(C)	897.9913282943769	0.0067763823063603495	0.0	2.3720539166343286	2.3548971320274537	9.9461872998781
B=tf_rep(C)	897.9913369426365	0.006776353600919918	0.0	2.3267996479257738	2.453769237427923	9.936253705154003
B=tf_rep(C)	897.991425422959	0.006776038828521103	0.0	2.7988093894321313	2.792094692792865	9.925409118149298
B=tf_rep(C)	897.9914584149213	0.006775931489981436	0.0	2.5175860467259903	2.8855663055547875	9.902073786884417
B=tf_rep(C)	897.9913503333454	0.006776290458377635	0.0	2.9505052157296348	2.4956412423155596	9.929489298969795
B=tf_rep(C)	897.9913440550557	0.006776332895574475	0.0	3.4926404094592503	2.3946165134780495	9.886408974764992
B=tf_act(D)	897.9913109839606	0.006776464710893464	0.0	0.0	99.76861979007629	1.0
B=tf_act(D)	897.9913109839605	0.006776454925063714	0.0	0.0	99.99152914315746	1.0156516946981513
B=tf_act(D)	900.181294160341	0.2672649444061884	0.004519423631541658	0.015359701748907195	99.62136342206139	1.0067490015905596
B=tf_act(D)	897.9914814280494	0.007288014562969345	4.476560711829635e-06	0.0	99.91491403698541	1.0051798577305442
B=tf_act(D)	897.9913109839607	0.0067764458658727215	0.0	0.0	99.51325575803257	1.0
B=tf_act(D)	897.9913109839605	0.006776455211907395	0.0	0.0	99.61212818629615	1.0
B=tf_act(D)	897.9913109839605	0.006776442483452004	0.0	0.0	100.0	1.0
B=tf_act(D)	897.9913109839607	0.006776455604372018	0.0	0.0	99.9999999973069	1.0
B=tf_act(D)	897.9913109839607	0.0067764413834132	0.0	0.0	99.7681236677462	1.0
B=tf_act(D)	897.9913109839608	0.006776438379194681	0.0	0.0	100.0	1.0
B=tf_rep(D)	54.701683637028	0.0	0.06206678830259885	8.526279891025451	54.44580197882064	10.0
B=tf_rep(D)	54.68860251023868	0.0	0.0622218111495501	8.520626559341194	54.65889865592587	10.0
B=tf_rep(D)	54.723511010337305	0.0	0.061952397682098495	8.530506606218207	54.28772951630395	10.0
B=tf_rep(D)	54.739843494379855	0.0	0.06189750442935779	8.533904713054836	54.20123466341544	10.0
B=tf_rep(D)	54.68824799467637	0.0	0.06225063450494905	8.51937457095454	54.70009050125445	10.0
B=tf_rep(D)	54.6882479948484	0.0	0.062250628910851105	8.519374083199121	54.700088614456774	10.0
B=tf_rep(D)	54.6882479944456	0.0	0.062250643029942834	8.519374016242493	54.70010358064407	10.0
B=tf_rep(D)	54.69377050702952	0.0	0.062365436741280485	8.514547314091521	54.86283077067712	10.0
B=tf_rep(D)	54.68824799486896	0.0	0.0622506287322307	8.51937434417535	54.70008389400162	10.0
B=tf_rep(D)	54.688247994011405	0.0	0.0622506607735163	8.519374829872739	54.70011452477483	10.0
B=tf_act(E)	685.0761683784075	0.0	0.01737835753354292	13.346155359961093	100.0	10.0
B=tf_act(E)	685.0761683733589	0.0	0.017378265229740408	13.346093741559066	100.0	10.0
B=tf_act(E)	685.07616837746	0.0	0.017378186005457676	13.346031611687579	100.0	10.0
B=tf_act(E)	685.0761683734046	0.0	0.017378252139546767	13.34608377551785	100.0	10.0
B=tf_act(E)	685.2595130807431	0.0	0.017211475076985387	12.999003253335873	99.73911385537119	10.0
B=tf_act(E)	685.0761683735452	0.0	0.017378244285085966	13.346077741217709	100.0	10.0
B=tf_act(E)	685.0761683739211	0.0	0.017378232459133364	13.346068691687286	100.0	10.0
B=tf_act(E)	685.0761683733799	0.0	0.01737825830870367	13.346089152476301	100.0	10.0
B=tf_act(E)	685.3061961289342	0.0	0.01736615991633081	13.028092625994613	99.63563124444521	10.0
B=tf_act(E)	685.0761683737902	0.0	0.017378235975419147	13.346071205123962	100.0	10.0
B=tf_rep(E)	897.9913111563288	0.006776458951139632	0.0	1.5561276013586993	1.899227862853693	9.974449670320885
B=tf_rep(E)	897.99131149748	0.006776443545763116	0.0	1.5820556049889682	2.122130864858063	9.99055050977344
B=tf_rep(E)	897.9913110725346	0.006776449844577276	0.0	1.7215435717075844	1.7684269272580848	9.999999999153063
B=tf_rep(E)	897.9913110438226	0.006776466453932897	0.0	1.7707576671003884	1.6917929657436923	9.989529551561409
B=tf_rep(E)	897.9913109879642	0.006776446846262076	0.0	1.595366111945653	1.2901347090358792	9.94618729244081
B=tf_rep(E)	897.9913109922644	0.006776453517737676	0.0	1.5501119643028844	1.3890071372994568	9.936253536293755
B=tf_rep(E)	897.9913110807148	0.006776443446998966	0.0	2.0221218499834253	1.727333856155905	9.925408399918362
B=tf_rep(E)	897.9913111316506	0.006776448779964586	0.0	1.7408985070187626	1.8208054838597159	9.902073053037547
B=tf_rep(E)	897.9913109998557	0.006776444980559636	0.0	2.1738176350234353	1.430880862625007	9.929488406943628
B=tf_rep(E)	897.9913109946236	0.006776452050259512	0.0	2.715952930081362	1.329856068622635	9.88640818166947
B=tf_act(F)	596.3802750906094	0.0	0.03079216680111955	3.4141774358108563	20.546087549420996	10.0
B=tf_act(F)	596.473011864582	0.0	0.03057106939511175	3.4126859291169067	20.765841634865808	10.0
B=tf_act(F)	596.407060687944	0.0	0.030870172364972814	3.4102686826849644	20.42885742723988	10.0
B=tf_act(F)	596.3802199293175	0.0	0.03077856265492461	3.4127187551067193	20.54644066476107	10.0
B=tf_act(F)	596.7142631892697	0.0	0.031071915560499052	3.400031144218388	20.1325523880352	10.0
B=tf_act(F)	596.3802199401714	0.0	0.0307788802262404	3.4127444670913905	20.5463988138891	10.0
B=tf_act(F)	596.3802199272707	0.0	0.030778597225356263	3.41271925417016	20.546424855165824	10.0
B=tf_act(F)	596.3822683203446	0.0	0.03075525093037241	3.4135688042219483	20.578898347944367	10.0
B=tf_act(F)	596.3802199272053	0.0	0.030778597227195715	3.4127191796854475	20.546422193998712	10.0
B=tf_act(F)	596.3802199287562	0.0	0.030778559229419813	3.4127165654683016	20.546431962972314	10.0
B=tf_rep(F)	897.9935403887347	0.006768319289283264	0.0	0.17855585843869057	0.001	1.0000176635878257
B=tf_rep(F)	897.9913109839606	0.006776454375901417	0.0	0.0	0.027964075675311333	1.5991377078892688
B=tf_rep(F)	897.9913160212494	0.006776456227429501	0.0	0.13948805516796	0.001	1.6439519316769644
B=tf_rep(F)	897.9913184858317	0.006776436145514134	0.0	0.18870169929648423	0.001	1.6334821634511174
B=tf_rep(F)	897.9913117714447	0.006776448414227049	0.0	0.01331013730198947	0.001	1.5901399014854614
B=tf_rep(F)	897.9913109839606	0.006776455331770901	0.0	0.0	0.09987242826357756	1.580206145338406
B=tf_rep(F)	897.9915901736107	0.007053740630809272	7.638335375954566e-06	0.1500737476462166	0.04502040660157935	2.355947595995554
B=tf_rep(F)	897.9913109839605	0.006776452701776691	0.0	0.0	0.13849203430539014	2.332612258060406
B=tf_rep(F)	897.9913110050762	0.00677644358883758	0.0	0.4329191280046727	0.001	2.3600276119662293
B=tf_rep(F)	897.9913110548249	0.006776444110838208	0.0	0.9750544230625993	0.001	2.3169473871234363
B=tf_act(G)	897.9913109839607	0.006776442211895982	0.0	0.0	99.7681923741243	1.0
B=tf_act(G)	897.9913109839606	0.006776455285537674	0.0	0.0	99.99105148951637	1.0177279194582711
B=tf_act(G)	897.9913109839608	0.006776441858599096	0.0	0.0	99.6375527133602	1.0628522725294325
B=tf_act(G)	897.9913110328537	0.00676903533872093	0.0	0.0	99.56100493144324	1.052494353083261
B=tf_act(G)	897.991310983961	0.006776465202388154	0.0	0.0	99.15934667409593	1.0091516690819073
B=tf_act(G)	897.9913109839604	0.006776449069414077	0.0	0.0	99.2582191023595	1.0
B=tf_act(G)	897.991310983961	0.0067764334869719126	0.0	0.0	99.59156527456958	1.0
B=tf_act(G)	897.9913109839607	0.006776459131604036	0.0	0.0	99.68503689225015	1.0
B=tf_act(G)	897.9913109839606	0.006776449593237448	0.0	0.0	99.26074581268776	1.0
B=tf_act(G)	897.9913109839606	0.006776442683721513	0.0	0.0	99.1923134314347	1.9117197826004537
B=tf_rep(G)	897.9913109839606	0.006776453702032846	0.0	0.17862425367893753	0.001	9.987493143025139
B=tf_rep(G)	873.0229910162926	0.0	0.010433092654120978	5.775061987496647	2.54708751398817	10.0
B=tf_rep(G)	873.0677481385319	0.0	0.010853720416759216	6.028295694350974	2.53133559959071	10.0
B=tf_rep(G)	873.0229910602462	0.0	0.010433269618277022	5.775130286441147	2.547124641792324	10.0
B=tf_rep(G)	873.0315348662538	-2.168404344971009e-19	0.010502720012754709	5.819167937394433	2.544132415012802	9.956847871824781
B=tf_rep(G)	873.0544341726176	0.0	0.010146804982772996	5.5870787534176	2.5720498541946895	9.980278078121076
B=tf_rep(G)	873.0229910184322	0.0	0.010433035580757005	5.775009970055996	2.5470989950260723	10.0
B=tf_rep(G)	873.1130343077518	0.0	0.00988431440892859	5.431897700671107	2.5825009760158566	9.976622254645505
B=tf_rep(G)	873.0229910172628	0.0	0.010433139639899341	5.775080932876639	2.5470921395654167	10.0
B=tf_rep(G)	873.0229910240529	0.0	0.010433246708944	5.775143199679889	2.5470923585401324	10.0
