# LEMpy local minima file for target C, replicate 0
# Right-hand side of tf_act():  p0 - p1(tar) + p2(reg^p4) / (p3^p4 + reg^p4)
# Right-hand side of tf_rep():  p0 - p1(tar) + p2(p3^p4) / (p3^p4 + reg^p4)
# Run configuration file:  ../pipeline/src/syn_net/syn_net_6D_simulations_202110_with_G/p779/results1/edge_finding_20211015113201/lempy_20211015113201_config.txt
# Time series data file:   ../pipeline/src/syn_net/time_series_with_G/syn_net_6D_20191104_a_data_p779_transposed_with_G.tsv
# Computed on:  2021-10-15 11:33:40 
 
model	loss	p0	p1	p2	p3	p4
C=tf_act(A)	44.412535091840105	0.0	0.07482515987335582	23.711786991997776	100.0	4.732088179317964
C=tf_act(A)	44.41610615308952	0.0	0.07486702768190238	23.631176383651322	99.9135412682548	4.716122056742012
C=tf_act(A)	44.42255901148108	0.0	0.07482038198192846	23.508586132638456	99.66481886381295	4.74573401860851
C=tf_act(A)	44.41937060697011	0.0	0.0748155559016901	23.565978666346673	99.77286416500274	4.738299209441303
C=tf_act(A)	44.41528151133652	0.0	0.07476322133866166	23.67879231382541	99.9243448368017	4.749822113066974
C=tf_act(A)	44.419546152841384	0.0	0.07482363173699685	23.566040491911313	99.76528168143929	4.739741763277444
C=tf_act(A)	44.42959580795303	0.0	0.07477347535560648	23.432316785032956	99.47823815059834	4.7781452841283265
C=tf_act(A)	44.43535455491462	0.0	0.07462563269792785	23.479796096440303	99.50830069189875	4.813034891394439
C=tf_act(A)	44.429202654422845	0.0	0.07466347812044394	23.539535437881415	99.62474172247929	4.797110203754782
C=tf_act(A)	44.42662022936888	0.0	0.07492294762086256	23.484263903045356	99.73697550622069	4.6948416505988515
C=tf_rep(A)	871.8678888373121	0.3	0.0	0.0	0.001	1.1294410460974131
C=tf_rep(A)	871.8678888373121	0.3	0.0	0.0	0.001	1.1086114410261543
C=tf_rep(A)	871.8678909196943	0.3	0.0	0.3007180907709329	0.001	1.8109495096800377
C=tf_rep(A)	871.8678921879124	0.3	0.0	0.5262362881982419	0.001	1.8202120858551012
C=tf_rep(A)	871.8678889979691	0.3	0.0	0.3553070148346097	0.001	2.112091861043999
C=tf_rep(A)	871.8678891509367	0.3	0.0	0.5360777083066259	0.001	2.083647420091154
C=tf_rep(A)	871.8678890732408	0.3	0.0	0.48413899036081265	0.001	2.1038253281624204
C=tf_rep(A)	871.8678891244641	0.3	0.0	0.7037902343779049	0.001	2.123438548286515
C=tf_rep(A)	871.8678889654052	0.3	0.0	0.1607220252622519	0.0034527794000027744	2.374650638143917
C=tf_rep(A)	871.8678888373121	0.3	0.0	0.0	0.001	2.417439653035694
C=tf_act(B)	871.8678888373121	0.3	0.0	0.0	100.0	1.0949310939529395
C=tf_act(B)	871.8678888373121	0.3	0.0	-5.551115123125783e-17	99.87197195950156	1.0740493451531359
C=tf_act(B)	871.8678888373121	0.3	0.0	0.0	99.45194252989207	1.0
C=tf_act(B)	871.8678888373121	0.3	0.0	0.0	99.44556595532595	1.012657294732111
C=tf_act(B)	871.8678888373121	0.3	0.0	0.0	99.85473112311756	1.0304887121701862
C=tf_act(B)	871.8678888373121	0.3	0.0	0.0	99.65747542720055	1.0
C=tf_act(B)	871.8678888373121	0.3	0.0	0.0	99.3686107827122	1.020177909265781
C=tf_act(B)	871.8678888373121	0.3	0.0	0.0	99.27957128020515	1.0399425257503576
C=tf_act(B)	871.8678888373121	0.3	0.0	0.0	99.67278507141341	1.0705664413496534
C=tf_act(B)	871.8678888373121	0.3	0.0	0.0	99.40594792868454	1.1133553384467418
C=tf_rep(B)	722.3031472042503	0.0	0.00982482311534945	49.82062535684552	15.586493761590612	10.0
C=tf_rep(B)	722.3031809471681	0.0	0.009824551003738378	49.810631565567476	15.586815019192692	10.0
C=tf_rep(B)	722.3015986526085	0.0	0.009824667588386363	50.2853066599531	15.570488079125456	10.0
C=tf_rep(B)	722.3008618958806	0.0	0.009824592083988084	50.511068477341894	15.562788821426807	10.0
C=tf_rep(B)	722.3009695858568	0.0	0.0098244497745025	50.477873215836524	15.563904742346164	10.0
C=tf_rep(B)	722.3474385524315	0.0	0.009813672015064894	50.665142017645856	15.538488504307415	9.952376142722272
C=tf_rep(B)	722.4103966968037	0.0	0.009794427377058115	50.62196011480326	15.514206718762757	9.889957400628457
C=tf_rep(B)	722.2997714522218	0.0	0.009824461674713713	50.85094083278807	15.55126119206582	10.0
C=tf_rep(B)	722.3014426714132	0.0	0.009824596998786756	50.33284445099989	15.568864509160086	10.0
C=tf_rep(B)	722.3021837767293	0.0	0.009824374853986587	50.108172117710296	15.576543459822329	10.0
C=tf_act(C)	853.0098553294755	0.3	0.02890337661206854	3.196303254228576	42.90170735904988	10.0
C=tf_act(C)	853.0155685147157	0.3	0.028981648783543236	3.198534686475417	42.77304843579881	10.0
C=tf_act(C)	853.1062670662058	0.3	0.030372382751179	3.3698441491438467	43.233003347438775	10.0
C=tf_act(C)	853.062645015919	0.3	0.02870063701250291	3.193543103656895	43.298276119047834	10.0
C=tf_act(C)	853.009855321098	0.3	0.028903768288788326	3.1963451379283514	42.901720257294116	10.0
C=tf_act(C)	853.013049836271	0.3	0.028863451937293057	3.187633095830675	42.80886948624901	10.0
C=tf_act(C)	853.0677064926808	0.3	0.028419090462791827	3.12741334273108	42.53204055398352	10.0
C=tf_act(C)	853.0818288431707	0.3	0.029154617799730803	3.201583050384263	42.449322637239234	10.0
C=tf_act(C)	853.0118781346329	0.3	0.02895402643627197	3.198061149551768	42.824991261248826	10.0
C=tf_act(C)	853.0098553209075	0.3	0.02890377740896277	3.1963469032545797	42.90172023425594	10.0
C=tf_rep(C)	871.4213860451838	0.3	0.0	4.014905178708195	1.3632817384090097	1.9025392166915982
C=tf_rep(C)	871.4224811840226	0.3	0.0	4.0082926815302455	1.3147666479825266	1.8739396141315336
C=tf_rep(C)	871.4243981462222	0.3	0.0	4.4825857942670595	1.1048555402439442	1.7957691911249756
C=tf_rep(C)	871.4240710292096	0.3	0.0	4.7083541209219355	1.0921889873316535	1.8047607595900335
C=tf_rep(C)	871.423116202234	0.3	0.0	4.650631095201942	1.161422342557543	1.841936945524077
C=tf_rep(C)	871.4246030878012	0.3	0.0	4.839320954920485	1.0269985576398015	1.7749496640411784
C=tf_rep(C)	871.4250873498887	0.3	0.0	4.797112641741394	0.8505121332727552	1.6560303601611888
C=tf_rep(C)	871.4251210451257	0.3	0.0	5.024698788628569	0.8481215772622813	1.671212441279165
C=tf_rep(C)	871.4228544173308	0.3	0.0	4.668643533479963	1.1689210893074191	1.851691894505677
C=tf_rep(C)	871.4247275819137	0.3	0.0	4.450782750456182	1.082723146153114	1.778740495728356
C=tf_act(D)	871.8678888373121	0.3	0.0	0.0	99.97838814283332	1.0
C=tf_act(D)	871.8678888373121	0.3	0.0	0.0	99.85036011270296	1.0
C=tf_act(D)	871.8678888373121	0.3	0.0	0.0	99.61794115146652	1.0
C=tf_act(D)	871.8678888373121	0.3	0.0	0.0	99.59013822691207	1.0
C=tf_act(D)	871.8678888373121	0.3	0.0	0.0	99.99930339403373	1.017829596786991
C=tf_act(D)	871.8678888373121	0.3	0.0	0.0	99.76822409546769	1.0
C=tf_act(D)	871.8678888373121	0.3	0.0	0.0	99.47935945097933	1.020177909265781
C=tf_act(D)	871.8678888373121	0.3	0.0	0.0	99.3903163708176	1.039943930681036
C=tf_act(D)	871.8678888373121	0.3	0.0	0.0	99.78353016202587	1.0705678462803319
C=tf_act(D)	871.8678888373121	0.3	0.0	0.0	99.51669301956444	1.1133568611721085
C=tf_rep(D)	4.023633946326297	0.0	0.20144104663094203	27.394295468676237	33.422501208206796	2.179354553511186
C=tf_rep(D)	4.023685592521555	0.0	0.2014793329031704	27.442238976459933	33.355686807904604	2.1761094262212244
C=tf_rep(D)	4.0334837269958665	0.0	0.20175054301982553	27.763745011564605	32.917558518084384	2.1550113444157692
C=tf_rep(D)	4.039220695273299	0.0	0.20180500732418022	27.85504801568642	32.79111150903472	2.1490505322986815
C=tf_rep(D)	4.028850414983922	0.0	0.20165579913821033	27.665667196454436	33.04764283390601	2.161270879851173
C=tf_rep(D)	4.023608181437819	0.0	0.20145401856619538	27.411711774925376	33.398019542250225	2.1781674037132652
C=tf_rep(D)	4.024783423674983	0.0	0.20154797326034385	27.530871301673404	33.232494835115226	2.170154977065921
C=tf_rep(D)	4.02855809721665	5.229113939798051e-05	0.2016777097617602	27.65912458544724	33.060684617052836	2.1616694912930114
C=tf_rep(D)	4.023918516543406	0.0	0.20140481120023987	27.35106409763709	33.482669140911156	2.1822901378836237
C=tf_rep(D)	4.023744849903091	0.0	0.20142039615554563	27.37134470466819	33.45414806811631	2.180902489477052
C=tf_act(E)	455.98443213862885	0.0	0.027486690217756	19.771445271106806	100.0	10.0
C=tf_act(E)	455.98443213854506	0.0	0.027486694008215972	19.771444767995078	100.0	10.0
C=tf_act(E)	455.9844321380804	0.0	0.027486723394416927	19.771461302532668	100.0	10.0
C=tf_act(E)	455.98443213831297	0.0	0.027486704441476727	19.771450933835688	100.0	10.0
C=tf_act(E)	455.9844321381315	0.0	0.0274867227823819	19.771462716159615	100.0	10.0
C=tf_act(E)	455.98443214196766	-2.710505431213761e-20	0.027486747054149416	19.77149584662921	100.0	10.0
C=tf_act(E)	456.02278273401635	0.0	0.02749521817612557	19.41893631405207	99.71638378967413	10.0
C=tf_act(E)	456.0118562485933	0.0	0.027437960340701617	19.497039955932816	99.8042381595869	10.0
C=tf_act(E)	455.98443213810754	0.0	0.027486719590104087	19.771459101523924	100.0	10.0
C=tf_act(E)	455.98443213821844	0.0	0.027486710213097613	19.77145417688497	100.0	10.0
C=tf_rep(E)	871.8678889632953	0.3	0.0	0.21135353900829887	0.001	1.9949118816078324
C=tf_rep(E)	871.8678889767867	0.3	0.0	0.1915360413743288	0.001	1.9740429173620389
C=tf_rep(E)	871.8678892463696	0.3	0.0	0.6574513752793218	0.001	1.9904436900107645
C=tf_rep(E)	871.867889339968	0.3	0.0	0.8829695728130335	0.001	1.9997062661520084
C=tf_rep(E)	871.8678893548046	0.3	0.0	0.6414290560827866	0.001	1.963356175690294
C=tf_rep(E)	871.8678897086235	0.3	0.0	0.8221966085292739	0.001	1.9349085889558226
C=tf_rep(E)	871.8678895101506	0.3	0.0	0.770235148471151	0.001	1.9550637586469246
C=tf_rep(E)	871.8678895537167	0.3	0.0	0.9898863740193522	0.001	1.9746845062101648
C=tf_rep(E)	871.8678889412364	0.3	0.0	0.5264708149401679	0.00206267139804492	2.2816982446038585
C=tf_rep(E)	871.8678888445551	0.3	0.0	0.2890702053389165	0.001	2.324487259495635
C=tf_act(F)	345.0449977372302	0.0	0.05327430787625551	5.166742094228082	21.995002193115003	10.0
C=tf_act(F)	345.08051171301724	0.0	0.05346441556082941	5.165102717912351	21.865165817670217	10.0
C=tf_act(F)	345.0449977374298	0.0	0.0532742970812168	5.1667411282915525	21.995004169465215	10.0
C=tf_act(F)	345.0449977374104	0.0	0.053274298688671395	5.166742519456874	21.99501025388547	10.0
C=tf_act(F)	345.0449977407713	0.0	0.05327425977119107	5.166742927524636	21.995041773271524	10.0
C=tf_act(F)	345.0449977426922	0.0	0.05327418668885293	5.166737218168626	21.995016447406208	10.0
C=tf_act(F)	345.0449977376451	0.0	0.053274288359092065	5.16674018192433	21.99500283749859	10.0
C=tf_act(F)	345.05123085579385	0.0	0.053359493532991874	5.166515621646289	21.94024290291731	10.0
C=tf_act(F)	345.0449977407528	0.0	0.0532742889366923	5.166736133220322	21.994992356454016	10.0
C=tf_act(F)	345.0449977372017	0.0	0.05327437783515286	5.166749431013871	21.995011161970428	10.0
C=tf_rep(F)	871.8678888373121	0.3	0.0	-6.938893903907228e-18	0.001	1.0011059053780065
C=tf_rep(F)	871.8678888373121	0.3	0.0	0.0	0.001	1.0000879121002957
C=tf_rep(F)	871.8678896948635	0.3	0.0	0.2526840881461323	0.001	1.8882919055509704
C=tf_rep(F)	871.8678903270813	0.3	0.0	0.47820228589759295	0.001	1.8975544829872473
C=tf_rep(F)	871.8678888798172	0.3	0.0	0.30183000625367085	0.004576901024108483	2.668378056104645
C=tf_rep(F)	871.8678888388416	0.3	0.0	0.48259755870131693	0.0010000046163538975	2.639930473985392
C=tf_rep(F)	871.8678888384432	0.3	0.0	0.43065884075550365	0.001	2.660108383251173
C=tf_rep(F)	871.8678888387351	0.3	0.0	0.6503100847725959	0.001	2.6797291308144136
C=tf_rep(F)	871.8678889244907	0.3	0.0	0.12590654744583024	0.014560545518562038	2.8938320468307923
C=tf_rep(F)	871.8678888373121	0.3	0.0	0.0	0.001	2.936621061722569
C=tf_act(G)	864.0824604643905	0.0	0.0	2.4485493478891645	96.6381194494959	8.56643920397548
C=tf_act(G)	864.0833624259351	0.0	0.0	2.431095591059883	96.509805679842	8.545367621011088
C=tf_act(G)	864.0828033720198	0.0	0.0	2.4610011134874945	96.6057074331276	8.761650010926594
C=tf_act(G)	864.0827675297467	0.0	0.0	2.465605512306389	96.62146047290679	8.79159775526784
C=tf_act(G)	864.0795626749955	0.0	0.0	2.5185609111677985	97.0241917340243	8.804899899936556
C=tf_act(G)	864.0809875787716	0.0	0.0	2.4946478410807384	96.84701031783908	8.794492165022188
C=tf_act(G)	864.0833527689358	0.0	0.0	2.4591634913879106	96.55630008218772	8.81321823578219
C=tf_act(G)	864.0839888444459	0.0	0.0	2.4549952054728252	96.49769950340627	8.853008809302564
C=tf_act(G)	864.0811362781463	0.0	0.0	2.5000785045925005	96.84823898454798	8.854790991596886
C=tf_act(G)	864.0836477486448	0.0	0.0	2.4650009849439707	96.5577810821727	8.882206272623534
C=tf_rep(G)	871.864915642306	0.3	0.0	0.022351473883869124	2.3264301955164277	9.982429660406853
C=tf_rep(G)	871.8678888373121	0.3	0.0	0.0	2.198257605660315	9.961561679758086
C=tf_rep(G)	799.8813802309933	0.03854755150852515	0.0	9.27648758427175	0.328230774607013	10.0
C=tf_rep(G)	799.8818446255575	0.03744732659339882	0.0	9.49516155834415	0.2877749996335976	10.0
C=tf_rep(G)	799.9432542278295	0.03869006154273272	0.0	9.198095371280987	0.6996710491367361	10.0
C=tf_rep(G)	799.905226217506	0.03302736444115931	0.0	9.365257979894567	0.493695422454036	9.971489397494912
C=tf_rep(G)	799.8813673849986	0.03852194935908648	0.0	9.319883666245929	0.31336724369693897	9.992176865826387
C=tf_rep(G)	799.8813538504469	0.03851946781616606	0.0	9.546338230867459	0.2813331492749023	10.0
C=tf_rep(G)	799.9015121643296	0.035263334070920645	0.0	9.301801510205227	0.5930740874864121	10.0
C=tf_rep(G)	799.890612816506	0.04238546350442563	0.0	9.10749688510996	0.42705824380827545	10.0
