# LEMpy local minima file for target A, replicate 0
# Right-hand side of tf_act():  p0 - p1(tar) + p2(reg^p4) / (p3^p4 + reg^p4)
# Right-hand side of tf_rep():  p0 - p1(tar) + p2(p3^p4) / (p3^p4 + reg^p4)
# Run configuration file:  ../pipeline/src/syn_net/syn_net_6D_simulations_202110_with_G/p779/results1/edge_finding_20211015113201/lempy_20211015113201_config.txt
# Time series data file:   ../pipeline/src/syn_net/time_series_with_G/syn_net_6D_20191104_a_data_p779_transposed_with_G.tsv
# Computed on:  2021-10-15 11:33:40 
 
model	loss	p0	p1	p2	p3	p4
A=tf_act(A)	1066.8193065057903	0.3	0.023324318088130437	6.116206013079044	95.62570900973193	2.5744834350829673
A=tf_act(A)	1066.8013880477033	0.3	0.02356302724507923	6.142142242887412	95.49326565023902	2.5526722831937034
A=tf_act(A)	1066.8091572854262	0.3	0.02613494857312721	6.665142703340852	95.17441808834099	2.5039982925483635
A=tf_act(A)	1066.7717029070338	0.3	0.023601166144946333	6.133426908879365	95.24412577280235	2.5607208215091526
A=tf_act(A)	1066.8237252643357	0.3	0.02318086117576667	6.089459752981923	95.65799663967161	2.5792438622902623
A=tf_act(A)	1066.8003982097666	0.3	0.024226132201465436	6.281114586527814	95.4499098308607	2.539106605984616
A=tf_act(A)	1066.7633524544112	0.3	0.024199874887560893	6.24576940242847	95.14795081149119	2.539081357352044
A=tf_act(A)	1066.7535771528453	0.3	0.023554505378648057	6.112806040270692	95.09473506481534	2.5665604890469798
A=tf_act(A)	1066.8002333833783	0.3	0.023239303161674888	6.08793322838068	95.45787053106659	2.584365046965141
A=tf_act(A)	1066.7218481995117	0.3	0.023343626933533382	6.061258844692309	94.80977259789526	2.599472758788536
A=tf_rep(A)	937.6369646796951	0.0	0.004793512171802802	19.478431058319412	5.751977621837802	10.0
A=tf_rep(A)	937.6369527843733	0.0	0.004793262262769236	19.480971952803557	5.751864252661171	10.0
A=tf_rep(A)	937.6786615423989	0.0	0.004785403995903257	19.973131711744635	5.730681172040503	9.975695388618302
A=tf_rep(A)	937.6348081470637	0.0	0.004794588074092959	20.199253632307656	5.724499991196511	10.0
A=tf_rep(A)	937.6395790405504	0.0	0.0047928410751886955	19.031577709452755	5.769762439436969	10.0
A=tf_rep(A)	937.6382461211068	0.0	0.004792674313376746	19.236318180298145	5.761513859076165	10.0
A=tf_rep(A)	937.6384480428297	0.0	0.004792679413680598	19.20282216859508	5.762852220859765	10.0
A=tf_rep(A)	937.637160351557	0.0	0.00479311032416705	19.437404276797913	5.75356890848244	10.0
A=tf_rep(A)	937.6494238276031	0.0	0.004790197542790466	18.0702736253383	5.810103677140671	10.0
A=tf_rep(A)	937.6522678204601	0.0	0.004788083747139534	17.87487906114123	5.818601961602462	10.0
A=tf_act(B)	1090.5603606268307	0.3	0.0	0.12356606967363226	99.99974204239979	1.0
A=tf_act(B)	1090.5574870659161	0.3	0.0	0.1235789720195999	99.87169331880197	1.0
A=tf_act(B)	1090.5508307399796	0.3	0.0	0.1236077783268179	99.57638300978367	1.0
A=tf_act(B)	1090.5505298691435	0.3	0.0	0.12361381436844084	99.56307759711308	1.0
A=tf_act(B)	1090.55974312639	0.3	0.0	0.12356835459999715	99.97219688183762	1.0
A=tf_act(B)	1090.554914250171	0.3	0.0	0.12358702490058522	99.75733425009652	1.0
A=tf_act(B)	1090.5483846922573	0.3	0.0	0.12361635961890746	99.46831737000068	1.0
A=tf_act(B)	1090.546369395498	0.3	0.0	0.12361675002888539	99.37946369636386	1.0
A=tf_act(B)	1090.555257608945	0.3	0.0	0.12359033722552533	99.77258059345073	1.0
A=tf_act(B)	1090.5492412390397	0.3	0.0	0.12361942237808884	99.50613186355218	1.0
A=tf_rep(B)	194.01385130783504	0.0	0.04595476129618077	50.10718726880102	16.301991418311868	5.550832650090066
A=tf_rep(B)	194.01409603285893	0.0	0.04595403105707996	50.125741383499644	16.300905706167217	5.551308373520336
A=tf_rep(B)	194.02089976477876	0.0	0.04594605211215416	50.631660597520174	16.26488571923983	5.55457333347833
A=tf_rep(B)	194.0244349782172	0.0	0.04593693334033634	50.85772315868914	16.25453197171338	5.563603721024872
A=tf_rep(B)	194.0442373415897	0.0	0.04586593921921384	50.682648279440876	16.342140105927086	5.667150030165624
A=tf_rep(B)	194.0360582757588	0.0	0.04588574043980182	50.89281611197067	16.299579679046346	5.629626093758334
A=tf_rep(B)	194.03668810181418	0.0	0.045883034157222245	50.867044939356184	16.304279457697966	5.633537580471093
A=tf_rep(B)	194.02658083322186	0.0	0.045954717462004496	51.08272598528566	16.218473663149	5.537443811332414
A=tf_rep(B)	194.02835239910806	0.0	0.045888192389749234	50.29741376520889	16.35027746261727	5.638084933254071
A=tf_rep(B)	194.03359415266564	0.0	0.045867245525556904	50.147516349384375	16.379814542618647	5.664324919182957
A=tf_act(C)	1092.1692594202814	0.3	0.0	0.0	100.0	9.996189306452536
A=tf_act(C)	1092.1692594202814	0.3	0.0	0.0	99.87197199954883	9.975320342201265
A=tf_act(C)	1092.1692594202814	0.3	0.0	0.0	100.0	10.0
A=tf_act(C)	1092.1692594202814	0.3	0.0	0.0	100.0	10.0
A=tf_act(C)	1092.1692594202814	0.3	0.0	0.0	100.0	10.0
A=tf_act(C)	1092.1692594202814	0.3	0.0	0.0	100.0	10.0
A=tf_act(C)	1092.1692594202814	0.3	0.0	0.0	99.71113535551164	10.0
A=tf_act(C)	1092.1692594202814	0.3	0.0	0.0	99.62059915894773	9.88190248708234
A=tf_act(C)	1092.1692594202814	0.3	0.0	0.0	100.0	9.912526402681637
A=tf_act(C)	1092.1692594202814	0.3	0.0	0.0	99.73316285753857	9.955315417573413
A=tf_rep(C)	597.5131323801875	0.0	0.019833114584193557	99.82316535874159	9.0647493824442	10.0
A=tf_rep(C)	597.5144267064804	0.0	0.019831341925733263	99.80394717186705	9.064883182900711	10.0
A=tf_rep(C)	597.5012302070909	0.0	0.019832200886164286	100.0	9.062905672966764	10.0
A=tf_rep(C)	597.5012302071693	0.0	0.019832227526501142	100.0	9.06290611641344	10.0
A=tf_rep(C)	597.5627302860336	0.0	0.019832790470822304	99.0932761126737	9.072256082743742	10.0
A=tf_rep(C)	597.5502249652443	0.0	0.01982904013671308	99.2761165232855	9.070232000259194	10.0
A=tf_rep(C)	597.5535808061659	0.0	0.019828814842310086	99.22693354117108	9.070732253109746	10.0
A=tf_rep(C)	597.5385804653048	0.0	0.01982977051186299	99.44717159875871	9.068494200953014	10.0
A=tf_rep(C)	597.6390947341331	0.0	0.01982912286649977	97.99082349364357	9.083613789736196	10.0
A=tf_rep(C)	597.5545836487009	0.0	0.019828708424657535	99.21224579597974	9.070880396886919	10.0
A=tf_act(D)	932.7650151887326	0.0	0.00755712532986892	5.4321344866403285	100.0	10.0
A=tf_act(D)	932.7650151887584	0.0	0.00755712416028414	5.432133767278674	100.0	10.0
A=tf_act(D)	932.7650151885694	0.0	0.007557134282115982	5.432137146499826	100.0	10.0
A=tf_act(D)	932.7650151887271	0.0	0.007557125510665894	5.432134080257803	100.0	10.0
A=tf_act(D)	932.7650152752576	0.0	0.0075567398977788814	5.432009836188235	100.0	10.0
A=tf_act(D)	932.7650151889001	0.0	0.007557182195997999	5.43215060320594	100.0	10.0
A=tf_act(D)	933.1016585199161	0.0	0.007485796111140781	5.31786793548797	99.7200710830546	10.0
A=tf_act(D)	933.1249101561042	0.0	0.007446483921085128	5.299772699512785	99.70358342788454	10.0
A=tf_act(D)	932.7650151894292	0.0	0.007557104623314127	5.43212751289662	100.0	10.0
A=tf_act(D)	933.118702921333	0.0	0.007469433055758142	5.30834442992919	99.70689648738032	10.0
A=tf_rep(D)	1092.16925963076	0.3	0.0	1.034748600196171	0.026405311304278273	2.8342798268718346
A=tf_rep(D)	1092.1692594203046	0.3	0.0	1.0149311025594625	0.001	2.813410862620564
A=tf_rep(D)	1092.1692594203103	0.3	0.0	1.4808464364644556	0.001	2.8298116352692895
A=tf_rep(D)	1092.169259420312	0.3	0.0	1.706364633998167	0.001	2.8390742114831164
A=tf_rep(D)	1092.1692594203398	0.3	0.0	1.6744811609222585	0.002674268938066285	3.0927338879297848
A=tf_rep(D)	1092.169259420285	0.3	0.0	1.8552487133699045	0.001	3.0642863058105316
A=tf_rep(D)	1092.1692594202846	0.3	0.0	1.8033099954240912	0.001	3.084464215076313
A=tf_rep(D)	1092.169259420284	0.3	0.0	2.0229612394411833	0.001	3.1040849626395532
A=tf_rep(D)	1092.1692608121896	0.3	0.0	1.6563039262154455	0.09296955216249418	3.271779492902115
A=tf_rep(D)	1092.169259420281	0.3	0.0	1.4189033166141942	0.001	3.314568507793892
A=tf_act(E)	6.611838799718538	0.0	0.10215568850520086	12.521175038530933	48.96619948966083	10.0
A=tf_act(E)	6.611838799902899	0.0	0.10215568049635496	12.521174181086549	48.96620024919749	10.0
A=tf_act(E)	6.611838799408772	0.0	0.10215570402808137	12.521175893743804	48.96619683683694	10.0
A=tf_act(E)	6.6127591152973375	0.0	0.10209598203799268	12.525404008185413	49.02120868026014	10.0
A=tf_act(E)	6.611838799717524	0.0	0.10215568865580778	12.521175387469526	48.96620071749406	10.0
A=tf_act(E)	6.6118387996099095	0.0	0.10215569354164297	12.521175432372656	48.966199018993215	10.0
A=tf_act(E)	6.611838799506119	0.0	0.1021556984054468	12.521175748258782	48.966197560090755	10.0
A=tf_act(E)	6.612351608090298	0.0	0.10220177874142615	12.518182656511156	48.92516414299705	10.0
A=tf_act(E)	6.627043425236077	0.0	0.1019167689168567	12.53875731994981	49.19029336620787	9.99767745813026
A=tf_act(E)	6.614068184028302	0.0	0.1022507533071444	12.515182506069724	48.882556297411284	9.999109142905327
A=tf_rep(E)	1092.1692594202814	0.3	0.0	39.735135649402	0.001	10.0
A=tf_rep(E)	1091.3730997933164	0.3	0.0	40.82010443843478	0.022556156863352432	1.0
A=tf_rep(E)	1091.373132929454	0.3	0.0	41.286020762551146	0.02230039763248934	1.0
A=tf_rep(E)	1091.3731487006305	0.3	0.0	41.51154622952059	0.02217868934833998	1.0
A=tf_rep(E)	1092.1692594202816	0.3	0.0	37.65620592108568	0.08576874310519006	6.699762373051829
A=tf_rep(E)	1092.1692594202814	0.3	0.0	37.83697347353333	0.001	6.671314790932576
A=tf_rep(E)	1092.1692594202814	0.3	0.0	37.78503475558751	0.001	6.691492700198357
A=tf_rep(E)	1092.1692594202814	0.3	0.0	38.004685999604604	0.001	6.711113447761598
A=tf_rep(E)	1092.169259428024	0.3	0.0	37.66051055265888	0.3942137981675418	6.741737363360893
A=tf_rep(E)	1092.1692594202839	0.3	0.0	37.423109943057625	0.12737665570610934	6.78452637825267
A=tf_act(F)	0.3821123142224353	0.3	0.1515906864389238	16.32494110307503	28.450143789980398	4.692662386307681
A=tf_act(F)	0.3821123167817763	0.3	0.15159055660715232	16.324931576204065	28.450154126206584	4.6926689000148
A=tf_act(F)	0.38211231667239043	0.3	0.1515905615895392	16.324932021089094	28.450153978305156	4.692668918610415
A=tf_act(F)	0.43842371609668696	0.27995428665580135	0.1522744512437878	16.42096265563876	28.414136881253224	4.642421421881936
A=tf_act(F)	0.38211231070408536	0.3	0.15159107814200762	16.324952751133345	28.45006163261974	4.692678238352048
A=tf_act(F)	0.3821123158079614	0.3	0.15159063391913527	16.324927144983715	28.450116742223965	4.692677009403426
A=tf_act(F)	0.3821597149723869	0.3	0.1516284714481435	16.329296797367217	28.451446812937125	4.690359473533807
A=tf_act(F)	0.3821123157181275	0.3	0.15159062690526703	16.324943763550557	28.450170333380605	4.692659582468198
A=tf_act(F)	0.3821123167451858	0.3	0.15159055827772783	16.324931615932307	28.45015370326132	4.692669007375686
A=tf_act(F)	0.3821123162538909	0.3	0.15159059504342065	16.32492788160324	28.45013019658467	4.692678771854662
A=tf_rep(F)	1089.778248027889	0.3	0.0	1.9818196711065534	0.5666432299620956	1.0
A=tf_rep(F)	1089.7786592945517	0.3	0.0	1.9908509195395652	0.5643671498474379	1.0
A=tf_rep(F)	1089.7963318821164	0.3	0.0	2.474985213181654	0.44738657653012776	1.0
A=tf_rep(F)	1089.8021887925438	0.3	0.0	2.6965164808230324	0.40850543998031036	1.0
A=tf_rep(F)	1089.7991896255014	0.3	0.0	2.5780340188297735	0.42823996740601916	1.0
A=tf_rep(F)	1089.8039810957828	0.3	0.0	2.772962268160576	0.3966888202151392	1.0
A=tf_rep(F)	1089.8030469428743	0.3	0.0	2.732563771276215	0.4029195788698348	1.0
A=tf_rep(F)	1089.8032608610413	0.3	0.0	2.741638822325945	0.4012045813886992	1.0
A=tf_rep(F)	1089.7853880705684	0.3	0.0	2.148928800088761	0.518701921176861	1.0
A=tf_rep(F)	1089.7768380451553	0.3	0.0	1.9521783749238064	0.5767468945447245	1.0
A=tf_act(G)	1079.1099841508433	0.3	0.0	0.4079118166108484	98.756762006311	1.0
A=tf_act(G)	1079.1089201666912	0.3	0.0	0.4076418307145593	98.62903474067402	1.0
A=tf_act(G)	1079.1054038255895	0.3	0.0	0.40663907233104113	98.20861285758117	1.0
A=tf_act(G)	1079.1052898408475	0.3	0.0	0.40662411028696266	98.19503144353884	1.0
A=tf_act(G)	1079.1086845794068	0.3	0.0	0.4075747415341355	98.60078466704124	1.0
A=tf_act(G)	1079.1069864922176	0.3	0.0	0.407099025894494	98.39751381440236	1.0
A=tf_act(G)	1079.1045627854905	0.3	0.0	0.40641957153358915	98.10845090479606	1.0
A=tf_act(G)	1079.10375778937	0.3	0.0	0.4061968299417345	98.01272008956981	1.0
A=tf_act(G)	1079.107055030977	0.3	0.0	0.4071177202270926	98.4057063298395	1.0
A=tf_act(G)	1079.104814937701	0.3	0.0	0.40649072869369285	98.13846541456398	1.0
A=tf_rep(G)	887.8332100962081	0.3	0.0069546583123619955	15.275809820626664	0.3139856878269589	9.811061398242543
A=tf_rep(G)	887.8331906396551	0.3	0.0069545710963932195	15.454146440798821	0.29576008990600955	9.70287505964874
A=tf_rep(G)	1092.1692593780015	0.3	0.0	15.920061774703814	0.018533778383133158	9.719275832297466
A=tf_rep(G)	887.8331757790397	0.3	0.006954603704555973	15.679692172907618	0.2818636742759388	9.712139432133366
A=tf_rep(G)	887.8332596843767	0.3	0.0069557571242845	15.199185178003155	0.3307855743005929	9.750517549069396
A=tf_rep(G)	887.83319794424	0.3	0.006954533822313774	15.378895620925965	0.30223393070720445	9.725301434179382
A=tf_rep(G)	1092.1692594186964	0.3	0.0	15.326956902980152	0.013369286218854803	9.745479343445163
A=tf_rep(G)	887.8331769810809	0.3	0.006954596471145255	15.611511612062714	0.28500845708864386	9.745148868433779
A=tf_rep(G)	887.9086532057487	0.3	0.007132223223418115	15.345046218020098	0.5505110343164388	9.793346973230392
A=tf_rep(G)	1092.1692593917244	0.3	0.0	15.374111002461461	0.018171314630961357	9.787937883325554
