# LEMpy target file for SWI5, replicate 1 
# Run configuration file:  ../pipeline/src/yeast_data/simulations202110_Orlando_2/extra_nodes_no_annot/results2/edge_finding_20211012232444/lempy_20211012232444_config.txt 
# Time series data file:   ../pipeline/src/yeast_data/time_series/orlando2008_WildType_r2_trunc.tsv 
# Computed on:  2021-10-12 23:27:38 
 
model	loss	pld	inv_temp	prior	rhs_param_0	rhs_param_1	rhs_param_2	rhs_param_3	rhs_param_4	hess_eigs	hess_det	bnd_params	pld_time	opt_time
tf_act(NRM1)	91.66460698862315	0.90648	1.0	0.776701739909615	0.0	0.06485186677396008	8.467428076145941	51.06767312232002	5.256369215057116	[1, 3.398944631341174, 15.42394879856613, 66.42775292436497, 4419357.270857351]	15390344415.055872	1.0	8.899199999845564e-05	0.580763379
tf_act(NDD1)	101.99123181636101	0.0935076	1.0	0.206450418661631	0.0	0.06454307641003905	7.572212921615183	56.29344335779661	10.0	[1, 2.3263425503188424, 12.99145572656064, 66.94301112577813, 4419455.039475173]	8941398381.408941	2.0	8.663799999908406e-05	0.5204226260000002
tf_act(WHI5)	276.03639556374725	0.00000968926	1.0	0.0134333572571335	0.0	0.04480759881026999	12.465803841195626	100.0	10.0	[1, 1.6401927212782854, 4.239251552948656, 62.88896049850513, 4419199.141865572]	1932422373.34532	3.0	8.079000000194014e-05	0.4064553120000003
tf_rep(CLN3)	241.7657813146066	0.00000226464	1.0	0.00318765056626438	0.3	0.01758068020966332	100.0	37.5347283378	10.0	[1, 1, 37.66376714386963, 100.80770078310069, 4419198.30684078]	16778802270.429829	3.0	7.854499999737641e-05	0.42481652699999994
tf_act(RIF1)	284.33342768366015	0.0000000649365	1.0	8.70887893929407e-5	0.0	0.011762271801082469	5.207072884542587	76.49635207978268	10.0	[1, 1, 13.79570838378852, 72.2718600399672, 4419072.002819607]	4405998202.451111	2.0	7.747400000113203e-05	0.5030831970000005
tf_act(HCM1)	304.9367715697166	0.0000000176197	1.0	4.2318624037853e-5	0.0	0.009687420984046612	4.889872191974972	68.04396551385852	10.0	[1, 1, 12.798991399386122, 75.21240094280407, 4419065.714225946]	4253982114.208508	2.0	0.00010483900000224367	0.6086713420000001
tf_rep(ASH1)	275.1351419310893	0.00000000484916	1.0	7.19145351358561e-5	0.0	0.00953432511680226	100.0	7.209927995112146	10.0	[1, 1, 41.63216418839346, 1268.2844454008846, 4421266.20455319]	233449161513.19315	3.0	8.148099999871761e-05	0.4322644319999993
tf_act(YOX1)	368.3224220018306	0.00000000346618	1.0	2.05452345305583e-5	0.0	0.008328364743572207	7.183843628162355	88.79034880150135	4.476167366776893	[1, 1.8489043607978282, 6.007705906785176, 66.45258324522278, 4419065.694493819]	3261860904.405437	1.0	7.307299999936845e-05	0.42343310000000045
tf_act(SWI4)	370.3986868618596	0.000000000256497	1.0	2.84707242008822e-6	0.0	0.00332729383739069	13.567832462502261	100.0	10.0	[1, 1, 2.35016917077013, 61.78970045789515, 4419010.39444468]	641712114.158897	3.0	0.0003578159999975128	0.39713426399999996
tf_act(EDS1)	470.47400559762957	0.0000000000153603	1.0	1.79999820735312e-6	0.0	0.010312971677496166	3.296864579894671	58.62999828692139	10.0	[1, 1, 5.682806244482348, 85.74347694577033, 4419160.57067979]	2153295939.328702	2.0	8.113699999867663e-05	0.5555598530000001
tf_rep(SWI4)	529.2253746883565	0.000000000000147414	1.0	7.13784112418374e-8	0.3	0.013273865637907414	9.107262728600602	23.018793111953304	10.0	[1, 1, 10.119758841834598, 59.31453221963129, 4419100.841268228]	2652559808.589246	2.0	0.000146730000000872	0.3258729099999993
tf_rep(NDD1)	581.2817170185315	0.0000000000000767071	1.0	3.77583977314463e-8	0.3	0.0003315441306310152	21.746694884585967	19.87359541449349	7.894014340805214	[1, 1, 4.041376919848293, 67.3718646620049, 4419010.121294777]	1203186417.781033	1.0	8.899600000233931e-05	0.41374392400000026
tf_rep(NRM1)	573.563995524794	0.000000000000041774	1.0	3.80152916060322e-8	0.3	0.00037919811962045696	2.3154710278078503	13.148393808354465	10.0	[1, 1, 4.6312174411841704, 69.26077219219825, 4419009.00041042]	1417448822.346199	2.0	8.249599999743396e-05	0.4493305809999999
tf_rep(WHI5)	588.3267581236577	0.0000000000000321154	1.0	2.00529405231301e-8	0.3	0.00028239348127749727	4.912732135531444	47.6615843969484	10.0	[1, 1, 1.349974127266118, 60.62795805746269, 4419006.816976827]	361678804.2368612	2.0	7.773000000099728e-05	0.32209179100000007
tf_rep(SWI5)	619.8367364090235	0.0000000000000251925	1.0	2.53660322212408e-8	0.3	0.0	0.1671713533729886	0.5135573222346738	9.962791090983924	[1, 1, 1, 59.04804547009692, 4419005.366877651]	260933629.83599386	2.0	8.811400000041658e-05	0.2502404830000007
tf_rep(YOX1)	593.3615305376479	0.0000000000000247069	1.0	3.43319163790898e-8	0.3	0.0	9.347384863761112	8.144936974731854	8.218178113345878	[1, 1, 5.148325964924616, 64.00422115493747, 4419006.854888246]	1456127248.0664775	2.0	8.01199999997948e-05	0.36381593599999995
tf_act(CLN3)	582.8736907801496	0.000000000000015332	1.0	2.74969061912607e-8	0.3	0.020364216366014567	2.380654945975027	95.46648437357902	1.0	[1, 1, 12.079069356624446, 70.02131662187792, 4419408.656720536]	3737901988.820747	2.0	7.998999999969669e-05	0.36984371299999985
tf_rep(RIF1)	617.6124021331495	0.00000000000000477367	1.0	9.19722363090683e-9	0.3	0.0	23.302775004255263	26.98871681782095	10.0	[1, 1, 1, 59.105417399144784, 4419006.696116601]	261187235.26358747	3.0	8.015000000227701e-05	0.3905745060000001
tf_rep(EDS1)	581.2163544605627	0.00000000000000456148	1.0	2.53660259747145e-8	0.3	0.02460670236416316	99.6102043812344	0.6872238760446722	1.0	[1, 1, 7.523316362183502, 1141.7661274713369, 4481264.379942446]	38493468549.43233	2.0	7.464099999765494e-05	0.4678029610000003
tf_rep(HCM1)	595.1306378306551	0.00000000000000363731	1.0	2.58072293304817e-8	0.3	0.0	100.0	18.535976079519614	10.0	[1, 1, 7.525995662439448, 66.34906112244657, 4419010.598734443]	2206600887.922874	4.0	0.00011061900000086666	0.384822899
tf_act(SWI5)	612.5832881139561	0.00000000000000314172	1.0	4.16396986934277e-9	0.3	0.011847127827126389	2.11938676184823	95.50799750659978	1.0	[1, 1, 2.13448254439468, 64.1943152155669, 4419341.252484945]	605545409.4559934	2.0	8.395200000066438e-05	0.38536601800000003
tf_act(ASH1)	543.82171654281	0.00000000000000283562	1.0	4.17286532751056e-10	0.15761793680446115	0.029794146224433146	1.6763482424960041	0.001	2.241572781179357	[1, 1, 1, 118.04629512747151, 4420869.445550036]	521867259.28942084	1.0	8.166900000006194e-05	0.4277821589999995
null_model	619.8367364090453				0.3	0.0								
