# LEMpy target file for D, replicate 0 
# Run configuration file:  ../pipeline/src/syn_net/syn_net_6D_simulations_202110_with_G/p779/results4/edge_finding_20211014221911/lempy_20211014221911_config.txt 
# Time series data file:   ../pipeline/src/syn_net/time_series_with_G/syn_net_6D_20191104_a_data_p779_transposed_with_G.tsv 
# Computed on:  2021-10-14 22:21:13 
 
model	loss	pld	inv_temp	prior	rhs_param_0	rhs_param_1	rhs_param_2	rhs_param_3	rhs_param_4	hess_eigs	hess_det	bnd_params	pld_time	opt_time
tf_rep(A)	0.44670261945356626	0.993826	1.0	0.07142857142857142	0.0	0.21362461028978202	21.379168324073856	55.29621791180551	3.3181448720822764	[1, 1, 11.639493784068186, 128.1649847168221, 7075164.386435159]	10554557194.011074	1.0	6.860500000005487e-05	0.8332130370000002
tf_rep(F)	26.413912173522963	0.00600318	1.0	0.07142857142857142	0.0	0.07999727399326417	9.76643166861782	21.34011003451589	10.0	[1, 2.1082391411841135, 18.086874067213436, 35.051266762946334, 7074778.7019828055]	9455836727.62056	2.0	5.2033000000228924e-05	0.6409024199999998
tf_rep(E)	78.72757468160256	0.000170441	1.0	0.07142857142857142	0.0	0.06193224021066262	8.876833659886053	28.25307434698568	10.0	[1, 1.3904920605835807, 20.15886296727279, 33.820247555067844, 7074638.267252252]	6706803267.423729	2.0	5.2070999999820344e-05	0.3984463169999999
tf_act(B)	410.1800946946574	0.0000000020638	1.0	0.07142857142857142	0.0	0.0331895702344915	14.093578606659468	100.0	10.0	[1, 1.033420261277388, 5.521935633687758, 36.951320750196246, 7074398.415476024]	1491721649.7217903	3.0	5.8806000000188874e-05	0.5002939479999999
tf_act(C)	777.5719354503932	0.00000000000233579	1.0	0.07142857142857142	0.0	0.015431497764591398	8.276696007418167	100.0	10.0	[1, 1, 1.0898010214473606, 35.48009679327852, 7074355.101912884]	273538752.7261357	3.0	5.644799999959815e-05	0.48171133099999985
tf_rep(D)	868.6399550180439	0.00000000000207714	1.0	0.07142857142857142	0.0	0.006516128021415353	43.17873097647526	0.21420749957647184	5.548433743935215	[1, 1, 1, 32.68217862562496, 7074343.748008945]	231204966.0315015	1.0	5.1126999999873135e-05	0.582813389
tf_rep(C)	868.6399550175449	0.00000000000103857	1.0	0.07142857142857142	0.0	0.006516128008350986	0.0	0.6410454451462677	3.0817211326444416	[1, 1, 1, 32.68217865020369, 7074343.748010957]	231204966.20544562	2.0	5.3732999999667186e-05	0.45123268800000016
tf_act(G)	865.9496907941782	0.000000000000946719	1.0	0.07142857142857142	0.0	0.010069560364898027	1.6398708531846489	95.85211900340309	10.0	[1, 1, 1.2896924796279159, 33.41376763116408, 7074377.299833169]	304859570.85168207	2.0	5.195899999943521e-05	0.4992635289999998
tf_act(D)	839.8116866589592	0.000000000000631397	1.0	0.07142857142857142	0.3	0.2473552528434557	33.368993724813635	64.28715894635143	1.9411865674417226	[1, 1, 1, 948.4086975855213, 7074760.627801138]	6709764512.742202	1.0	5.2612000000173964e-05	0.5377724699999997
tf_rep(G)	866.1321916825045	0.000000000000249995	1.0	0.07142857142857142	0.0	0.00970698373258095	1.036525898448039	7.173957037610438	10.0	[1, 3.7536673045638627, 4.848240914376017, 33.74862613873949, 7074410.823865348]	4344965618.808743	2.0	5.1534999999880426e-05	0.5397959270000001
tf_act(A)	868.6399550175414	0.000000000000228258	1.0	0.07142857142857142	0.0	0.006516128109554507	0.0	99.86771866224178	1.0182547692855268	[1, 1, 14.5909704597874, 46.37029145349978, 7074481.1027328195]	4786505856.696802	2.0	0.00014018999999976245	0.5208382409999999
tf_rep(B)	868.639955017541	0.000000000000168095	1.0	0.07142857142857142	0.0	0.006516128114411578	0.0	24.95699428727838	1.0182547692855268	[1, 1, 29.312494025135617, 42.560496947710725, 7074555.132447919]	8825891764.409422	2.0	5.734500000009746e-05	0.561034298
tf_act(F)	868.6399550175412	0.000000000000110731	1.0	0.07142857142857142	0.0	0.006516128113701539	0.0	100.0	1.0486914496314452	[1, 1, 18.56066061375616, 38.724218783825165, 7074441.302662684]	5084734045.753268	3.0	5.4943999999501614e-05	0.31183699900000006
tf_act(E)	868.6399550175413	0.0000000000000904853	1.0	0.07142857142857142	0.0	0.006516128111471678	0.0	100.0	1.0182547692855268	[1, 1, 24.783718460220424, 43.43012625444497, 7074496.424889069]	7614705125.990219	3.0	5.226500000077294e-05	0.45183127899999986
null_model	868.6399550175325				0.0	0.00651612836849581								
