# LEMpy target file for C, replicate 0 
# Run configuration file:  ../pipeline/src/syn_net/syn_net_6D_simulations_202110_with_G/p779/results4/edge_finding_20211014221911/lempy_20211014221911_config.txt 
# Time series data file:   ../pipeline/src/syn_net/time_series_with_G/syn_net_6D_20191104_a_data_p779_transposed_with_G.tsv 
# Computed on:  2021-10-14 22:21:12 
 
model	loss	pld	inv_temp	prior	rhs_param_0	rhs_param_1	rhs_param_2	rhs_param_3	rhs_param_4	hess_eigs	hess_det	bnd_params	pld_time	opt_time
tf_rep(D)	4.023608181696167	0.98312	1.0	0.07142857142857142	0.0	0.20145397689682015	27.41164862086512	33.398109307036215	2.178171655924724	[1, 1, 12.516483408287044, 863.7415138071473, 3363386.0060876724]	36361587390.66519	1.0	5.2265999999967505e-05	0.6869896899999999
tf_act(A)	44.41253509147766	0.0168803	1.0	0.07142857142857142	0.0	0.07482518373515458	23.711790480777303	100.0	4.732086832699117	[1, 1.4465166567860535, 8.957956070270159, 63.63741574608143, 3361820.9952666904]	2772167626.253638	2.0	0.0001419419999999505	0.5688799729999996
tf_act(F)	345.0449977370443	0.0000000389089	1.0	0.07142857142857142	0.0	0.053274321036661035	5.166743377543726	21.995005850339677	10.0	[1, 4.444178770555034, 19.39073640545881, 81.21336485864984, 3362060.532966364]	23529833623.45907	2.0	5.252899999996785e-05	0.5004339690000004
tf_act(E)	455.98443213810674	0.00000000590134	1.0	0.07142857142857142	0.0	0.027486720234564662	19.771459797540892	100.0	10.0	[1, 1, 4.541020738147202, 64.67856094207633, 3361624.649271311]	987331637.1672786	3.0	5.2076000000234046e-05	0.3058428259999997
tf_rep(B)	722.3959724940926	0.0000000000178371	1.0	0.07142857142857142	0.0	0.009824572717170053	34.47848782070438	16.248551650587583	10.0	[1, 1, 14.953924810905688, 136.98381214122338, 3361909.164685093]	6886688127.00938	2.0	6.308400000021308e-05	0.5435694200000001
tf_rep(E)	871.8678888373119	0.00000000000363835	1.0	0.07142857142857142	0.3	0.0	0.427899316174451	0.46721391373768334	10.0	[1, 1, 1, 61.44671093714453, 3361582.2408064976]	206558172.24227545	3.0	5.3037000000255574e-05	0.4579284969999997
tf_rep(F)	871.8678888373119	0.00000000000363835	1.0	0.07142857142857142	0.3	0.0	0.04269282263763163	0.001	3.4246835141245024	[1, 1, 1, 61.44671093650379, 3361582.2408064976]	206558172.24012154	3.0	5.234700000000814e-05	0.4705172329999998
tf_act(C)	857.1833968495836	0.00000000000338992	1.0	0.07142857142857142	0.3	0.22737231596001642	33.246498355802096	67.27250542604597	1.5942933254582583	[1, 1, 1, 1862.249900761947, 3368625.4308465635]	6273222374.298183	1.0	5.5548000000182896e-05	0.522674034
tf_rep(G)	799.881401002585	0.00000000000208918	1.0	0.07142857142857142	0.03861003473772995	0.0	9.843582128767435	0.2742486994291961	8.771422624298744	[1, 1, 50.178128177869965, 716.9394925897363, 3362178.7533305623]	120953310654.30418	1.0	5.1435999999682736e-05	0.5144905670000002
tf_act(G)	864.0375101245788	0.00000000000206709	1.0	0.07142857142857142	0.0	0.0	3.138129129279766	100.0	10.0	[1, 1, 1, 62.08062680267022, 3361603.5531310434]	208690455.6404585	4.0	5.368500000013654e-05	0.4265390130000002
tf_rep(C)	867.1500316335517	0.00000000000152261	1.0	0.07142857142857142	0.16632020311730186	0.0	100.0	7.200606730743176	10.0	[1, 1, 4.673534633286494, 88.09621028224709, 3361670.6128932503]	1384069343.6724718	3.0	5.428600000012551e-05	0.31514102999999993
tf_rep(A)	871.8678888373121	0.000000000000909587	1.0	0.07142857142857142	0.3	0.0	0.0	0.001	10.0	[1, 1, 1, 61.446710936330646, 3361582.2408064967]	206558172.23953944	5.0	6.374799999964154e-05	0.42816541899999994
tf_act(B)	871.8678888373121	0.000000000000353579	1.0	0.07142857142857142	0.3	0.0	0.0	100.0	1.1573788176328508	[1, 1, 25.487311261833835, 63.81538596931428, 3361768.638518706]	5467858214.245844	4.0	6.160399999988186e-05	0.27237788899999993
tf_act(D)	871.8678888373121	0.000000000000159957	1.0	0.07142857142857142	0.3	0.0	0.0	100.0	1.0	[1, 1, 24.548116472089937, 80.9344612781195, 3361796.0749601857]	6679178056.948821	5.0	5.348500000001977e-05	0.4186812579999999
null_model	871.8678888373121				0.3	0.0								
