# Run Manifest for ../pipeline/src/yeast_data/simulations202110_Orlando_2/extra_nodes_no_annot/results3/
run_step	run_input	run_output
lempy	/hpc/group/harerlab/bc187/GIT/pipeline/src/yeast_data/simulations202110_Orlando_2	/hpc/group/harerlab/bc187/GIT/pipeline/src/yeast_data/simulations202110_Orlando_2/extra_nodes_no_annot/results3/edge_finding_20211013003459/summaries
netgen	/hpc/group/harerlab/bc187/GIT/pipeline/src/yeast_data/simulations202110_Orlando_2/extra_nodes_no_annot/results3/edge_finding_20211013003459/summaries	/hpc/group/harerlab/bc187/GIT/pipeline/src/yeast_data/simulations202110_Orlando_2/extra_nodes_no_annot/results3/seed_network_20211013003459
netper	/hpc/group/harerlab/bc187/GIT/pipeline/src/yeast_data/simulations202110_Orlando_2/extra_nodes_no_annot/results3/seed_network_20211013003459	/hpc/group/harerlab/bc187/GIT/pipeline/src/yeast_data/simulations202110_Orlando_2/extra_nodes_no_annot/results3/network_finding_20211013003459/dsgrn_net_gen_results20211013003459/networks20211013003459
netquery	/hpc/group/harerlab/bc187/GIT/pipeline/src/yeast_data/simulations202110_Orlando_2/extra_nodes_no_annot/results3/network_finding_20211013003459/dsgrn_net_gen_results20211013003459/networks20211013003459	/hpc/group/harerlab/bc187/GIT/pipeline/src/yeast_data/simulations202110_Orlando_2/extra_nodes_no_annot/results3/network_queries_20211013003459/queries20211013003459
