# LEMpy local minima file for target CLN3, replicate 0
# Right-hand side of tf_act():  p0 - p1(tar) + p2(reg^p4) / (p3^p4 + reg^p4)
# Right-hand side of tf_rep():  p0 - p1(tar) + p2(p3^p4) / (p3^p4 + reg^p4)
# Run configuration file:  ../pipeline/src/yeast_data/simulations202110_Orlando_2/extra_nodes_annot/results1/edge_finding_20211012175947/lempy_20211012175947_config.txt
# Time series data file:   ../pipeline/src/yeast_data/time_series/orlando2008_WildType_r1_trunc.tsv
# Computed on:  2021-10-12 18:03:19 
 
model	loss	p0	p1	p2	p3	p4
CLN3=tf_act(SWI4)	181.5199626235037	0.15484676314978538	0.003521785093873673	0.15739493016500578	0.001	3.760901562006264
CLN3=tf_act(SWI4)	181.51996491226188	0.15340306084192032	0.0035217177293188247	0.15883314454167102	0.44571544357398285	3.774080153573956
CLN3=tf_act(SWI4)	181.52013919161962	0.1516237714551012	0.003681811209613743	0.17373459694368473	0.06120845390395405	3.729745235560935
CLN3=tf_act(SWI4)	181.51996261944097	0.1526372069741526	0.003521847656211163	0.1596096102129428	0.001	3.7044364245421004
CLN3=tf_act(SWI4)	181.5199626261198	0.13502848166153597	0.0035217461687927403	0.1772097788725004	0.001	3.66763479350896
CLN3=tf_act(SWI4)	181.5199626256777	0.1351691915739599	0.0035217520077401895	0.1770698458266613	0.001	3.6473885462872553
CLN3=tf_act(SWI4)	181.51996729371143	3.1862310256678537e-10	0.0035217815220454267	0.3122414231987433	0.38194025303833046	3.623703261780067
CLN3=tf_act(SWI4)	181.5199627222897	0.0016621865308333766	0.003521779134586364	0.31057901418449063	0.13194333713029527	3.624273987429998
CLN3=tf_act(SWI4)	181.51997004102356	0.00356337740002773	0.0035217231736968343	0.3086732831932836	0.4233547966005386	3.5987443345184147
CLN3=tf_act(SWI4)	181.51996263485492	0.0	0.0035219332610970855	0.3122538330997128	0.08527081133956094	3.619556077064601
CLN3=tf_rep(SWI4)	12.86313605063158	0.0	0.036299016140242134	6.788099979056318	40.79637625214211	10.0
CLN3=tf_rep(SWI4)	12.863136049711974	0.0	0.03629902928377207	6.788103515915181	40.79637419816858	10.0
CLN3=tf_rep(SWI4)	12.863136049733285	0.0	0.03629902907607666	6.7881024584814025	40.79637706127017	10.0
CLN3=tf_rep(SWI4)	12.86313604931741	0.0	0.036299035158390794	6.788103569993287	40.796376834760295	10.0
CLN3=tf_rep(SWI4)	12.863136049161353	0.0	0.036299037493344746	6.788104235345049	40.79637592958579	10.0
CLN3=tf_rep(SWI4)	12.863136047869236	0.0	0.03629906063028837	6.788109935958733	40.79637261254731	10.0
CLN3=tf_rep(SWI4)	12.863136048899891	0.0	0.036299042049258094	6.788105045094423	40.79637719006941	10.0
CLN3=tf_rep(SWI4)	12.8631360525243	0.0	0.03629899088929814	6.788095190301244	40.79637626918327	10.0
CLN3=tf_rep(SWI4)	12.863136049141675	0.0	0.03629903780254279	6.78810401183361	40.796376692091215	10.0
CLN3=tf_rep(SWI4)	12.863136049479808	0.0	0.03629903650641132	6.788105485746459	40.7963709871866	10.0
CLN3=tf_act(HCM1)	181.58566208952752	0.2991117306231523	0.0033913769546114482	0.007600877139071123	99.83424536209061	1.0
CLN3=tf_act(HCM1)	189.75210314131496	0.298115295974508	0.006611389517276722	0.8484067177463208	99.9978764964002	1.0131168783505013
CLN3=tf_act(HCM1)	181.52013529907862	0.3	0.0033724112631461052	0.0	99.44981024589869	1.003663911320643
CLN3=tf_act(HCM1)	181.52014824630868	0.2995367668944818	0.003366714907198561	0.0	99.05750616280534	1.0
CLN3=tf_act(HCM1)	181.52013529907873	0.3	0.0033724112631416	0.0	98.72527442991213	1.001447211575004
CLN3=tf_act(HCM1)	181.52013842269167	0.2998877596527181	0.003370974935241439	0.0	98.49501362375149	1.0
CLN3=tf_act(HCM1)	181.52082599295144	0.28442460820013205	0.003182401019248676	0.0	98.8487577625645	1.0
CLN3=tf_act(HCM1)	181.5201352990737	0.3	0.003372411340399039	0.0	98.59876082666436	1.0005621168621666
CLN3=tf_act(HCM1)	181.5201352990778	0.3	0.0033724112752280084	0.0	98.89017229237831	1.0
CLN3=tf_act(HCM1)	181.52013529903166	0.3	0.0033724120540502916	0.0	98.55413986824377	1.0211435373787543
CLN3=tf_act(NDD1)	181.53554656648694	0.3	0.0035481361171064	0.03608503696510149	99.83445933281475	1.0095030675099295
CLN3=tf_act(NDD1)	181.5201634847886	0.2990110644582336	0.003360393973391964	0.0	100.0	1.0227445148368899
CLN3=tf_act(NDD1)	181.52652020333537	0.2967684796972527	0.0034084623268272056	0.015480372052055063	99.6155604053072	1.0026342291304524
CLN3=tf_act(NDD1)	181.52022485312537	0.29707332817873094	0.003336658539480273	0.0	99.22325632221386	1.0
CLN3=tf_act(NDD1)	181.53491627303953	0.2955495083906228	0.0034870969806790135	0.03448675769630772	98.89104216055941	1.0017968197452445
CLN3=tf_act(NDD1)	181.82222743923597	0.29542101384470276	0.005250541336030385	0.40019042822582956	98.66078137027488	1.0
CLN3=tf_act(NDD1)	181.52016374399267	0.3	0.003377641856355946	0.0012685301994391127	98.82304587991607	1.6659064893186413
CLN3=tf_act(NDD1)	181.52013529906415	0.3	0.003372411492578198	0.0	98.57304903421866	1.6664806157704797
CLN3=tf_act(NDD1)	181.52013529906398	0.3	0.003372411495565233	0.0	98.86446054726885	1.6409530238816266
CLN3=tf_act(NDD1)	181.52015171752308	0.29941466007061507	0.0033652688952329527	0.0	98.52922842488032	1.6712275919989517
CLN3=tf_act(SWI5)	116.573932286489	0.0	0.007258215721504438	2.939747092045174	75.3483997279753	8.44849696807564
CLN3=tf_act(SWI5)	116.57477506687242	0.0	0.007204178466574003	2.9476193677612437	75.81894427514787	8.473976437902055
CLN3=tf_act(SWI5)	116.57371587474107	0.0	0.007249012003433517	2.9437893313453785	75.4791566156305	8.439253836790233
CLN3=tf_act(SWI5)	116.578994401902	0.0	0.007361850809204624	2.950759145421884	74.96741500322196	8.262695233389383
CLN3=tf_act(SWI5)	116.58381444354664	0.0	0.007391872446194286	2.944370274133798	74.68669407192422	8.248282777086159
CLN3=tf_act(SWI5)	116.59081810544505	0.0	0.007441793475846747	2.945956074543277	74.42743738477976	8.213542628078816
CLN3=tf_act(SWI5)	116.57278129443708	0.0	0.007226460624978645	2.9674705520597993	76.04993437785261	8.352494946314707
CLN3=tf_act(SWI5)	116.57265262634671	0.0	0.007249811749128919	2.9606398504780187	75.79075527906006	8.349388587577351
CLN3=tf_act(SWI5)	116.57222774320344	0.0	0.0072359592908472405	2.9707623585699463	76.05692882620018	8.317010900588471
CLN3=tf_act(SWI5)	116.57288865753665	0.0	0.0072447810633191915	2.9575105343784878	75.7622372401469	8.37168255081579
CLN3=tf_rep(NRM1)	181.52013529893097	0.3	0.003372414814374374	0.0	88.99348622339068	1.0
CLN3=tf_rep(NRM1)	181.52016264226054	0.2990395143145303	0.003360736867173641	0.0	89.43729109011781	1.0
CLN3=tf_rep(NRM1)	181.52013530269792	0.3	0.003372392054643706	0.0	89.05269849823536	1.0
CLN3=tf_rep(NRM1)	181.5201482456474	0.2995367612726068	0.00336671615620152	0.0	88.66039441514201	1.0
CLN3=tf_rep(NRM1)	181.52075921525034	0.3	0.0034233783774051873	0.006303059739167814	88.32795842585728	1.0
CLN3=tf_rep(NRM1)	181.52013870771708	0.2998762638165469	0.003370901412248011	0.0	88.09769738492788	1.0
CLN3=tf_rep(NRM1)	181.52013529907865	0.3	0.0033724112629354725	0.0	88.47866082300986	1.0
CLN3=tf_rep(NRM1)	181.55538458816892	0.3	0.004909827883994055	0.1898931861345481	88.2286637596522	1.0005384089149882
CLN3=tf_rep(NRM1)	181.52013529896567	0.3	0.003372413528689697	0.0	88.52007488748322	1.0
CLN3=tf_rep(NRM1)	181.52013529907873	0.3	0.0033724112617591513	0.0	88.12394616002078	1.0
CLN3=tf_rep(CLN3)	181.31552656177723	0.0	0.0029661548415306567	0.4887021086604788	88.4231091512653	2.1024141045758933
CLN3=tf_rep(CLN3)	181.31950750761067	0.0	0.0029609381294455495	0.485849992943444	88.86193118624507	2.0942309294245653
CLN3=tf_rep(CLN3)	181.31531755813396	0.0	0.0030353903211736595	0.49986157634658573	88.47333099109257	2.0467091639058776
CLN3=tf_rep(CLN3)	181.31259975922367	0.0020069554466581314	0.0030419066746315685	0.49958437515161014	88.08136436796484	2.0226660686488023
CLN3=tf_rep(CLN3)	181.30987039554083	0.0010445857710304123	0.0032352221263976942	0.5330977813787521	87.74734306209021	1.9839464840367331
CLN3=tf_rep(CLN3)	181.30780193646962	0.0021644288683655634	0.003092595011952433	0.5107888986946694	87.51871814413647	1.9692147613249789
CLN3=tf_rep(CLN3)	181.30794839310565	0.0	0.0032577310763345	0.5459273559509411	87.16784656441445	1.7388345195902941
CLN3=tf_rep(CLN3)	181.30691810977265	0.001667770397616638	0.0032563681389241616	0.5437045863459412	86.91958427150519	1.7454779756354193
CLN3=tf_rep(CLN3)	181.30296438274348	0.0	0.0030036146696486767	0.501211338409771	87.12935364370371	2.0995016948264653
CLN3=tf_rep(CLN3)	181.30344456682573	0.0	0.003285777429889044	0.5521977480841556	86.65908772798022	1.7759927151991797
CLN3=tf_rep(WHI5)	160.86167919438392	0.20478158903582352	0.041900224402902725	30.311648172153188	11.340837885917669	1.1762900702830439
CLN3=tf_rep(WHI5)	160.7350941280536	0.3	0.03679142139388392	30.6439986201597	11.848240785322112	1.3240205276335748
CLN3=tf_rep(WHI5)	160.74432348953994	0.3	0.03812918599042492	30.673694885435726	11.469122731236128	1.2754657507599607
CLN3=tf_rep(WHI5)	160.7324869337279	0.3	0.03677112462459846	30.99676601402878	11.718396689211952	1.323295410714175
CLN3=tf_rep(WHI5)	160.73788579146935	0.3	0.03783417629171622	31.042312898029586	11.390228449922809	1.2833246919525334
CLN3=tf_rep(WHI5)	160.7458866185719	0.29990048396138874	0.03918380553969088	30.747440281456893	11.531366330890123	1.2619727764051496
CLN3=tf_rep(WHI5)	160.73399606266472	0.3	0.036805569880440384	30.794576443409287	11.797002764014923	1.3235672598141586
CLN3=tf_rep(WHI5)	160.73393249483206	0.3	0.036790421546620024	30.79560814798989	11.785617324364212	1.323140557542417
CLN3=tf_rep(WHI5)	160.73862185167485	0.3	0.036527834322226095	30.335534715487064	12.071589631467027	1.3370721001124846
CLN3=tf_rep(WHI5)	160.73644026951357	0.3	0.03551254870293143	30.953607238947654	11.872946903542946	1.3570441590444955
CLN3=tf_act(YOX1)	181.51996273002428	0.26793443746425655	0.0035218853901126126	0.04431716598876192	0.001	1.733655128450439
CLN3=tf_act(YOX1)	181.5201593312222	0.3	0.0033768044155873373	0.000362048515255945	0.4464194833173927	1.7461346333632721
CLN3=tf_act(YOX1)	181.520022878575	0.2977153995750515	0.003537802140748582	0.01583929318618433	0.061926520967042736	1.7017964771125575
CLN3=tf_act(YOX1)	181.5200842922105	0.3	0.00339724576521163	0.002026348466576894	0.001	1.6764876660937231
CLN3=tf_act(YOX1)	181.51996278167698	0.2866259188916947	0.0035217085903191114	0.025609455107120975	0.001	1.6396860350563072
CLN3=tf_act(YOX1)	181.51996281112085	0.28647772982643993	0.0035217613657849613	0.02576201702658862	0.001	1.6194397889279026
CLN3=tf_act(YOX1)	181.5199626746324	0.22400170003132247	0.0035222930920125045	0.08828196489434374	0.001	1.8387409813942814
CLN3=tf_act(YOX1)	181.51996270416822	0.22529508548730298	0.0035217850024091063	0.08694650456918283	0.001	1.8393117079118255
CLN3=tf_act(YOX1)	181.52268735196296	0.22649514943439697	0.003325512417813397	0.06967502143140233	0.2923373178418435	1.8138258698970182
CLN3=tf_act(YOX1)	181.51996300578122	0.0017996274411021967	0.0035218403623351376	0.31044659799076935	0.0011453657602633531	1.834634933775967
CLN3=tf_rep(YOX1)	20.47317416378888	0.3	0.08589303088917168	20.818505919049525	20.214992740631104	1.0871053392222325
CLN3=tf_rep(YOX1)	20.473370526094833	0.3	0.08576095907631089	20.74822290899042	20.303272321064476	1.0901609847864897
CLN3=tf_rep(YOX1)	20.47366427656076	0.3	0.0860954264251432	20.93045116971528	20.072370148896784	1.0822608274934196
CLN3=tf_rep(YOX1)	20.47419399155251	0.3	0.08616702983608733	20.977742083474375	20.007683625070957	1.0802366583283822
CLN3=tf_rep(YOX1)	20.47733700955265	0.3	0.08647816344299464	21.146250389562933	19.79893985232423	1.0731298905512552
CLN3=tf_rep(YOX1)	20.475233166656675	0.3	0.08631320220654483	21.049296272993768	19.923551719269096	1.0771989240339375
CLN3=tf_rep(YOX1)	20.474729140084168	0.3	0.08625005858140376	21.01784283471073	19.960812016349642	1.0785270942665814
CLN3=tf_rep(YOX1)	20.475489186994622	0.3	0.08633867635837496	21.063335033783915	19.905947861239685	1.076602670132179
CLN3=tf_rep(YOX1)	20.473415287010187	0.3	0.08575090252706832	20.741096833129625	20.313446839187353	1.090473274009295
CLN3=tf_rep(YOX1)	20.476718212755912	0.3	0.08644673474890789	21.122345854505856	19.832794584056696	1.0741304293523506
CLN3=tf_act(ASH1)	168.6619620374373	0.3	0.006800886704754083	1.4229934525721846	76.61061931230013	10.0
CLN3=tf_act(ASH1)	168.6642394004103	0.3	0.006792402515320114	1.4395693515345658	77.0735620540153	10.0
CLN3=tf_act(ASH1)	168.66145344061482	0.3	0.006797736238578067	1.424982833487745	76.68734998072465	10.0
CLN3=tf_act(ASH1)	168.67332847281563	0.3	0.006814123743828877	1.4113784789541068	76.20870327899445	9.99662396304343
CLN3=tf_act(ASH1)	168.6848903411001	0.3	0.006812415124326651	1.3969277053933218	75.8797878980674	10.0
CLN3=tf_act(ASH1)	168.66129148585978	0.3	0.006798313875883573	1.4283517726608237	76.75971119228936	10.0
CLN3=tf_act(ASH1)	168.66129149274184	0.3	0.0067982872670963425	1.428325719822265	76.7594314197063	10.0
CLN3=tf_act(ASH1)	168.66326939336727	0.3	0.006802670608978328	1.4191564102915146	76.5038461252394	10.0
CLN3=tf_act(ASH1)	168.6816906694718	0.3	0.006796327831873459	1.4285963827605952	76.78177246506714	9.974595919719189
CLN3=tf_act(ASH1)	168.66373318129232	0.3	0.006803190631725849	1.4181635210092391	76.47548326634093	10.0
CLN3=tf_rep(ASH1)	181.52013529907885	0.3	0.003372411260832853	0.0	88.79702843414819	1.0
CLN3=tf_rep(ASH1)	181.52017106146545	0.29875672400003284	0.0033572407174072036	0.0	89.24111700822306	1.0
CLN3=tf_rep(ASH1)	181.52032945468642	0.29423525068950535	0.0033020692406102205	0.0	88.85652100818844	1.0
CLN3=tf_rep(ASH1)	181.52031809242052	0.2945223075015576	0.0033055285228708103	0.0	88.46421692509509	1.0
CLN3=tf_rep(ASH1)	181.52079826398918	0.28450237348788976	0.0032134874164099166	0.003485796131879862	88.1318035441815	1.0
CLN3=tf_rep(ASH1)	181.5204356597303	0.29556008584106946	0.0033547294181109663	0.004200140765890208	87.90153700639559	1.0
CLN3=tf_rep(ASH1)	181.5317528680998	0.169711133662955	0.002205957239135821	0.04889382567900834	88.19409834766486	1.0
CLN3=tf_rep(ASH1)	181.5202329294315	0.3	0.003390857919300887	0.0021733125657434653	87.94353622181633	1.0
CLN3=tf_rep(ASH1)	181.52013529906293	0.3	0.0033724115135584766	0.0	88.23494768072435	1.0
CLN3=tf_rep(ASH1)	181.5398344023757	0.11652551724681662	0.0017378373448939085	0.0698537683768671	87.83787633446313	1.0
CLN3=tf_act(RIF1)	183.42512424372407	0.2990848458783367	0.005687419211387211	0.5179564662917435	99.8324600747904	1.0
CLN3=tf_act(RIF1)	181.52013529908322	0.3	0.0033724111927930195	0.0	100.0	1.01318620112218
CLN3=tf_act(RIF1)	181.5202007928185	0.2978023770692689	0.003345595699802373	0.0	99.61555900206525	1.0028914582756554
CLN3=tf_act(RIF1)	181.5201918608423	0.29808297904347064	0.003348975693211276	0.0	99.2232549189719	1.0
CLN3=tf_act(RIF1)	181.52013529907867	0.3	0.003372411263577862	0.0	98.89101207905172	1.001146098144941
CLN3=tf_act(RIF1)	182.13033678881223	0.2998676052627077	0.004188898376405877	0.18026109183910402	98.66075128201483	1.0
CLN3=tf_act(RIF1)	181.5201352990787	0.3	0.0033724112629835404	0.0	98.11532605500912	1.0
CLN3=tf_act(RIF1)	182.5546364384375	0.3	0.004719520278601824	0.29570608391467423	97.86532913308673	1.0005683153294953
CLN3=tf_act(RIF1)	182.67435719362018	0.3	0.004862080675982196	0.3276377824722635	98.15674059929025	1.0
CLN3=tf_act(RIF1)	183.85144328415814	0.299409733305056	0.0060973154212639975	0.6052704493188082	97.82037372833678	1.0210401061911019
CLN3=tf_rep(RIF1)	89.87468257548437	0.3	0.020069857228012994	99.99999773465626	28.35338336666869	6.938005581179141
CLN3=tf_rep(RIF1)	89.87212222055106	0.3	0.019943479992375876	99.99999820535218	28.4180620877258	6.982925708037448
CLN3=tf_rep(RIF1)	77.3568424978391	0.3	0.020891180303735903	16.068084047671856	41.38643399206862	10.0
CLN3=tf_rep(RIF1)	77.3688085714967	0.3	0.02087519147325158	15.827441265245968	41.46737538290478	10.0
CLN3=tf_rep(RIF1)	77.35907270293215	0.3	0.02088380247064161	15.963727580485324	41.421175613424936	10.0
CLN3=tf_rep(RIF1)	77.37629975699609	0.3	0.02089645191703028	15.765963079053924	41.49661607443407	10.0
CLN3=tf_rep(RIF1)	77.36009546711436	0.3	0.020883120812431648	15.94221683338058	41.42865849555	10.0
CLN3=tf_rep(RIF1)	77.35772202033947	0.3	0.020893819572711192	16.00364260538856	41.41019126129168	10.0
CLN3=tf_rep(RIF1)	77.42504462244908	0.3	0.020843093045029293	15.49826144223468	41.57753096421423	10.0
CLN3=tf_rep(RIF1)	77.35743439334412	0.3	0.02088973780982881	16.121405962502784	41.36710817461728	10.0
CLN3=tf_act(EDS1)	175.83278255563386	0.0	0.0011830625056035201	2.592361527225607	99.87207512010664	5.120636689349977
CLN3=tf_act(EDS1)	175.83387034420517	0.0	0.0011572545589104168	2.6034277739338427	99.99980353996723	5.167220805802566
CLN3=tf_act(EDS1)	175.83173348109153	0.0	0.0011639939760269297	2.58591805476561	99.61954642445963	5.177336036236411
CLN3=tf_act(EDS1)	175.8557150406451	0.0	0.0014335024243323832	2.437357024609135	99.16360586922974	4.624600432226642
CLN3=tf_act(EDS1)	175.8482897872519	0.0	0.001381901037703578	2.4210266407546595	98.85657711752474	4.7112715447933065
CLN3=tf_act(EDS1)	175.85198977580424	0.006091523551105962	0.001575952661391386	2.4725520944137456	98.59013883568932	4.616338696098915
CLN3=tf_act(EDS1)	175.82817261762852	0.0	0.0012050723561004967	2.534001971102285	99.06872140746093	5.103365580091812
CLN3=tf_act(EDS1)	175.82772595388414	0.0028810905071577687	0.0012560901738911969	2.515004782344782	98.80681525504254	5.0816877550488835
CLN3=tf_act(EDS1)	175.8306940893503	0.0	0.0012906032192514939	2.5258106486916927	99.06106304424192	4.94490678672924
CLN3=tf_act(EDS1)	175.82681054585422	0.0	0.001228374846610196	2.515928164364927	98.78675146680564	5.071318926360347
CLN3=tf_rep(EDS1)	181.65461755250408	0.29910112921204807	0.0038747019245966865	0.0680524609890437	82.26934821967114	1.0
CLN3=tf_rep(EDS1)	181.5201895322553	0.29815642667835723	0.0033499302258412507	0.0	82.71221212750956	1.0
CLN3=tf_rep(EDS1)	181.52013529907867	0.3	0.0033724112638293486	0.0	82.32764622422758	1.0
CLN3=tf_rep(EDS1)	181.52014824659292	0.2995367662338958	0.003366714480682675	0.0	81.93534214113423	1.0
CLN3=tf_rep(EDS1)	181.52013529907867	0.3	0.003372411263919568	0.0	81.60301001872865	1.0
CLN3=tf_rep(EDS1)	181.62175662131085	0.2998709619445198	0.003758057944800214	0.05155213044026349	81.37274924588601	1.0
CLN3=tf_rep(EDS1)	181.52013529907933	0.3	0.0033724112532932454	0.0	81.75467321224342	1.0
CLN3=tf_rep(EDS1)	181.77451149962215	0.3	0.00432509469323291	0.12676982575538118	81.50467631925194	1.0005678980944843
CLN3=tf_rep(EDS1)	181.72314542380573	0.3	0.004138778195917103	0.1018425541648969	81.79608781268281	1.0
CLN3=tf_rep(EDS1)	181.5201352990787	0.3	0.0033724112631458377	0.0	81.4782880827104	1.0
