# LEMpy local minima file for target HCM1, replicate 0
# Right-hand side of tf_act():  p0 - p1(tar) + p2(reg^p4) / (p3^p4 + reg^p4)
# Right-hand side of tf_rep():  p0 - p1(tar) + p2(p3^p4) / (p3^p4 + reg^p4)
# Run configuration file:  ../pipeline/src/yeast_data/simulations202110_Orlando_2/extra_nodes_annot/results1/edge_finding_20211012175947/lempy_20211012175947_config.txt
# Time series data file:   ../pipeline/src/yeast_data/time_series/orlando2008_WildType_r1_trunc.tsv
# Computed on:  2021-10-12 18:03:19 
 
model	loss	p0	p1	p2	p3	p4
HCM1=tf_act(SWI4)	38.71158633793165	0.0	0.2357340295632014	48.92491599267244	99.97094188597454	1.3891590926704172
HCM1=tf_act(SWI4)	38.71535864267587	1.1140231821928497e-05	0.23670683053987823	49.130336304295454	100.0	1.3885443255576913
HCM1=tf_act(SWI4)	38.71053016568686	0.0	0.23591249585752547	48.97012949840628	100.0	1.388927175800299
HCM1=tf_act(SWI4)	38.72270061548814	0.0	0.23584896311421494	48.82559455461987	99.60444030541215	1.3912102641047055
HCM1=tf_act(SWI4)	38.73385026517246	0.0	0.2354806308791524	48.64219538789552	99.27542513418845	1.39322395925397
HCM1=tf_act(SWI4)	38.74604536717811	0.0	0.23552619691393797	48.52567387659586	98.89772395976605	1.3954330199230092
HCM1=tf_act(SWI4)	38.73328785586626	0.0	0.23600853829038684	48.74946656190289	99.2805694898802	1.3930350823408062
HCM1=tf_act(SWI4)	38.740912513222284	0.0	0.23542704890117863	48.56139880330641	99.06283054205757	1.3945130930898633
HCM1=tf_act(SWI4)	38.73827093183468	0.0	0.23556791599362004	48.61146216828961	99.12971891030972	1.3940636893016707
HCM1=tf_act(SWI4)	38.74039950715572	0.0	0.2355323422404564	48.5836516618975	99.06761033554457	1.3944378939808908
HCM1=tf_rep(SWI4)	403.5147616959597	0.0	0.00042947504353849466	0.0	88.65346400886378	9.648691200585809
HCM1=tf_rep(SWI4)	403.53720059441804	0.01184911920785222	0.0006386922931196278	0.0	89.24619211112457	9.504006913900993
HCM1=tf_rep(SWI4)	403.5147616959599	0.0	0.00042947503537846645	0.0	88.86153806711475	9.459835770545782
HCM1=tf_rep(SWI4)	403.51476169596015	0.0	0.00042947503112736166	0.0	88.4692339840214	9.434526959526947
HCM1=tf_rep(SWI4)	403.51476169595963	0.0	0.0004294750462538286	0.0	88.13703364459103	9.397636583525767
HCM1=tf_rep(SWI4)	403.5147619714699	-3.3881317890172014e-21	0.0004291652935668792	0.0	87.90677296305596	9.377390209605085
HCM1=tf_rep(SWI4)	403.5147616959597	-2.168404344971009e-19	0.0004294750454634414	0.0	88.45958641817984	9.350616743153909
HCM1=tf_rep(SWI4)	403.51476169595975	0.0	0.0004294750439248933	0.0	87.88703691287255	9.398207100668852
HCM1=tf_rep(SWI4)	403.51476169595946	0.0	0.0004294750481682325	0.0	88.17844844970212	9.372677370315897
HCM1=tf_rep(SWI4)	403.51476169595963	0.0	0.00042947504562290835	0.0	87.6913227415528	9.2575034064211
HCM1=tf_act(HCM1)	438.65760943378837	0.3	0.25447506400815617	49.77708867394135	97.60016921018116	1.6333308586169286
HCM1=tf_act(HCM1)	403.5147616959595	0.0	0.00042947504883901325	0.0	100.0	1.545421586576549
HCM1=tf_act(HCM1)	403.5147616959597	0.0	0.00042947504458763184	0.0	99.61550369552832	1.501788008992608
HCM1=tf_act(HCM1)	403.5147616959601	0.0	0.0004294750311404877	0.0	99.22319961243497	1.4764791979737735
HCM1=tf_act(HCM1)	403.5147616959597	0.0	0.0004294750449219673	0.0	98.89098864813177	1.4427784182194758
HCM1=tf_act(HCM1)	403.51476169595963	0.0	0.0004294750450517877	0.0	98.66072791340437	1.422537017108
HCM1=tf_act(HCM1)	403.75164906961544	7.013920499127836e-05	0.002166517782139412	0.3443106974832208	99.04342278071029	1.4637829615651645
HCM1=tf_act(HCM1)	403.51476169595946	0.0	0.00042947505032258574	0.0	98.82792172951734	1.5422851967073765
HCM1=tf_act(HCM1)	403.5147616978979	0.0	0.0004294531788960035	0.0	99.11933315257197	1.5167513205881618
HCM1=tf_act(HCM1)	403.51476169595975	0.0	0.00042947504572979	0.0	98.78344395874332	1.579197411126974
HCM1=tf_act(NDD1)	403.5147616959597	0.0	0.00042947504617914	0.0	100.0	3.430545253106128
HCM1=tf_act(NDD1)	403.51476169595975	0.0	0.00042947504141598427	0.0	100.0	4.664192945552191
HCM1=tf_act(NDD1)	403.51476169595963	0.0	0.0004294750448392912	0.0	99.61551121219107	4.619872500458827
HCM1=tf_act(NDD1)	403.5147616959601	0.0	0.00042947502944183565	0.0	99.22320712909772	4.594563689439993
HCM1=tf_act(NDD1)	403.5147616959597	0.0	0.00042947504712118826	0.0	98.89104304608328	4.5578340302554805
HCM1=tf_act(NDD1)	403.5147616959597	0.0	0.00042947504701911594	0.0	98.66078225188095	4.537587655416082
HCM1=tf_act(NDD1)	403.5147616959597	0.0	0.00042947504655782017	0.0	99.14691188696379	4.748442583912731
HCM1=tf_act(NDD1)	403.51476169595963	0.0	0.00042947504518947745	0.0	98.8969149799285	4.749013590666075
HCM1=tf_act(NDD1)	403.5147616959597	0.0	0.00042947504620433703	0.0	99.18832647117254	4.723483834358049
HCM1=tf_act(NDD1)	403.537201130698	0.0118493824531066	0.0006386968846111083	0.0	98.98872366681267	3.801918488234552
HCM1=tf_act(SWI5)	403.55442945618233	0.01992027920039066	0.0007795716693612398	0.0	99.83163593719256	9.94388236847067
HCM1=tf_act(SWI5)	403.51476169595975	0.0	0.0004294750435012921	0.0	100.0	9.962687922685397
HCM1=tf_act(SWI5)	403.5147616959598	0.0	0.00042947504278050247	-1.734723475976807e-18	99.61552624987216	9.91835663208287
HCM1=tf_act(SWI5)	403.51476169596015	-1.0842021724855044e-19	0.0004294750287914756	0.0	99.60769591690665	9.937379111666562
HCM1=tf_act(SWI5)	403.51476169595963	0.0	0.00042947504532884616	0.0	99.6679135829671	9.92590644118075
HCM1=tf_act(SWI5)	403.54802072344455	0.017009880456931893	0.0007289292707244094	0.0	99.43765279057115	9.905660193959045
HCM1=tf_act(SWI5)	403.51476169595963	0.0	0.0004294750446744743	0.0	100.0	10.0
HCM1=tf_act(SWI5)	403.5887969580562	0.03391658372595758	0.0010201074561734121	0.0	99.75000308590526	10.0
HCM1=tf_act(SWI5)	403.51476169595895	0.0	0.0004294750717477455	0.0	100.0	9.97447034008559
HCM1=tf_act(SWI5)	403.9757315452948	0.0585265000864933	0.0011697603804831779	0.0	99.92850065233246	9.97998448304887
HCM1=tf_rep(NRM1)	185.45723116686398	0.0	0.03135809956763826	5.42850390858943	30.298303564461467	3.7679873577325758
HCM1=tf_rep(NRM1)	185.47179997100176	0.0	0.03169849397279274	5.406750263018775	30.661016802642735	3.7917832664518905
HCM1=tf_rep(NRM1)	185.46160826362197	0.0	0.03136056582547893	5.424102968236952	30.2838391341695	3.745598951634631
HCM1=tf_rep(NRM1)	185.4930167988402	0.0	0.031280473223016865	5.4640543945456646	29.989356483080027	3.6939781383198618
HCM1=tf_rep(NRM1)	185.55387511183366	0.0	0.03142343191756871	5.52827832608944	29.7232020482514	3.622124134241589
HCM1=tf_rep(NRM1)	185.44894395961214	0.0	0.03140117282653166	5.400524636998967	30.52977363204098	3.8278853923699256
HCM1=tf_rep(NRM1)	185.45383798277882	0.0	0.031422824274047766	5.426515323851548	30.363868906120207	3.776092927616934
HCM1=tf_rep(NRM1)	185.47388101269374	0.0	0.031183534808230207	5.432611494950303	30.165756756315517	3.7721488396120035
HCM1=tf_rep(NRM1)	185.44906114766317	0.0	0.031406675480506435	5.39725073588702	30.557255623395907	3.8349926692717022
HCM1=tf_rep(NRM1)	185.44897932704367	0.0	0.03141874560508383	5.4025785488104345	30.530761115487667	3.825760131174916
HCM1=tf_rep(CLN3)	403.51476169595963	0.0	0.0004294750476130311	0.0	89.03660598489121	1.0
HCM1=tf_rep(CLN3)	403.51476169595963	0.0	0.0004294750428579598	0.0	89.47860484026369	1.01341730116823
HCM1=tf_rep(CLN3)	403.51476169596015	0.0	0.00042947503351745304	0.0	89.09409612098358	1.0
HCM1=tf_rep(CLN3)	403.51476169596	0.0	0.0004294750332256484	0.0	88.70179203789023	1.0
HCM1=tf_rep(CLN3)	403.5147616959665	0.0	0.0004294748043098171	0.0	88.36951803431349	1.0
HCM1=tf_rep(CLN3)	403.5147616966197	0.0	0.0004294638503566792	0.0	88.13925726518887	1.0
HCM1=tf_rep(CLN3)	403.51476169596174	0.0	0.00042947497211915644	0.0	88.4782525216554	1.0
HCM1=tf_rep(CLN3)	403.5147616959595	0.0	0.0004294750475729481	0.0	88.22825564328063	1.0005651855791744
HCM1=tf_rep(CLN3)	403.516469846887	0.0009644859200064706	0.0004472130466567503	0.0	88.51966713090295	1.0
HCM1=tf_rep(CLN3)	403.51476169595975	0.0	0.00042947504188362614	0.0	88.03486289454305	1.0
HCM1=tf_rep(WHI5)	259.1497552872105	0.0	0.019133923803396773	9.119056659336715	45.60823122224079	6.385992725441115
HCM1=tf_rep(WHI5)	259.13546298780403	0.0	0.019363485948177345	9.037230064945614	45.75231531188946	6.344132684156908
HCM1=tf_rep(WHI5)	259.1418953052235	0.0	0.01949360727901309	9.123680808103224	45.59476206763297	6.2709859310768055
HCM1=tf_rep(WHI5)	259.14204027590023	0.0	0.019394093372016197	9.180613286485086	45.501721784585676	6.2848146125716955
HCM1=tf_rep(WHI5)	259.1529107617343	0.0	0.019495953533494675	9.301203315270312	45.29221727067791	6.213210653806961
HCM1=tf_rep(WHI5)	259.17631052447643	0.0	0.019797987899463392	9.24198335969018	45.39373150903068	6.145048522217552
HCM1=tf_rep(WHI5)	259.1655261701545	0.0	0.01950621132668629	9.444020123727016	45.080291135965865	6.1802532987375125
HCM1=tf_rep(WHI5)	259.17104698572143	0.0	0.019505584090493404	9.480755340718662	44.99819990584636	6.15791371898032
HCM1=tf_rep(WHI5)	259.21523361156335	0.0	0.019962405468001553	9.198745436876019	45.43989644133244	6.096784392643152
HCM1=tf_rep(WHI5)	259.17681909512385	0.0	0.01947478136334559	9.530073989456914	44.918504586208435	6.152479962761129
HCM1=tf_act(YOX1)	206.12841413649434	0.3	0.414725729803198	83.58595662311919	100.0	1.2722941859331778
HCM1=tf_act(YOX1)	206.12946498939328	0.3	0.41615114554065263	83.87050420723298	100.0	1.2721318684923306
HCM1=tf_act(YOX1)	206.12827755055858	0.3	0.41507713561027315	83.65609485943519	100.0	1.2722536803612572
HCM1=tf_act(YOX1)	206.12830628417518	0.3	0.41525201832309444	83.69107806414014	100.0	1.2722361969498273
HCM1=tf_act(YOX1)	206.3980816821192	0.3	0.4144777675261209	83.36107164013914	99.66931569052053	1.2738801021002712
HCM1=tf_act(YOX1)	206.38778916603914	0.3	0.4125047060457512	82.87449192579572	99.91138076252915	1.267858586451077
HCM1=tf_act(YOX1)	206.14146338582063	0.3	0.41154589261527724	82.95015858598312	100.0	1.2726349778760604
HCM1=tf_act(YOX1)	206.12827758872035	0.3	0.41507538938824984	83.65575151512911	100.0	1.272253960841707
HCM1=tf_act(YOX1)	206.13662675999305	0.3	0.4122664775034439	83.0946807158755	100.0	1.272567971784374
HCM1=tf_act(YOX1)	206.12880166645297	0.3	0.4143797354080948	83.51688516275397	100.0	1.2723342225600078
HCM1=tf_rep(YOX1)	403.51476169589324	0.0	0.00042947898160536195	0.0	86.36212318401496	1.0
HCM1=tf_rep(YOX1)	403.51476169595963	0.0	0.0004294750476045336	0.0	86.80652604113276	1.0018241058085662
HCM1=tf_rep(YOX1)	403.5147616959602	0.0	0.0004294750299268756	0.0	86.42201683188945	1.0
HCM1=tf_rep(YOX1)	403.51476169596	-1.0842021724855044e-19	0.00042947503152028873	0.0	86.0297127487961	1.0
HCM1=tf_rep(YOX1)	403.5147616959597	0.0	0.0004294750435298663	0.0	86.08973994939615	1.0
HCM1=tf_rep(YOX1)	403.51476169595946	0.0	0.0004294750469458602	0.0	85.85947916446122	1.0
HCM1=tf_rep(YOX1)	403.5147616959599	0.0	0.00042947504076166435	0.0	86.18099438826185	1.0
HCM1=tf_rep(YOX1)	403.62386327487314	0.0010995799961687673	0.0006499302744901681	0.020307491476904145	85.93099747857003	1.000568487493399
HCM1=tf_rep(YOX1)	403.5147616959597	0.0	0.0004294750438746225	0.0	86.22240895787687	1.0
HCM1=tf_rep(YOX1)	403.5147616959597	0.0	0.00042947504325783407	0.0	85.73722815707956	1.0
HCM1=tf_act(ASH1)	403.51476169595975	0.0	0.00042947504411818444	0.0	99.87191240418109	9.910687355777952
HCM1=tf_act(ASH1)	403.51476169595975	0.0	0.00042947504485002226	0.0	100.0	9.942883598243332
HCM1=tf_act(ASH1)	403.51476169596054	0.0	0.0004294750136011064	0.0	99.61551745192328	9.89858183399132
HCM1=tf_act(ASH1)	403.51476169596	-1.0842021724855044e-19	0.00042947503087842944	0.0	99.22321336882993	9.873273022972485
HCM1=tf_act(ASH1)	403.5147616959657	0.0	0.00042947483259051325	0.0	99.28338017264548	9.861943708722796
HCM1=tf_act(ASH1)	403.5147616959598	0.0	0.00042947504257173695	0.0	99.05311911050879	9.84169706583566
HCM1=tf_act(ASH1)	403.51476169595963	0.0	0.0004294750475679338	0.0	99.69118147943765	10.0
HCM1=tf_act(ASH1)	403.51476169595963	0.0	0.000429475046744199	0.0	99.44118428590352	10.0
HCM1=tf_act(ASH1)	403.51476169595975	0.0	0.00042947504579585546	0.0	99.73259519829155	9.974469451693864
HCM1=tf_act(ASH1)	403.51476169595963	0.0	0.0004294750472549804	0.0	99.45119686654716	9.99998393455118
HCM1=tf_rep(ASH1)	372.3732652775534	0.0	0.044645240061080095	3.2826131496622892	62.52752815277556	2.969148875268672
HCM1=tf_rep(ASH1)	372.37615018457876	0.0	0.04504274668713848	3.301700391557605	62.9652249003784	2.9745540353773228
HCM1=tf_rep(ASH1)	372.37509265373643	0.0	0.04506093933616857	3.313748959790948	62.57593918385033	2.930126062340501
HCM1=tf_rep(ASH1)	372.3813903955598	0.022627717161308417	0.04488744824691506	3.2777537439433972	62.213354563732416	2.9429205648213106
HCM1=tf_rep(ASH1)	372.3978951784242	0.052190824736862616	0.04546549409092276	3.288691037301431	61.879905153333546	2.920981505730192
HCM1=tf_rep(ASH1)	372.39945971818497	0.053156725937215474	0.045040264583087374	3.2593782124791084	61.704503512008785	2.931298301747316
HCM1=tf_rep(ASH1)	372.38709892998776	0.04438521065147015	0.04464912921376289	3.2359160732388195	61.824572814566245	3.0437152072199583
HCM1=tf_rep(ASH1)	372.3929897134859	0.04601445500124242	0.044309853753923094	3.2137478265149344	61.58540205652864	3.053202956818986
HCM1=tf_rep(ASH1)	372.38860360703694	0.04824175954449062	0.04465893249230937	3.2282937746176326	61.933301747187535	3.0615610603172754
HCM1=tf_rep(ASH1)	372.4086580438797	0.10014514737387877	0.044663324652126635	3.179918444187414	60.92132587312208	3.0946026981300525
HCM1=tf_act(RIF1)	413.58711877261743	0.3	0.017835615426053976	2.690817141530963	99.95390373778733	2.3846434810317954
HCM1=tf_act(RIF1)	407.3635868496732	0.2992144339668212	0.010336362827143172	1.0004485707657902	99.99644421423373	2.440123838812999
HCM1=tf_act(RIF1)	403.51476169595963	0.0	0.00042947504657644725	0.0	100.0	10.0
HCM1=tf_act(RIF1)	403.5147616959601	0.0	0.0004294750288260732	0.0	99.60769591690665	9.974691188981165
HCM1=tf_act(RIF1)	403.5147616959597	0.0	0.0004294750447560762	0.0	99.27556515902494	9.937985013504075
HCM1=tf_act(RIF1)	403.51476169595975	0.0	0.00042947504665031595	0.0	99.04530434324116	9.917738808645959
HCM1=tf_act(RIF1)	403.5147616959597	0.0	0.00042947504403580936	0.0	99.46240537058611	9.911500603888982
HCM1=tf_act(RIF1)	403.51476169595975	0.0	0.0004294750473515818	0.0	99.21240844478139	9.912071414875477
HCM1=tf_act(RIF1)	403.51476169595963	0.0	0.00042947504428126693	0.0	99.50381978815196	9.886541750127883
HCM1=tf_act(RIF1)	403.51476169595946	0.0	0.00042947504965770933	0.0	99.20890957421156	9.955157663619527
HCM1=tf_rep(RIF1)	403.35525275758954	0.0	0.0017144484977591155	0.07995491614581415	88.6011517420776	10.0
HCM1=tf_rep(RIF1)	403.36188082452145	0.0	0.001700226107870828	0.0788193384437878	89.04382907400885	10.0
HCM1=tf_rep(RIF1)	403.3576327921069	0.0	0.001705227485201113	0.07936101180340002	88.65857839683216	9.95646158969445
HCM1=tf_rep(RIF1)	403.34832193890463	-1.0842021724855044e-19	0.0016179907387582934	0.07425282013883773	88.01685335862255	10.0
HCM1=tf_rep(RIF1)	403.3201446914013	0.0	0.001710195103886505	0.08239731660463265	84.28419197336139	10.0
HCM1=tf_rep(RIF1)	403.3212708682751	0.0	0.001700370515204971	0.08192514918168145	84.0539315056197	9.979765653928766
HCM1=tf_rep(RIF1)	403.3265806135783	0.0	0.0016904016026199347	0.08122713018255828	84.1838824455739	9.870217532507207
HCM1=tf_rep(RIF1)	403.3267658388277	0.0	0.0016795351097583146	0.08069323130887798	83.93388619489811	9.870807552450282
HCM1=tf_rep(RIF1)	403.32777600853666	0.0	0.0016851106268234853	0.08086448575271551	84.22529780738805	9.845298236957857
HCM1=tf_rep(RIF1)	403.336528783305	0.0	0.0016397367848926302	0.07849840806869884	83.44886949952293	9.685014541598154
HCM1=tf_act(EDS1)	242.0747905474293	0.3	0.01218176961688589	14.93874345250087	100.0	10.0
HCM1=tf_act(EDS1)	242.0747905475253	0.3	0.012181766556408688	14.938739885675973	100.0	10.0
HCM1=tf_act(EDS1)	242.07479057829428	0.3	0.012181647300661595	14.938581627972056	100.0	10.0
HCM1=tf_act(EDS1)	242.14142515995417	0.3	0.012183203476775142	14.630809293222734	99.5976777468804	10.0
HCM1=tf_act(EDS1)	242.19081590614857	0.3	0.012182935679155045	14.41412960395183	99.31139278570387	10.0
HCM1=tf_act(EDS1)	242.07479054753065	0.3	0.012181766395450308	14.93873978614036	100.0	10.0
HCM1=tf_act(EDS1)	242.07479054748245	0.3	0.012181767483207522	14.938743986528689	100.0	10.0
HCM1=tf_act(EDS1)	242.0747905474075	0.3	0.012181770709220554	14.938749959257466	100.0	10.0
HCM1=tf_act(EDS1)	242.0747905475917	0.3	0.012181764614690638	14.938739392557798	100.0	10.0
HCM1=tf_act(EDS1)	242.07479054756274	0.3	0.012181767842686651	14.938735534200987	100.0	10.0
HCM1=tf_rep(EDS1)	403.5147616959598	0.0	0.0004294750425412405	0.0	88.61856473761992	1.0
HCM1=tf_rep(EDS1)	403.5147616959597	0.0	0.0004294750455723063	0.0	89.06266669698977	1.0
HCM1=tf_rep(EDS1)	403.51476169595975	0.0	0.0004294750376596678	0.0	88.67815822527703	1.0
HCM1=tf_rep(EDS1)	403.51476169596	0.0	0.0004294750308592848	0.0	88.28585414218368	1.0
HCM1=tf_rep(EDS1)	403.5147616959617	0.0	0.000429474973415249	0.0	87.95358101843355	1.0
HCM1=tf_rep(EDS1)	403.5147616959597	0.0	0.0004294750435498883	0.0	87.72332024662319	1.0
HCM1=tf_rep(EDS1)	403.5147616959598	0.0	0.0004294750466321359	0.0	88.00365915930098	1.0
HCM1=tf_rep(EDS1)	403.5147616959597	0.0	0.0004294750444401307	0.0	87.75366227738138	1.0005663608696616
HCM1=tf_rep(EDS1)	403.5147616959597	0.0	0.00042947504629318003	0.0	88.04507376342798	1.0
HCM1=tf_rep(EDS1)	403.5147616959569	0.0	0.00042948494259400886	0.0	87.51559951078501	1.0
