# LEMpy target file for HCM1, replicate 0 
# Run configuration file:  ../pipeline/src/yeast_data/simulations202110_Orlando_2/extra_nodes_annot/results1/edge_finding_20211012175947/lempy_20211012175947_config.txt 
# Time series data file:   ../pipeline/src/yeast_data/time_series/orlando2008_WildType_r1_trunc.tsv 
# Computed on:  2021-10-12 18:03:20 
 
model	loss	pld	inv_temp	prior	rhs_param_0	rhs_param_1	rhs_param_2	rhs_param_3	rhs_param_4	hess_eigs	hess_det	bnd_params	pld_time	opt_time
tf_act(SWI4)	38.71053016532964	0.994733	1.0	0.0625	0.0	0.2359125089029599	48.97013245534158	100.0	1.3889271810997188	[1, 1, 1.777165144068785, 3630.224946078761, 5637382.9439547155]	36369628148.39697	2.0	0.00017513899999999083	0.38254002300000023
tf_rep(NRM1)	185.4489439546284	0.00357874	1.0	0.0625	0.0	0.03140127480324253	5.40052109409226	30.529886946369913	3.8279047441934084	[1, 1.6908846620019462, 18.831614967042647, 23.877965933252803, 5565556.90734437]	4231628238.721793	1.0	4.561900000021879e-05	0.3976160070000003
tf_rep(WHI5)	259.1341661431917	0.000793537	1.0	0.0625	0.0	0.019339537248151573	8.942425749156023	45.919158093998206	6.385022955912357	[1, 1, 4.99936663112241, 21.70674553503026, 5565437.992526712]	603961215.7338338	1.0	4.5143999999996964e-05	0.24896665999999978
tf_act(EDS1)	242.0747905474075	0.00056283	1.0	0.0625	0.3	0.012181770709220554	14.938749959257466	100.0	10.0	[1, 1, 2.155693716906265, 18.376664632652805, 5565340.70367159]	220467969.39841318	3.0	5.088200000002985e-05	0.3418260009999998
tf_act(YOX1)	206.12827752512095	0.000208053	1.0	0.0625	0.3	0.4150808348308315	83.65679917126077	100.0	1.272252947176383	[1, 1, 1, 12285.496366208568, 5809008.356330857]	71366551052.97795	2.0	4.435100000010905e-05	0.3975869809999999
tf_rep(ASH1)	372.37184861686217	0.0000401981	1.0	0.0625	6.828682351906207e-06	0.04488473218391781	3.296442582244547	62.71865089141395	2.9543454463399317	[1, 2.3373070884756255, 6.584364860345922, 18.286126106465993, 5566352.588592223]	1566470019.7492375	0.0	4.453099999990329e-05	0.39038245100000024
tf_act(RIF1)	403.51476169595946	0.0000167774	1.0	0.0625	0.0	0.00042947504965770933	0.0	99.20890957421156	9.955157663619527	[1, 1, 1, 20.770368249246573, 5565349.279040945]	115594353.96135935	2.0	4.364899999975691e-05	0.3682974360000002
tf_act(HCM1)	403.51476169595946	0.0000144865	1.0	0.0625	0.0	0.00042947505032258574	0.0	98.82792172951734	1.5422851967073765	[1, 1, 1.531443209080111, 18.19101542035745, 5565483.809580571]	155046069.8444469	2.0	5.0816999999980794e-05	0.36389865599999993
tf_act(NDD1)	403.51476169595963	0.0000111318	1.0	0.0625	0.0	0.0004294750448392912	0.0	99.61551121219107	4.619872500458827	[1, 1, 2.5083022222928126, 18.809396830081383, 5565421.7899206625]	262574662.55193874	2.0	4.696599999975959e-05	0.34661094599999975
tf_rep(RIF1)	403.3201446914013	0.00000888923	1.0	0.0625	0.0	0.001710195103886505	0.08239731660463265	84.28419197336139	10.0	[1, 1, 1, 74.69123502939212, 5566683.022496118]	415782429.96738446	2.0	4.40360000002471e-05	0.36383259899999976
tf_rep(SWI4)	403.51476169595946	0.00000774928	1.0	0.0625	0.0	0.0004294750481682325	0.0	88.17844844970212	9.372677370315897	[1, 1, 1.3523892347841984, 71.97048758962923, 5566821.231275073]	541830471.1202147	2.0	6.558599999983983e-05	0.2810464020000003
tf_rep(CLN3)	403.5147616959595	0.00000716568	1.0	0.0625	0.0	0.0004294750475729481	0.0	88.22825564328063	1.0005651855791744	[1, 1, 5.133835248202247, 22.176732010195884, 5565859.887474362]	633682546.0536472	2.0	4.500800000029059e-05	0.3152432749999998
tf_act(ASH1)	403.51476169595963	0.00000672669	1.0	0.0625	0.0	0.0004294750475679338	0.0	99.69118147943765	10.0	[1, 1, 1.6496138593361929, 19.58160346879922, 5565348.2708922895]	179772349.95220417	3.0	4.376599999966757e-05	0.27486210899999985
tf_act(SWI5)	403.51476169595895	0.00000410111	1.0	0.0625	0.0	0.0004294750717477455	0.0	100.0	9.97447034008559	[1, 1, 4.685782655827779, 18.54592488929899, 5565356.74773736]	483641595.91461176	3.0	4.442100000012772e-05	0.3057377680000002
tf_rep(YOX1)	403.51476169589324	0.00000327629	1.0	0.0625	0.0	0.00042947898160536195	0.0	86.36212318401496	1.0	[1, 1, 4.069928493856995, 33.45167660368506, 5566182.496346422]	757813102.4038365	3.0	4.448400000001129e-05	0.30471221400000026
tf_rep(EDS1)	403.5147616959569	0.00000302344	1.0	0.0625	0.0	0.00042948494259400886	0.0	87.51559951078501	1.0	[1, 1, 5.590679243615722, 28.596173335688405, 5566107.421357102]	889864907.7605729	3.0	4.857000000013656e-05	0.18606371100000008
null_model	403.51476169595963				0.0	0.00042947504752143705								
