# LEMpy target file for ASH1, replicate 0 
# Run configuration file:  ../pipeline/src/yeast_data/simulations202110_Orlando_2/extra_nodes_annot/results1/edge_finding_20211012175947/lempy_20211012175947_config.txt 
# Time series data file:   ../pipeline/src/yeast_data/time_series/orlando2008_WildType_r1_trunc.tsv 
# Computed on:  2021-10-12 18:03:24 
 
model	loss	pld	inv_temp	prior	rhs_param_0	rhs_param_1	rhs_param_2	rhs_param_3	rhs_param_4	hess_eigs	hess_det	bnd_params	pld_time	opt_time
tf_act(SWI5)	72.88166821255082	0.997993	1.0	0.0625	0.0	0.06613849735557722	9.243780791269858	56.45997195051905	10.0	[1, 4.5577992407775545, 11.365492939163731, 106.84801694223387, 3694092.758924192]	20446441339.13612	2.0	4.783500000016261e-05	0.2602658659999997
tf_rep(SWI4)	198.66680965765184	0.00187327	1.0	0.0625	0.019946908865969552	0.023015692742712677	100.0	18.932015232647654	10.0	[1, 1, 74.97518171630432, 311.6453053675041, 3694965.348889692]	86335316620.37383	2.0	6.28549999994732e-05	0.31944840500000016
tf_rep(YOX1)	317.07661348628216	0.000106413	1.0	0.0625	0.0	0.03422183251348933	5.138935625383323	37.041731511058856	10.0	[1, 3.0666156336791293, 11.797347601834282, 119.53241090423126, 3694102.0927692936]	15974905363.056883	2.0	7.844300000137139e-05	0.3485878109999998
tf_act(NDD1)	407.9198569014561	0.0000132494	1.0	0.0625	0.0	0.006741291178345377	5.597403017896992	100.0	10.0	[1, 1, 5.039246665263722, 116.11007840010622, 3693836.036657175]	2161290523.8053365	3.0	5.013400000031254e-05	0.21654973799999988
tf_rep(CLN3)	439.5559141476489	0.00000345244	1.0	0.0625	0.0	0.0052171694781434665	100.0	42.42059805514092	10.0	[1, 1, 11.499986472644414, 161.1026795770744, 3693949.3848120803]	6843701107.127189	3.0	4.6386000001064076e-05	0.47047438600000024
tf_act(RIF1)	512.0402632407047	0.0000019315	1.0	0.0625	0.0	0.0004106744512905875	2.5945544674176215	79.06389255923408	10.0	[1, 1, 6.077336683431426, 140.08915134118695, 3693853.095867061]	3144831788.8212314	2.0	4.579199999987793e-05	0.3708081189999999
tf_act(EDS1)	545.865186296303	0.00000135474	1.0	0.0625	0.0	0.004569653553678082	2.1272106260659887	54.19188814094701	10.0	[1, 1, 2.661615137762019, 149.3586718094815, 3693964.6883262843]	1468481367.3754034	2.0	4.5199999998857265e-05	0.43598215000000007
tf_act(ASH1)	542.9590257914663	0.0000011762	1.0	0.0625	0.3	0.019809153298170006	4.855933997329087	77.2522762039868	10.0	[1, 1, 5.698387917607241, 104.82807529154692, 3693881.6090898225]	2206544012.2102313	2.0	6.527500000075293e-05	0.3474385309999999
tf_act(SWI4)	570.177412403722	0.00000115268	1.0	0.0625	0.3	0.0014171745811492607	3.0003356720541303	99.18197647051723	10.0	[1, 1, 1.737438572915855, 112.9215595151891, 3693808.2924888646]	724704033.3422507	2.0	0.00018565799999947785	0.3205943219999998
tf_act(HCM1)	546.6104994313135	0.00000107607	1.0	0.0625	0.07293536158276828	0.0	2.375340710061914	75.30749343407768	10.0	[1, 1, 4.555770196388583, 133.97071314238872, 3693839.96583212]	2254497479.943275	2.0	5.459600000001785e-05	0.2704298289999998
tf_rep(EDS1)	565.4246565350871	0.0000010302	1.0	0.0625	0.3	0.024011548433626424	6.309008949049102	11.432236497655058	1.0	[1, 1, 1, 299.54446919035837, 3697430.342945078]	1107544809.4458082	2.0	4.4602999999199255e-05	0.2835090359999999
tf_act(YOX1)	557.7669693608094	0.00000100644	1.0	0.0625	0.3	0.002161981339055277	4.986002220165208	100.0	10.0	[1, 1, 1, 108.49922149494289, 3693805.392442698]	400775009.43385476	3.0	6.595400000009022e-05	0.3379149400000001
tf_rep(RIF1)	575.4294853812567	0.000000878736	1.0	0.0625	0.3	0.021837438301469256	6.486670460482122	11.803114362107301	1.0	[1, 1, 1, 270.7949366551757, 3697566.8625465673]	1001282384.3215746	2.0	4.592300000005878e-05	0.19397381099999977
tf_rep(ASH1)	445.6941468957775	0.000000626125	1.0	0.0625	0.0	0.0024417505496647563	100.0	5.750082212547705	10.0	[1, 1, 34.673534335153825, 1213.0469653292232, 3695182.733012885]	155421697466.06647	3.0	5.0630000000495556e-05	0.4300266869999998
tf_rep(NRM1)	603.4851939564634	0.000000538567	1.0	0.0625	0.3	0.0	3.5023897689254713	6.581158498772774	2.453198781394439	[1, 1, 2.1167229082940597, 107.34036977630562, 3693818.1865677433]	839271764.1386653	2.0	4.6826000000166346e-05	0.28429604200000025
tf_rep(WHI5)	627.8299997598039	0.0000000608568	1.0	0.0625	0.3	0.0	0.0	0.001	10.0	[1, 1, 1, 104.22688589283553, 3693801.74587982]	384993453.07857263	5.0	4.2290999999750056e-05	0.20361615599999983
null_model	627.8299997598039				0.3	0.0								
