gene_ID	0.0	0.2	0.4	0.6000000000000001	0.8	1.0	1.2	1.4	1.6	1.7999999999999998	2.0	2.2	2.4	2.6	2.8000000000000003	3.0000000000000004	3.2000000000000006	3.4000000000000012	3.600000000000001	3.800000000000001	4.000000000000001	4.200000000000001	4.400000000000001	4.600000000000001	4.800000000000002	5.000000000000002	5.200000000000002	5.400000000000002	5.600000000000002	5.8000000000000025	6.000000000000003	6.200000000000002	6.400000000000002	6.600000000000002	6.8000000000000025	7.000000000000004	7.200000000000004	7.400000000000004	7.600000000000003	7.800000000000003	8.000000000000004	8.200000000000003	8.400000000000002	8.600000000000001	8.8	9.0	9.2	9.4	9.599999999999998	9.799999999999997	9.999999999999996	10.199999999999996
ASH1	1.2227238563123584	1.0053015717159255	0.8321541429399413	0.7105481902509229	0.6784998305074812	0.8047978588353647	1.0890249801782974	1.4299727057662694	1.7503121812341909	2.0257565275164784	2.2553965125225566	2.44474351312796	2.6002126031656347	2.7276208139742044	2.8317028507085187	2.911648827833314	2.8837054707265506	2.5512315611106358	2.126198572423028	1.7511242222485066	1.4386386386123633	1.1814023314714863	0.9718878475000092	0.8066566727016685	0.6967190444580111	0.6874288912681787	0.8452719557529095	1.1475145241712854	1.4886077210435438	1.8018450168133	2.0690467686084584	2.2911901863641075	2.4741655704943746	2.6243391222160497	2.7473718281255066	2.8477006036895878	2.9206337536555647	2.846971588330576	2.476309503700353	2.0561513210302933	1.6921968365432785	1.3899948527487012	1.1415569998934338	0.9398084620187892	0.782773442967799	0.6858594734080512	0.7017354676080088	0.890411988193886	1.207023290696848	1.5462675364915963	1.8519304660737763	2.110950667626489
HCM1	0.20644347339633504	0.25770219141503703	0.2463569547194255	0.21586221887343432	0.185326392005496	0.1589497099063331	0.13700762406222136	0.11895239866028708	0.10414530956549203	0.09201519980914817	0.08208175769434375	0.07394825558576436	0.0672888785847963	0.06183657971718658	0.05737273339952041	0.053720795484956216	0.05079569754175662	0.049224408158619164	0.053071286563595485	0.07405318698264007	0.12963885069291467	0.22179827977657332	0.2588220749737837	0.2415372443859493	0.2103146020200096	0.1803889871154231	0.15480857939839715	0.13359168672356286	0.11614881301655633	0.10184799375917616	0.09013374119071724	0.08054116866818695	0.0726868681205053	0.06625612256783317	0.06099103174542864	0.05668054622444532	0.05315628651808255	0.050377553082437534	0.04929217251875038	0.05503420612933798	0.08079153555862081	0.143906678860198	0.23438980438213824	0.2582967625040745	0.2363772259140484	0.2048338454045817	0.1755919130553068	0.15080339181599678	0.13029232915507966	0.11344205317270532	0.09963032792648066	0.08831760171835829
NRM1	0.2957167231154777	0.5651996494745637	0.7892043506414141	0.9675559068587004	1.0951579111644862	1.1500498970187465	1.1086553755405444	0.9912677193829771	0.84778774697175	0.7106118023510509	0.5909066378681377	0.4901110847739485	0.40648290271128784	0.3375488384940523	0.2809008558658109	0.2344204850809509	0.19631398180994755	0.16508954815515545	0.13953172800327868	0.11895298911895515	0.12398743767287235	0.34519659466786184	0.6076991516443997	0.8236249641344529	0.9938693956378644	1.1108632534829874	1.1499418627080755	1.0922443964570931	0.9668130809728834	0.8228490350376952	0.6883250561633834	0.5719622590766078	0.4743298721034375	0.3934507714079565	0.32682992922359644	0.2721018578719096	0.2272048856638792	0.1904003083531855	0.16024577676311347	0.13557626177498106	0.11604751081823615	0.14260928122969507	0.3941205411699743	0.6487437218212477	0.8566739774445996	1.0186098616398789	1.1242006272392426	1.1467291397479047	1.0737318331347394	0.9418804654366744	0.7982598551873341	0.6666223304113738
SWI4	3.1810845946046324	2.8001373974599018	2.359534964900321	1.9765436599180877	1.6626015004131154	1.4055520142195232	1.1951007858204918	1.0228256050107452	0.8818896624038283	0.7668840221313075	0.6739522563366804	0.6016120357469061	0.5536457758817174	0.5496827283029472	0.652520801201896	0.9428005603169956	1.3809202700537482	1.8567296532306707	2.3041178625096737	2.6989787198023842	3.03480802991602	3.1331647856441864	2.7240766758068617	2.2871540545697027	1.9170897044883264	1.613918788345218	1.3656936321456736	1.1624697283111358	0.9961200669325591	0.8600633422618759	0.7491408214164524	0.6598204089003387	0.5912293813551289	0.5487617051775886	0.5572542668282789	0.6886910495807467	1.0118852648682841	1.463911366764071	1.93797088628256	2.377162418778588	2.7619747866129893	3.0868274346719997	3.0685566326717804	2.6461654678927307	2.217151157187542	1.8596796001697729	1.5669116345884482	1.3272074309614883	1.1309629370456264	0.970337818158026	0.8390021425842187	0.7320525758235459
WHI5	0.15809258722488465	0.21467906551267044	0.3757204264896827	0.5804489041845847	0.6945698236276219	0.7130649486275157	0.6550287217482961	0.5611255758146582	0.478015375353964	0.4108680688040308	0.35641961990410675	0.3119411681559986	0.2755176885857143	0.2456771057506709	0.22123087459778296	0.20120636468877212	0.18480810334801734	0.1714058968208901	0.1605833156196089	0.15245977321831494	0.1493360337726577	0.1629030030063205	0.2343648006086025	0.4129974311196391	0.6087241395361135	0.7035734447085603	0.7084640602405159	0.6391072684951807	0.5454138815778751	0.4652234542861711	0.4005383985504817	0.34799792158993603	0.3050478880908173	0.2698704819384633	0.2410505536560036	0.2174409543688174	0.19810223190312085	0.1822675355377492	0.16933767532369362	0.1589508825669019	0.15141701029492452	0.1498722147753632	0.16936837511012104	0.2577939642887217	0.4508571204779842	0.6334209870784865	0.709907716458105	0.7013344616933024	0.6225908007469354	0.5301751548290969	0.4528973387579756	0.3905659683055045
