# Run Manifest for ../pipeline/src/syn_net/syn_net_6D_simulations_202110_with_G/p1945/results1/
run_step	run_input	run_output
lempy	/hpc/group/harerlab/bc187/GIT/pipeline/src/syn_net/syn_net_6D_simulations_202110_with_G	/hpc/group/harerlab/bc187/GIT/pipeline/src/syn_net/syn_net_6D_simulations_202110_with_G/p1945/results1/edge_finding_20211014210342/summaries
netgen	/hpc/group/harerlab/bc187/GIT/pipeline/src/syn_net/syn_net_6D_simulations_202110_with_G/p1945/results1/edge_finding_20211014210342/summaries	/hpc/group/harerlab/bc187/GIT/pipeline/src/syn_net/syn_net_6D_simulations_202110_with_G/p1945/results1/seed_network_20211014210342
netper	/hpc/group/harerlab/bc187/GIT/pipeline/src/syn_net/syn_net_6D_simulations_202110_with_G/p1945/results1/seed_network_20211014210342	/hpc/group/harerlab/bc187/GIT/pipeline/src/syn_net/syn_net_6D_simulations_202110_with_G/p1945/results1/network_finding_20211014210342/dsgrn_net_gen_results20211014210342/networks20211014210342
netquery	/hpc/group/harerlab/bc187/GIT/pipeline/src/syn_net/syn_net_6D_simulations_202110_with_G/p1945/results1/network_finding_20211014210342/dsgrn_net_gen_results20211014210342/networks20211014210342	/hpc/group/harerlab/bc187/GIT/pipeline/src/syn_net/syn_net_6D_simulations_202110_with_G/p1945/results1/network_queries_20211014210342/queries20211014210342
