# LEMpy local minima file for target WHI5, replicate 0
# Right-hand side of tf_act():  p0 - p1(tar) + p2(reg^p4) / (p3^p4 + reg^p4)
# Right-hand side of tf_rep():  p0 - p1(tar) + p2(p3^p4) / (p3^p4 + reg^p4)
# Run configuration file:  ../pipeline/src/yeast_data/simulations202110_Orlando_2/extra_nodes_no_annot/results4/edge_finding_20211013094900/lempy_20211013094900_config.txt
# Time series data file:   ../pipeline/src/yeast_data/time_series/orlando2008_WildType_r1_trunc.tsv
# Computed on:  2021-10-13 09:50:47 
 
model	loss	p0	p1	p2	p3	p4
WHI5=tf_act(SWI4)	15.903434939309266	0.3	0.0661423142394099	10.857798630507672	51.531704611627035	2.28270567575325
WHI5=tf_act(SWI4)	15.899366024923598	0.3	0.06585456143750439	10.750735405385116	51.159700928700715	2.323157636682635
WHI5=tf_act(SWI4)	15.90053392768343	0.3	0.06562981902672776	10.688673245422965	50.993245237071825	2.3455174605351687
WHI5=tf_act(SWI4)	15.911118655550485	0.3	0.06519194854628851	10.559226769053621	50.62060177137361	2.395594364785964
WHI5=tf_act(SWI4)	15.899365356885143	0.3	0.06585601378655007	10.751840510163053	51.164884935655756	2.322647729232252
WHI5=tf_act(SWI4)	15.904092005428765	0.3	0.06541194158800635	10.626455946453133	50.820035222311766	2.3689684248838065
WHI5=tf_act(SWI4)	15.899582250355563	0.3	0.0657621792456256	10.72502222887385	51.090100322820945	2.3323738018131066
WHI5=tf_act(SWI4)	15.899871271685996	0.3	0.06576261048471506	10.71635680587238	51.04079818173946	2.3364407734217005
WHI5=tf_act(SWI4)	15.899370668313539	0.3	0.06587012224861283	10.756307251683888	51.17845347509364	2.321043828479708
WHI5=tf_act(SWI4)	15.903456553041758	0.3	0.06553332803448829	10.644747213902791	50.82408314184094	2.3638359060338474
WHI5=tf_rep(SWI4)	246.99302962545852	0.3	0.0027135504510779696	0.0	88.65024011042445	1.0
WHI5=tf_rep(SWI4)	246.99302962549044	0.3	0.0027135498451995436	0.0	88.69023799921904	1.020354650581041
WHI5=tf_rep(SWI4)	246.99302962548592	0.3	0.002713549930065642	0.0	88.50156052642085	1.05683889999691
WHI5=tf_rep(SWI4)	246.9930296254906	0.3	0.0027135498443387	0.0	88.20273915408175	1.0465732724975496
WHI5=tf_rep(SWI4)	246.99302962549046	0.3	0.0027135498473421066	0.0	87.72091318836668	1.0131727178911896
WHI5=tf_rep(SWI4)	246.99302962549058	0.3	0.0027135498448182995	0.0	87.75130306482569	1.0353166339076485
WHI5=tf_rep(SWI4)	247.1099801460377	0.3	0.0027935422449784615	0.009237842845088095	87.2035746077611	1.0
WHI5=tf_rep(SWI4)	246.99302962545855	0.3	0.002713550449515388	0.0	87.20274998849493	1.0
WHI5=tf_rep(SWI4)	246.9930296254586	0.3	0.002713550449898608	0.0	87.37144735401247	1.0
WHI5=tf_rep(SWI4)	246.99302962547003	0.3	0.0027135502254133546	0.0	87.0065046170013	1.0091605751214934
WHI5=tf_act(HCM1)	38.79779640690531	0.3	0.15039664696396357	31.581360421611688	100.0	1.0078304025719178
WHI5=tf_act(HCM1)	38.79779632820974	0.3	0.1503987861091459	31.58176903333759	100.0	1.0078266670191895
WHI5=tf_act(HCM1)	38.809456542592855	0.2999037434280868	0.1509328037284956	31.656437392269794	99.81058967332781	1.0077541072282596
WHI5=tf_act(HCM1)	38.82237763618988	0.3	0.15046525512228545	31.516412301133258	99.51988528986122	1.0092593922673696
WHI5=tf_act(HCM1)	38.847340465407456	0.3	0.15037323636702835	31.420119592919598	99.03929057995413	1.0109569129318905
WHI5=tf_act(HCM1)	38.84580791564064	0.3	0.15041213105519166	31.432431684154988	99.06837100675796	1.0108055166592642
WHI5=tf_act(HCM1)	38.86991321239883	0.3	0.15035146786523707	31.345894476285704	98.61175160264884	1.012390133927214
WHI5=tf_act(HCM1)	38.87213239588703	0.3	0.14995407867230315	31.268005515811506	98.59469073915659	1.0131813267762002
WHI5=tf_act(HCM1)	38.8643360865902	0.3	0.15003019835574122	31.30523464044418	98.73391384970161	1.0125869544503707
WHI5=tf_act(HCM1)	38.88261734083329	0.3	0.15045838730211963	31.32724775647516	98.37320879711058	1.0130050494778902
WHI5=tf_rep(HCM1)	246.99302962545838	0.3	0.0027135504522957797	0.0	90.46299456056887	1.0
WHI5=tf_rep(HCM1)	246.99302962549058	0.3	0.0027135498452548583	0.0	90.50299244936346	1.020354650581041
WHI5=tf_rep(HCM1)	246.99302962548592	0.3	0.002713549929525879	0.0	90.31431497656527	1.05683889999691
WHI5=tf_rep(HCM1)	246.9930296254905	0.3	0.0027135498465340425	0.0	90.01549360422618	1.0465732724975496
WHI5=tf_rep(HCM1)	246.99302962549044	0.3	0.0027135498457261267	0.0	89.5336676385111	1.0131727178911896
WHI5=tf_rep(HCM1)	246.99302962549058	0.3	0.002713549844471324	0.0	89.56405751497012	1.0353166339076485
WHI5=tf_rep(HCM1)	247.7136339017985	0.3	0.0040502294665272585	0.15481565568281264	89.05133584954922	1.0
WHI5=tf_rep(HCM1)	248.7107902781627	0.2988864680810402	0.005608486472225762	0.3376371894206926	89.56323274991713	1.0
WHI5=tf_rep(HCM1)	248.43380975019429	0.29912910994805414	0.005206504488555862	0.2901180301702112	89.73275479023039	1.0
WHI5=tf_rep(HCM1)	246.9930296254702	0.3	0.0027135502213437744	0.0	89.19911477795894	1.0444772090291419
WHI5=tf_act(NDD1)	246.99302962544792	0.3	0.002713550667620927	0.0	97.52253832635984	1.0
WHI5=tf_act(NDD1)	246.99302962549058	0.3	0.0027135498444586332	0.0	97.56253621515442	1.020354650581041
WHI5=tf_act(NDD1)	246.9930296254859	0.3	0.0027135499297977817	0.0	97.37385874235623	1.05683889999691
WHI5=tf_act(NDD1)	246.99302962549055	0.3	0.002713549845150624	0.0	97.07503737001714	1.0465732724975496
WHI5=tf_act(NDD1)	246.99302962549046	0.3	0.002713549847129561	0.0	96.59321140430207	1.0131727178911896
WHI5=tf_act(NDD1)	246.9930296254906	0.3	0.002713549843877012	0.0	96.62360128076108	1.0353166339076485
WHI5=tf_act(NDD1)	246.99302962545855	0.3	0.002713550450267819	0.0	97.87498762003024	1.0
WHI5=tf_act(NDD1)	246.99302962545852	0.3	0.002713550450496133	-1.1102230246251565e-16	97.8741627442078	1.0
WHI5=tf_act(NDD1)	246.99302962545852	0.3	0.002713550449992884	0.0	98.04368480681289	1.0
WHI5=tf_act(NDD1)	246.9930296254692	0.3	0.002713550241617246	0.0	97.67874206980171	1.0091605751214934
WHI5=tf_rep(NDD1)	136.70011604383768	0.0	0.003961365037359499	21.574302866323556	23.68023100753581	5.515793600632427
WHI5=tf_rep(NDD1)	136.70561791307782	0.0	0.003965239040008104	21.182368054187037	23.79135718474839	5.522581920425261
WHI5=tf_rep(NDD1)	136.70558945429022	0.0	0.003963286831960019	21.19856869091706	23.788112216063833	5.523874321274453
WHI5=tf_rep(NDD1)	136.70011300993997	0.0	0.004039531011746271	21.071548323976284	23.765096394108937	5.460541455494491
WHI5=tf_rep(NDD1)	136.6928088993732	0.0	0.004164117483435176	21.137920447048234	23.647743542384863	5.355039323204541
WHI5=tf_rep(NDD1)	136.69689295070597	0.0	0.004157114010161208	20.891635387384884	23.728414952576912	5.3672140955580945
WHI5=tf_rep(NDD1)	136.69141151719234	0.0	0.0042801125121809495	21.2763744309967	23.514912180333834	5.259454071385795
WHI5=tf_rep(NDD1)	136.69110311264888	0.0	0.004196304395441775	21.219402749974716	23.59773263835849	5.326897477621874
WHI5=tf_rep(NDD1)	136.6922055907284	0.0	0.0042312804569949285	21.154581825919557	23.59055831013439	5.300955618149737
WHI5=tf_rep(NDD1)	136.70228674213197	0.0	0.004398984203177023	21.087742631326435	23.474617428893698	5.171582758508187
WHI5=tf_act(SWI5)	246.99302962545855	0.3	0.0027135504500581118	0.0	66.66522638755028	1.0
WHI5=tf_act(SWI5)	246.9930296254904	0.3	0.002713549847799766	0.0	66.70522427634486	1.020354650581041
WHI5=tf_act(SWI5)	246.99302962548586	0.3	0.002713549931079795	0.0	66.51654680354667	1.05683889999691
WHI5=tf_act(SWI5)	246.9930296254905	0.3	0.002713549846342045	0.0	66.21772543120758	1.0465732724975496
WHI5=tf_act(SWI5)	246.99302962549058	0.3	0.002713549844556792	0.0	65.73589946549251	1.0131727178911896
WHI5=tf_act(SWI5)	246.99302962549064	0.3	0.0027135498453788134	0.0	65.76628934195152	1.0353166339076485
WHI5=tf_act(SWI5)	246.99302962545855	0.3	0.0027135504513948134	0.0	65.13114672129755	1.0
WHI5=tf_act(SWI5)	246.99302962545838	0.3	0.00271355045320977	0.0	65.13032188048462	1.0
WHI5=tf_act(SWI5)	246.99302962545855	0.3	0.002713550450508745	0.0	65.29901908854586	1.0
WHI5=tf_act(SWI5)	246.99302962546955	0.3	0.002713550234522429	0.0	64.93407635153469	1.0091605751214934
WHI5=tf_rep(SWI5)	43.68501887018649	0.0	0.02705281021974144	4.1105441659854725	44.208178404565096	3.8763950617517713
WHI5=tf_rep(SWI5)	43.69667095499506	0.0	0.027000229151586105	4.101507106774165	44.32955044381931	3.977178772999092
WHI5=tf_rep(SWI5)	43.671776116594025	0.0	0.026678221012958716	4.087546119680686	43.89127646346806	3.912213282417221
WHI5=tf_rep(SWI5)	43.67556596884484	0.0	0.026561884435410046	4.082822255598768	43.722995076947065	3.8844721726131475
WHI5=tf_rep(SWI5)	43.70527649422083	0.0	0.02654849272960904	4.084884102709043	43.546259756420895	3.767121088215714
WHI5=tf_rep(SWI5)	43.67177611703545	0.0	0.026678212503122786	4.087545730156617	43.891272132914395	3.912217973929858
WHI5=tf_rep(SWI5)	43.67177611527985	0.0	0.02667825610338456	4.087549225732649	43.891298420247146	3.9122222478349205
WHI5=tf_rep(SWI5)	43.673788886688484	0.0	0.026784074317317497	4.09567640120028	43.92773258887863	3.869815199481581
WHI5=tf_rep(SWI5)	43.685462057019414	0.0	0.027034888495828607	4.112068221221	44.10614973908121	3.82492717811092
WHI5=tf_rep(SWI5)	43.812373865906466	1.9816646330255834e-05	0.025944543968939405	3.9927721479976586	43.74475616957099	3.8296926496352706
WHI5=tf_act(NRM1)	246.99302962545832	0.3	0.0027135504534966837	0.0	100.0	1.0
WHI5=tf_act(NRM1)	246.99302962549058	0.3	0.0027135498450999856	0.0	100.0	1.020354650581041
WHI5=tf_act(NRM1)	246.99302962548583	0.3	0.0027135499302295848	0.0	99.81132252720181	1.05683889999691
WHI5=tf_act(NRM1)	246.9930296254905	0.3	0.002713549845974724	0.0	99.51250115486272	1.0465732724975496
WHI5=tf_act(NRM1)	246.9930296254906	0.3	0.0027135498458828507	0.0	99.03067518914764	1.0131727178911896
WHI5=tf_act(NRM1)	246.99302962549058	0.3	0.0027135498456965406	0.0	99.06106506560666	1.0353166339076485
WHI5=tf_act(NRM1)	246.99302962545852	0.3	0.002713550451819066	0.0	98.45796998019887	1.0
WHI5=tf_act(NRM1)	246.99302962545806	0.3	0.0027135504586352126	0.0	98.45714517363098	1.0
WHI5=tf_act(NRM1)	246.99302962545852	0.3	0.0027135504515490437	0.0	98.6258424098857	1.0
WHI5=tf_act(NRM1)	246.99302962546935	0.3	0.002713550237843788	0.0	98.26089967287453	1.0091605751214934
WHI5=tf_rep(NRM1)	196.32005717666712	0.0	0.02675269439850635	3.7217791893433576	50.72064394078046	1.2017769324256822
WHI5=tf_rep(NRM1)	132.73839547130143	0.0	0.008502161269515906	2.9598083561248187	29.61501430178618	10.0
WHI5=tf_rep(NRM1)	132.73863398079408	0.0	0.008504461343895328	2.9575274891331107	29.640693609548403	10.0
WHI5=tf_rep(NRM1)	132.75279599246716	0.0	0.00854877384134074	2.94817159241203	29.834774294669348	10.0
WHI5=tf_rep(NRM1)	132.7383954721008	0.0	0.008502143117004616	2.9598071416338607	29.614970664960545	10.0
WHI5=tf_rep(NRM1)	132.73839547493725	0.0	0.008502124914179012	2.9598039461218404	29.614919793200254	10.0
WHI5=tf_rep(NRM1)	132.7383954714446	0.0	0.008502179961494683	2.959805505830455	29.615060816972207	10.0
WHI5=tf_rep(NRM1)	132.73848006831764	0.0	0.008508861762034844	2.9597139176381524	29.633092526034037	10.0
WHI5=tf_rep(NRM1)	132.74734479957405	0.0	0.008572006809417807	2.9590488304603957	29.800033429725932	10.0
WHI5=tf_rep(NRM1)	132.73892669519316	0.0	0.008488111140341677	2.96079041406806	29.570158001626783	10.0
WHI5=tf_act(CLN3)	245.1873608641611	0.3	0.008632418215753243	1.187358132920436	100.0	2.8388070824090237
WHI5=tf_act(CLN3)	242.6020879132982	0.3	0.017230887866372568	2.3450349672371704	99.99265263891724	1.0
WHI5=tf_act(CLN3)	242.60018375273629	0.3	0.017240383828702598	2.344083803954683	99.79971169831934	1.0
WHI5=tf_act(CLN3)	242.59692281603049	0.29998322527017207	0.01720197452300728	2.3339991445718544	99.45686413943646	1.0
WHI5=tf_act(CLN3)	242.5916907793765	0.3	0.017282504524491586	2.3398512148731414	98.946860393458	1.0
WHI5=tf_act(CLN3)	242.59066934826265	0.3	0.017289306722549636	2.339626523485401	98.84499360378776	1.0
WHI5=tf_act(CLN3)	242.58579666773178	0.3	0.017285850950914314	2.332848668463574	98.36367239190965	1.0
WHI5=tf_act(CLN3)	242.58777848743685	0.29960663193223647	0.01747281893194272	2.3628516088495233	98.35711090552492	1.0
WHI5=tf_act(CLN3)	242.58744314559524	0.3	0.017280359571402643	2.334068480259328	98.52610439029559	1.0
WHI5=tf_act(CLN3)	242.58342103996566	0.3	0.01730222415888724	2.3324010955684145	98.12997850499492	1.0
WHI5=tf_rep(CLN3)	207.68173103815005	0.20789375500903481	0.09452597469078104	18.539008604445772	57.45386354639294	1.7116366840333195
WHI5=tf_rep(CLN3)	207.71850489132333	0.20844375754456201	0.09240922695479328	18.13645135406573	57.522672083034635	1.7235944452534595
WHI5=tf_rep(CLN3)	207.6209524047802	0.3	0.09125444060855478	17.97941162267834	56.60980783477835	1.7283258913448334
WHI5=tf_rep(CLN3)	207.5950020235824	0.3	0.09341639638753142	18.31316438847141	57.01810281794544	1.738360986107312
WHI5=tf_rep(CLN3)	207.57283964327289	0.29950934520967903	0.09205875287359011	18.210375839019218	56.39345482192747	1.7258497648472624
WHI5=tf_rep(CLN3)	207.61799298710616	0.3	0.09119833249070954	17.984402044076262	56.554917096832014	1.7276443130701846
WHI5=tf_rep(CLN3)	207.54730141487056	0.29877086948319076	0.09159507241070107	18.24770888929481	55.89452331685996	1.7142378971802168
WHI5=tf_rep(CLN3)	207.50846669593048	0.3	0.09448410321334831	18.75996362432038	56.222408145647705	1.7245221687920702
WHI5=tf_rep(CLN3)	207.52229067183097	0.3	0.09448005268246353	18.71382629231038	56.37497042330845	1.7270061265134165
WHI5=tf_rep(CLN3)	207.50496179153515	0.3	0.09337648345637188	18.59371155293354	56.01202266466114	1.7206317089117105
WHI5=tf_act(WHI5)	247.04039002928508	0.29958178514847433	0.003243223052869216	0.1015031211441752	100.0	1.4159280261105398
WHI5=tf_act(WHI5)	246.99302962548884	0.3	0.0027135498764189877	0.0	100.0	1.4362826766915808
WHI5=tf_act(WHI5)	246.99302962548586	0.3	0.0027135499307249593	0.0	99.81132252720181	1.4727669261074499
WHI5=tf_act(WHI5)	246.99302962549044	0.3	0.0027135498477964086	0.0	99.51250115486272	1.4625012986080894
WHI5=tf_act(WHI5)	246.99302962549055	0.3	0.002713549845846223	0.0	99.03067518914764	1.4291007440017294
WHI5=tf_act(WHI5)	246.9930296254906	0.3	0.0027135498454666273	0.0	99.06106506560666	1.4512446600181883
WHI5=tf_act(WHI5)	245.22173578131347	0.3	0.032346760986855835	5.1126401644082335	98.50630098116207	1.0
WHI5=tf_act(WHI5)	245.22154292293425	0.3	0.032410988899156355	5.123370873468194	98.49447463642608	1.0
WHI5=tf_act(WHI5)	245.22434936884412	0.3	0.032401948194885365	5.126797950108446	98.66125956930155	1.0
WHI5=tf_act(WHI5)	245.21764435167663	0.3	0.03252818538080777	5.136550356429143	98.2603351155653	1.0
WHI5=tf_rep(WHI5)	170.5277776195338	0.0	0.003247270135205701	7.428913178868212	42.83236041899078	10.0
WHI5=tf_rep(WHI5)	170.55494883455907	0.0	0.0033225462894666585	7.1222512188202005	43.201756649069175	10.0
WHI5=tf_rep(WHI5)	170.55379411136283	0.0	0.0033199635844481895	7.128868835253281	43.192305576562376	10.0
WHI5=tf_rep(WHI5)	170.5646372273571	0.0	0.003337052923880149	7.070168228544602	43.268596102726285	10.0
WHI5=tf_rep(WHI5)	170.52750888969598	0.0	0.0032378323040058274	7.463987196618407	42.79008744722164	10.0
WHI5=tf_rep(WHI5)	170.53649325160663	0.0	0.003286507956162708	7.263907493574839	43.027248740047156	10.0
WHI5=tf_rep(WHI5)	170.53224589464762	0.0	0.0032005628066118885	7.6168890032247845	42.61345125261116	10.0
WHI5=tf_rep(WHI5)	170.5295875542115	0.0	0.003211476640057912	7.56345187646748	42.67183886193923	10.0
WHI5=tf_rep(WHI5)	170.52758665066423	0.0	0.0032327438677023914	7.482955149276285	42.7673434825464	10.0
WHI5=tf_rep(WHI5)	170.52979712776647	0.0	0.0032103535980786183	7.568581517057299	42.6661709678421	10.0
WHI5=tf_act(YOX1)	36.45127492328833	0.3	0.11686795629370651	24.02811347070233	82.51380198305134	1.0
WHI5=tf_act(YOX1)	36.45137085381899	0.3	0.11695266555156593	24.01965670897672	82.36972816928782	1.0
WHI5=tf_act(YOX1)	36.45189324927934	0.3	0.11707382559185824	24.005682318847576	82.15377955805522	1.0
WHI5=tf_act(YOX1)	36.45430669930256	0.3	0.11732090198539015	23.978761674664987	81.72351629791677	1.0
WHI5=tf_act(YOX1)	36.45956414067894	0.3	0.11753435730239108	23.933379256510836	81.232783296272	1.0
WHI5=tf_act(YOX1)	36.46188889230414	0.3	0.11770854786796608	23.93591521597553	81.0489157302343	1.0
WHI5=tf_act(YOX1)	36.46541971210004	0.3	0.11783296990809328	23.921149936786023	80.82795368997009	1.0
WHI5=tf_act(YOX1)	36.46648889997097	0.3	0.1178908626791563	23.921360815914245	80.76374626122465	1.0
WHI5=tf_act(YOX1)	36.46389293102782	0.3	0.11780985166996508	23.932541641510227	80.9159889241605	1.0
WHI5=tf_act(YOX1)	36.471111082431285	0.3	0.11807394994888025	23.914037444219073	80.5178262772836	1.0
WHI5=tf_rep(YOX1)	246.9930296254584	0.3	0.0027135504521737398	0.0	83.28269964615767	1.0
WHI5=tf_rep(YOX1)	246.9930296254906	0.3	0.0027135498441986055	0.0	83.32269753495225	1.020354650581041
WHI5=tf_rep(YOX1)	246.9930296254859	0.3	0.00271354993036571	0.0	83.13402006215406	1.05683889999691
WHI5=tf_rep(YOX1)	246.99302962549058	0.3	0.0027135498460905015	0.0	82.83519868981497	1.0465732724975496
WHI5=tf_rep(YOX1)	246.99302962549058	0.3	0.002713549845946788	0.0	82.3533727240999	1.0131727178911896
WHI5=tf_rep(YOX1)	246.99302962549044	0.3	0.002713549848031518	0.0	82.38376260055891	1.0353166339076485
WHI5=tf_rep(YOX1)	246.99302962533457	0.3	0.0027135558474248806	0.0	81.80096597901954	1.0
WHI5=tf_rep(YOX1)	249.01230648682767	0.298912582369503	0.00465147961513133	0.22372165162286944	81.80014114511503	1.0
WHI5=tf_rep(YOX1)	248.57755014783953	0.29915451132569176	0.004262776968419007	0.17846104820588155	81.96966319337272	1.0
WHI5=tf_rep(YOX1)	246.99302962546867	0.3	0.002713550251782559	0.0	81.43602324200836	1.0091605751214934
WHI5=tf_act(ASH1)	251.2265573641934	0.2993295051146176	0.0030935214695288937	0.15007028132006933	100.0	1.0
WHI5=tf_act(ASH1)	246.99302962549066	0.3	0.0027135498441814266	0.0	100.0	1.020354650581041
WHI5=tf_act(ASH1)	246.99302962548586	0.3	0.0027135499306749824	0.0	99.81132252720181	1.05683889999691
WHI5=tf_act(ASH1)	246.99302962549066	0.3	0.0027135498431513964	0.0	99.51250115486272	1.0465732724975496
WHI5=tf_act(ASH1)	246.9930296254907	0.3	0.002713549843906286	0.0	99.03067518914764	1.0131727178911896
WHI5=tf_act(ASH1)	246.9930296254906	0.3	0.0027135498465014674	0.0	99.06106506560666	1.0353166339076485
WHI5=tf_act(ASH1)	246.99302962545423	0.3	0.0027135505368242377	0.0	98.57616666310075	1.0
WHI5=tf_act(ASH1)	246.9930296254584	0.3	0.002713550452190749	0.0	98.57534184331486	1.0
WHI5=tf_act(ASH1)	246.99302962545855	0.3	0.002713550448450079	0.0	98.74403906783324	1.0
WHI5=tf_act(ASH1)	246.99302962546957	0.3	0.0027135502346257246	0.0	98.37909633082207	1.0091605751214934
WHI5=tf_rep(ASH1)	131.60192862006127	0.0	0.06404893825647359	6.45634395697417	98.72114918286236	1.0
WHI5=tf_rep(ASH1)	131.60202431446723	0.0	0.06406181563994286	6.455103979875811	98.77712201649194	1.0012566431352705
WHI5=tf_rep(ASH1)	131.6080106810856	0.0	0.06372059599615783	6.378950082181604	98.56282210643626	1.0375894914010715
WHI5=tf_rep(ASH1)	131.60165846586906	0.0	0.06389308764275688	6.4462509400566335	98.32556641376323	1.0006889934000838
WHI5=tf_rep(ASH1)	131.6023102456205	0.0007974953136712	0.06372673315022236	6.436447085608233	97.8866328635524	1.0000832257875631
WHI5=tf_rep(ASH1)	131.60649614414066	0.002354913219333827	0.06359589200417659	6.378309499222926	98.04286226782347	1.0322014518388127
WHI5=tf_rep(ASH1)	131.60513430363656	0.0012186351430252677	0.0634988598143005	6.4240614730664545	97.2133984201155	1.0
WHI5=tf_rep(ASH1)	131.60559274364073	0.0003698591398474915	0.06340646920669218	6.405559041171111	97.2151240353875	1.0081893657899879
WHI5=tf_rep(ASH1)	131.60434085069872	0.00015855365314831676	0.06351043473773689	6.419690889993246	97.38479098312934	1.0032984827220752
WHI5=tf_rep(ASH1)	131.6048073415288	0.0185664821289886	0.06360936842271273	6.4141134842891905	97.02971742305962	1.0
WHI5=tf_act(RIF1)	32.48251762739356	0.005967346397356203	0.1899519556905229	17.53707982457012	46.5295386001256	8.255053373190767
WHI5=tf_act(RIF1)	32.424727256472096	0.3	0.18958062959446453	17.19856108397756	46.761234945740895	8.411163021613985
WHI5=tf_act(RIF1)	32.424727984915	0.3	0.18958356307518645	17.19879227028234	46.76072768352157	8.410443161420195
WHI5=tf_act(RIF1)	32.42934493124089	0.3	0.18891497486639777	17.141698343151823	46.79668597782777	8.45665330627558
WHI5=tf_act(RIF1)	32.42849738021371	0.29999878027320326	0.1889557431784458	17.145115873481874	46.79292054249332	8.451332975424984
WHI5=tf_act(RIF1)	32.42617677596502	0.3	0.18942169524694596	17.183585180768237	46.744770406985765	8.384706120516555
WHI5=tf_act(RIF1)	32.424727266261336	0.3	0.1895804254165041	17.198542286486145	46.761237568085164	8.411169565566093
WHI5=tf_act(RIF1)	32.42472758796071	0.3	0.18957641896332292	17.198166905182386	46.76121019019051	8.411143109736773
WHI5=tf_act(RIF1)	32.424727191934906	0.3	0.1895837601084471	17.198807034791923	46.76115001116778	8.411175209565258
WHI5=tf_act(RIF1)	32.427697499541146	0.3	0.1890513270879475	17.153412055888182	46.7898203591976	8.44774645188959
WHI5=tf_rep(RIF1)	246.99302962545855	0.3	0.0027135504518451857	0.0	85.49002434021911	1.0
WHI5=tf_rep(RIF1)	246.9930296254905	0.3	0.002713549846771781	0.0	85.5300222290137	1.020354650581041
WHI5=tf_rep(RIF1)	246.99302962548586	0.3	0.002713549930179072	0.0	85.3413447562155	1.05683889999691
WHI5=tf_rep(RIF1)	246.99302962549064	0.3	0.0027135498443953327	0.0	85.04252338387641	1.0465732724975496
WHI5=tf_rep(RIF1)	246.99302962549058	0.3	0.0027135498446075124	0.0	84.56069741816134	1.0131727178911896
WHI5=tf_rep(RIF1)	246.9930296254907	0.3	0.002713549843338472	0.0	84.59108729462035	1.0353166339076485
WHI5=tf_rep(RIF1)	247.6817086460737	0.3	0.004030188052491309	0.16638855473706396	84.07850343636407	1.0
WHI5=tf_rep(RIF1)	248.6819447766681	0.2988839193985044	0.00562871124714545	0.37084737001498647	84.59026254309013	1.0
WHI5=tf_rep(RIF1)	248.40933312628067	0.2991296669321685	0.005226816430201137	0.31895953755404216	84.75978456800999	1.0
WHI5=tf_rep(RIF1)	246.99302962546844	0.3	0.002713550255301559	0.0	84.22614455760917	1.0444772090291419
WHI5=tf_act(EDS1)	139.13421440842563	0.0	0.022386409973319952	11.492467625516356	100.0	2.6006102679532934
WHI5=tf_act(EDS1)	139.13312555135607	0.0	0.021891757475172365	11.458232609046645	99.98477679005562	2.6355757789742995
WHI5=tf_act(EDS1)	139.13417904680153	0.0	0.02193109610716282	11.430854485348203	99.79830463861614	2.6354113364012757
WHI5=tf_act(EDS1)	139.15483578270965	0.0	0.02260063074970746	11.31532018325426	99.49554570380043	2.5739582016725335
WHI5=tf_act(EDS1)	139.13863941436117	0.0	0.02211366703217226	11.318270920411514	99.00660438437329	2.6340877482722855
WHI5=tf_act(EDS1)	139.13861430213294	0.0	0.02208850249670068	11.31697525534526	99.01095297673139	2.6357656598808177
WHI5=tf_act(EDS1)	139.14105709099874	0.0	0.022176858298674978	11.25398582951582	98.57573083623693	2.6358582781088242
WHI5=tf_act(EDS1)	139.14301670148424	0.0	0.022781790806783858	11.290839994804596	98.53884345293017	2.5942724053182182
WHI5=tf_act(EDS1)	139.14872665322838	0.0	0.023425540049055067	11.359818067098972	98.68662360917423	2.5488177005946313
WHI5=tf_act(EDS1)	139.15281176366324	0.0008512177286798742	0.023093297599201264	11.221099315787727	98.32368874261019	2.566881677372153
WHI5=tf_rep(EDS1)	246.99302962545858	0.3	0.0027135504509058395	0.0	91.70901528519622	1.0
WHI5=tf_rep(EDS1)	246.9930296254907	0.3	0.0027135498446076794	0.0	91.7490131739908	1.020354650581041
WHI5=tf_rep(EDS1)	246.9930296254858	0.3	0.002713549930994424	0.0	91.56033570119261	1.05683889999691
WHI5=tf_rep(EDS1)	246.9930296254906	0.3	0.0027135498446188796	0.0	91.26151432885352	1.0465732724975496
WHI5=tf_rep(EDS1)	246.99302962549058	0.3	0.002713549843969961	0.0	90.77968836313845	1.0131727178911896
WHI5=tf_rep(EDS1)	246.9930296254907	0.3	0.0027135498453810195	0.0	90.81007823959746	1.0353166339076485
WHI5=tf_rep(EDS1)	246.9930296254585	0.3	0.0027135504509050346	0.0	90.28081430748627	1.0
WHI5=tf_rep(EDS1)	246.99302962545843	0.3	0.00271355045006265	0.0	90.27998971932239	1.0
WHI5=tf_rep(EDS1)	246.99302962545838	0.3	0.0027135504525058972	0.0	90.44868718779054	1.0
WHI5=tf_rep(EDS1)	246.99302962546957	0.3	0.0027135502341516476	0.0	90.08374445077936	1.0091605751214934
