# LEMpy target file for SWI5, replicate 0 
# Run configuration file:  ../pipeline/src/yeast_data/simulations202110_Orlando_2/extra_nodes_no_annot/results4/edge_finding_20211013094900/lempy_20211013094900_config.txt 
# Time series data file:   ../pipeline/src/yeast_data/time_series/orlando2008_WildType_r1_trunc.tsv 
# Computed on:  2021-10-13 09:50:49 
 
model	loss	pld	inv_temp	prior	rhs_param_0	rhs_param_1	rhs_param_2	rhs_param_3	rhs_param_4	hess_eigs	hess_det	bnd_params	pld_time	opt_time
tf_act(NRM1)	63.12938926279008	0.777336	1.0	0.045454545454545456	0.0	0.06879586568978534	9.189686921869699	50.563307597841494	5.526617875158031	[1, 3.7396143209911643, 17.92099547271008, 66.22943767148541, 4804068.1087539075]	21323042273.654625	1.0	4.8252000000026385e-05	0.5375275739999998
tf_act(NDD1)	76.99931023277614	0.206619	1.0	0.045454545454545456	0.0	0.06236187016776286	8.024049812139499	71.06273271183942	10.0	[1, 3.2656192034984226, 13.505004676135194, 67.7765202126442, 4804095.39098325]	14359891876.888092	2.0	5.181600000003783e-05	0.4692026239999998
tf_act(WHI5)	162.54171264560736	0.0134442	1.0	0.045454545454545456	0.0	0.04501000751607829	16.376273779041643	98.35010134676648	6.678392333886125	[1, 2.0674254886985475, 7.410911226789512, 65.09959037579682, 4803992.9812750425]	4791617003.37398	1.0	4.3490000000367957e-05	0.23155230400000004
tf_rep(CLN3)	178.15351643019827	0.00236908	1.0	0.045454545454545456	0.0	0.04215458836471404	7.611399324778694	72.53850071596595	10.0	[1, 2.595406420561033, 13.297409493165338, 70.3309700705938, 4803952.4048670875]	11660514714.856764	2.0	4.5282000000312905e-05	0.4325588819999999
tf_act(RIF1)	293.6117267805822	0.0000871598	1.0	0.045454545454545456	0.0	0.010944020911342734	6.325069976937306	84.33240686503913	10.0	[1, 1, 13.18944527490949, 69.74186912550783, 4803751.450738282]	4418762314.358157	2.0	4.498299999955435e-05	0.3942032449999999
tf_rep(ASH1)	223.11556562408012	0.0000732265	1.0	0.045454545454545456	0.3	0.019473571657149014	91.21795971922994	6.198470891944329	10.0	[1, 1, 52.01898712545713, 2030.8292574198604, 4807978.964200217]	507922979970.1975	2.0	4.6206999999576226e-05	0.42774375499999984
tf_act(HCM1)	334.16335588139776	0.0000454825	1.0	0.045454545454545456	0.0	0.02065183496998389	5.298846159600653	66.92944003420482	6.0427290553766575	[1, 1.3597170564690515, 12.441005698314639, 80.88112902039167, 4803856.399155138]	6572661346.347614	1.0	5.24500000000927e-05	0.3968563620000003
tf_act(YOX1)	334.9050053657639	0.0000205619	1.0	0.045454545454545456	0.0	0.014826431475523273	4.020108310471927	52.15449173253391	10.0	[1, 1.181347952289256, 14.179169767329082, 95.94332193852337, 4803857.616241935]	7720288205.44072	2.0	4.380499999978582e-05	0.35547937800000007
tf_act(SWI4)	436.21068267533485	0.00000284704	1.0	0.045454545454545456	0.0	0.0035599428089376486	5.834967144875051	90.77366020503663	10.0	[1, 1, 6.66732328440967, 71.43763247897232, 4803725.507810449]	2288003845.107005	2.0	0.00016213299999989772	0.37407416000000016
tf_act(EDS1)	436.8602101551518	0.00000180146	1.0	0.045454545454545456	0.0	0.02097251094794776	3.952237693304431	52.295404352159316	10.0	[1.0111264883403002, 1.8866522738405533, 6.531590482616216, 92.54904679393056, 4803987.360378191]	5539749216.863253	2.0	4.499899999999002e-05	0.4962741620000002
tf_rep(SWI5)	501.78490160106287	0.00000035519	1.0	0.045454545454545456	0.0	0.0011423195262018318	2.409674845694461	17.618029236838805	10.0	[1, 1, 11.405138072253525, 129.66270800833175, 4803764.801424561]	7103908688.492602	2.0	5.049700000014923e-05	0.373621054
tf_act(CLN3)	623.6084391753229	0.000000128176	1.0	0.045454545454545456	0.2664189252008685	0.031817462192764816	1.7081968039416702	0.001	1.6067713380683981	[1, 1, 2.2369453396059598, 118.52236629106855, 4805572.603694148]	1274092117.1648414	1.0	4.3909000000397214e-05	0.3615265649999997
tf_rep(EDS1)	645.1080264925603	0.0000000263298	1.0	0.045454545454545456	0.3	0.030011820878429622	2.3696446491931797	100.0	1.0	[1, 1, 1.964252403319752, 85.15211801857488, 4804786.999703553]	803649886.6145835	3.0	4.3562999999302576e-05	0.3201341040000001
tf_act(SWI5)	673.1097912008426	0.0000000156871	1.0	0.045454545454545456	0.3	0.008882122869504154	4.989707361897548	100.0	10.0	[1, 1, 2.6557215799237714, 59.62130212595311, 4803729.775860917]	760610941.338267	3.0	4.528599999975569e-05	0.37897852
tf_rep(SWI4)	650.0328479613805	0.0000000106137	1.0	0.045454545454545456	0.3	0.030362290624669195	2.3182502071772895	100.0	1.0	[1, 1, 10.058362289853356, 84.32811587104285, 4804851.5828945795]	4075488281.0357537	3.0	6.374500000028149e-05	0.341894897
tf_rep(WHI5)	658.1224050769443	0.0000000101694	1.0	0.045454545454545456	0.3	0.022965396576460465	2.093134624688028	100.0	1.0	[1, 1, 7.801476913100241, 86.32443430850896, 4804402.14198754]	3235563448.3090143	3.0	4.3065999999925e-05	0.3573151290000003
tf_rep(HCM1)	671.9798519437943	0.00000000772031	1.0	0.045454545454545456	0.3	0.021818093672441606	1.7577872507902066	100.0	1.0	[1, 1, 7.9900961642469355, 85.44562052322719, 4804646.560958595]	3280222173.185148	3.0	4.839800000056016e-05	0.30314636100000003
tf_rep(RIF1)	673.936332489741	0.00000000620573	1.0	0.045454545454545456	0.3	0.020799139867121032	1.7833532127889724	100.0	1.0	[1, 1, 11.73927109990969, 83.4720952162548, 4804519.286463136]	4707955919.934044	3.0	4.349200000053344e-05	0.3730394229999998
tf_rep(NDD1)	671.9070160310628	0.00000000611671	1.0	0.045454545454545456	0.3	0.018363351515153024	1.6559320048952373	100.0	1.0	[1, 1, 11.96866313173427, 91.13183166062147, 4804420.013889968]	5240306754.801104	3.0	4.5218999999541154e-05	0.3306503460000001
tf_rep(NRM1)	677.3747051246525	0.00000000568252	1.0	0.045454545454545456	0.3	0.0158662382122958	1.2577585591523788	100.0	1.0	[1, 1, 9.967452807893048, 102.71699676686757, 4804654.480356367]	4919134107.454794	3.0	4.552399999990797e-05	0.35153681599999986
tf_act(ASH1)	710.0794860704037	0.0000000031061	1.0	0.045454545454545456	0.3	0.0	0.0	91.09773717504626	1.6590700145108728	[1, 1, 16.694539683266523, 59.303119172897404, 4803802.0776177645]	4755947928.963743	3.0	5.412999999965251e-05	0.24099212999999997
tf_rep(YOX1)	692.9333344781028	0.000000000868066	1.0	0.045454545454545456	0.3	0.009611886298079486	100.0	0.20121232200548594	1.0	[1, 1, 21.96163732275038, 1096.3929518968805, 4831544.473606937]	116336751258.57869	3.0	7.028899999994564e-05	0.21707901800000018
null_model	710.0794860704037				0.3	0.0								
