# LEMpy target file for NDD1, replicate 0 
# Run configuration file:  ../pipeline/src/yeast_data/simulations202110_Orlando_2/extra_nodes_no_annot/results4/edge_finding_20211013094900/lempy_20211013094900_config.txt 
# Time series data file:   ../pipeline/src/yeast_data/time_series/orlando2008_WildType_r1_trunc.tsv 
# Computed on:  2021-10-13 09:50:48 
 
model	loss	pld	inv_temp	prior	rhs_param_0	rhs_param_1	rhs_param_2	rhs_param_3	rhs_param_4	hess_eigs	hess_det	bnd_params	pld_time	opt_time
tf_act(HCM1)	14.418609179697649	0.513855	1.0	0.045454545454545456	0.3	0.11332306240598163	17.81898948253501	57.38769835312184	2.4966531285476123	[1, 1, 7.53386621733185, 159.22527573448508, 9263753.194722394]	11112630897.473831	1.0	5.192600000025749e-05	0.4799461270000003
tf_act(YOX1)	18.500239944389275	0.447385	1.0	0.045454545454545456	0.3	0.0793069276574287	11.951044826340144	45.75695991627899	3.300104124357621	[1, 1.3158063457333402, 10.13843015140918, 43.29301954744462, 9263629.22665373]	5350097932.038143	1.0	4.2844999999402944e-05	0.46923314299999985
tf_act(SWI4)	45.91905447813538	0.0385195	1.0	0.045454545454545456	0.0	0.053882440407238406	9.79945410569455	50.42788695533913	4.136500175217139	[1, 2.0411508049228995, 12.378370618829786, 21.83444960752663, 9263556.808525572]	5110443513.585878	1.0	0.0001825240000004058	0.30710775599999973
tf_rep(SWI5)	143.54901270172152	0.000175982	1.0	0.045454545454545456	0.0	0.027209458140137675	4.371716934546306	41.05398695976621	4.359506501949403	[1, 2.989161599131934, 7.557982014135368, 35.26036782797584, 9263592.545176698]	7379408148.663577	1.0	4.393900000021489e-05	0.3815362010000003
tf_act(RIF1)	168.77290227783985	0.000039394	1.0	0.045454545454545456	0.0	0.09896340978062305	22.186481537104857	98.26000089985403	1.6284119862980841	[1, 1, 5.000276077274279, 421.3003828446385, 9272095.431636741]	19532765226.57233	1.0	4.402199999997691e-05	0.4519466160000003
tf_rep(ASH1)	197.41202560259399	0.0000208869	1.0	0.045454545454545456	0.0	0.0481581635216437	4.987177307882876	57.19074550874552	3.9056838333536055	[1, 4.210587878674586, 10.05251873274733, 21.308530682355837, 9264103.841103721]	8355540441.924035	1.0	4.372999999979754e-05	0.40935108499999995
tf_act(EDS1)	260.98050860733855	0.00000295675	1.0	0.045454545454545456	0.0	0.0508045362411199	5.655455940024108	45.364362472705835	10.0	[1, 1.024150987515538, 10.686464262990663, 15.277069709347572, 9264084.038936613]	1548961317.8128817	2.0	4.442100000012772e-05	0.49025471399999976
tf_rep(CLN3)	323.19166926384463	0.000000635344	1.0	0.045454545454545456	0.0	0.11443954604919798	24.970852172289234	61.06667461559319	2.8275693839160296	[1, 1, 2.4825034506857038, 152.32635595137768, 9266631.482457895]	3504183221.3916516	1.0	4.405799999940285e-05	0.39106431499999994
tf_rep(NRM1)	343.546707187326	0.000000330885	1.0	0.045454545454545456	0.0	0.0013995936723981725	3.9133420373379693	12.965966704984341	10.0	[1, 1, 6.85454583020294, 16.681239381139136, 9263185.87338445]	1059174161.896019	2.0	4.301400000006339e-05	0.37540964
tf_act(WHI5)	321.0299403847189	0.000000295469	1.0	0.045454545454545456	0.3	0.22148763128483	50.15836296809582	100.0	2.5563488652784594	[1, 1, 1, 492.30765933159506, 9280967.213351777]	4569091245.13849	2.0	4.383799999985172e-05	0.4263875289999999
tf_rep(WHI5)	382.90280217931047	0.000000205324	1.0	0.045454545454545456	0.0	0.0019293995432119776	9.255426896436607	39.75364850400838	10.0	[1, 1, 3.0333081105798985, 12.405422593557809, 9263188.640334938]	348568869.4881591	2.0	4.329799999958084e-05	0.2502845790000001
tf_rep(NDD1)	314.3413989950476	0.000000163583	1.0	0.045454545454545456	0.0	0.0021740905941660463	100.0	21.79984257509267	10.0	[1, 1, 8.803818432726413, 66.50602937743598, 9263215.243184116]	5423677435.20251	3.0	4.517999999986699e-05	0.44832453800000005
tf_act(CLN3)	437.0110430543214	0.0000000585693	1.0	0.045454545454545456	0.3	0.007434916621432911	0.7238192567702286	97.14987178844223	1.0	[1, 1, 2.2424802239054147, 14.226450636733967, 9263575.487383343]	295531533.8861475	2.0	4.440299999952657e-05	0.36331184500000013
tf_act(SWI5)	437.88451596079295	0.0000000479034	1.0	0.045454545454545456	0.3	0.0027192080912361483	0.0	99.03845644255433	9.96281296744351	[1, 1, 3.9868054619855653, 11.473283710581361, 9263200.939211896]	423715023.08273005	2.0	4.4409000000023013e-05	0.35676745600000004
tf_act(NDD1)	420.70735063308894	0.0000000409924	1.0	0.045454545454545456	0.3	0.007334235806093091	2.256349330943597	100.0	10.0	[1, 1, 2.358002135887017, 15.173900699942717, 9263219.881106708]	331438843.44609964	3.0	4.86319999994933e-05	0.23735063300000014
tf_act(NRM1)	437.88451596090766	0.0000000395944	1.0	0.045454545454545456	0.3	0.002719203514841103	0.0	98.57092058480605	1.0	[1, 1, 1.564270297352909, 10.700339205664443, 9263369.171317335]	155052336.9849917	3.0	4.399199999927106e-05	0.3211322029999999
tf_rep(EDS1)	437.8845159609072	0.0000000142539	1.0	0.045454545454545456	0.3	0.002719203525580072	0.0	47.09372696489867	1.0	[1, 1, 8.069606830140827, 16.00458214138103, 9263631.533416377]	1196404361.4784093	3.0	4.426599999973746e-05	0.29237713900000006
tf_rep(RIF1)	437.88451596082916	0.0000000132067	1.0	0.045454545454545456	0.3	0.0027192056772145233	0.0	91.74935687569852	1.0	[1, 1, 7.284935672944427, 20.650873866201557, 9263875.735122459]	1393660130.8585958	3.0	4.4354999999995925e-05	0.25246521200000016
tf_rep(HCM1)	437.8845159608018	0.0000000112403	1.0	0.045454545454545456	0.3	0.0027192070539957276	0.0	46.824703247497354	1.0	[1, 1, 9.098812696961732, 22.825897083961515, 9263628.674030412]	1923949720.1297553	3.0	5.3075000000291084e-05	0.18096926300000016
tf_act(ASH1)	437.8845159609076	0.0000000104629	1.0	0.045454545454545456	0.3	0.002719203513919104	0.0	98.44281865646835	1.0	[1, 1, 9.763126779340567, 24.551993756997096, 9263317.818892065]	2220456444.042691	3.0	4.429899999980336e-05	0.34668275300000007
tf_rep(YOX1)	437.88451596090715	0.00000000971862	1.0	0.045454545454545456	0.3	0.0027192035267611064	0.0	47.151108195876375	1.0	[1, 1, 9.670062498399577, 28.72918047543861, 9263716.971811427]	2573580731.8972406	3.0	4.366799999999671e-05	0.330780791
tf_rep(SWI4)	437.88451596090766	0.00000000960916	1.0	0.045454545454545456	0.3	0.002719203513779566	0.0	44.16559023717656	1.0	[1, 1, 10.09684389220672, 28.145377333171282, 9263660.586545652]	2632542259.6853347	3.0	6.54459999998025e-05	0.263759002
null_model	437.8845159609076				0.3	0.002719203515184695								
