{
    "results_folder": "../p270/results5/network_queries_20211014222046/dsgrn_net_query_results20211014222046/queries20211014222046/query_results_stablefc_syn_net_6D_20191104_a_data_p270_transposed_with_G.json",
    "pm_fc_value": 0.5,
    "fc_value": 1.0,
   "lem_score_file" : "../p270/results5/edge_finding_20211014222046/summaries/ts0/allscores_ts0.tsv",
   "edge_file" : "../p270/results5/seed_network_20211014222046/edge_file.txt",
   "seed_file" : "../p270/results5/seed_network_20211014222046/seed_network_file.txt",
   "avg_rank_nodes" : ["A","B","C","D","E","F","G"],
    "ground_truth_edges" : ["A=tf_act(F)", "B=tf_act(C)", "C=tf_act(A)", "C=tf_act(E)", "C=tf_rep(D)", "D=tf_rep(A)", "D=tf_rep(E)", "E=tf_rep(B)", "E=tf_act(F)", "F=tf_rep(B)"],
    "show_entire_edge_list" :true
}