# LEMpy local minima file for target YOX1, replicate 1
# Right-hand side of tf_act():  p0 - p1(tar) + p2(reg^p4) / (p3^p4 + reg^p4)
# Right-hand side of tf_rep():  p0 - p1(tar) + p2(p3^p4) / (p3^p4 + reg^p4)
# Run configuration file:  ../pipeline/src/yeast_data/simulations202110_Orlando_2/no_annot/results5/edge_finding_20211012220709/lempy_20211012220709_config.txt
# Time series data file:   ../pipeline/src/yeast_data/time_series/orlando2008_WildType_r2_trunc.tsv
# Computed on:  2021-10-12 22:10:37 
 
model	loss	p0	p1	p2	p3	p4
YOX1=tf_act(SWI4)	290.2211136124407	0.0	0.21892071467778523	22.940123592038166	46.877298758935076	2.440656181796906
YOX1=tf_act(SWI4)	290.28800862377756	0.0	0.2209028562123341	23.368039931536494	47.34773725245924	2.3997467559734766
YOX1=tf_act(SWI4)	290.32461452622925	0.0	0.22153323803296232	23.50650894136013	47.50185393567073	2.3869635353902265
YOX1=tf_act(SWI4)	290.2987877147867	0.0	0.22035558567023877	23.360200535201532	47.45310464789533	2.3926254293605673
YOX1=tf_act(SWI4)	290.25541158674423	0.0	0.2202543609772913	23.21598831079844	47.16836010704505	2.41492148258052
YOX1=tf_act(SWI4)	290.28137550300465	0.0	0.21987300937369447	23.2709027189302	47.372978180721496	2.3980777069989054
YOX1=tf_act(SWI4)	290.22120171255335	0.0	0.21887728202511691	22.938386783144292	46.883173295843385	2.4402443965277048
YOX1=tf_act(SWI4)	290.2155102366373	0.0	0.2179245791793916	22.725758197985378	46.64159590819071	2.462098966969951
YOX1=tf_act(SWI4)	290.2237371427971	0.0	0.2173591027356535	22.584022186811108	46.465205634007255	2.47827040669826
YOX1=tf_act(SWI4)	290.2151005633038	0.0	0.218055296486764	22.755556116515855	46.67608561845388	2.4589454298255524
YOX1=tf_rep(SWI4)	536.6236589205863	0.0	0.00493531031286875	99.951778036393	15.17948535620739	10.0
YOX1=tf_rep(SWI4)	536.623609063959	0.0	0.004935287658230389	99.95443430880873	15.17944557872058	10.0
YOX1=tf_rep(SWI4)	536.6227541521965	0.0	0.0049353269811299155	100.0	15.178738909306063	10.0
YOX1=tf_rep(SWI4)	536.6283171874045	0.0	0.004933849133871857	99.704132300657	15.182810465909032	10.0
YOX1=tf_rep(SWI4)	536.6307791151135	0.0	0.004933318256418532	99.57370025021416	15.184645681957209	10.0
YOX1=tf_rep(SWI4)	536.6392929988876	0.0	0.004931428891907384	99.12500189488671	15.19095601315093	10.0
YOX1=tf_rep(SWI4)	536.6470500941216	0.0	0.004929434516324406	98.71934957824313	15.196614968043813	10.0
YOX1=tf_rep(SWI4)	536.6452429781607	0.0	0.004929826917642043	98.81358386301221	15.1952917255875	10.0
YOX1=tf_rep(SWI4)	536.6534541084105	0.0	0.004927950590177316	98.38670604755899	15.201317716457032	10.0
YOX1=tf_rep(SWI4)	536.657964138803	0.0	0.004926801430762002	98.15365112621541	15.204577687924031	10.0
YOX1=tf_act(HCM1)	553.4066917213607	0.0	0.0004634787462453142	0.0	100.0	1.0087982759512732
YOX1=tf_act(HCM1)	553.4066917213569	0.0	0.00046347892693058743	0.0	100.0	1.0
YOX1=tf_act(HCM1)	553.4066917213569	0.0	0.0004634789242993743	0.0	99.59143665107997	1.0
YOX1=tf_act(HCM1)	553.40672347972	6.316675109671361e-06	0.00046119399306127713	0.0	99.63663673261547	1.0218258541019778
YOX1=tf_act(HCM1)	553.406691721357	0.0	0.0004634789197761619	0.0	99.33017132673778	1.0
YOX1=tf_act(HCM1)	553.406691721357	0.0	0.0004634789205048429	0.0	99.82717021959456	1.0
YOX1=tf_act(HCM1)	553.406691721357	0.0	0.0004634789190702875	0.0	99.43195295590708	1.0
YOX1=tf_act(HCM1)	553.4066917213569	0.0	0.0004634789246599397	0.0	98.93976766600076	1.0201073120957236
YOX1=tf_act(HCM1)	553.406691721357	0.0	0.0004634789200748003	0.0	98.93379544000626	1.0346904370963925
YOX1=tf_act(HCM1)	553.406691721357	0.0	0.00046347891788807395	0.0	99.3863460179633	1.0517954508982679
YOX1=tf_rep(HCM1)	404.33015430480003	0.0	0.010880297313205618	75.5241606048482	20.165265672435346	7.157914814428382
YOX1=tf_rep(HCM1)	404.333864340548	0.0	0.010880610500447191	75.86711133045961	20.148608340283335	7.155880478951388
YOX1=tf_rep(HCM1)	404.3378041756965	0.0	0.010878073782420738	76.23538365879308	20.131867042330224	7.154989642621345
YOX1=tf_rep(HCM1)	404.33551820122324	0.0	0.01081833077861783	75.93948085747819	20.16310327352761	7.179747739205923
YOX1=tf_rep(HCM1)	404.33852484543803	0.0	0.01102647640292473	75.8152801509374	20.110044065815377	7.100777908479885
YOX1=tf_rep(HCM1)	404.32810339608335	0.0	0.010892061227522707	75.33260768941913	20.17129847125058	7.154510336112839
YOX1=tf_rep(HCM1)	404.32366925378705	0.0	0.010880276381136107	74.9329521936524	20.194176353360213	7.161348784424278
YOX1=tf_rep(HCM1)	404.3258992110649	0.0	0.01094766778330228	75.03761958142488	20.1703944514108	7.135152683445675
YOX1=tf_rep(HCM1)	404.3209863780538	0.0	0.010940217256078275	74.61165298961063	20.192298842213834	7.139674114282358
YOX1=tf_rep(HCM1)	404.38652262991263	0.0	0.010377484355237039	74.37874318337137	20.378198922819344	7.376307217094123
YOX1=tf_act(NDD1)	553.4066917213569	0.0	0.0004634789233418546	0.0	100.0	1.0070971493970748
YOX1=tf_act(NDD1)	553.4066917213569	0.0	0.00046347892084602353	0.0	100.0	1.0
YOX1=tf_act(NDD1)	553.4066917213569	0.0	0.0004634789183551031	0.0	99.45912320021219	1.0
YOX1=tf_act(NDD1)	553.4069115150736	6.11609045269765e-05	0.00046074717660129464	0.0	99.5043232808656	1.0218260331996765
YOX1=tf_act(NDD1)	553.406691721357	0.0	0.00046347892298536346	0.0	99.19785787498792	1.0
YOX1=tf_act(NDD1)	553.406691721357	0.0	0.0004634789202921406	0.0	99.6948567678447	1.0
YOX1=tf_act(NDD1)	553.406691721357	0.0	0.00046347892417456063	0.0	99.29963950415721	1.0
YOX1=tf_act(NDD1)	553.406691721357	0.0	0.0004634789230189419	0.0	98.81037038369128	1.023609184724967
YOX1=tf_act(NDD1)	553.4066917213569	0.0	0.0004634789210693366	0.0	98.80439815815919	1.0381925007931752
YOX1=tf_act(NDD1)	553.4066917356365	0.0	0.00046340242298505526	0.0	99.25694873233812	1.0552972635975266
YOX1=tf_rep(NDD1)	227.23637493459037	0.0	0.0402967375139193	73.1910229090606	11.461913635163079	2.485882285129138
YOX1=tf_rep(NDD1)	227.22428230016544	0.0	0.04030247105946577	72.9672232404609	11.477568528041234	2.485905067452997
YOX1=tf_rep(NDD1)	227.24456323566497	0.0	0.040301448181919164	73.34577747624274	11.454961477239038	2.486317605355804
YOX1=tf_rep(NDD1)	227.22824427755063	0.0	0.04027716625570682	73.04827561278553	11.483829421244524	2.488286875386708
YOX1=tf_rep(NDD1)	227.22703408484048	0.0	0.040281663735463935	73.02555237507683	11.482827426132486	2.4877921109422205
YOX1=tf_rep(NDD1)	227.17843786857517	0.0	0.04029877121251157	72.14562834256773	11.547842347864682	2.488449220446972
YOX1=tf_rep(NDD1)	227.16009037120128	0.0	0.04028565417591735	71.82456646193826	11.581503871403958	2.4906356022461202
YOX1=tf_rep(NDD1)	227.1697556008117	0.0	0.040282759678400164	71.99557760170934	11.568483849029978	2.4904682179365696
YOX1=tf_rep(NDD1)	227.1456178540846	0.0	0.04028537478342348	71.57049408609554	11.603649684268877	2.4914223134879747
YOX1=tf_rep(NDD1)	227.13022220943338	0.0	0.04028725595691795	71.30209341260803	11.625597689917774	2.4919598078408693
YOX1=tf_act(SWI5)	553.4066917213569	0.0	0.00046347892612611245	0.0	100.0	10.0
YOX1=tf_act(SWI5)	553.4066917213571	0.0	0.0004634789207413832	0.0	100.0	9.998674034995387
YOX1=tf_act(SWI5)	553.4066917213569	0.0	0.00046347892247219647	0.0	99.75117666943031	10.0
YOX1=tf_act(SWI5)	553.52609729827	0.031340067822098666	0.0010482767183093696	0.0	99.79637675668951	10.0
YOX1=tf_act(SWI5)	553.406691721357	0.0	0.00046347891960477614	0.0	99.48991135081182	9.957960177410973
YOX1=tf_act(SWI5)	553.4066917213569	0.0	0.0004634789166887854	0.0	99.9869102436686	9.949785315593349
YOX1=tf_act(SWI5)	553.4066917213569	0.0	0.0004634789254790302	0.0	99.59169297998112	9.908712214429224
YOX1=tf_act(SWI5)	553.4132835198748	0.0021515092421330083	0.0005052301549909367	0.0	99.10427434898506	9.933570996501974
YOX1=tf_act(SWI5)	553.4279233178253	0.006730376291582885	0.0005934767940710869	0.0	99.09830212382667	9.94815450064703
YOX1=tf_act(SWI5)	553.5992877312298	0.04362870444773518	0.0012512121383347924	0.0	99.55085271279677	9.965264200576193
YOX1=tf_rep(SWI5)	298.00654806230375	0.3	0.018518721031938332	6.916654925568953	8.888941997129882	10.0
YOX1=tf_rep(SWI5)	298.00970209985365	0.3	0.018537620053744805	7.004270921409709	8.858700353404911	10.0
YOX1=tf_rep(SWI5)	298.0953801491863	0.3	0.01862363392486808	7.41299365085612	8.728136510944424	10.0
YOX1=tf_rep(SWI5)	298.00654806230614	0.3	0.018518722895185365	6.916644946943261	8.888946448946001	10.0
YOX1=tf_rep(SWI5)	298.0073686465851	0.3	0.01852856965114595	6.961060961590103	8.873565470568899	10.0
YOX1=tf_rep(SWI5)	298.00654806659105	0.3	0.018518733653775186	6.916677098665927	8.888928180860338	10.0
YOX1=tf_rep(SWI5)	298.0065480623545	0.3	0.01851871941346299	6.916654282072146	8.888941932590189	10.0
YOX1=tf_rep(SWI5)	298.0315459194977	0.3	0.01857381915207752	7.170172425040257	8.803922701636711	10.0
YOX1=tf_rep(SWI5)	298.01314585087164	0.3	0.018489627842071685	6.794057867052882	8.932168391261156	10.0
YOX1=tf_rep(SWI5)	298.03611722863315	0.3	0.018449405727152146	6.662655054536071	8.978358489648674	10.0
YOX1=tf_act(NRM1)	553.406691721357	0.0	0.0004634789205488727	0.0	100.0	1.0087649600043354
YOX1=tf_act(NRM1)	553.4066917213571	0.0	0.000463478919907581	0.0	100.0	1.0
YOX1=tf_act(NRM1)	553.4066917213569	0.0	0.0004634789240858129	0.0	99.70353348008585	1.0
YOX1=tf_act(NRM1)	553.406691721357	0.0	0.0004634789205726551	0.0	99.7487335661003	1.0218277082335703
YOX1=tf_act(NRM1)	553.4066917213571	0.0	0.0004634789196557906	0.0	99.44226816022261	1.0
YOX1=tf_act(NRM1)	553.4066917213571	0.0	0.0004634789207444041	0.0	99.93926705307939	1.0
YOX1=tf_act(NRM1)	553.4066917213569	0.0	0.00046347892452940065	0.0	99.5440497893919	1.0
YOX1=tf_act(NRM1)	553.4066917213569	0.0	0.00046347892108656615	0.0	99.05074240630273	1.019467703985613
YOX1=tf_act(NRM1)	553.4066917213571	0.0	0.0004634789197372102	0.0	99.04477018114434	1.0340512081306696
YOX1=tf_act(NRM1)	553.4066917213567	0.0	0.0004634789276089791	0.0	99.49732080159802	1.0511755691785127
YOX1=tf_rep(NRM1)	522.9993638380945	0.05764684402292832	0.019786503748709872	1.2665902473903874	100.0	1.0157985889435976
YOX1=tf_rep(NRM1)	181.9133427649737	0.0	0.04233716883484275	6.9837927673096685	29.817306300437664	4.147860843930512
YOX1=tf_rep(NRM1)	181.91334276469348	0.0	0.042337194752562736	6.983795647054149	29.817311326826683	4.1478665858602355
YOX1=tf_rep(NRM1)	181.92051649005276	0.0	0.042377405527466404	6.9629982459587225	29.94171860748832	4.187580572002377
YOX1=tf_rep(NRM1)	181.9133579651219	0.0	0.042336690958160526	6.982616594715144	29.82275377306366	4.149840887673449
YOX1=tf_rep(NRM1)	181.99537373859545	0.0	0.04276778934836478	6.945643490795165	30.237150276162907	4.242864335711479
YOX1=tf_rep(NRM1)	181.92228592563853	0.0	0.04225408264311952	6.95911801298075	29.91281815655389	4.20251173936211
YOX1=tf_rep(NRM1)	181.91334286914437	0.0	0.04233656131912757	6.983748563152678	29.817100810979202	4.147787898171902
YOX1=tf_rep(NRM1)	181.91897884778953	0.0	0.04237753652710728	6.965665041547707	29.92814345431874	4.182386244436549
YOX1=tf_rep(NRM1)	181.91334276493254	0.0	0.042337170419847865	6.9837928331168895	29.817308763925084	4.147861747334784
YOX1=tf_act(CLN3)	546.123714099834	0.0	0.009307807429300801	0.5807011969786846	68.1777212187585	10.0
YOX1=tf_act(CLN3)	546.1218622200739	0.0	0.009394777636176462	0.5808476761579064	67.77406630562376	10.0
YOX1=tf_act(CLN3)	546.121862222038	0.0	0.009394638865597047	0.5808431408178006	67.77418235310613	10.0
YOX1=tf_act(CLN3)	546.1218772078304	0.0	0.009388947847000792	0.580967769217919	67.81073780782205	10.0
YOX1=tf_act(CLN3)	546.1228721070773	0.0	0.009443685072715364	0.5798012593527793	67.45968197558518	10.0
YOX1=tf_act(CLN3)	546.1242584393934	0.0	0.00936662841965459	0.5815005104239354	67.9512810383607	9.992034484817248
YOX1=tf_act(CLN3)	546.1223662651469	0.0	0.009429664409642201	0.5801450050777405	67.55276989394866	10.0
YOX1=tf_act(CLN3)	546.1268560188671	0.0	0.009504980853530203	0.5785633804069766	67.06069081026584	10.0
YOX1=tf_act(CLN3)	546.1270376435497	0.0	0.009507296060036332	0.5785389042264691	67.0473068404139	10.0
YOX1=tf_act(CLN3)	546.1226767676029	0.0	0.009439032508482713	0.5799447617932982	67.49208887235433	10.0
YOX1=tf_rep(CLN3)	553.4066917213569	0.0	0.0004634789243508129	82.69709608060654	0.46667394306467913	10.0
YOX1=tf_rep(CLN3)	553.4066917213565	0.0	0.00046347893782105093	83.15203528030337	0.9028737016990404	9.989176584888067
YOX1=tf_rep(CLN3)	553.406691721357	0.0	0.0004634789255901041	83.51298460238442	0.6041953428680684	9.994422981365096
YOX1=tf_rep(CLN3)	553.5260962208865	0.031339860188790744	0.0010482732393843014	83.21763165154053	0.6493954301272693	10.0
YOX1=tf_rep(CLN3)	553.4441580140065	0.011505224501530825	0.0006845284531515532	83.07975094425034	0.3429300242495744	9.957960177410973
YOX1=tf_rep(CLN3)	553.4066917213587	0.0	0.0004634788433741652	82.6612104945179	0.8399289171063499	9.949785315593349
YOX1=tf_rep(CLN3)	553.406691721357	0.0	0.0004634789202772548	82.24881427360113	0.44471165341886026	9.908712214429224
YOX1=tf_rep(CLN3)	553.5566482243937	0.03707488775796595	0.0011465856099164	82.33497355781564	0.001	9.928012024267804
YOX1=tf_rep(CLN3)	553.5169692365372	0.029457442886803714	0.0010151022027914743	81.90788843772599	0.001	9.94259552841286
YOX1=tf_rep(CLN3)	553.6456252277416	0.04877000769324789	0.0013204035692920336	81.68336879876576	0.45355058897010225	9.959705228342024
YOX1=tf_act(WHI5)	553.4066917213569	0.0	0.0004634789218850301	0.0	85.49601039977023	1.008122346107948
YOX1=tf_act(WHI5)	553.4066917213569	0.0	0.00046347892400996606	0.0	85.94363951265554	1.0
YOX1=tf_act(WHI5)	553.406691721357	0.0	0.0004634789210270232	0.0	85.69987150238485	1.0
YOX1=tf_act(WHI5)	553.4069067390496	5.0735250811584597e-05	0.0004592041735485155	0.0	85.74507157640949	1.0218257470100593
YOX1=tf_act(WHI5)	553.406691721357	0.0	0.00046347892432727284	0.0	85.4386061705318	1.0
YOX1=tf_act(WHI5)	553.4066917213569	0.0	0.00046347891881348495	0.0	85.93560506338858	1.0
YOX1=tf_act(WHI5)	553.406691721357	0.0	0.00046347892301565975	0.0	85.5403877997011	1.0
YOX1=tf_act(WHI5)	553.4066917213569	0.0	0.0004634789234304631	0.0	85.04775290395003	1.0199415148576707
YOX1=tf_act(WHI5)	553.4066917213762	0.0	0.0004634780933927082	0.0	85.04178067648685	1.0345245664212446
YOX1=tf_act(WHI5)	553.4066917213647	0.0	0.00046347857238137865	0.0	85.49433123920679	1.0516293323709314
YOX1=tf_rep(WHI5)	324.7853983823589	0.0	0.02697369732535209	75.13551426891785	27.79740690753005	3.9637698594473956
YOX1=tf_rep(WHI5)	324.79649214301753	0.0	0.026975091037005412	75.40252108542974	27.76467330349748	3.9626767557737916
YOX1=tf_rep(WHI5)	324.812238886701	0.0	0.026958305312569864	75.7879875198883	27.72934202396488	3.9636454241602586
YOX1=tf_rep(WHI5)	324.8029992874334	0.0	0.026792803852401913	75.49771469960247	27.828008414586844	3.9813139823931425
YOX1=tf_rep(WHI5)	324.7961161920439	0.0	0.026960223003434317	75.3955547864073	27.773869373541068	3.9645828104660206
YOX1=tf_rep(WHI5)	324.7976744881007	0.0	0.02653482646827249	74.92258073392333	28.012742628313763	4.012036678226848
YOX1=tf_rep(WHI5)	324.76013819658016	0.0	0.026957541436321897	74.53568177404004	27.87750980027608	3.9677096475291993
YOX1=tf_rep(WHI5)	324.7657058545846	0.0	0.026962462201733598	74.66724412575599	27.860022244111477	3.9668075082505148
YOX1=tf_rep(WHI5)	324.74764638081933	0.0	0.02697818735651215	74.24029417087678	27.904571295818634	3.966541741871241
YOX1=tf_rep(WHI5)	324.7578074915502	0.0	0.026524269923524454	73.99267140654808	28.119354635068586	4.014903702568005
YOX1=tf_act(YOX1)	553.4066917213569	0.0	0.0004634789236927571	0.0	100.0	1.0098331262280693
YOX1=tf_act(YOX1)	534.2458134296356	0.3	0.01438117352677933	4.066476764255979	99.98088788174432	4.394620301847214
YOX1=tf_act(YOX1)	534.2909739517773	0.3	0.013983826183754542	4.116171771767394	99.70328455044081	4.764466586029077
YOX1=tf_act(YOX1)	534.266098874412	0.3	0.0138089172859773	4.0085095938276885	99.72460840424704	4.750361474712053
YOX1=tf_act(YOX1)	534.1959229872169	0.3	0.014271848368467208	4.024774120113213	99.39427491269409	4.498953745004957
YOX1=tf_act(YOX1)	534.2958370595528	0.3	0.014774271531610522	3.9979769012001607	99.8768878315465	4.108302583772971
YOX1=tf_act(YOX1)	534.197643214144	0.3	0.014323300149419155	4.0125881934100125	99.4354242663514	4.444959899976346
YOX1=tf_act(YOX1)	534.153815952011	0.3	0.014264243126485322	3.9620366352281584	98.9596887824965	4.4914859919793955
YOX1=tf_act(YOX1)	534.1522063288497	0.3	0.014417080011716071	3.9687866572198303	98.90548361246572	4.409213022512527
YOX1=tf_act(YOX1)	534.1895586284288	0.3	0.014428824243000547	4.011930103097291	99.32736876318405	4.393385517504828
YOX1=tf_rep(YOX1)	553.4458349183174	0.011981308117054165	0.0006935484816651432	64.49533870242945	0.4666740806165639	7.58291279919088
YOX1=tf_rep(YOX1)	553.4065963606579	0.0	0.00046348026916007037	64.95027790871423	0.902877709340358	7.572088354708769
YOX1=tf_rep(YOX1)	553.406687202191	0.0	0.0004634691945793937	65.31122723079528	0.6042239054211855	7.577334751185797
YOX1=tf_rep(YOX1)	553.5260892637265	0.031339928349922004	0.0010482743363897007	65.01587427995139	0.6494265945300346	7.599162171561271
YOX1=tf_rep(YOX1)	553.444119211462	0.011494196501333829	0.0006843195079302129	64.8779935726612	0.3429611673865273	7.557122348972244
YOX1=tf_rep(YOX1)	553.4066340256005	0.0	0.0004634797810864238	64.45945312292876	0.8399656168388779	7.548945935854251
YOX1=tf_rep(YOX1)	553.4066911902712	0.0	0.0004634789389073686	64.04705690201199	0.4447484077468096	7.50787286384933
YOX1=tf_rep(YOX1)	553.5566482246257	0.03707489166930219	0.0011465857303063808	64.1332161862265	0.001	7.527172673687911
YOX1=tf_rep(YOX1)	553.5169700823022	0.029457613117444745	0.001015105088025821	63.70613106613685	0.001	7.541756177832967
YOX1=tf_rep(YOX1)	553.6456227276976	0.048769854551322385	0.0013204021984990846	63.48161142717661	0.4535505946142959	7.558865881894382
YOX1=tf_act(ASH1)	553.4066917213066	0.0	0.00046348521715654847	0.0	100.0	1.0101258577835377
YOX1=tf_act(ASH1)	553.4066917213569	0.0	0.0004634789260884856	0.0	100.0	1.2962848249423278
YOX1=tf_act(ASH1)	553.4066917213569	0.0	0.00046347891943532884	0.0	99.72144578508876	1.99101040673197
YOX1=tf_act(ASH1)	553.4066917213569	0.0	0.0004634789206021341	0.0	99.76664585147036	2.0128403819104133
YOX1=tf_act(ASH1)	553.4066917213569	0.0	0.00046347892246855247	0.0	99.46018044559267	1.9708005593213866
YOX1=tf_act(ASH1)	553.4066917213571	0.0	0.0004634789163024124	0.0	99.95717933844945	1.9626256975037621
YOX1=tf_act(ASH1)	553.4066917213571	0.0	0.000463478917266118	0.0	99.56196207476196	1.9215525963396376
YOX1=tf_act(ASH1)	553.406691721357	0.0	0.00046347892288349453	0.0	99.06965549263373	1.9767225312009133
YOX1=tf_act(ASH1)	553.4066917365781	0.0	0.00046339978858892487	0.0	99.06368327027185	1.9913060435145455
YOX1=tf_act(ASH1)	553.406691721357	0.0	0.000463478919147883	0.0	99.51623384670508	2.0084176690507967
YOX1=tf_rep(ASH1)	523.2096132880273	0.3	0.034959593109796835	2.2526603739029643	45.39818841659198	2.241923504229481
YOX1=tf_rep(ASH1)	523.2832546467464	0.28676915905799316	0.03493967738043591	2.3226297971082417	43.739789943816014	2.0483555688000257
YOX1=tf_rep(ASH1)	523.2071793724061	0.3	0.0346426585442933	2.239227441578355	44.93943877025319	2.233458477970965
YOX1=tf_rep(ASH1)	523.2100195829337	0.3	0.03442609301639413	2.219361148710653	45.00342144607938	2.2750615275932593
YOX1=tf_rep(ASH1)	523.2114725895023	0.3	0.034209800006750155	2.207226716826127	44.7973503089471	2.276875867658464
YOX1=tf_rep(ASH1)	523.2087344021169	0.3	0.03488284311251609	2.2486952006218464	45.31073585732099	2.244276161806806
YOX1=tf_rep(ASH1)	523.2071819409125	0.3	0.03463342687102443	2.2388597901404146	44.925225315312154	2.233014387523487
YOX1=tf_rep(ASH1)	523.2119965272553	0.3	0.034103362847226155	2.2086232721100343	44.42846685902516	2.2512306771411357
YOX1=tf_rep(ASH1)	523.2198906980581	0.3	0.03383287774992915	2.185422605237377	44.45046766192416	2.2954240430399433
YOX1=tf_rep(ASH1)	523.2217283799251	0.3	0.03404552322845286	2.190120372106554	44.91818881388804	2.3251943672810036
