# LEMpy target file for SWI4, replicate 1 
# Run configuration file:  ../pipeline/src/yeast_data/simulations202110_Orlando_2/no_annot/results5/edge_finding_20211012220709/lempy_20211012220709_config.txt 
# Time series data file:   ../pipeline/src/yeast_data/time_series/orlando2008_WildType_r2_trunc.tsv 
# Computed on:  2021-10-12 22:10:45 
 
model	loss	pld	inv_temp	prior	rhs_param_0	rhs_param_1	rhs_param_2	rhs_param_3	rhs_param_4	hess_eigs	hess_det	bnd_params	pld_time	opt_time
tf_rep(NRM1)	85.10445936755727	0.842345	1.0	0.760600717799662	0.0	0.048830075869825275	7.059110138413608	30.8697265639905	4.594012836417774	[1, 1.6426640950384341, 13.433445004324687, 44.483068156253665, 4223472.861351812]	4145726127.2047787	1.0	7.8189999999978e-05	0.5243514719999998
tf_rep(NDD1)	79.72762754445993	0.157518	1.0	0.207227284512467	0.0	0.04746243846817567	7.237176601907168	45.05450269426925	10.0	[1, 1.8682833329234743, 11.883414056796822, 42.42681490688187, 4223473.221044121]	3978268978.784345	2.0	7.806200000004537e-05	0.369802027
tf_rep(WHI5)	196.4742838603988	0.000132971	1.0	0.0257052438630553	0.0	0.035323324246276995	73.89662506116422	27.220295850994262	3.71541944283315	[1, 1, 26.903996991096804, 115.06058163355848, 4226873.3872023225]	13084665053.048365	1.0	7.445299999986332e-05	0.4375051860000001
tf_rep(SWI5)	224.17673805958026	0.00000208089	1.0	0.00162590632822567	0.3	0.020950861552987587	5.011087156694332	9.355086276290463	10.0	[1, 1.726891879429901, 15.438015383048969, 70.19816857555467, 4223321.970897924]	7903811792.432634	2.0	7.642799999985073e-05	0.41529550699999973
tf_rep(YOX1)	262.8463559486641	0.00000151611	1.0	0.00058586237065766	0.0	0.012575951157889552	12.184578056348917	13.750295314603878	6.957501598736853	[1, 1.0340928424193483, 4.353195431846018, 34.06108222737484, 4223291.949196964]	647555869.4099078	1.0	7.721100000068759e-05	0.5061690300000006
tf_act(CLN3)	387.62001586513077	0.000000372189	1.0	0.0024388994624382	0.0	0.005614546544671006	0.2435749210600334	96.7939895572296	6.15614717339287	[1, 1, 1, 42.22210634752129, 4223397.934873625]	178320756.75413597	1.0	8.696700000143665e-05	0.2775557240000004
tf_rep(HCM1)	251.04330910147047	0.000000291388	1.0	0.000228950154096552	0.0	0.017727350295182638	74.20268074642745	19.660771473782855	6.390972058999808	[1, 1, 27.27246918923982, 48.53896407861935, 4223571.512077271]	5591068524.735622	1.0	8.649100000113208e-05	0.411851811
tf_rep(CLN3)	387.89315017098033	0.0000000247757	1.0	0.000292931184103406	0.0	0.004253476040164664	98.82198895543122	0.001	4.5023665653388445	[1, 1, 1, 33.89129628723049, 4223266.056675335]	143131961.22658736	2.0	7.948000000013167e-05	0.29024509899999984
tf_act(YOX1)	387.048154536688	0.0000000244565	1.0	0.000146316176879555	0.0	0.005485479519275851	0.8111612346165289	98.95595045773521	6.05715013611687	[1, 1, 1, 36.233295612226804, 4223275.891161742]	153023203.816454	1.0	7.398099999988972e-05	0.42020894600000025
tf_rep(SWI4)	357.86733176178865	0.0000000192117	1.0	0.00058586236822442	0.0	0.010834993674747731	75.53788471144962	16.20143177283643	10.0	[1, 1, 31.306673373278333, 34.1081312690494, 4223357.1746754255]	4509751999.379196	2.0	0.00010596099999915509	0.3834463589999997
tf_rep(ASH1)	386.8997810803817	0.000000009003	1.0	0.000156484074695762	0.0	0.007206917574132193	4.4559778492406785	1.2150887623683158	1.165017790452727	[1, 1, 8.260111754623058, 37.30280542300301, 4223530.431408412]	1301376756.7455008	1.0	7.53500000012508e-05	0.40846201000000004
tf_act(ASH1)	387.8931501709276	0.00000000569397	1.0	0.000117238288317412	0.0	0.004253480929655638	0.0	99.76320019006324	4.1857621811994115	[1, 1, 2.669564591462624, 38.50127992352405, 4223294.100896446]	434077151.3707795	2.0	7.644400000117457e-05	0.3507720270000001
tf_act(SWI4)	356.5201515558935	0.00000000253982	1.0	0.000154778304207686	0.3	0.5398780284445616	99.99999139077883	93.80605174814193	1.5394561622839387	[1, 1, 1, 17303.976904244286, 4470710.03232982]	77361063145.00844	1.0	0.00024813000000101226	0.43230789499999966
tf_act(SWI5)	387.893150170929	0.0000000014435	1.0	3.01307098740932e-5	0.0	0.004253481909415956	0.0	99.60478273631252	9.908712214429224	[1, 1, 3.0743030749449565, 34.35970010302962, 4223278.431193149]	446113903.3690282	2.0	7.865600000123152e-05	0.27202480699999976
tf_act(HCM1)	387.8931501709304	0.000000000886898	1.0	2.79271333558039e-5	0.0	0.004253482216820968	0.0	100.0	4.3933916397503525	[1, 1, 1.7106677547545395, 35.13077083567898, 4223283.417556329]	253806988.18136096	3.0	0.00010567600000044308	0.268699904
tf_act(WHI5)	387.89315017092946	0.000000000496752	1.0	4.02879802997179e-5	0.0	0.004253482020572724	0.0	85.79070606328713	1.0	[1, 1, 9.144972091977492, 43.59050618965752, 4223721.799162912]	1683718957.6341074	3.0	7.53260000010414e-05	0.29321653299999983
tf_act(NRM1)	387.8931501709279	0.000000000253935	1.0	1.84165519673603e-5	0.0	0.00425348158990156	0.0	100.0	1.011923721142199	[1, 1, 8.418773509926453, 37.86623556950596, 4223445.852902799]	1346380735.1465304	3.0	7.917499999976485e-05	0.33237084699999997
tf_act(NDD1)	387.8931501709273	0.000000000198882	1.0	1.67627374725154e-5	0.0	0.004253481067596558	0.0	100.0	1.0111450627281209	[1, 1, 11.13266919349464, 38.674353445233464, 4223509.595943764]	1818426917.274506	3.0	7.974600000082432e-05	0.33768988099999975
null_model	387.8931501709338				0.0	0.0042534792949796615								
