# LEMpy local minima file for target YOX1, replicate 1
# Right-hand side of tf_act():  p0 - p1(tar) + p2(reg^p4) / (p3^p4 + reg^p4)
# Right-hand side of tf_rep():  p0 - p1(tar) + p2(p3^p4) / (p3^p4 + reg^p4)
# Run configuration file:  ../pipeline/src/yeast_data/simulations202110_Orlando_2/annot/results2/edge_finding_20211012132914/lempy_20211012132914_config.txt
# Time series data file:   ../pipeline/src/yeast_data/time_series/orlando2008_WildType_r2_trunc.tsv
# Computed on:  2021-10-12 13:32:05 
 
model	loss	p0	p1	p2	p3	p4
YOX1=tf_act(SWI4)	553.406691721357	0.0	0.0004634789171040407	0.0	20.992306552349223	9.303367573668474
YOX1=tf_act(SWI4)	553.4359597271948	6.120602725480385e-05	0.0008642623111847543	0.02098747196132581	21.384936591773513	9.268061622040317
YOX1=tf_act(SWI4)	553.4066917213569	0.0	0.000463478923277404	0.0	21.326020959280857	9.100402886035159
YOX1=tf_act(SWI4)	553.4066917213221	0.0	0.00046348093646655735	0.0	21.587103800279962	9.111233665045905
YOX1=tf_act(SWI4)	553.4066917213565	0.0	0.0004634789378134075	0.0	21.324668014853682	9.120901066966326
YOX1=tf_act(SWI4)	553.4063223758069	0.0	0.0005678709158127543	0.005293731618449232	21.769383858705893	9.11399304814614
YOX1=tf_act(SWI4)	553.3699355417787	0.0	0.00154415271574091	0.05524489975038979	22.198167001363448	9.157241009532994
YOX1=tf_act(SWI4)	290.21504847745535	0.0	0.21811422596740282	22.770000321785403	46.69385607915614	2.4573325158026598
YOX1=tf_act(SWI4)	290.21504825526017	0.0	0.21811336938200904	22.770053396261382	46.694068720249035	2.4573269587205333
YOX1=tf_act(SWI4)	290.21702082085716	0.0	0.2185690388672537	22.866541683190505	46.798591770695786	2.4477706700374746
YOX1=tf_rep(SWI4)	536.6227541442902	0.0	0.004935169140034418	100.0	15.178713230684982	10.0
YOX1=tf_rep(SWI4)	536.6299616695144	0.0	0.004933466050418155	99.61697393027751	15.184027703793248	10.0
YOX1=tf_rep(SWI4)	536.6239865561428	0.0	0.004934881764204462	99.93431757370959	15.179603774074765	10.0
YOX1=tf_rep(SWI4)	536.6309269224882	0.0	0.004933215265229821	99.56587900763225	15.184735769609222	10.0
YOX1=tf_rep(SWI4)	536.6326306988534	0.0	0.004932870257796411	99.47580647868219	15.18601120160236	10.0
YOX1=tf_rep(SWI4)	536.6314777740989	0.0	0.004933401135635212	99.536746593552	15.185254238858585	10.0
YOX1=tf_rep(SWI4)	536.6380562147898	0.0	0.0049315045039427345	99.18995509072674	15.189992922409896	10.0
YOX1=tf_rep(SWI4)	536.6450625915816	0.0	0.004929942265030022	98.82299919168314	15.195171003285632	10.0
YOX1=tf_rep(SWI4)	536.6537546761512	0.0	0.004927849132711687	98.3711431115414	15.201527912206691	10.0
YOX1=tf_rep(SWI4)	536.6456977668539	0.0	0.004929754226781265	98.78985286081821	15.19562339837151	10.0
YOX1=tf_act(HCM1)	553.4066917213569	0.0	0.00046347892681396246	0.0	20.278743907783223	9.387296978189855
YOX1=tf_act(HCM1)	553.406691721357	0.0	0.0004634789199673654	0.0	20.671373206463038	9.351991510478955
YOX1=tf_act(HCM1)	553.4066917213569	0.0	0.0004634789201329973	0.0	20.18976612129484	9.403666049999728
YOX1=tf_act(HCM1)	553.4066917213569	0.0	0.0004634789216026649	0.0	20.450848253460514	9.414497291203043
YOX1=tf_act(HCM1)	553.4066917213565	0.0	0.0004634789378134075	0.0	20.188412468034233	9.424164693123464
YOX1=tf_act(HCM1)	553.687748095229	0.0	0.000958506343098852	0.03252851395141835	20.606141263275017	9.431225396423356
YOX1=tf_act(HCM1)	553.4066917213571	0.0	0.0004634789207165221	0.0	21.034843839345385	9.47451520884021
YOX1=tf_act(HCM1)	553.4066917213569	0.0	0.0004634789219895248	0.0	21.152321456905085	9.458333028227283
YOX1=tf_act(HCM1)	553.4146722920894	1.894111182718421e-05	0.0004845080011594166	0.0011804534968006964	21.188768432815596	9.44447002957153
YOX1=tf_act(HCM1)	553.4066917213569	0.0	0.00046347892383954357	0.0	20.65384366861741	9.483663063797197
YOX1=tf_act(NDD1)	553.4066917213569	0.0	0.0004634789209977574	0.0	20.25138501615791	9.39784318497164
YOX1=tf_act(NDD1)	553.4066917217307	0.0	0.00046346984681442836	0.0	20.644014242460443	9.362537766832009
YOX1=tf_act(NDD1)	553.406691721357	0.0	0.0004634789210400872	0.0	20.108392131875938	9.449625306214786
YOX1=tf_act(NDD1)	553.4066917213569	0.0	0.0004634789250543352	0.0	20.36947425414741	9.460456554359927
YOX1=tf_act(NDD1)	553.4066917213565	0.0	0.0004634789378134075	0.0	20.10703846872113	9.470123956280348
YOX1=tf_act(NDD1)	553.6764171908313	3.0934636352789674e-06	0.0007570005405260207	0.02220840970187857	20.519429824490448	9.480370844620735
YOX1=tf_act(NDD1)	553.4066917427124	0.0	0.00046358352689683286	0.0	20.948137668327618	9.523657919656833
YOX1=tf_act(NDD1)	553.6790031369419	7.706389329483924e-05	0.0007020560023602191	0.019530467327373176	21.06561882849596	9.507474058030379
YOX1=tf_act(NDD1)	553.4066917225972	0.0	0.00046345943212172913	0.0	21.102064617782766	9.493611667288032
YOX1=tf_act(NDD1)	553.4066917213571	0.0	0.00046347891801554067	0.0	17.732371254654588	10.0
YOX1=tf_act(SWI5)	553.406691721357	0.0	0.0004634789222733874	0.0	23.718984189756707	9.19709351903924
YOX1=tf_act(SWI5)	553.4362447158702	0.009216270587646137	0.000641012214218426	0.0	24.11161365973645	9.161787968514474
YOX1=tf_act(SWI5)	553.406691721357	0.0	0.00046347892605673127	0.0	23.789846004073603	9.129762905754834
YOX1=tf_act(SWI5)	553.4066917213569	0.0	0.00046347892115154406	0.0	24.050928161812955	9.140594134244225
YOX1=tf_act(SWI5)	553.4066917213565	0.0	0.0004634789378134075	0.0	23.788492376386674	9.150261536164646
YOX1=tf_act(SWI5)	553.4066917213569	0.0	0.0004634789255363814	0.0	24.21238949394957	9.154344837944356
YOX1=tf_act(SWI5)	553.406691721357	0.0	0.0004634789212385218	0.0	24.64109471387506	9.197633901522451
YOX1=tf_act(SWI5)	553.4066917213569	0.0	0.0004634789240442014	0.0	24.75857694461276	9.181450128973816
YOX1=tf_act(SWI5)	553.4066917213569	0.0	0.0004634789262814064	0.0	24.795024101079484	9.167587049757842
YOX1=tf_act(SWI5)	553.4066917213569	0.0	0.0004634789242933818	0.0	25.022654885899637	8.8441218011785
YOX1=tf_rep(NRM1)	181.95229849527814	0.0	0.04223187584007132	7.032528629570385	29.523035878555184	4.058667075767728
YOX1=tf_rep(NRM1)	181.92113533309472	0.0	0.042394344083010085	6.963162775160252	29.94844262766355	4.1869877578239905
YOX1=tf_rep(NRM1)	181.96240807161863	0.0	0.042217760206909885	7.0387787394549335	29.48648305696413	4.048558092603151
YOX1=tf_rep(NRM1)	181.91334957339427	0.0	0.04233543002632991	6.984396489853701	29.813443957521837	4.146728846997441
YOX1=tf_rep(NRM1)	181.91619920412316	0.0	0.04234370424032292	7.000175499475538	29.742456566119994	4.121351489819976
YOX1=tf_rep(NRM1)	181.91352833783796	0.0	0.04233031172988541	6.979333810996269	29.835202031799728	4.155023574689057
YOX1=tf_rep(NRM1)	181.91334276418615	0.0	0.042337212147908386	6.983794193556338	29.817330485436884	4.147871049316811
YOX1=tf_rep(NRM1)	181.9133427764755	0.0	0.04233696413393286	6.983773882776532	29.817247199189683	4.147850847629409
YOX1=tf_rep(NRM1)	181.9292859350543	0.0	0.04239665332497664	6.952185024857365	30.002893257386432	4.206099612945755
YOX1=tf_rep(NRM1)	181.9133427646233	0.0	0.042337174873117916	6.983789471670161	29.817326042797045	4.1478683848896685
YOX1=tf_rep(CLN3)	553.406693786306	0.0	0.00046369440662004884	10.069127070078538	7.001913986114834	10.0
YOX1=tf_rep(CLN3)	553.4362476975208	0.009216124355889536	0.0006410097249781796	9.691337062873325	7.3945434561236905	9.964694449606831
YOX1=tf_rep(CLN3)	553.6067731691184	0.04460219860801137	0.0012656036588997517	10.007507313495836	6.943633333134385	10.0
YOX1=tf_rep(CLN3)	553.4066963762449	-3.469446951953614e-18	0.00046347919897821497	9.326212480201416	7.6556254692111105	9.975525533717486
YOX1=tf_rep(CLN3)	553.4066940891886	0.0	0.00046347906572436257	9.595622760426984	7.132107670697409	9.974361794735216
YOX1=tf_rep(CLN3)	553.4066959190608	0.0	0.00046347920337074823	9.695901914709854	7.553283710748058	9.979921905454233
YOX1=tf_rep(CLN3)	553.5170501903287	0.029473033740741273	0.0010153783642354813	9.355912522624878	7.981985827551483	9.999999999223276
YOX1=tf_rep(CLN3)	553.6104439809548	0.04505923560062372	0.001272208853022483	8.990772307218762	8.099465091183696	9.983817098863343
YOX1=tf_rep(CLN3)	553.6514307194877	0.04925943924354778	0.0013256047662355411	8.539363833261163	8.135911275302426	9.969953032230514
YOX1=tf_rep(CLN3)	553.6255752727442	0.046807662334007884	0.0012963627082074685	8.951356157416392	7.704925058712793	9.982770096275816
YOX1=tf_rep(WHI5)	281.1731288833742	0.0	0.024569958451577882	7.850920144903261	65.46172494442831	10.0
YOX1=tf_rep(WHI5)	281.0947919636321	0.0	0.02530108685322015	7.748852519517338	65.97080773580511	10.0
YOX1=tf_rep(WHI5)	281.08552816274687	0.0	0.02511255196750591	7.771563982922037	65.84540202161637	10.0
YOX1=tf_rep(WHI5)	281.0855282263209	0.0	0.025112057960276598	7.771615655576708	65.84509252045342	10.0
YOX1=tf_rep(WHI5)	281.0857956531346	0.0	0.02509564748832811	7.778054583978941	65.82734112663702	10.0
YOX1=tf_rep(WHI5)	281.0903135859519	0.0	0.02509650888732446	7.80413385051998	65.78800841684472	10.0
YOX1=tf_rep(WHI5)	281.2166968383228	0.0	0.02581989915351077	7.686268439144132	66.31448057962128	10.0
YOX1=tf_rep(WHI5)	281.0855281644923	0.0	0.025112495824387942	7.771555387878952	65.84538462559603	10.0
YOX1=tf_rep(WHI5)	281.08552816382604	0.0	0.0251125064088944	7.771561738301136	65.84538588721661	10.0
YOX1=tf_rep(WHI5)	281.0855281650584	0.0	0.025112625058405773	7.7715858135855616	65.84541426790408	10.0
YOX1=tf_act(YOX1)	553.4066917213569	0.0	0.0004634789252786424	0.0	20.311228523640896	9.362964270879809
YOX1=tf_act(YOX1)	553.4066917213601	0.0	0.00046347877825277003	0.0	20.703857934711852	9.327658708556505
YOX1=tf_act(YOX1)	553.406691721357	0.0	0.0004634789181850146	0.0	20.259243582529336	9.358638457709924
YOX1=tf_act(YOX1)	553.406691721357	0.0	0.00046347892553389044	0.0	20.52032574026869	9.369469686199315
YOX1=tf_act(YOX1)	553.4066917213565	0.0	0.0004634789378134075	0.0	20.25788995484241	9.379137088119736
YOX1=tf_act(YOX1)	553.4066917213569	0.0	0.00046347892673592863	0.0	20.677726410779545	9.383880088356035
YOX1=tf_act(YOX1)	553.4066917213569	0.0	0.0004634789226443767	0.0	21.106479453857013	9.427183690336246
YOX1=tf_act(YOX1)	553.4066917213569	0.0	0.00046347892202755015	0.0	21.22399240399354	9.411010656063821
YOX1=tf_act(YOX1)	553.4066919202621	0.0	0.0004631802814732271	0.0	21.26043920504313	9.397147458828655
YOX1=tf_act(YOX1)	553.4066917213569	0.0	0.00046347892159694955	0.0	20.955321551830128	9.266543369379658
YOX1=tf_rep(YOX1)	416.38355964034866	0.0	0.004514709097116754	32.07690796458413	7.643526744971643	9.277126034792273
YOX1=tf_rep(YOX1)	416.384168913572	0.0	0.004516272780490774	31.566973005473486	7.664475473260133	9.220216697539891
YOX1=tf_rep(YOX1)	416.38400673817154	0.0	0.004515915937870166	31.89883183482182	7.64974127688566	9.225629725588552
YOX1=tf_rep(YOX1)	416.3840396635981	0.0	0.004515834202335681	31.476965518351296	7.669191105026792	9.241617727399273
YOX1=tf_rep(YOX1)	416.38406413363816	0.0	0.004515852846048773	31.391744414925007	7.673075627902172	9.242596675869349
YOX1=tf_rep(YOX1)	416.38451799764533	0.0	0.00451711259641162	31.138007500267307	7.683513220680082	9.196212840636498
YOX1=tf_rep(YOX1)	416.38461185790146	0.0	0.004517162919190287	30.76749720846113	7.701174638305361	9.203318594623038
YOX1=tf_rep(YOX1)	416.38858348960093	0.0010099098679236924	0.004526507367322454	30.396970127542726	7.714762887107144	9.189871691017903
YOX1=tf_rep(YOX1)	416.3851830119837	0.0	0.004518387515919602	29.945039706480426	7.740874867063156	9.176325068847493
YOX1=tf_rep(YOX1)	416.38514622270515	0.0	0.00451853498777474	30.3749121828492	7.71900822588784	9.156889196963425
YOX1=tf_act(ASH1)	553.406691721357	0.0	0.000463478921661918	0.0	20.567964006458766	9.938764979386537
YOX1=tf_act(ASH1)	553.4362396223232	0.009214775886552833	0.0006409838133319973	0.0	20.960593476438508	9.90345942886177
YOX1=tf_act(ASH1)	553.406691721357	0.0	0.0004634789249333708	0.0	20.7930630905679	9.834315370236618
YOX1=tf_act(ASH1)	553.406691721357	0.0	0.00046347892003599934	0.0	21.054145248307254	9.845146598726009
YOX1=tf_act(ASH1)	553.4066917213565	0.0	0.0004634789378134075	0.0	20.791709462880974	9.85481400064643
YOX1=tf_act(ASH1)	553.4066917213569	0.0	0.0004634789249614176	0.0	21.219849368283928	9.85906640497579
YOX1=tf_act(ASH1)	553.406691723932	0.0	0.0004635188257112863	0.0	21.64855156238122	9.902356761283158
YOX1=tf_act(ASH1)	553.406691721357	0.0	0.00046347892003238336	0.0	21.76603096929195	9.88617415319455
YOX1=tf_act(ASH1)	553.4066917213569	0.0	0.0004634789240586675	0.0	21.802478175400452	9.8723110504786
YOX1=tf_act(ASH1)	553.4066917213569	0.0	0.000463478924183725	0.0	21.971511787364697	9.715959299664059
YOX1=tf_rep(ASH1)	553.6512037480157	0.04924154712608974	0.0013254211685634475	0.23071894593787767	0.001	8.773275172828168
YOX1=tf_rep(ASH1)	553.5576520286568	0.037248640961789176	0.0011494861609370702	0.0	0.3936294699797407	8.737969622303401
YOX1=tf_rep(ASH1)	553.6618961107692	0.05005150855409891	0.0013329296437872785	0.31617025062251036	0.001	8.77855855977438
YOX1=tf_rep(ASH1)	553.4737942551698	0.019464843070646602	0.0008337445649106852	0.0	0.6547116277190946	8.748800850792792
YOX1=tf_rep(ASH1)	553.4066917213178	0.0	0.0004634812992697199	0.0	0.3922758422928133	8.758468252713213
YOX1=tf_rep(ASH1)	553.4066917226971	0.0	0.0004634789304547754	0.10027915428287004	0.8134518795792255	8.764028357903744
YOX1=tf_rep(ASH1)	553.5170457336611	0.029473503363156437	0.0010153860644050274	0.0	1.2421539965655857	8.807318362688092
YOX1=tf_rep(ASH1)	553.6104352649967	0.0450590957506689	0.001272206173652368	5.239005590595268e-10	1.3596332593406857	8.791135460190148
YOX1=tf_rep(ASH1)	553.6514195479962	0.04925912017154509	0.0013256002522153676	0.0	1.3960804266564173	8.777272377777864
YOX1=tf_rep(ASH1)	553.6255647211767	0.046806993039694926	0.0012963531387933263	0.4119923241552279	0.9650942136636952	8.790089442072736
