# LEMpy target file for NRM1, replicate 1 
# Run configuration file:  ../pipeline/src/yeast_data/simulations202110_Orlando_2/annot/results2/edge_finding_20211012132914/lempy_20211012132914_config.txt 
# Time series data file:   ../pipeline/src/yeast_data/time_series/orlando2008_WildType_r2_trunc.tsv 
# Computed on:  2021-10-12 13:32:11 
 
model	loss	pld	inv_temp	prior	rhs_param_0	rhs_param_1	rhs_param_2	rhs_param_3	rhs_param_4	hess_eigs	hess_det	bnd_params	pld_time	opt_time
tf_act(SWI4)	124.0522701705696	0.996769	1.0	0.00799546111433753	0.0	0.052954383303997536	10.066982649596596	65.01303167289544	2.888754938642119	[1, 1.3080357235402817, 25.806010831523174, 88.32958650301546, 4651933.436295636]	13870118437.703457	1.0	0.0001286079999989198	0.3756429309999998
tf_act(HCM1)	561.0127327632423	0.00322818	1.0	0.991994789339632	0.1703597658282518	0.02528741555754199	1.2281929465349413	6.902576673406639	10.0	[1, 1, 1, 55.20954325903993, 4653311.185931271]	256907185.21744692	1.0	5.779199999977891e-05	0.3517341369999998
tf_rep(CLN3)	332.42146884873927	0.00000284145	1.0	9.37432698674857e-6	0.0	0.08422777585292296	30.78097238943843	36.561396936420586	2.534716691309827	[1, 1.0871346941997468, 1.4182618876177624, 224.63630240881048, 4662412.612356386]	1614843482.3619072	1.0	5.032699999851786e-05	0.3638863440000004
tf_rep(NRM1)	408.1061016540775	0.00000000211769	1.0	1.64724221360608e-7	0.0	0.007181098361114168	4.031018489571132	21.91051749696218	10.0	[1, 2.24961537305936, 10.308316270204251, 40.526905106994704, 4651456.752547732]	4371479365.874728	2.0	5.191999999887287e-05	0.4156670979999997
tf_rep(WHI5)	476.17568643106057	0.000000000646079	1.0	5.90812446282107e-8	0.0	0.0031752989487643917	27.420372152635988	38.615151014099595	7.151843245126166	[1, 1, 5.893968728486263, 34.53655021349268, 4651447.987951486]	946836411.8945822	1.0	4.995100000115826e-05	0.2309566270000003
tf_act(NDD1)	561.0127005781749	0.000000000249769	1.0	7.67520695714135e-8	0.17039762936166852	0.02528740392953136	1.2281544547019825	4.540613241351808	10.0	[1, 1, 1, 55.20956117915705, 4653311.186093938]	256907268.6143091	1.0	5.358599999993885e-05	0.3206388280000003
tf_rep(ASH1)	577.6837607162773	0.000000000137754	1.0	4.24482138582883e-8	0.3	0.0031068338057697103	0.4119923241552279	0.5738183713708819	9.308995808538624	[1, 1, 1, 27.616029984457615, 4651415.7027068315]	128453635.51612885	1.0	5.5833999999421735e-05	0.2498940759999999
tf_act(YOX1)	564.6499062122699	0.000000000007691	1.0	8.90971219892486e-9	0.3	0.023036019534157116	1.0886169391889637	18.910861288829214	10.0	[1, 1.1572856098966349, 3.103876371797548, 46.85086857390569, 4652974.837027474]	783056895.9250526	2.0	4.939799999981176e-05	0.38067068199999987
tf_rep(YOX1)	502.6915585697047	0.00000000000377581	1.0	7.16167511980207e-9	0.1406687859501798	0.002402163861630314	100.0	6.361453629277323	10.0	[1, 1, 19.611499718561692, 336.6826747504989, 4651475.920059476]	30713007924.163994	2.0	4.913600000122642e-05	0.29879720799999987
tf_rep(SWI4)	573.7674878909053	0.00000000000293769	1.0	1.06120534050501e-8	0.3	0.005132664994471765	100.0	14.072971149500958	10.0	[1, 1, 9.94272606259351, 28.086297362905505, 4651430.530419523]	1298932259.5402875	3.0	7.078199999988044e-05	0.3979716459999998
tf_act(SWI5)	577.6837607163343	0.000000000000586839	1.0	2.78708715030295e-9	0.3	0.003106837439651955	0.0	20.50640123753493	9.173524325613313	[1, 1, 22.57269699231256, 72.63696072037844, 4652622.0408847155]	7628495417.217613	2.0	5.254799999931947e-05	0.3397350339999998
tf_act(ASH1)	577.6837607163342	0.000000000000464323	1.0	2.74276622708441e-9	0.3	0.0031068374467308666	0.0	21.44657735795405	9.858106556367371	[1, 1, 20.35934373913482, 124.59217899273449, 4652200.394933266]	11800841301.63431	2.0	7.167599999924334e-05	0.2874684580000002
null_model	577.6837607163304				0.3	0.003106839230395449								
