# LEMpy target file for B, replicate 0 
# Run configuration file:  ../pipeline/src/syn_net/syn_net_6D_simulations_202110_with_G/p270/results4/edge_finding_20211014220003/lempy_20211014220003_config.txt 
# Time series data file:   ../pipeline/src/syn_net/time_series_with_G/syn_net_6D_20191104_a_data_p270_transposed_with_G.tsv 
# Computed on:  2021-10-14 22:02:02 
 
model	loss	pld	inv_temp	prior	rhs_param_0	rhs_param_1	rhs_param_2	rhs_param_3	rhs_param_4	hess_eigs	hess_det	bnd_params	pld_time	opt_time
tf_act(C)	0.45542211992237974	1.0	1.0	0.07142857142857142	0.06520609105649523	0.15237875546097698	42.32190902544102	96.6979298096336	6.033008015606377	[1, 1.1125043203519636, 10.244691101986188, 314.362109044539, 1002832.6424021338]	3593016651.98858	0.0	4.585299999959602e-05	0.47179616400000013
tf_rep(D)	192.69779841369302	0.0000000718476	1.0	0.07142857142857142	0.0	0.07700247726768039	65.5537731922424	13.03308711422382	10.0	[1, 1, 262.70675036960586, 557.1604518387526, 1004285.6293488276]	146997098497.9825	2.0	4.508000000003065e-05	0.5305379700000001
tf_act(E)	590.6438507816667	0.0000000000063577	1.0	0.07142857142857142	0.0	0.0506257778226684	3.5913917629129504	30.138355947550775	10.0	[1, 1.3827517095851478, 34.70318341967639, 346.0112945076422, 1002863.1577882036]	16651197497.154608	2.0	4.566099999969708e-05	0.6745465189999997
tf_act(A)	652.2411774836171	0.00000000000294751	1.0	0.07142857142857142	0.0	0.03931436882399382	12.927604403139346	100.0	10.0	[1, 1, 5.14011815792467, 317.30617286570504, 1002721.7732427747]	1635430409.032483	3.0	0.0002407259999999134	0.6012968500000002
tf_act(B)	755.6009144148794	0.00000000000141365	1.0	0.07142857142857142	0.3	0.15748930530398456	24.282593301837874	71.29594433415132	10.0	[1, 1, 1.8321341634231485, 313.8531394335991, 1002755.6149478318]	576605595.6795529	2.0	6.035799999981606e-05	0.6530297100000002
tf_act(F)	828.6913143806115	0.000000000000137753	1.0	0.07142857142857142	0.0	0.02758716421986946	8.087478928091384	100.0	10.0	[1, 1, 3.5387798983806147, 318.5233917542, 1002717.7496501942]	1130247580.3035436	3.0	4.490800000001016e-05	0.6187598360000002
tf_rep(G)	761.7987132931158	0.0000000000000984004	1.0	0.07142857142857142	0.0	0.044663503596647426	21.62261265325428	1.3297040852428725	10.0	[1, 1.05609709131554, 58.23363975678798, 1539.3701877194794, 1003752.6141837438]	95027114673.987	2.0	4.3872000000000355e-05	0.6407178280000001
tf_act(G)	1020.4627029908265	0.0000000000000441713	1.0	0.07142857142857142	0.0	0.011433143989668132	1.2832005850953885	99.96209372967334	9.79408146640308	[1, 1, 1, 317.17958542364306, 1002725.4708402907]	318044049.1348507	1.0	4.546400000027262e-05	0.6183094759999999
tf_rep(A)	1023.6923789512889	0.0000000000000422461	1.0	0.07142857142857142	0.056870151869724016	0.00824868267444098	0.0	0.6587759374441745	4.153709962857439	[1, 1, 1, 313.43531627974727, 1002707.8195288159]	314284042.55019015	1.0	9.088099999976507e-05	0.5866539930000001
tf_rep(E)	1023.6923789513152	0.0000000000000422461	1.0	0.07142857142857142	0.05686992073972654	0.008248673986146798	0.1168269328301702	0.001	4.4584720751978635	[1, 1, 1, 313.43531627887523, 1002707.8195288144]	314284042.5493153	1.0	4.5822000000139695e-05	0.7102197929999998
tf_rep(F)	1023.6923789513258	0.0000000000000422461	1.0	0.07142857142857142	0.05686985594642544	0.008248671400773148	0.0	0.6387597918751715	4.012095605079841	[1, 1, 1, 313.435316298257, 1002707.8195288748]	314284042.5687685	1.0	4.475399999970264e-05	0.6151864890000001
tf_rep(C)	1023.6923789512844	0.0000000000000422459	1.0	0.07142857142857142	0.05687019522510934	0.00824868459295809	0.0	0.9366788554287573	3.140305418352033	[1, 1, 1, 313.4368683955611, 1002707.8212374323]	314285599.40439683	1.0	4.684800000021028e-05	0.4819083609999999
tf_act(D)	1023.6923789512796	0.00000000000000302212	1.0	0.07142857142857142	0.0568703369359365	0.008248689790689713	0.0	99.05325518464086	1.0	[1, 1, 41.06844006172821, 372.77162791073147, 1002907.6362704094]	15353662695.215134	2.0	4.552200000018658e-05	0.41323006000000007
tf_rep(B)	856.7253361202413	0.000000000000000279246	1.0	0.07142857142857142	0.0	0.024986458127408333	100.0	0.1973911597894136	10.0	[1, 1, 133.6218256783656, 344086.3621822822, 2277409.370858062]	104709470708861.7	3.0	5.0605999999842055e-05	0.7139932560000002
null_model	1023.6923789512801				0.05687031238178519	0.008248688884414166								
