# LEMpy target file for D, replicate 0 
# Run configuration file:  ../pipeline/src/syn_net/syn_net_6D_simulations_202110_with_G/p270/results4/edge_finding_20211014220003/lempy_20211014220003_config.txt 
# Time series data file:   ../pipeline/src/syn_net/time_series_with_G/syn_net_6D_20191104_a_data_p270_transposed_with_G.tsv 
# Computed on:  2021-10-14 22:02:03 
 
model	loss	pld	inv_temp	prior	rhs_param_0	rhs_param_1	rhs_param_2	rhs_param_3	rhs_param_4	hess_eigs	hess_det	bnd_params	pld_time	opt_time
tf_rep(A)	0.48551432531169203	0.937335	1.0	0.07142857142857142	0.3	0.1529522813280688	15.107755415419913	49.53528696604228	4.323157314725993	[1, 1, 20.06706925068631, 65.35051653697354, 8382926.008800355]	10993313345.328712	1.0	7.013200000027808e-05	0.8066291560000001
tf_rep(E)	6.013862754408798	0.0615584	1.0	0.07142857142857142	0.3	0.21556945149173876	21.81277368991857	28.660842596247505	2.231868803795986	[1, 1, 26.997728222816004, 336.33614078135525, 8383192.18447444]	76121998246.427	1.0	7.357299999988243e-05	0.7706496679999999
tf_rep(F)	44.10376634598635	0.00110628	1.0	0.07142857142857142	0.0	0.06732507641053752	7.918640650054384	32.2970531370159	10.0	[1, 1, 31.644150611105925, 51.08736877418353, 8382714.192421778]	13551633171.37242	2.0	4.5398000000140826e-05	0.6770164519999997
tf_act(B)	357.38272376751706	0.00000000030493	1.0	0.07142857142857142	0.0	0.036579362989526694	4.655278471031098	2.212355374309057	10.0	[1, 25.702194885701523, 84.84685508945327, 217.46188799678185, 8382833.441378293]	3975391943784.6665	2.0	5.334400000034378e-05	0.4820807819999997
tf_act(D)	771.6508733856447	0.000000000000254441	1.0	0.07142857142857142	0.3	0.7378399425186548	100.0	60.94102562110377	1.84792852308673	[1, 1, 1, 13330.517738136496, 8392110.047122734]	111871171843.56311	2.0	4.6421000000407275e-05	0.7055320059999999
tf_act(C)	899.0595823346748	0.000000000000200395	1.0	0.07142857142857142	0.0	0.006449938941558843	10.918250138704858	100.0	10.0	[1, 1, 1.2159998369331144, 53.69204207045845, 8382100.814141579]	547263291.826288	3.0	5.119899999961319e-05	0.6007884880000001
tf_rep(B)	1043.8702497572276	0.0000000000000447179	1.0	0.07142857142857142	0.10685423017019505	0.0008805740505501075	0.0	0.001	5.0096050073579	[1, 1, 1, 50.18117617467817, 8382094.392368833]	420623355.41624236	2.0	5.51470000003107e-05	0.5850818499999999
tf_act(E)	1043.8702497588527	0.0000000000000307378	1.0	0.07142857142857142	0.1068502812261906	0.0008805130544372852	0.0	100.0	9.980618152494216	[1, 1, 2.075904293536405, 51.16250372782323, 8382096.31567263]	890249550.9545041	2.0	5.470199999990655e-05	0.5700059609999997
tf_rep(G)	973.3880057040849	0.0000000000000301698	1.0	0.07142857142857142	0.0	0.0026977957546816715	8.481617597334218	0.2840382850936514	9.984517394651968	[1, 1, 18.086370316226294, 224.40593658673254, 8382222.304894395]	34020832376.98069	1.0	4.521300000082107e-05	0.7213022070000004
tf_act(G)	1040.3003985856094	0.0000000000000234655	1.0	0.07142857142857142	0.0	0.002859270687411897	2.2750797913213456	100.0	10.0	[1, 1, 1, 50.8876190932773, 8382115.024524066]	426545876.56401736	3.0	4.523499999997682e-05	0.57487675
tf_act(A)	1043.8702497568363	0.0000000000000227232	1.0	0.07142857142857142	0.10686051632199314	0.0008806611455230496	0.0	100.0	9.976629227076977	[1, 1, 3.636952207402945, 53.4350795331097, 8382101.323088839]	1628984532.1347773	2.0	0.00023052000000056694	0.5846170659999999
tf_rep(D)	1042.7408976393328	0.0000000000000223564	1.0	0.07142857142857142	0.0	0.0	6.638088676024048	11.289240461339633	10.0	[1, 1, 1, 51.97868502490969, 8382096.9752130015]	435690378.52284485	3.0	4.5742000000181804e-05	0.4996492670000001
tf_act(F)	1043.870249758731	0.0000000000000185034	1.0	0.07142857142857142	0.10685713149224939	0.0008805982145632393	0.0	100.0	9.989421243348477	[1, 1, 5.582030790512407, 52.505742296597134, 8382103.365239045]	2456699528.615089	2.0	5.3152000000444843e-05	0.340778657
tf_rep(C)	1043.8702497582326	0.00000000000000406869	1.0	0.07142857142857142	0.1068511417578395	0.000880529686162671	0.0	0.001	1.0	[1, 1, 30.199210791342576, 50.18117617920365, 8382094.392383662]	12702493375.14493	3.0	4.726099999974309e-05	0.5050521249999997
null_model	1043.8702497578545				0.10685214162629485	0.0008805440533266648								
